 0x000000000000000e (SONAME)             Library soname: [libaudiopolicymanagerdefault.so]
  
Symbol   contains 734 entries:
Num:   Type Bind Vis Ndx Name
0:   NOTYPE LOCAL DEFAULT UND
1:   FUNC GLOBAL DEFAULT UND __cxa_finalize@LIBC (2)
2:   FUNC GLOBAL DEFAULT UND __cxa_atexit@LIBC (2)
3:   FUNC GLOBAL DEFAULT UND __cfi_slowpath@LIBC_OMR1 (3)
4:   FUNC GLOBAL DEFAULT UND _ZN7android14AudioParamet
5:   FUNC GLOBAL DEFAULT UND _ZN7android7String8D1Ev
6:   FUNC GLOBAL DEFAULT UND _ZN7android7String8C1EPKc
7:   FUNC GLOBAL DEFAULT UND _ZN7android14AudioParamet
8:   FUNC GLOBAL DEFAULT UND _ZN7android14AudioParamet
9:   FUNC GLOBAL DEFAULT UND __android_log_print@LIBLOG (4)
10:   FUNC GLOBAL DEFAULT UND __android_log_assert@LIBLOG (4)
11:   FUNC GLOBAL DEFAULT UND strncmp@LIBC (2)
12:   FUNC GLOBAL DEFAULT UND _ZN7android7String8C1Ev
13:   FUNC GLOBAL DEFAULT UND _ZNK7android14AudioParame
14:   FUNC GLOBAL DEFAULT UND _ZN7android14AudioParamet
15:   FUNC GLOBAL DEFAULT UND _Znwm
16:   FUNC GLOBAL DEFAULT UND systemTime
17:   FUNC GLOBAL DEFAULT UND property_get_bool
18:   FUNC GLOBAL DEFAULT UND usleep@LIBC (2)
19:   FUNC GLOBAL DEFAULT UND _ZN7android7String8C1ERKS
20:   FUNC GLOBAL DEFAULT UND _ZN7android12SoundTrigger
21:   FUNC GLOBAL DEFAULT UND _ZN7android7String86appen
22:   FUNC GLOBAL DEFAULT UND _ZN7android7String812appe
23:   FUNC GLOBAL DEFAULT UND property_get_int32
24:   FUNC GLOBAL DEFAULT UND _ZN7android12audio_policy
25:   FUNC GLOBAL DEFAULT UND _ZNK7android12audio_polic
26:   FUNC GLOBAL DEFAULT UND property_set
27:   FUNC GLOBAL DEFAULT UND _ZdlPv
28:   FUNC GLOBAL DEFAULT UND free@LIBC (2)
29:   FUNC GLOBAL DEFAULT UND _ZNSt3__19to_stringEi
30:   FUNC GLOBAL DEFAULT UND _ZNK7android14AudioParame
31:   FUNC GLOBAL DEFAULT UND _ZN7android17formatsFromS
32:   FUNC GLOBAL DEFAULT UND _ZN7android23samplingRate
33:   FUNC GLOBAL DEFAULT UND _ZN7android22channelMasks
34:   FUNC GLOBAL DEFAULT UND _ZNK7android14AudioParame
35:   FUNC GLOBAL DEFAULT UND _ZN7android16SortedVector
36:   FUNC GLOBAL DEFAULT UND _ZN7android10VectorImpl13
37:   FUNC GLOBAL DEFAULT UND _ZN7android16SortedVector
38:   FUNC GLOBAL DEFAULT UND _ZN7android7RefBase10rena
39:   FUNC GLOBAL DEFAULT UND __cxa_pure_virtual
40:   FUNC GLOBAL DEFAULT UND _ZN7android7RefBase11rena
41:   FUNC GLOBAL DEFAULT UND strcmp@LIBC (2)
42:   FUNC GLOBAL DEFAULT UND strlen@LIBC (2)
43:   FUNC GLOBAL DEFAULT UND _ZN7android16SortedVector
44:   FUNC GLOBAL DEFAULT UND _ZN7android7String85setTo
45:   FUNC GLOBAL DEFAULT UND _ZNSt3__113basic_ostreamI
46:   FUNC GLOBAL DEFAULT UND _ZNSt3__113basic_ostreamI
47:   FUNC GLOBAL DEFAULT UND _ZNSt3__113basic_ostreamI
48:   FUNC GLOBAL DEFAULT UND _ZTv0_n24_NSt3__113basic_
49:   FUNC GLOBAL DEFAULT UND _ZTv0_n24_NSt3__113basic_
50:   FUNC GLOBAL DEFAULT UND _ZNSt3__18ios_base4initEP
51:   FUNC GLOBAL DEFAULT UND _ZNSt3__115basic_streambu
52:   FUNC GLOBAL DEFAULT UND _ZNSt3__115basic_streambu
53:   FUNC GLOBAL DEFAULT UND _ZNSt3__115basic_streambu
54:   FUNC GLOBAL DEFAULT UND _ZNSt3__115basic_streambu
55:   FUNC GLOBAL DEFAULT UND _ZNSt3__115basic_streambu
56:   FUNC GLOBAL DEFAULT UND _ZNSt3__115basic_streambu
57:   FUNC GLOBAL DEFAULT UND _ZNSt3__115basic_streambu
58:   FUNC GLOBAL DEFAULT UND _ZNSt3__115basic_streambu
59:   FUNC GLOBAL DEFAULT UND _ZNSt3__115basic_streambu
60:   FUNC GLOBAL DEFAULT UND _ZNSt3__112basic_stringIc
61:   FUNC GLOBAL DEFAULT UND _ZNSt3__112basic_stringIc
62:   FUNC GLOBAL DEFAULT UND _ZNSt3__113basic_ostreamI
63:   FUNC GLOBAL DEFAULT UND _ZNSt3__113basic_ostreamI
64:   FUNC GLOBAL DEFAULT UND _ZNKSt3__121__basic_strin
65:   FUNC GLOBAL DEFAULT UND abort@LIBC (2)
66:   FUNC GLOBAL DEFAULT UND _ZNKSt3__18ios_base6getlo
67:   FUNC GLOBAL DEFAULT UND _ZNSt3__16localeD1Ev
68:   FUNC GLOBAL DEFAULT UND _ZNKSt3__16locale9use_fac
69:   FUNC GLOBAL DEFAULT UND _ZNSt3__18ios_base5clearE
70:   FUNC GLOBAL DEFAULT UND _ZNSt3__112basic_stringIc
71:   FUNC GLOBAL DEFAULT UND _ZNSt3__112basic_stringIc
72:   FUNC GLOBAL DEFAULT UND __vsnprintf_chk@LIBC (2)
73:   FUNC GLOBAL DEFAULT UND _ZNSt3__19basic_iosIcNS_1
74:   FUNC GLOBAL DEFAULT UND _ZNSt3__113basic_ostreamI
75:   FUNC GLOBAL DEFAULT UND _ZN7android7RefBaseC2Ev
76:   FUNC GLOBAL DEFAULT UND _ZNK7android7String86leng
77:   FUNC GLOBAL DEFAULT UND _ZN7android10VectorImplC2
78:   FUNC GLOBAL DEFAULT UND _ZN7android10VectorImplD2
79:   FUNC GLOBAL DEFAULT UND _ZNK7android7RefBase9incS
80:   FUNC GLOBAL DEFAULT UND _ZNSt3__114basic_iostream
81:   FUNC GLOBAL DEFAULT UND _ZNSt3__114basic_iostream
82:   FUNC GLOBAL DEFAULT UND _ZThn16_NSt3__114basic_io
83:   FUNC GLOBAL DEFAULT UND _ZThn16_NSt3__114basic_io
84:   FUNC GLOBAL DEFAULT UND _ZTv0_n24_NSt3__114basic_
85:   FUNC GLOBAL DEFAULT UND _ZTv0_n24_NSt3__114basic_
86:   FUNC GLOBAL DEFAULT UND _ZNSt3__113basic_istreamI
87:   FUNC GLOBAL DEFAULT UND _ZNSt3__113basic_istreamI
88:   FUNC GLOBAL DEFAULT UND _ZTv0_n24_NSt3__113basic_
89:   FUNC GLOBAL DEFAULT UND _ZTv0_n24_NSt3__113basic_
90:   FUNC GLOBAL DEFAULT UND _ZNSt3__114basic_iostream
91:   FUNC GLOBAL DEFAULT UND _ZN7android10VectorImplC2
92:   FUNC GLOBAL DEFAULT UND write@LIBC (2)
93:   FUNC GLOBAL DEFAULT UND _ZN7android7RefBase12weak
94:   FUNC GLOBAL DEFAULT UND _ZNKSt3__120__vector_base
95:   FUNC GLOBAL DEFAULT UND _ZNSt3__112basic_stringIc
96:   FUNC GLOBAL DEFAULT UND _ZNK7android7RefBase9decS
97:   FUNC GLOBAL DEFAULT UND _ZN7android14sp_report_ra
98:   FUNC GLOBAL DEFAULT UND _ZN7android10VectorImpl3a
99:   FUNC GLOBAL DEFAULT UND _ZN7android7RefBase10onFi
100:   FUNC GLOBAL DEFAULT UND _ZN7android7RefBase15onLa
101:   FUNC GLOBAL DEFAULT UND _ZN7android7RefBase20onIn
102:   FUNC GLOBAL DEFAULT UND _ZN7android7RefBase13onLa
103:   FUNC GLOBAL DEFAULT UND _ZN7android7RefBaseD2Ev
104:   FUNC GLOBAL DEFAULT UND _ZNSt3__112__next_primeEm
105:   FUNC GLOBAL DEFAULT UND strdup@LIBC (2)
106:   FUNC GLOBAL DEFAULT UND _ZN7android16SortedVector
107:   FUNC GLOBAL DEFAULT UND _ZN7android10VectorImpl5c
108:   FUNC GLOBAL DEFAULT UND _ZN7android10VectorImpl13
109:   FUNC GLOBAL DEFAULT UND _ZN7android7RefBase12weak
110:   FUNC GLOBAL DEFAULT UND _ZNK7android7RefBase10cre
111:   FUNC GLOBAL DEFAULT UND _ZN7android7RefBase12weak
112:   FUNC GLOBAL DEFAULT UND _ZN7android10VectorImpl12
113:   FUNC GLOBAL DEFAULT UND _ZNSt3__113basic_ostreamI
114:   FUNC GLOBAL DEFAULT UND _ZNK7android16SortedVecto
115:   FUNC GLOBAL DEFAULT UND _ZN7android16SortedVector
116:   FUNC GLOBAL DEFAULT UND _ZN7android16SortedVector
117:   FUNC GLOBAL DEFAULT UND _ZN7android10VectorImpl4p
118:   FUNC GLOBAL DEFAULT UND _ZN7android10VectorImpl8i
119:   FUNC GLOBAL DEFAULT UND _ZN7android10VectorImpl13
120:   FUNC GLOBAL DEFAULT UND _ZNK7android7RefBase11get
121:   FUNC GLOBAL DEFAULT UND memcmp@LIBC (2)
122:   OBJECT GLOBAL DEFAULT UND _ZN7android14AudioParamet
123:   OBJECT GLOBAL DEFAULT UND _ZN7android14AudioParamet
124:   OBJECT GLOBAL DEFAULT UND _ZN7android14AudioParamet
125:   OBJECT GLOBAL DEFAULT UND _ZN7android14AudioParamet
126:   OBJECT GLOBAL DEFAULT UND _ZN7android14AudioParamet
127:   OBJECT GLOBAL DEFAULT UND _ZN7android14AudioParamet
128:   OBJECT GLOBAL DEFAULT UND _ZN7android14AudioParamet
129:   OBJECT GLOBAL DEFAULT UND _ZN7android14AudioParamet
130:   OBJECT GLOBAL DEFAULT UND _ZN7android14AudioParamet
131:   OBJECT GLOBAL DEFAULT UND _ZTVN7android14AudioParam
132:   OBJECT GLOBAL DEFAULT UND _ZNSt3__15ctypeIcE2idE
133:   OBJECT GLOBAL DEFAULT UND _ZN7android13TypeConverte
134:   OBJECT GLOBAL DEFAULT UND _ZN7android13TypeConverte
135:   OBJECT GLOBAL DEFAULT UND _ZN7android13TypeConverte
136:   OBJECT GLOBAL DEFAULT UND _ZN7android14AudioParamet
137:   OBJECT GLOBAL DEFAULT UND _ZN7android13TypeConverte
138:   OBJECT GLOBAL DEFAULT UND _ZN7android13TypeConverte
139:   OBJECT GLOBAL DEFAULT UND _ZN7android13TypeConverte
140:   FUNC GLOBAL DEFAULT UND _ZNSt3__112basic_stringIc
141:   OBJECT GLOBAL DEFAULT UND _ZN7android13TypeConverte
142:   OBJECT GLOBAL DEFAULT UND _ZN7android13TypeConverte
143:   FUNC GLOBAL DEFAULT UND _ZNSt3__19to_stringEj
144:   FUNC GLOBAL DEFAULT UND _ZNK7android8AudioMix26is
145:   FUNC GLOBAL DEFAULT UND _ZNK7android8AudioMix10ha
146:   FUNC GLOBAL DEFAULT UND _ZNK7android8AudioMix15ha
147:   FUNC GLOBAL DEFAULT UND _ZNK7android8AudioMix13se
148:   FUNC GLOBAL DEFAULT UND __strlcpy_chk@LIBC (2)
149:   FUNC GLOBAL DEFAULT UND __cxa_guard_acquire
150:   FUNC GLOBAL DEFAULT UND __cxa_guard_release
151:   FUNC GLOBAL DEFAULT UND _ZNK7android16SortedVecto
152:   FUNC GLOBAL DEFAULT UND _ZN7android10VectorImpl4s
153:   FUNC GLOBAL DEFAULT UND strlcpy@LIBC (2)
154:   FUNC GLOBAL DEFAULT UND _ZNSt3__112basic_stringIc
155:   FUNC GLOBAL DEFAULT UND _ZN7android10VectorImplaS
156:   OBJECT GLOBAL DEFAULT UND _ZN7android13TypeConverte
157:   OBJECT GLOBAL DEFAULT UND _ZN7android13TypeConverte
158:   FUNC GLOBAL DEFAULT UND xmlParseFile
159:   FUNC GLOBAL DEFAULT UND xmlDocGetRootElement
160:   FUNC GLOBAL DEFAULT UND xmlXIncludeProcess
161:   FUNC GLOBAL DEFAULT UND xmlStrcmp
162:   FUNC GLOBAL DEFAULT UND xmlGetProp
163:   FUNC GLOBAL DEFAULT UND _ZN7android8hardware6Stat
164:   FUNC GLOBAL DEFAULT UND sscanf@LIBC (2)
165:   FUNC GLOBAL DEFAULT UND xmlNodeListGetString
166:   FUNC GLOBAL DEFAULT UND _ZNKSt3__112basic_stringI
167:   FUNC GLOBAL DEFAULT UND _ZN7android16formatFromSt
168:   FUNC GLOBAL DEFAULT UND _ZNK7android8hardware7det
169:   FUNC GLOBAL DEFAULT UND _ZN7android8hardware7deta
170:   FUNC GLOBAL DEFAULT UND strtok@LIBC (2)
171:   FUNC GLOBAL DEFAULT UND _ZNKSt3__112basic_stringI
172:   FUNC GLOBAL DEFAULT UND _ZNSt3__113basic_istreamI
173:   FUNC GLOBAL DEFAULT UND _ZNSt3__112basic_stringIc
174:   FUNC GLOBAL DEFAULT UND _ZN7android21channelMaskF
175:   FUNC GLOBAL DEFAULT UND _ZNSt3__113basic_istreamI
176:   FUNC GLOBAL DEFAULT UND _ZN7android16deviceFromSt
177:   FUNC GLOBAL DEFAULT UND strndup@LIBC (2)
178:   FUNC GLOBAL DEFAULT UND _ZdaPv
179:   FUNC GLOBAL DEFAULT UND xmlFreeDoc
180:   OBJECT GLOBAL DEFAULT UND xmlFree
181:   OBJECT GLOBAL DEFAULT UND _ZN7android13TypeConverte
182:   FUNC GLOBAL DEFAULT UND memset@LIBC (2)
183:   FUNC GLOBAL DEFAULT UND memcpy@LIBC (2)
184:   FUNC GLOBAL DEFAULT UND memmove@LIBC (2)
185:   FUNC GLOBAL DEFAULT UND __stack_chk_fail@LIBC (2)
186:   FUNC GLOBAL DEFAULT UND expf@LIBC (5)
187:   FUNC GLOBAL DEFAULT 13 _ZNK7android18AudioPolicy
188:   FUNC GLOBAL DEFAULT 13 _ZN7android18AudioPolicyM
189:   FUNC GLOBAL DEFAULT 13 _ZNK7android15AudioPortCo
190:   FUNC GLOBAL DEFAULT 13 _ZNK7android18HwModuleCol
191:   FUNC GLOBAL DEFAULT 13 _ZN7android18AudioPolicyM
192:   FUNC GLOBAL DEFAULT 13 _ZN7android18AudioPolicyM
193:   FUNC GLOBAL DEFAULT 13 _ZNK7android20AudioInputC
194:   OBJECT GLOBAL DEFAULT 18 _ZTVN7android21TrackClien
195:   FUNC GLOBAL DEFAULT 13 _ZN7android10AudioPatchC2
196:   OBJECT GLOBAL DEFAULT 18 _ZTTN7android9AudioPortE
197:   FUNC WEAK DEFAULT 13 _ZNK7android12SortedVecto
198:   FUNC WEAK DEFAULT 13 _ZNK7android6VectorI14aud
199:   FUNC GLOBAL DEFAULT 13 _ZThn168_N7android20Audio
200:   FUNC WEAK DEFAULT 13 _ZN7android13TypeConverte
201:   FUNC GLOBAL DEFAULT 13 _ZN7android20AudioInputDe
202:   FUNC GLOBAL DEFAULT 13 _ZN7android18AudioPolicyM
203:   FUNC GLOBAL DEFAULT 13 _ZN7android18AudioPolicyM
204:   FUNC GLOBAL DEFAULT 13 _ZNK7android18AudioProfil
205:   FUNC GLOBAL DEFAULT 13 _ZNK7android18HwModuleCol
206:   FUNC GLOBAL DEFAULT 13 _ZN7android18AudioPolicyM
207:   FUNC GLOBAL DEFAULT 13 _ZN7android18AudioPolicyM
208:   FUNC GLOBAL DEFAULT 13 _ZN7android12AudioProfile
209:   FUNC GLOBAL DEFAULT 13 _ZNK7android21AudioOutput
210:   FUNC GLOBAL DEFAULT 13 _ZNK7android20AudioInputD
211:   FUNC GLOBAL DEFAULT 13 _ZN7android18AudioPolicyM
212:   FUNC GLOBAL DEFAULT 13 _ZN7android20AudioPatchCo
213:   FUNC GLOBAL DEFAULT 13 _ZNK7android20AudioPatchC
214:   FUNC WEAK DEFAULT 13 _ZNSt3__127__tree_balance
215:   OBJECT WEAK DEFAULT 18 _ZTVNSt3__118basic_string
216:   OBJECT WEAK DEFAULT 18 _ZTCNSt3__118basic_string
217:   FUNC GLOBAL DEFAULT 13 _ZN7android20AudioInputDe
218:   FUNC GLOBAL DEFAULT 13 _ZN7android16DeviceDescri
219:   FUNC GLOBAL DEFAULT 13 _ZNK7android23SwAudioOutp
220:   FUNC GLOBAL DEFAULT 13 _ZN7android23SwAudioOutpu
221:   FUNC GLOBAL DEFAULT 13 _ZN7android23HwAudioOutpu
222:   FUNC WEAK DEFAULT 13 _ZNSt3__16vectorIjNS_9all
223:   FUNC GLOBAL DEFAULT 13 _ZN7android18AudioPolicyM
224:   FUNC GLOBAL DEFAULT 13 _ZN7android18AudioPolicyM
225:   FUNC GLOBAL DEFAULT 13 _ZNK7android18AudioProfil
226:   FUNC GLOBAL DEFAULT 13 _ZNK7android26EffectDescr
227:   FUNC GLOBAL DEFAULT 13 _ZN7android15AudioPortCon
228:   FUNC GLOBAL DEFAULT 13 _ZN7android18AudioPolicyM
229:   FUNC GLOBAL DEFAULT 13 _ZN7android9AudioPort15im
230:   OBJECT GLOBAL DEFAULT 18 _ZTTN7android23SwAudioOut
231:   FUNC GLOBAL DEFAULT 13 _ZN7android22SourceClient
232:   FUNC GLOBAL DEFAULT 13 _ZN7android8HwModule18set
233:   FUNC GLOBAL DEFAULT 13 _ZN7android23SwAudioOutpu
234:   FUNC WEAK DEFAULT 13 _ZNK7android12SortedVecto
235:   FUNC GLOBAL DEFAULT 13 _ZN7android18AudioPolicyM
236:   FUNC GLOBAL DEFAULT 13 _ZN7android18AudioPolicyM
237:   OBJECT WEAK DEFAULT 18 _ZTCNSt3__119basic_ostrin
238:   OBJECT WEAK DEFAULT 18 _ZTTNSt3__118basic_string
239:   FUNC GLOBAL DEFAULT 13 _ZN7android18AudioPolicyM
240:   FUNC GLOBAL DEFAULT 13 _ZNK7android20AudioInputC
241:   OBJECT GLOBAL DEFAULT 18 _ZTCN7android21AudioOutpu
242:   FUNC GLOBAL DEFAULT 13 _ZNK7android18AudioPolicy
243:   FUNC GLOBAL DEFAULT 13 _ZN7android18AudioPolicyM
244:   FUNC GLOBAL DEFAULT 13 _ZN7android18AudioPolicyM
245:   FUNC GLOBAL DEFAULT 13 _ZNK7android9AudioGain4du
246:   FUNC GLOBAL DEFAULT 13 _ZN7android21AudioOutputD
247:   FUNC WEAK DEFAULT 13 _ZN7android13TypeConverte
248:   FUNC GLOBAL DEFAULT 13 _ZN7android18AudioPolicyM
249:   FUNC GLOBAL DEFAULT 13 _ZN7android18AudioPolicyM
250:   FUNC GLOBAL DEFAULT 13 _ZNK7android26EffectDescr
251:   FUNC GLOBAL DEFAULT 13 _ZN7android18AudioPolicyM
252:   FUNC GLOBAL DEFAULT 13 _ZN7android18AudioPolicyM
253:   FUNC GLOBAL DEFAULT 13 _ZNK7android20AudioInputD
254:   FUNC GLOBAL DEFAULT 13 _ZNK7android21AudioOutput
255:   OBJECT GLOBAL DEFAULT 18 _ZTVN7android8HwModuleE
256:   FUNC GLOBAL DEFAULT 13 _ZN7android18AudioPolicyM
257:   FUNC GLOBAL DEFAULT 13 _ZN7android18AudioPolicyM
258:   FUNC GLOBAL DEFAULT 13 _ZN7android20AudioPatchCo
259:   FUNC GLOBAL DEFAULT 13 _ZN7android23SwAudioOutpu
260:   FUNC GLOBAL DEFAULT 13 _ZNK7android23SwAudioOutp
261:   FUNC GLOBAL DEFAULT 13 _ZN7android18AudioPolicyM
262:   FUNC GLOBAL DEFAULT 13 _ZN7android12AudioProfile
263:   FUNC GLOBAL DEFAULT 13 _ZN7android18AudioPolicyM
264:   FUNC GLOBAL DEFAULT 13 _ZN7android18AudioPolicyM
265:   FUNC GLOBAL DEFAULT 13 _ZN7android18AudioProfile
266:   FUNC GLOBAL DEFAULT 13 _ZNK7android8HwModule21ge
267:   FUNC GLOBAL DEFAULT 13 _ZN7android18AudioPolicyM
268:   FUNC GLOBAL DEFAULT 13 _ZN7android18AudioPolicyM
269:   FUNC GLOBAL DEFAULT 13 _ZNK7android20AudioInputD
270:   FUNC GLOBAL DEFAULT 13 _ZN7android20AudioInputDe
271:   FUNC WEAK DEFAULT 13 _ZNSt3__113__tree_removeI
272:   FUNC GLOBAL DEFAULT 13 _ZN7android23SwAudioOutpu
273:   FUNC GLOBAL DEFAULT 13 _ZN7android18AudioPolicyM
274:   FUNC GLOBAL DEFAULT 13 _ZN7android21AudioOutputD
275:   FUNC GLOBAL DEFAULT 13 _ZN7android24AudioPolicyM
276:   FUNC GLOBAL DEFAULT 13 _ZN7android18AudioPolicyM
277:   FUNC GLOBAL DEFAULT 13 _ZNK7android9IOProfile19i
278:   FUNC GLOBAL DEFAULT 13 _ZN7android24AudioPolicyM
279:   FUNC GLOBAL DEFAULT 13 _ZN7android18AudioPolicyM
280:   FUNC GLOBAL DEFAULT 13 _ZN7android9AudioPort6det
281:   FUNC GLOBAL DEFAULT 13 _ZThn168_NK7android21Audi
282:   OBJECT GLOBAL DEFAULT 18 _ZTTN7android21AudioOutpu
283:   FUNC GLOBAL DEFAULT 13 _ZNK7android21TrackClient
284:   FUNC GLOBAL DEFAULT 13 _ZNK7android16DeviceDescr
285:   FUNC GLOBAL DEFAULT 13 _ZNK7android12AudioProfil
286:   FUNC GLOBAL DEFAULT 13 _ZN7android18AudioProfile
287:   FUNC WEAK DEFAULT 13 _ZN7android13TypeConverte
288:   FUNC GLOBAL DEFAULT 13 _ZNK7android21AudioOutput
289:   FUNC GLOBAL DEFAULT 13 _ZN7android18AudioPolicyM
290:   FUNC GLOBAL DEFAULT 13 _ZN7android22SourceClient
291:   FUNC GLOBAL DEFAULT 13 _ZNK7android12DeviceVecto
292:   FUNC GLOBAL DEFAULT 13 _ZNK7android18AudioProfil
293:   OBJECT GLOBAL DEFAULT 18 _ZTCN7android16DeviceDesc
294:   FUNC GLOBAL DEFAULT 13 _ZNK7android12DeviceVecto
295:   FUNC GLOBAL DEFAULT 13 _ZN7android24AudioPolicyM
296:   FUNC GLOBAL DEFAULT 13 _ZN7android18AudioPolicyM
297:   FUNC GLOBAL DEFAULT 13 _ZN7android9AudioGainC2Ei
298:   FUNC GLOBAL DEFAULT 13 _ZN7android18AudioPolicyM
299:   FUNC GLOBAL DEFAULT 13 _ZNK7android20AudioInputC
300:   OBJECT WEAK DEFAULT 18 _ZTVN7android6VectorI14au
301:   FUNC GLOBAL DEFAULT 13 _ZNK7android20AudioInputD
302:   FUNC GLOBAL DEFAULT 13 _ZThn168_N7android21Audio
303:   FUNC GLOBAL DEFAULT 13 _ZN7android18AudioPolicyM
304:   FUNC GLOBAL DEFAULT 13 _ZN7android18AudioPolicyM
305:   FUNC WEAK DEFAULT 13 _ZNK7android12SortedVecto
306:   FUNC GLOBAL DEFAULT 13 _ZN7android16DeviceDescri
307:   FUNC GLOBAL DEFAULT 13 _ZN7android18AudioProfile
308:   FUNC WEAK DEFAULT 13 _ZNK7android12SortedVecto
309:   FUNC GLOBAL DEFAULT 13 _ZN7android18AudioProfile
310:   FUNC GLOBAL DEFAULT 13 _ZNK7android18AudioPolicy
311:   FUNC GLOBAL DEFAULT 13 _ZNK7android22SourceClien
312:   OBJECT GLOBAL DEFAULT 18 _ZTCN7android16DeviceDesc
313:   FUNC GLOBAL DEFAULT 13 _ZN7android18AudioPolicyM
314:   FUNC GLOBAL DEFAULT 13 _ZN7android18AudioPolicyM
315:   FUNC GLOBAL DEFAULT 13 _ZN7android18AudioPolicyM
316:   FUNC WEAK DEFAULT 13 _ZNSt3__115basic_stringbu
317:   FUNC GLOBAL DEFAULT 13 _ZN7android23SwAudioOutpu
318:   FUNC GLOBAL DEFAULT 13 _ZNK7android23SwAudioOutp
319:   FUNC WEAK DEFAULT 13 _ZN7android13TypeConverte
320:   FUNC GLOBAL DEFAULT 13 _ZN7android8HwModule9setH
321:   FUNC GLOBAL DEFAULT 13 _ZN7android18AudioPolicyM
322:   FUNC WEAK DEFAULT 13 _ZNK7android12SortedVecto
323:   FUNC GLOBAL DEFAULT 13 _ZNK7android23SwAudioOutp
324:   OBJECT GLOBAL DEFAULT 10 _ZN7android9AudioPort22sP
325:   FUNC GLOBAL DEFAULT 13 _ZNK7android12DeviceVecto
326:   FUNC GLOBAL DEFAULT 13 _ZN7android18AudioPolicyM
327:   FUNC GLOBAL DEFAULT 13 _ZN7android18AudioPolicyM
328:   FUNC GLOBAL DEFAULT 13 _ZNK7android18AudioProfil
329:   FUNC GLOBAL DEFAULT 13 _ZNK7android9AudioPort21g
330:   FUNC GLOBAL DEFAULT 13 _ZN7android18AudioPolicyM
331:   FUNC GLOBAL DEFAULT 13 _ZN7android29SoundTrigger
332:   FUNC GLOBAL DEFAULT 13 _ZN7android18AudioPolicyM
333:   FUNC WEAK DEFAULT 13 _ZNK7android12SortedVecto
334:   FUNC WEAK DEFAULT 13 _ZNK7android6VectorIiE15d
335:   OBJECT GLOBAL DEFAULT 18 _ZN7android13TypeConverte
336:   FUNC GLOBAL DEFAULT 13 _ZN7android18AudioPolicyM
337:   FUNC GLOBAL DEFAULT 13 _ZN7android20AudioInputCo
338:   FUNC GLOBAL DEFAULT 13 _ZNK7android20AudioInputD
339:   FUNC GLOBAL DEFAULT 13 _ZN7android18AudioPolicyM
340:   OBJECT WEAK DEFAULT 18 _ZTVNSt3__115basic_string
341:   FUNC GLOBAL DEFAULT 13 _ZN7android23SwAudioOutpu
342:   FUNC GLOBAL DEFAULT 13 _ZNK7android18AudioPolicy
343:   FUNC GLOBAL DEFAULT 13 _ZN7android20AudioInputDe
344:   FUNC GLOBAL DEFAULT 13 _ZNK7android12DeviceVecto
345:   FUNC GLOBAL DEFAULT 13 _ZNK7android20AudioInputD
346:   FUNC GLOBAL DEFAULT 13 _ZThn176_NK7android21Audi
347:   FUNC GLOBAL DEFAULT 13 _ZNK7android12DeviceVecto
348:   FUNC GLOBAL DEFAULT 13 _ZNK7android18AudioProfil
349:   FUNC GLOBAL DEFAULT 13 _ZN7android26EffectDescri
350:   FUNC GLOBAL DEFAULT 13 _ZThn176_NK7android23HwAu
351:   FUNC GLOBAL DEFAULT 13 _ZN7android18AudioPolicyM
352:   FUNC GLOBAL DEFAULT 13 _ZNK7android18HwModuleCol
353:   FUNC WEAK DEFAULT 13 _ZNK7android6VectorI14aud
354:   FUNC GLOBAL DEFAULT 13 _ZNK7android23HwAudioOutp
355:   FUNC GLOBAL DEFAULT 13 _ZN7android18AudioPolicyM
356:   FUNC GLOBAL DEFAULT 13 _ZN7android21AudioOutputD
357:   OBJECT GLOBAL DEFAULT 18 _ZTVN7android21AudioOutpu
358:   FUNC WEAK DEFAULT 13 _ZN7android13TypeConverte
359:   FUNC GLOBAL DEFAULT 13 _ZNK7android18HwModuleCol
360:   FUNC GLOBAL DEFAULT 13 _ZN7android18AudioPolicyM
361:   FUNC GLOBAL DEFAULT 13 _ZN7android22SourceClient
362:   FUNC GLOBAL DEFAULT 13 _ZN7android12AudioProfile
363:   FUNC GLOBAL DEFAULT 13 _ZN7android18AudioPolicyM
364:   FUNC GLOBAL DEFAULT 13 _ZNK7android26EffectDescr
365:   FUNC GLOBAL DEFAULT 13 _ZNK7android26EffectDescr
366:   FUNC GLOBAL DEFAULT 13 _ZN7android26EffectDescri
367:   FUNC GLOBAL DEFAULT 13 _ZN7android9AudioPort19is
368:   OBJECT GLOBAL DEFAULT 18 _ZTVN7android9AudioPortE
369:   FUNC GLOBAL DEFAULT 13 _ZN7android8HwModule16add
370:   FUNC GLOBAL DEFAULT 13 _ZNK7android18AudioProfil
371:   OBJECT GLOBAL DEFAULT 18 _ZTVN7android23SwAudioOut
372:   FUNC GLOBAL DEFAULT 13 _ZNK7android9AudioPort4du
373:   FUNC GLOBAL DEFAULT 13 _ZN7android26EffectDescri
374:   FUNC WEAK DEFAULT 13 _ZN7android13TypeConverte
375:   FUNC GLOBAL DEFAULT 13 _ZN7android12AudioProfile
376:   FUNC GLOBAL DEFAULT 13 _ZN7android18AudioPolicyM
377:   FUNC GLOBAL DEFAULT 13 _ZNK7android8HwModule13su
378:   FUNC GLOBAL DEFAULT 13 _ZN7android18AudioPolicyM
379:   FUNC GLOBAL DEFAULT 13 _ZN7android18AudioPolicyM
380:   FUNC GLOBAL DEFAULT 13 _ZN7android18AudioPolicyM
381:   FUNC GLOBAL DEFAULT 13 _ZN7android18AudioPolicyM
382:   FUNC WEAK DEFAULT 13 _ZNK7android6VectorIiE8do
383:   FUNC GLOBAL DEFAULT 13 _ZNK7android10AudioPatch4
384:   FUNC GLOBAL DEFAULT 13 _ZN7android18AudioPolicyM
385:   FUNC GLOBAL DEFAULT 13 _ZNK7android12DeviceVecto
386:   FUNC GLOBAL DEFAULT 13 _ZN7android18AudioPolicyM
387:   FUNC GLOBAL DEFAULT 13 _ZN7android18AudioPolicyM
388:   FUNC GLOBAL DEFAULT 13 _ZN7android26EffectDescri
389:   FUNC GLOBAL DEFAULT 13 _ZN7android12AudioProfile
390:   FUNC GLOBAL DEFAULT 13 _ZN7android16DeviceDescri
391:   FUNC GLOBAL DEFAULT 13 _ZN7android10AudioPatchC1
392:   FUNC GLOBAL DEFAULT 13 _ZNK7android23SwAudioOutp
393:   FUNC GLOBAL DEFAULT 13 _ZN7android20AudioInputCo
394:   FUNC WEAK DEFAULT 13 _ZNK7android12SortedVecto
395:   FUNC GLOBAL DEFAULT 13 _ZNK7android15AudioPortCo
396:   FUNC GLOBAL DEFAULT 13 _ZN7android18AudioPolicyM
397:   FUNC GLOBAL DEFAULT 13 _ZN7android8HwModule15add
398:   FUNC GLOBAL DEFAULT 13 _ZN7android18AudioPolicyM
399:   FUNC GLOBAL DEFAULT 13 _ZN7android12DeviceVector
400:   FUNC GLOBAL DEFAULT 13 _ZN7android20AudioInputDe
401:   FUNC GLOBAL DEFAULT 13 _ZNK7android21AudioOutput
402:   FUNC GLOBAL DEFAULT 13 _ZN7android18AudioPolicyM
403:   FUNC GLOBAL DEFAULT 13 _ZNK7android23SwAudioOutp
404:   FUNC GLOBAL DEFAULT 13 _ZN7android18AudioPolicyM
405:   FUNC GLOBAL DEFAULT 13 _ZNK7android18AudioProfil
406:   FUNC WEAK DEFAULT 13 _ZNK7android12SortedVecto
407:   OBJECT WEAK DEFAULT 18 _ZTTNSt3__119basic_ostrin
408:   FUNC GLOBAL DEFAULT 13 _ZNK7android20AudioInputD
409:   FUNC GLOBAL DEFAULT 13 _ZN7android21AudioOutputD
410:   FUNC GLOBAL DEFAULT 13 _ZN7android18AudioPolicyM
411:   FUNC GLOBAL DEFAULT 13 _ZNK7android12DeviceVecto
412:   FUNC GLOBAL DEFAULT 13 _ZNK7android18AudioPolicy
413:   FUNC GLOBAL DEFAULT 13 _ZN7android18AudioPolicyM
414:   FUNC GLOBAL DEFAULT 13 _ZN7android8HwModule18rem
415:   FUNC GLOBAL DEFAULT 13 _ZN7android18AudioPolicyM
416:   FUNC GLOBAL DEFAULT 13 _ZThn168_NK7android20Audi
417:   FUNC GLOBAL DEFAULT 13 _ZNK7android12AudioProfil
418:   FUNC GLOBAL DEFAULT 13 _ZNK7android8HwModule4dum
419:   FUNC GLOBAL DEFAULT 13 _ZN7android18AudioPolicyM
420:   FUNC GLOBAL DEFAULT 13 _ZN7android18AudioPolicyM
421:   FUNC GLOBAL DEFAULT 13 _ZNK7android18AudioPolicy
422:   FUNC GLOBAL DEFAULT 13 _ZN7android8HwModule19rem
423:   FUNC GLOBAL DEFAULT 13 _ZN7android18AudioPolicyM
424:   FUNC GLOBAL DEFAULT 13 _ZN7android16DeviceDescri
425:   FUNC GLOBAL DEFAULT 13 _ZN7android8HwModuleD0Ev
426:   FUNC GLOBAL DEFAULT 13 _ZNK7android18HwModuleCol
427:   FUNC GLOBAL DEFAULT 13 _ZNK7android21AudioOutput
428:   FUNC GLOBAL DEFAULT 13 _ZNK7android22SourceClien
429:   FUNC GLOBAL DEFAULT 13 _ZN7android8HwModuleD1Ev
430:   FUNC GLOBAL DEFAULT 13 _ZNK7android18AudioPolicy
431:   FUNC GLOBAL DEFAULT 13 _ZN7android18AudioPolicyM
432:   FUNC GLOBAL DEFAULT 13 _ZN7android18AudioPolicyM
433:   FUNC GLOBAL DEFAULT 13 _ZN7android8HwModuleD2Ev
434:   FUNC GLOBAL DEFAULT 13 _ZN7android18AudioPolicyM
435:   FUNC GLOBAL DEFAULT 13 _ZN7android18AudioPolicyM
436:   FUNC GLOBAL DEFAULT 13 _ZNK7android18HwModuleCol
437:   OBJECT WEAK DEFAULT 18 _ZTVN7android6VectorIiEE
438:   FUNC GLOBAL DEFAULT 13 _ZNK7android26EffectDescr
439:   FUNC GLOBAL DEFAULT 13 _ZNK7android24AudioPolicy
440:   FUNC GLOBAL DEFAULT 13 _ZThn168_NK7android20Audi
441:   FUNC WEAK DEFAULT 13 _ZN7android13TypeConverte
442:   FUNC GLOBAL DEFAULT 13 _ZNK7android23SwAudioOutp
443:   FUNC WEAK DEFAULT 13 _ZNK7android12SortedVecto
444:   FUNC GLOBAL DEFAULT 13 _ZNK7android14ChannelsVec
445:   FUNC GLOBAL DEFAULT 13 _ZN7android18AudioPolicyM
446:   FUNC GLOBAL DEFAULT 13 _ZNK7android18HwModuleCol
447:   FUNC GLOBAL DEFAULT 13 _ZN7android18AudioPolicyM
448:   FUNC GLOBAL DEFAULT 13 _ZN7android20AudioInputCo
449:   FUNC GLOBAL DEFAULT 13 _ZN7android9AudioPort14co
450:   OBJECT GLOBAL DEFAULT 18 _ZN7android13TypeConverte
451:   FUNC GLOBAL DEFAULT 13 _ZN7android18AudioPolicyM
452:   FUNC GLOBAL DEFAULT 13 _ZN7android18AudioPolicyM
453:   FUNC GLOBAL DEFAULT 13 _ZN7android18AudioPolicyM
454:   FUNC WEAK DEFAULT 13 _ZNK7android12SortedVecto
455:   FUNC GLOBAL DEFAULT 13 _ZN7android18AudioPolicyM
456:   OBJECT GLOBAL DEFAULT 18 _ZTCN7android23SwAudioOut
457:   FUNC GLOBAL DEFAULT 13 _ZN7android18AudioPolicyM
458:   FUNC GLOBAL DEFAULT 13 _ZN7android23SwAudioOutpu
459:   FUNC WEAK DEFAULT 13 _ZNSt3__115basic_stringbu
460:   FUNC GLOBAL DEFAULT 13 _ZN7android23HwAudioOutpu
461:   FUNC GLOBAL DEFAULT 13 _ZNK7android9AudioPort15g
462:   FUNC GLOBAL DEFAULT 13 _ZN7android18AudioPolicyM
463:   FUNC GLOBAL DEFAULT 13 _ZN7android18AudioPolicyM
464:   FUNC GLOBAL DEFAULT 13 _ZN7android21AudioOutputD
465:   FUNC GLOBAL DEFAULT 13 _ZNK7android23SwAudioOutp
466:   FUNC GLOBAL DEFAULT 13 _ZN7android26EffectDescri
467:   FUNC GLOBAL DEFAULT 13 _ZN7android18AudioPolicyM
468:   FUNC GLOBAL DEFAULT 13 _ZN7android18AudioPolicyM
469:   FUNC GLOBAL DEFAULT 13 _ZN7android18AudioPolicyM
470:   FUNC GLOBAL DEFAULT 13 _ZN7android18AudioPolicyM
471:   FUNC WEAK DEFAULT 13 _ZNK7android6VectorIiE10d
472:   OBJECT GLOBAL DEFAULT 18 _ZTVN7android22RecordClie
473:   FUNC GLOBAL DEFAULT 13 _ZN7android21AudioOutputD
474:   FUNC GLOBAL DEFAULT 13 _ZNK7android22RecordClien
475:   FUNC GLOBAL DEFAULT 13 _ZNK7android23SwAudioOutp
476:   FUNC GLOBAL DEFAULT 13 _ZNK7android18AudioPolicy
477:   FUNC GLOBAL DEFAULT 13 _ZN7android18AudioPolicyM
478:   FUNC GLOBAL DEFAULT 13 _ZNK7android23SwAudioOutp
479:   FUNC GLOBAL DEFAULT 13 _ZN7android24AudioPolicyM
480:   FUNC GLOBAL DEFAULT 13 _ZN7android18AudioPolicyM
481:   FUNC GLOBAL DEFAULT 13 _ZN7android18AudioPolicyM
482:   FUNC GLOBAL DEFAULT 13 _ZThn176_N7android20Audio
483:   FUNC GLOBAL DEFAULT 13 _ZN7android24AudioPolicyM
484:   FUNC GLOBAL DEFAULT 13 _ZN7android21AudioOutputD
485:   FUNC GLOBAL DEFAULT 13 _ZN7android20AudioInputDe
486:   FUNC GLOBAL DEFAULT 13 _ZN7android9AudioGain11ch
487:   FUNC GLOBAL DEFAULT 13 _ZN7android20AudioInputDe
488:   OBJECT WEAK DEFAULT 15 _ZZN7android15HandleGener
489:   FUNC GLOBAL DEFAULT 13 _ZN7android16DeviceDescri
490:   FUNC WEAK DEFAULT 13 _ZN7android13TypeConverte
491:   FUNC WEAK DEFAULT 13 _ZN7android13TypeConverte
492:   FUNC GLOBAL DEFAULT 13 _ZNK7android12DeviceVecto
493:   FUNC GLOBAL DEFAULT 13 _ZN7android8HwModule9setR
494:   FUNC GLOBAL DEFAULT 13 _ZN7android26EffectDescri
495:   FUNC GLOBAL DEFAULT 13 _ZN7android18AudioPolicyM
496:   FUNC GLOBAL DEFAULT 13 _ZN7android18AudioPolicyM
497:   FUNC GLOBAL DEFAULT 13 _ZN7android9AudioPort6att
498:   FUNC GLOBAL DEFAULT 13 _ZNK7android9AudioPort9ch
499:   FUNC GLOBAL DEFAULT 13 _ZNK7android16DeviceDescr
500:   FUNC GLOBAL DEFAULT 13 _ZN7android23SwAudioOutpu
501:   FUNC GLOBAL DEFAULT 13 _ZN7android20AudioInputDe
502:   FUNC GLOBAL DEFAULT 13 _ZN7android18AudioPolicyM
503:   FUNC GLOBAL DEFAULT 13 _ZN7android18AudioProfile
504:   FUNC GLOBAL DEFAULT 13 _ZNK7android21AudioOutput
505:   FUNC GLOBAL DEFAULT 13 _ZN7android20AudioInputDe
506:   FUNC GLOBAL DEFAULT 13 _ZN7android23SwAudioOutpu
507:   FUNC GLOBAL DEFAULT 13 _ZNK7android23SwAudioOutp
508:   FUNC GLOBAL DEFAULT 13 _ZNK7android23HwAudioOutp
509:   FUNC GLOBAL DEFAULT 13 _ZNK7android12AudioProfil
510:   FUNC GLOBAL DEFAULT 13 _ZNK7android12DeviceVecto
511:   FUNC GLOBAL DEFAULT 13 _ZNK7android20AudioInputD
512:   FUNC WEAK DEFAULT 13 _ZNKSt3__115basic_stringb
513:   FUNC GLOBAL DEFAULT 13 _ZNK7android18AudioPolicy
514:   FUNC GLOBAL DEFAULT 13 _ZN7android18AudioPolicyM
515:   FUNC GLOBAL DEFAULT 13 _ZN7android23SwAudioOutpu
516:   FUNC GLOBAL DEFAULT 13 _ZN7android18AudioPolicyM
517:   FUNC GLOBAL DEFAULT 13 _ZN7android29SoundTrigger
518:   FUNC GLOBAL DEFAULT 13 _ZN7android26EffectDescri
519:   FUNC GLOBAL DEFAULT 13 _ZN7android18AudioPolicyM
520:   FUNC WEAK DEFAULT 13 _ZNSt3__124__put_characte
521:   FUNC GLOBAL DEFAULT 13 _ZNK7android26EffectDescr
522:   OBJECT GLOBAL DEFAULT 18 _ZTCN7android20AudioInput
523:   FUNC GLOBAL DEFAULT 13 _ZN7android23SwAudioOutpu
524:   OBJECT GLOBAL DEFAULT 18 _ZTCN7android23SwAudioOut
525:   FUNC GLOBAL DEFAULT 13 _ZN7android22SourceClient
526:   FUNC WEAK DEFAULT 13 _ZN7android13TypeConverte
527:   FUNC GLOBAL DEFAULT 13 _ZNK7android20AudioInputD
528:   FUNC GLOBAL DEFAULT 13 _ZNK7android10AudioRoute1
529:   FUNC WEAK DEFAULT 13 _ZN7android13TypeConverte
530:   FUNC GLOBAL DEFAULT 13 _ZNK7android18AudioPolicy
531:   FUNC GLOBAL DEFAULT 13 _ZN7android20AudioInputDe
532:   FUNC GLOBAL DEFAULT 13 _ZN7android18AudioPolicyM
533:   FUNC GLOBAL DEFAULT 13 _ZN7android23SwAudioOutpu
534:   FUNC GLOBAL DEFAULT 13 _ZNK7android12DeviceVecto
535:   FUNC GLOBAL DEFAULT 13 _ZNK7android23SwAudioOutp
536:   FUNC WEAK DEFAULT 13 _ZNK7android12SortedVecto
537:   FUNC GLOBAL DEFAULT 13 _ZThn144_NK7android16Devi
538:   FUNC GLOBAL DEFAULT 13 _ZN7android18AudioPolicyM
539:   FUNC WEAK DEFAULT 13 _ZN7android13TypeConverte
540:   FUNC GLOBAL DEFAULT 13 _ZN7android18AudioPolicyM
541:   FUNC GLOBAL DEFAULT 13 _ZN7android9AudioPort14fo
542:   FUNC GLOBAL DEFAULT 13 _ZN7android22RecordClient
543:   OBJECT GLOBAL DEFAULT 18 _ZTTN7android23HwAudioOut
544:   OBJECT GLOBAL DEFAULT 18 _ZTTN7android16DeviceDesc
545:   FUNC WEAK DEFAULT 13 _ZN7android13TypeConverte
546:   FUNC GLOBAL DEFAULT 13 _ZN7android18AudioPolicyM
547:   FUNC GLOBAL DEFAULT 13 _ZN7android18AudioPolicyM
548:   FUNC GLOBAL DEFAULT 13 _ZN7android18AudioPolicyM
549:   FUNC GLOBAL DEFAULT 13 _ZNK7android12DeviceVecto
550:   FUNC GLOBAL DEFAULT 13 _ZN7android16DeviceDescri
551:   OBJECT GLOBAL DEFAULT 18 _ZTVN7android16DeviceDesc
552:   FUNC GLOBAL DEFAULT 13 _ZNK7android16DeviceDescr
553:   FUNC GLOBAL DEFAULT 13 _ZNK7android12DeviceVecto
554:   FUNC GLOBAL DEFAULT 13 _ZN7android20AudioInputDe
555:   FUNC GLOBAL DEFAULT 13 _ZNK7android20AudioInputD
556:   FUNC GLOBAL DEFAULT 13 _ZN7android18AudioPolicyM
557:   FUNC GLOBAL DEFAULT 13 _ZNK7android23SwAudioOutp
558:   FUNC WEAK DEFAULT 13 _ZNK7android12SortedVecto
559:   FUNC GLOBAL DEFAULT 13 __cfi_check
560:   FUNC GLOBAL DEFAULT 13 _ZNK7android21AudioOutput
561:   FUNC GLOBAL DEFAULT 13 _ZNK7android18AudioPolicy
562:   FUNC GLOBAL DEFAULT 13 _ZNK7android24AudioPolicy
563:   FUNC WEAK DEFAULT 13 _ZNK7android6VectorIiE7do
564:   FUNC GLOBAL DEFAULT 13 _ZN7android12DeviceVector
565:   FUNC GLOBAL DEFAULT 13 _ZN7android18AudioPolicyM
566:   FUNC GLOBAL DEFAULT 13 _ZN7android20AudioInputDe
567:   OBJECT GLOBAL DEFAULT 18 _ZTCN7android23HwAudioOut
568:   FUNC GLOBAL DEFAULT 13 _ZNK7android16ClientDescr
569:   FUNC GLOBAL DEFAULT 13 _ZN7android18AudioPolicyM
570:   FUNC GLOBAL DEFAULT 13 _ZN7android18AudioPolicyM
571:   FUNC GLOBAL DEFAULT 13 _ZN7android18AudioPolicyM
572:   FUNC GLOBAL DEFAULT 13 _ZN7android18AudioPolicyM
573:   FUNC WEAK DEFAULT 13 _ZNSt3__115basic_stringbu
574:   OBJECT WEAK DEFAULT 18 _ZTVNSt3__119basic_ostrin
575:   FUNC GLOBAL DEFAULT 13 _ZNK7android21AudioOutput
576:   FUNC GLOBAL DEFAULT 13 _ZNK7android21AudioOutput
577:   FUNC GLOBAL DEFAULT 13 _ZN7android18AudioPolicyM
578:   FUNC GLOBAL DEFAULT 13 _ZN7android26EffectDescri
579:   FUNC GLOBAL DEFAULT 13 _ZNK7android18AudioPolicy
580:   FUNC WEAK DEFAULT 13 _ZNK7android12SortedVecto
581:   FUNC GLOBAL DEFAULT 13 _ZNK7android20AudioInputD
582:   FUNC GLOBAL DEFAULT 13 _ZN7android9AudioPort15ge
583:   FUNC GLOBAL DEFAULT 13 _ZNK7android9AudioPort16p
584:   FUNC GLOBAL DEFAULT 13 _ZNK7android16ClientDescr
585:   FUNC GLOBAL DEFAULT 13 _ZN7android18AudioPolicyM
586:   FUNC GLOBAL DEFAULT 13 _ZNK7android21AudioOutput
587:   FUNC GLOBAL DEFAULT 13 _ZN7android23SwAudioOutpu
588:   FUNC GLOBAL DEFAULT 13 _ZN7android12DeviceVector
589:   FUNC GLOBAL DEFAULT 13 _ZN7android12DeviceVector
590:   FUNC GLOBAL DEFAULT 13 _ZN7android18AudioPolicyM
591:   FUNC GLOBAL DEFAULT 13 _ZNK7android20AudioInputC
592:   FUNC GLOBAL DEFAULT 13 _ZNK7android23SwAudioOutp
593:   OBJECT WEAK DEFAULT 18 _ZTCNSt3__118basic_string
594:   FUNC GLOBAL DEFAULT 13 _ZNK7android23HwAudioOutp
595:   FUNC GLOBAL DEFAULT 13 _ZNK7android9IOProfile4du
596:   FUNC GLOBAL DEFAULT 13 _ZN7android18AudioPolicyM
597:   FUNC GLOBAL DEFAULT 13 _ZN7android24AudioPolicyM
598:   FUNC GLOBAL DEFAULT 13 _ZNK7android23SwAudioOutp
599:   FUNC GLOBAL DEFAULT 13 _ZN7android8HwModuleC1EPK
600:   FUNC GLOBAL DEFAULT 13 _ZN7android18AudioProfile
601:   OBJECT WEAK DEFAULT 18 _ZTVN7android12SortedVect
602:   FUNC GLOBAL DEFAULT 13 _ZNK7android20AudioInputD
603:   FUNC GLOBAL DEFAULT 13 _ZNK7android20AudioInputD
604:   FUNC GLOBAL DEFAULT 13 _ZN7android8HwModuleC2EPK
605:   FUNC WEAK DEFAULT 13 _ZN7android13TypeConverte
606:   FUNC GLOBAL DEFAULT 13 _ZN7android18AudioPolicyM
607:   FUNC GLOBAL DEFAULT 13 _ZN7android18AudioPolicyM
608:   FUNC GLOBAL DEFAULT 13 _ZN7android20AudioInputCo
609:   FUNC GLOBAL DEFAULT 13 _ZN7android24AudioPolicyM
610:   OBJECT GLOBAL DEFAULT 18 _ZTVN7android20AudioInput
611:   FUNC GLOBAL DEFAULT 13 _ZN7android9IOProfile3log
612:   FUNC GLOBAL DEFAULT 13 _ZN7android18AudioPolicyM
613:   FUNC GLOBAL DEFAULT 13 _ZNK7android24AudioPolicy
614:   OBJECT GLOBAL DEFAULT 18 _ZN7android13TypeConverte
615:   FUNC WEAK DEFAULT 13 _ZN7android13TypeConverte
616:   FUNC GLOBAL DEFAULT 13 _ZN7android18AudioPolicyM
617:   OBJECT GLOBAL DEFAULT 18 _ZTVN7android18AudioPolic
618:   FUNC GLOBAL DEFAULT 13 _ZThn176_NK7android23SwAu
619:   FUNC GLOBAL DEFAULT 13 _ZNK7android21TrackClient
620:   FUNC WEAK DEFAULT 13 _ZN7android13TypeConverte
621:   FUNC GLOBAL DEFAULT 13 _ZN7android18AudioPolicyM
622:   FUNC GLOBAL DEFAULT 13 _ZNK7android16DeviceDescr
623:   FUNC GLOBAL DEFAULT 13 _ZN7android9AudioGain16ge
624:   FUNC GLOBAL DEFAULT 13 _ZNK7android23SwAudioOutp
625:   FUNC GLOBAL DEFAULT 13 _ZNK7android23HwAudioOutp
626:   FUNC GLOBAL DEFAULT 13 _ZN7android12DeviceVector
627:   FUNC GLOBAL DEFAULT 13 _ZN7android23SwAudioOutpu
628:   FUNC WEAK DEFAULT 13 _ZNK7android12SortedVecto
629:   FUNC GLOBAL DEFAULT 13 _ZN7androideqERKNS_12Audi
630:   FUNC GLOBAL DEFAULT 13 _ZNK7android16DeviceDescr
631:   FUNC WEAK DEFAULT 13 _ZN7android13TypeConverte
632:   FUNC GLOBAL DEFAULT 13 _ZN7android8HwModule16add
633:   FUNC GLOBAL DEFAULT 13 _ZN7android20AudioInputDe
634:   OBJECT GLOBAL DEFAULT 18 _ZTTN7android20AudioInput
635:   FUNC GLOBAL DEFAULT 13 _ZN7android18AudioPolicyM
636:   FUNC GLOBAL DEFAULT 13 _ZNK7android23SwAudioOutp
637:   FUNC GLOBAL DEFAULT 13 _ZN7android21AudioOutputD
638:   FUNC GLOBAL DEFAULT 13 _ZNK7android16DeviceDescr
639:   FUNC WEAK DEFAULT 13 _ZNK7android6VectorIiE16d
640:   FUNC GLOBAL DEFAULT 13 _ZNK7android23SwAudioOutp
641:   FUNC GLOBAL DEFAULT 13 _ZNK7android20AudioInputD
642:   FUNC WEAK DEFAULT 13 _ZNSt3__115basic_stringbu
643:   FUNC GLOBAL DEFAULT 13 _ZNK7android9AudioPort3lo
644:   FUNC GLOBAL DEFAULT 13 _ZN7android18AudioPolicyM
645:   FUNC GLOBAL DEFAULT 13 _ZN7android20AudioInputDe
646:   FUNC WEAK DEFAULT 13 _ZN7android13TypeConverte
647:   FUNC GLOBAL DEFAULT 13 _ZN7android18AudioPolicyM
648:   FUNC GLOBAL DEFAULT 13 _ZNK7android20AudioPatchC
649:   FUNC GLOBAL DEFAULT 13 _ZN7android12AudioProfile
650:   FUNC WEAK DEFAULT 13 _ZNK7android6VectorIiE12d
651:   FUNC GLOBAL DEFAULT 13 _ZN7android12AudioProfile
652:   FUNC GLOBAL DEFAULT 13 _ZN7android8HwModule23ref
653:   FUNC GLOBAL DEFAULT 13 _ZNK7android16DeviceDescr
654:   FUNC GLOBAL DEFAULT 13 _ZNK7android18AudioProfil
655:   FUNC GLOBAL DEFAULT 13 _ZN7android24AudioPolicyM
656:   FUNC GLOBAL DEFAULT 13 _ZNK7android12DeviceVecto
657:   FUNC GLOBAL DEFAULT 13 _ZThn8_N7android18AudioPo
658:   FUNC GLOBAL DEFAULT 13 _ZN7android8HwModule15add
659:   OBJECT WEAK DEFAULT 18 _ZTVN7android12SortedVect
660:   FUNC GLOBAL DEFAULT 13 _ZN7android12AudioProfile
661:   FUNC GLOBAL DEFAULT 13 _ZNK7android8HwModule18ge
662:   FUNC GLOBAL DEFAULT 13 _ZNK7android18AudioPolicy
663:   FUNC GLOBAL DEFAULT 13 _ZThn8_N7android18AudioPo
664:   FUNC GLOBAL DEFAULT 13 _ZN7android18AudioPolicyM
665:   FUNC GLOBAL DEFAULT 13 _ZN7android16DeviceDescri
666:   FUNC GLOBAL DEFAULT 13 _ZN7android18AudioPolicyM
667:   FUNC WEAK DEFAULT 13 _ZNK7android6VectorI14aud
668:   FUNC GLOBAL DEFAULT 13 _ZN7android18AudioProfile
669:   FUNC GLOBAL DEFAULT 13 _ZN7android16DeviceDescri
670:   FUNC GLOBAL DEFAULT 13 _ZNK7android9AudioPort13g
671:   FUNC WEAK DEFAULT 13 _ZNK7android6VectorI14aud
672:   FUNC GLOBAL DEFAULT 13 _ZNK7android16AudioRouteV
673:   OBJECT GLOBAL DEFAULT 18 _ZN7android13TypeConverte
674:   FUNC GLOBAL DEFAULT 13 _ZN7android18AudioPolicyM
675:   FUNC GLOBAL DEFAULT 13 _ZNK7android9AudioPort16p
676:   FUNC GLOBAL DEFAULT 13 _ZN7android18AudioPolicyM
677:   FUNC GLOBAL DEFAULT 13 _ZN7android18AudioPolicyM
678:   FUNC GLOBAL DEFAULT 13 _ZN7android18AudioPolicyM
679:   FUNC GLOBAL DEFAULT 13 _ZNK7android14ChannelsVec
680:   FUNC GLOBAL DEFAULT 13 _ZNK7android14AudioPolicy
681:   FUNC GLOBAL DEFAULT 13 _ZNK7android9AudioPort15p
682:   FUNC GLOBAL DEFAULT 13 _ZNK7android12AudioProfil
683:   FUNC GLOBAL DEFAULT 13 _ZN7android8HwModule11set
684:   FUNC GLOBAL DEFAULT 13 _ZN7android18HwModuleColl
685:   FUNC GLOBAL DEFAULT 13 _ZNK7android18AudioProfil
686:   FUNC GLOBAL DEFAULT 13 _ZNK7android15AudioPortVe
687:   OBJECT GLOBAL DEFAULT 18 _ZTVN7android23HwAudioOut
688:   FUNC GLOBAL DEFAULT 13 _ZNK7android18AudioPolicy
689:   FUNC GLOBAL DEFAULT 13 _ZN7android18AudioPolicyM
690:   FUNC GLOBAL DEFAULT 13 _ZN7android18AudioPolicyM
691:   FUNC GLOBAL DEFAULT 13 _ZNK7android26EffectDescr
692:   FUNC GLOBAL DEFAULT 13 _ZThn176_NK7android20Audi
693:   FUNC GLOBAL DEFAULT 13 _ZN7android18AudioPolicyM
694:   FUNC GLOBAL DEFAULT 13 _ZN7android18AudioPolicyM
695:   FUNC GLOBAL DEFAULT 13 _ZNK7android9AudioPort22c
696:   FUNC GLOBAL DEFAULT 13 _ZNK7android10AudioRoute4
697:   FUNC GLOBAL DEFAULT 13 _ZNK7android18AudioProfil
698:   FUNC GLOBAL DEFAULT 13 _ZNK7android23HwAudioOutp
699:   FUNC GLOBAL DEFAULT 13 _ZNK7android16DeviceDescr
700:   FUNC GLOBAL DEFAULT 13 _ZNK7android16EffectDescr
701:   FUNC GLOBAL DEFAULT 13 _ZN7android18AudioPolicyM
702:   OBJECT WEAK DEFAULT 18 _ZTCNSt3__118basic_string
703:   FUNC GLOBAL DEFAULT 13 _ZNK7android24AudioPolicy
704:   FUNC WEAK DEFAULT 13 _ZNSt3__115basic_stringbu
705:   FUNC GLOBAL DEFAULT 13 _ZNK7android9AudioPort11t
706:   FUNC WEAK DEFAULT 13 _ZNK7android6VectorI14aud
707:   OBJECT GLOBAL DEFAULT 18 _ZTCN7android23HwAudioOut
708:   FUNC GLOBAL DEFAULT 13 _ZN7android18AudioPolicyM
709:   FUNC GLOBAL DEFAULT 13 _ZN7android18AudioPolicyM
710:   FUNC GLOBAL DEFAULT 13 _ZNK7android20AudioInputD
711:   FUNC GLOBAL DEFAULT 13 _ZNK7android20AudioInputD
712:   FUNC GLOBAL DEFAULT 13 _ZThn168_NK7android21Audi
713:   OBJECT GLOBAL DEFAULT 18 _ZTVN7android16ClientDesc
714:   FUNC GLOBAL DEFAULT 13 _ZN7android18AudioPolicyM
715:   FUNC GLOBAL DEFAULT 13 _ZN7android21AudioOutputD
716:   FUNC GLOBAL DEFAULT 13 _ZN7android9AudioGainC1Ei
717:   FUNC WEAK DEFAULT 13 _ZN7android13TypeConverte
718:   FUNC GLOBAL DEFAULT 13 _ZN7android23SwAudioOutpu
719:   FUNC GLOBAL DEFAULT 13 _ZN7android18AudioPolicyM
720:   FUNC GLOBAL DEFAULT 13 _ZN7android20AudioInputDe
721:   FUNC WEAK DEFAULT 13 _ZNK7android6VectorI14aud
722:   FUNC GLOBAL DEFAULT 13 _ZNK7android18AudioProfil
723:   FUNC GLOBAL DEFAULT 13 _ZN7android8HwModule10add
724:   FUNC GLOBAL DEFAULT 13 _ZN7android20AudioInputDe
725:   FUNC GLOBAL DEFAULT 13 _ZNK7android21AudioOutput
726:   OBJECT GLOBAL DEFAULT 18 _ZTVN7android22SourceClie
727:   FUNC GLOBAL DEFAULT 13 _ZNK7android18AudioPolicy
728:   FUNC GLOBAL DEFAULT 13 _ZN7android18AudioPolicyM
729:   FUNC GLOBAL DEFAULT 13 _ZN7android24AudioPolicyM
730:   FUNC GLOBAL DEFAULT 13 _ZN7android18AudioPolicyM
731:   FUNC GLOBAL DEFAULT 13 _ZN7android18AudioPolicyM
732:   FUNC GLOBAL DEFAULT 13 _ZN7android26deserializeA
733:   FUNC GLOBAL DEFAULT 13 _ZN7android23HwAudioOutpu
