 0x000000000000000e (SONAME)             Library soname: [libaaudioservice.so]
  
Symbol   contains 489 entries:
Num:   Type Bind Vis Ndx Name
0:   NOTYPE LOCAL DEFAULT UND
1:   FUNC GLOBAL DEFAULT UND __cxa_finalize@LIBC (2)
2:   FUNC GLOBAL DEFAULT UND __cxa_atexit@LIBC (2)
3:   FUNC GLOBAL DEFAULT UND munmap@LIBC (2)
4:   FUNC GLOBAL DEFAULT UND close@LIBC (2)
5:   FUNC GLOBAL DEFAULT UND ashmem_create_region
6:   FUNC GLOBAL DEFAULT UND __android_log_print@LIBLOG (3)
7:   FUNC GLOBAL DEFAULT UND __errno@LIBC (2)
8:   FUNC GLOBAL DEFAULT UND ashmem_set_prot_region
9:   FUNC GLOBAL DEFAULT UND mmap@LIBC (2)
10:   FUNC GLOBAL DEFAULT UND strerror@LIBC (2)
11:   FUNC GLOBAL DEFAULT UND _ZN7android10FifoBufferD1
12:   FUNC GLOBAL DEFAULT UND _ZdlPv
13:   FUNC GLOBAL DEFAULT UND _Znwm
14:   FUNC GLOBAL DEFAULT UND _ZN7android10FifoBufferC1
15:   FUNC GLOBAL DEFAULT UND __cfi_slowpath@LIBC_OMR1 (4)
16:   FUNC GLOBAL DEFAULT UND _ZN6aaudio23AudioEndpoint
17:   FUNC GLOBAL DEFAULT UND _ZN6aaudio20RingBufferPar
18:   FUNC GLOBAL DEFAULT UND _ZN6aaudio20RingBufferPar
19:   FUNC GLOBAL DEFAULT UND _ZN6aaudio20RingBufferPar
20:   FUNC GLOBAL DEFAULT UND _ZN6aaudio20RingBufferPar
21:   FUNC WEAK DEFAULT UND android_fdsan_close_with_@LIBC_Q (5)
22:   FUNC WEAK DEFAULT UND android_fdsan_create_owne@LIBC_Q (5)
23:   FUNC WEAK DEFAULT UND android_fdsan_exchange_ow@LIBC_Q (5)
24:   FUNC GLOBAL DEFAULT UND _ZNSt3__15mutex6unlockEv
25:   FUNC GLOBAL DEFAULT UND __android_log_error_write@LIBLOG_M (6)
26:   FUNC GLOBAL DEFAULT UND _ZN7android10IInterface8a
27:   FUNC GLOBAL DEFAULT UND _Z35AAudioConvert_android
28:   FUNC GLOBAL DEFAULT UND _ZN7android7RefBaseC2Ev
29:   FUNC GLOBAL DEFAULT UND _ZNSt3__15mutexD1Ev
30:   FUNC GLOBAL DEFAULT UND _ZN7android7RefBaseD2Ev
31:   FUNC GLOBAL DEFAULT UND _ZNSt3__113basic_ostreamI
32:   FUNC GLOBAL DEFAULT UND _ZNSt3__113basic_ostreamI
33:   FUNC GLOBAL DEFAULT UND __cxa_pure_virtual
34:   FUNC GLOBAL DEFAULT UND _ZN7android7RefBase10onFi
35:   FUNC GLOBAL DEFAULT UND _ZN7android7RefBase15onLa
36:   FUNC GLOBAL DEFAULT UND _ZN7android7RefBase20onIn
37:   FUNC GLOBAL DEFAULT UND _ZN7android7RefBase13onLa
38:   FUNC GLOBAL DEFAULT UND pthread_mutex_init@LIBC (2)
39:   FUNC GLOBAL DEFAULT UND pthread_mutex_destroy@LIBC (2)
40:   FUNC GLOBAL DEFAULT UND pthread_mutex_lock@LIBC (2)
41:   FUNC GLOBAL DEFAULT UND pthread_mutex_unlock@LIBC (2)
42:   FUNC GLOBAL DEFAULT UND usleep@LIBC (2)
43:   FUNC GLOBAL DEFAULT UND abort@LIBC (2)
44:   FUNC GLOBAL DEFAULT UND _ZNSt3__19basic_iosIcNS_1
45:   FUNC GLOBAL DEFAULT UND _ZNSt3__114basic_iostream
46:   FUNC GLOBAL DEFAULT UND _ZNSt3__114basic_iostream
47:   FUNC GLOBAL DEFAULT UND _ZThn16_NSt3__114basic_io
48:   FUNC GLOBAL DEFAULT UND _ZThn16_NSt3__114basic_io
49:   FUNC GLOBAL DEFAULT UND _ZTv0_n24_NSt3__114basic_
50:   FUNC GLOBAL DEFAULT UND _ZTv0_n24_NSt3__114basic_
51:   FUNC GLOBAL DEFAULT UND _ZNSt3__113basic_istreamI
52:   FUNC GLOBAL DEFAULT UND _ZNSt3__113basic_istreamI
53:   FUNC GLOBAL DEFAULT UND _ZTv0_n24_NSt3__113basic_
54:   FUNC GLOBAL DEFAULT UND _ZTv0_n24_NSt3__113basic_
55:   FUNC GLOBAL DEFAULT UND _ZNSt3__113basic_ostreamI
56:   FUNC GLOBAL DEFAULT UND _ZNSt3__113basic_ostreamI
57:   FUNC GLOBAL DEFAULT UND _ZTv0_n24_NSt3__113basic_
58:   FUNC GLOBAL DEFAULT UND _ZTv0_n24_NSt3__113basic_
59:   FUNC GLOBAL DEFAULT UND _ZNSt3__114basic_iostream
60:   FUNC GLOBAL DEFAULT UND _ZNSt3__115basic_streambu
61:   FUNC GLOBAL DEFAULT UND _ZNSt3__115basic_streambu
62:   FUNC GLOBAL DEFAULT UND _ZNSt3__115basic_streambu
63:   FUNC GLOBAL DEFAULT UND _ZNSt3__115basic_streambu
64:   FUNC GLOBAL DEFAULT UND _ZNSt3__115basic_streambu
65:   FUNC GLOBAL DEFAULT UND _ZNSt3__115basic_streambu
66:   FUNC GLOBAL DEFAULT UND _ZNSt3__115basic_streambu
67:   FUNC GLOBAL DEFAULT UND _ZNSt3__115basic_streambu
68:   FUNC GLOBAL DEFAULT UND _ZNSt3__112basic_stringIc
69:   FUNC GLOBAL DEFAULT UND _ZNSt3__112basic_stringIc
70:   FUNC GLOBAL DEFAULT UND _ZNSt3__18ios_base4initEP
71:   FUNC GLOBAL DEFAULT UND _ZNSt3__115basic_streambu
72:   FUNC GLOBAL DEFAULT UND _ZNSt3__113basic_ostreamI
73:   FUNC GLOBAL DEFAULT UND _ZNSt3__113basic_ostreamI
74:   FUNC GLOBAL DEFAULT UND _ZNKSt3__121__basic_strin
75:   FUNC GLOBAL DEFAULT UND _ZNKSt3__18ios_base6getlo
76:   FUNC GLOBAL DEFAULT UND _ZNSt3__16localeD1Ev
77:   FUNC GLOBAL DEFAULT UND _ZNKSt3__16locale9use_fac
78:   FUNC GLOBAL DEFAULT UND _ZNSt3__18ios_base5clearE
79:   FUNC GLOBAL DEFAULT UND _ZNSt3__15mutex8try_lockE
80:   FUNC GLOBAL DEFAULT UND _ZNSt3__15mutex4lockEv
81:   FUNC GLOBAL DEFAULT UND _ZNK7android7RefBase9incS
82:   FUNC GLOBAL DEFAULT UND _ZNK7android7RefBase9decS
83:   FUNC GLOBAL DEFAULT UND _ZN7android14sp_report_ra
84:   OBJECT GLOBAL DEFAULT UND _ZNSt3__15ctypeIcE2idE
85:   FUNC GLOBAL DEFAULT UND _ZN7android14IPCThreadSta
86:   FUNC GLOBAL DEFAULT UND _ZN7android14IPCThreadSta
87:   FUNC GLOBAL DEFAULT UND _ZN7android14IPCThreadSta
88:   FUNC GLOBAL DEFAULT UND _ZNKSt3__120__vector_base
89:   FUNC GLOBAL DEFAULT UND _ZdaPv
90:   FUNC GLOBAL DEFAULT UND _Znam
91:   FUNC GLOBAL DEFAULT UND _ZN7android10FifoBuffer20
92:   FUNC GLOBAL DEFAULT UND atrace_begin_body
93:   FUNC GLOBAL DEFAULT UND atrace_setup
94:   FUNC GLOBAL DEFAULT UND atrace_int_body
95:   FUNC GLOBAL DEFAULT UND _ZN7android18FifoControll
96:   FUNC GLOBAL DEFAULT UND atrace_end_body
97:   OBJECT GLOBAL DEFAULT UND atrace_enabled_tags
98:   OBJECT GLOBAL DEFAULT UND atrace_is_ready
99:   FUNC GLOBAL DEFAULT UND getuid@LIBC (2)
100:   FUNC GLOBAL DEFAULT UND getpid@LIBC (2)
101:   FUNC GLOBAL DEFAULT UND _ZN7android8String16C1EPK
102:   FUNC GLOBAL DEFAULT UND _ZN7android8String16D1Ev
103:   FUNC GLOBAL DEFAULT UND _ZN7android11dumpAllowedE
104:   FUNC GLOBAL DEFAULT UND _ZNK7android14IPCThreadSt
105:   FUNC GLOBAL DEFAULT UND _ZNSt3__113basic_ostreamI
106:   FUNC GLOBAL DEFAULT UND _ZNK7android14IPCThreadSt
107:   FUNC GLOBAL DEFAULT UND _ZN6aaudio19AAudioStreamR
108:   FUNC GLOBAL DEFAULT UND _ZN6aaudio22AAudioStreamP
109:   FUNC GLOBAL DEFAULT UND _ZN7android15BnAAudioServ
110:   FUNC GLOBAL DEFAULT UND _ZNK7android7BBinder13isB
111:   FUNC GLOBAL DEFAULT UND _ZN7android7BBinder10ping
112:   FUNC GLOBAL DEFAULT UND _ZN7android7BBinder4dumpE
113:   FUNC GLOBAL DEFAULT UND _ZN7android7BBinder8trans
114:   FUNC GLOBAL DEFAULT UND _ZN7android7BBinder11link
115:   FUNC GLOBAL DEFAULT UND _ZN7android7BBinder13unli
116:   FUNC GLOBAL DEFAULT UND _ZNK7android7IBinder13che
117:   FUNC GLOBAL DEFAULT UND _ZN7android7BBinder12atta
118:   FUNC GLOBAL DEFAULT UND _ZNK7android7BBinder10fin
119:   FUNC GLOBAL DEFAULT UND _ZN7android7BBinder12deta
120:   FUNC GLOBAL DEFAULT UND _ZN7android7BBinder11loca
121:   FUNC GLOBAL DEFAULT UND _ZN7android7IBinder12remo
122:   FUNC GLOBAL DEFAULT UND _ZThn8_N7android15BnAAudi
123:   FUNC GLOBAL DEFAULT UND _ZN7android7BBinder10onTr
124:   FUNC GLOBAL DEFAULT UND _ZN7android14IAAudioServi
125:   FUNC GLOBAL DEFAULT UND _ZN7android14IAAudioServi
126:   FUNC GLOBAL DEFAULT UND _ZNK7android14IAAudioServ
127:   FUNC GLOBAL DEFAULT UND _ZTv0_n24_N7android14IAAu
128:   FUNC GLOBAL DEFAULT UND _ZTv0_n24_N7android14IAAu
129:   FUNC GLOBAL DEFAULT UND _ZN7android10IInterfaceD1
130:   FUNC GLOBAL DEFAULT UND _ZN7android10IInterfaceD0
131:   FUNC GLOBAL DEFAULT UND _ZTv0_n24_N7android10IInt
132:   FUNC GLOBAL DEFAULT UND _ZTv0_n24_N7android10IInt
133:   FUNC GLOBAL DEFAULT UND _ZN7android7IBinder19quer
134:   FUNC GLOBAL DEFAULT UND _ZNK7android7BBinder22get
135:   FUNC GLOBAL DEFAULT UND _ZN7android7BBinderD1Ev
136:   FUNC GLOBAL DEFAULT UND _ZN7android7BBinderD0Ev
137:   FUNC GLOBAL DEFAULT UND _ZTv0_n24_N7android7BBind
138:   FUNC GLOBAL DEFAULT UND _ZTv0_n24_N7android7BBind
139:   FUNC GLOBAL DEFAULT UND _ZN7android7IBinder11loca
140:   FUNC GLOBAL DEFAULT UND _ZN7android7IBinderD1Ev
141:   FUNC GLOBAL DEFAULT UND _ZN7android7IBinderD0Ev
142:   FUNC GLOBAL DEFAULT UND _ZTv0_n24_N7android7IBind
143:   FUNC GLOBAL DEFAULT UND _ZTv0_n24_N7android7IBind
144:   FUNC GLOBAL DEFAULT UND _ZN7android14IAAudioServi
145:   FUNC GLOBAL DEFAULT UND _ZN7android7BBinderC2Ev
146:   FUNC GLOBAL DEFAULT UND _ZN7android6Parcel10write
147:   FUNC GLOBAL DEFAULT UND _ZN7android6Parcel13write
148:   FUNC GLOBAL DEFAULT UND _ZNK7android6Parcel9readI
149:   FUNC GLOBAL DEFAULT UND _ZNK7android6Parcel12read
150:   FUNC GLOBAL DEFAULT UND _ZN7android8String165setT
151:   FUNC GLOBAL DEFAULT UND _ZN7android7BBinderD2Ev
152:   FUNC GLOBAL DEFAULT UND _ZN7android14IAAudioServi
153:   FUNC GLOBAL DEFAULT UND write@LIBC (2)
154:   FUNC GLOBAL DEFAULT UND __write_chk@LIBC_N (7)
155:   FUNC GLOBAL DEFAULT UND _ZNK6aaudio22AAudioStream
156:   FUNC GLOBAL DEFAULT UND _ZNSt3__112basic_stringIc
157:   FUNC GLOBAL DEFAULT UND _ZNSt3__112basic_stringIc
158:   FUNC GLOBAL DEFAULT UND strzcmp16
159:   FUNC GLOBAL DEFAULT UND _ZNK7android8String164siz
160:   OBJECT GLOBAL DEFAULT UND _ZTVN6aaudio19AAudioStrea
161:   OBJECT GLOBAL DEFAULT UND _ZTVN6aaudio25AAudioStrea
162:   OBJECT GLOBAL DEFAULT UND _ZN7android14IAAudioServi
163:   FUNC GLOBAL DEFAULT UND _ZNSt3__113basic_ostreamI
164:   FUNC GLOBAL DEFAULT UND _ZN6aaudio26AudioStreamIn
165:   FUNC GLOBAL DEFAULT UND _ZN6aaudio26AudioStreamIn
166:   FUNC GLOBAL DEFAULT UND _ZN6aaudio19AudioStreamIn
167:   FUNC GLOBAL DEFAULT UND _ZN7android10FifoBuffer5w
168:   FUNC GLOBAL DEFAULT UND _ZN6aaudio22AAudioStreamP
169:   FUNC GLOBAL DEFAULT UND _ZN6aaudio22AAudioStreamP
170:   FUNC GLOBAL DEFAULT UND _ZN7android18FifoControll
171:   FUNC GLOBAL DEFAULT UND clock_gettime@LIBC (2)
172:   FUNC GLOBAL DEFAULT UND _ZNSt3__113basic_ostreamI
173:   FUNC GLOBAL DEFAULT UND _Z35AAudioConvert_content
174:   FUNC GLOBAL DEFAULT UND _Z29AAudioConvert_usageTo
175:   FUNC GLOBAL DEFAULT UND _Z38AAudioConvert_inputPr
176:   FUNC GLOBAL DEFAULT UND _Z48AAudioConvert_allowCa
177:   FUNC GLOBAL DEFAULT UND _Z38AAudioConvert_aaudioT
178:   FUNC GLOBAL DEFAULT UND _ZN7android19MmapStreamIn
179:   FUNC GLOBAL DEFAULT UND dup@LIBC (2)
180:   FUNC GLOBAL DEFAULT UND __android_log_assert@LIBLOG (3)
181:   FUNC GLOBAL DEFAULT UND _ZN6aaudio20RingBufferPar
182:   FUNC GLOBAL DEFAULT UND clock_nanosleep@LIBC (2)
183:   FUNC GLOBAL DEFAULT UND _ZN6aaudio23AudioStreamIn
184:   FUNC GLOBAL DEFAULT UND _Z29AAudioProperty_getMix
185:   FUNC GLOBAL DEFAULT UND _ZN6aaudio23AudioStreamIn
186:   FUNC GLOBAL DEFAULT UND _ZN6aaudio18AudioStreamBu
187:   FUNC GLOBAL DEFAULT UND _ZN6aaudio18AudioStreamBu
188:   FUNC GLOBAL DEFAULT UND _ZN6aaudio19AudioStreamIn
189:   FUNC GLOBAL DEFAULT UND _ZN6aaudio19AudioStreamIn
190:   FUNC GLOBAL DEFAULT UND _ZN6aaudio19AudioStreamIn
191:   FUNC GLOBAL DEFAULT UND _Z21AAudio_isFlushAllowed
192:   FUNC GLOBAL DEFAULT UND _ZN7android15requestPrior
193:   FUNC GLOBAL DEFAULT UND _ZN7android10FifoBuffer25
194:   FUNC GLOBAL DEFAULT UND _ZN7android18FifoControll
195:   FUNC GLOBAL DEFAULT UND _ZN7android7RefBase12weak
196:   FUNC GLOBAL DEFAULT UND _ZNK7android7RefBase10cre
197:   FUNC GLOBAL DEFAULT UND _ZN7android7RefBase12weak
198:   FUNC GLOBAL DEFAULT UND random@LIBC (2)
199:   FUNC GLOBAL DEFAULT UND pthread_create@LIBC (2)
200:   FUNC GLOBAL DEFAULT UND pthread_setname_np@LIBC (2)
201:   FUNC GLOBAL DEFAULT UND pthread_join@LIBC (2)
202:   FUNC GLOBAL DEFAULT UND __vsnprintf_chk@LIBC (2)
203:   FUNC GLOBAL DEFAULT UND memset@LIBC (2)
204:   FUNC GLOBAL DEFAULT UND __stack_chk_fail@LIBC (2)
205:   FUNC WEAK DEFAULT 13 _ZNSt3__115basic_stringbu
206:   FUNC GLOBAL DEFAULT 13 _ZN7android13AAudioServic
207:   FUNC GLOBAL DEFAULT 13 _ZN6aaudio19AAudioClientT
208:   FUNC GLOBAL DEFAULT 13 _ZN6aaudio23AAudioService
209:   FUNC GLOBAL DEFAULT 13 _ZN11AAudioMixer8allocate
210:   FUNC GLOBAL DEFAULT 13 _ZN6aaudio19AAudioStreamT
211:   FUNC GLOBAL DEFAULT 13 _ZN7android13AAudioServic
212:   FUNC GLOBAL DEFAULT 13 _ZN6aaudio21AAudioService
213:   FUNC GLOBAL DEFAULT 13 _ZN6aaudio25AAudioService
214:   FUNC GLOBAL DEFAULT 13 _ZN6aaudio23AAudioService
215:   FUNC GLOBAL DEFAULT 13 _ZN6aaudio16SharedRingBuf
216:   FUNC WEAK DEFAULT 13 _ZN7android9SingletonIN6a
217:   FUNC GLOBAL DEFAULT 13 _ZN6aaudio19AAudioClientT
218:   FUNC WEAK DEFAULT 13 _ZN7android9SingletonIN6a
219:   OBJECT GLOBAL DEFAULT 18 _ZTVN6aaudio28AAudioServi
220:   OBJECT GLOBAL DEFAULT 18 _ZTTN6aaudio28AAudioServi
221:   OBJECT GLOBAL DEFAULT 18 _ZTCN6aaudio28AAudioServi
222:   FUNC GLOBAL DEFAULT 13 _ZN6aaudio25AAudioService
223:   FUNC GLOBAL DEFAULT 13 _ZN6aaudio17SharedMemoryP
224:   FUNC GLOBAL DEFAULT 13 _ZN6aaudio25AAudioService
225:   OBJECT GLOBAL DEFAULT 18 _ZTCN7android13AAudioServ
226:   FUNC GLOBAL DEFAULT 13 _ZNK6aaudio25AAudioServic
227:   FUNC GLOBAL DEFAULT 13 _ZN6aaudio19AAudioClientT
228:   FUNC GLOBAL DEFAULT 13 _ZThn32_N7android13AAudio
229:   FUNC GLOBAL DEFAULT 13 _ZN6aaudio12AAudioThread5
230:   FUNC GLOBAL DEFAULT 13 _ZN6aaudio23AAudioService
231:   OBJECT GLOBAL DEFAULT 18 _ZTCN6aaudio23AAudioServi
232:   FUNC GLOBAL DEFAULT 13 _ZN6aaudio17SharedMemoryP
233:   OBJECT WEAK DEFAULT 18 _ZTCNSt3__118basic_string
234:   FUNC GLOBAL DEFAULT 13 _ZThn8_N7android13AAudioS
235:   FUNC GLOBAL DEFAULT 13 _ZThn208_N6aaudio25AAudio
236:   OBJECT GLOBAL DEFAULT 18 _ZTCN7android13AAudioServ
237:   FUNC GLOBAL DEFAULT 13 _ZN6aaudio28AAudioService
238:   FUNC GLOBAL DEFAULT 13 _ZTv0_n24_N6aaudio25AAudi
239:   OBJECT GLOBAL DEFAULT 18 _ZTVN6aaudio27AAudioServi
240:   OBJECT GLOBAL DEFAULT 18 _ZTCN6aaudio27AAudioServi
241:   FUNC GLOBAL DEFAULT 13 _ZN6aaudio23AAudioService
242:   FUNC GLOBAL DEFAULT 13 _ZN6aaudio21AAudioEndpoin
243:   FUNC WEAK DEFAULT 13 _ZNSt3__113__tree_removeI
244:   FUNC GLOBAL DEFAULT 13 _ZN11AAudioMixer15getOutp
245:   FUNC GLOBAL DEFAULT 13 _ZN6aaudio23AAudioService
246:   OBJECT WEAK DEFAULT 18 _ZTVNSt3__118basic_string
247:   FUNC GLOBAL DEFAULT 13 _ZN6aaudio25AAudioService
248:   FUNC GLOBAL DEFAULT 13 _ZTv0_n24_N6aaudio19AAudi
249:   FUNC GLOBAL DEFAULT 13 _ZN6aaudio21AAudioEndpoin
250:   FUNC GLOBAL DEFAULT 13 _ZN7android13AAudioServic
251:   OBJECT WEAK DEFAULT 18 _ZTVN7android11AudioClien
252:   FUNC GLOBAL DEFAULT 13 _ZN6aaudio27AAudioService
253:   FUNC GLOBAL DEFAULT 13 _ZN6aaudio25AAudioService
254:   FUNC GLOBAL DEFAULT 13 _ZN6aaudio23AAudioService
255:   FUNC GLOBAL DEFAULT 13 _ZN6aaudio21AAudioEndpoin
256:   FUNC GLOBAL DEFAULT 13 _ZN11AAudioMixerD2Ev
257:   FUNC GLOBAL DEFAULT 13 _ZN6aaudio28AAudioService
258:   FUNC GLOBAL DEFAULT 13 _ZNK6aaudio19AAudioClient
259:   FUNC GLOBAL DEFAULT 13 _ZThn208_N6aaudio25AAudio
260:   FUNC GLOBAL DEFAULT 13 _ZN6aaudio19AAudioClientT
261:   FUNC GLOBAL DEFAULT 13 _ZThn8_N7android13AAudioS
262:   FUNC GLOBAL DEFAULT 13 _ZN6aaudio25AAudioService
263:   FUNC GLOBAL DEFAULT 13 _ZN6aaudio19AAudioStreamT
264:   OBJECT GLOBAL DEFAULT 18 _ZTTN6aaudio25AAudioServi
265:   FUNC GLOBAL DEFAULT 13 _ZThn32_N7android13AAudio
266:   FUNC GLOBAL DEFAULT 13 _ZTv0_n24_N6aaudio28AAudi
267:   FUNC GLOBAL DEFAULT 13 _ZN6aaudio25AAudioService
268:   FUNC GLOBAL DEFAULT 13 _ZN6aaudio25AAudioService
269:   FUNC GLOBAL DEFAULT 13 _ZN6aaudio18TimestampSche
270:   FUNC GLOBAL DEFAULT 13 _ZN6aaudio25AAudioService
271:   OBJECT WEAK DEFAULT 18 _ZTCNSt3__118basic_string
272:   FUNC GLOBAL DEFAULT 13 _ZN6aaudio21AAudioEndpoin
273:   FUNC GLOBAL DEFAULT 13 _ZN6aaudio23AAudioService
274:   FUNC GLOBAL DEFAULT 13 _ZN7android13AAudioServic
275:   FUNC GLOBAL DEFAULT 13 _ZN6aaudio25AAudioService
276:   FUNC GLOBAL DEFAULT 13 _ZN6aaudio27AAudioService
277:   FUNC GLOBAL DEFAULT 13 _ZNK6aaudio19AAudioClient
278:   FUNC GLOBAL DEFAULT 13 _ZN6aaudio21AAudioService
279:   FUNC GLOBAL DEFAULT 13 _ZN7android13AAudioServic
280:   FUNC GLOBAL DEFAULT 13 _ZN7android13AAudioServic
281:   FUNC GLOBAL DEFAULT 13 _ZThn32_N7android13AAudio
282:   FUNC GLOBAL DEFAULT 13 _ZN6aaudio23AAudioService
283:   OBJECT GLOBAL DEFAULT 18 _ZTCN7android13AAudioServ
284:   FUNC GLOBAL DEFAULT 13 _ZN6aaudio23AAudioService
285:   FUNC GLOBAL DEFAULT 13 _ZN6aaudio23AAudioService
286:   FUNC GLOBAL DEFAULT 13 _ZN6aaudio12AAudioThreadC
287:   OBJECT GLOBAL DEFAULT 18 _ZTTN6aaudio19AAudioClien
288:   FUNC GLOBAL DEFAULT 13 _ZN6aaudio23AAudioService
289:   FUNC GLOBAL DEFAULT 13 _ZN6aaudio23AAudioService
290:   FUNC GLOBAL DEFAULT 13 _ZN6aaudio25AAudioService
291:   FUNC GLOBAL DEFAULT 13 _ZN6aaudio27AAudioService
292:   FUNC GLOBAL DEFAULT 13 _ZTv0_n24_N6aaudio23AAudi
293:   FUNC GLOBAL DEFAULT 13 _ZN7android13AAudioServic
294:   FUNC GLOBAL DEFAULT 13 _ZThn32_N7android13AAudio
295:   FUNC GLOBAL DEFAULT 13 _ZN6aaudio23AAudioService
296:   OBJECT GLOBAL DEFAULT 18 _ZTVN6aaudio23AAudioServi
297:   FUNC GLOBAL DEFAULT 13 _ZN6aaudio25AAudioService
298:   FUNC GLOBAL DEFAULT 13 _ZN7android13AAudioServic
299:   FUNC GLOBAL DEFAULT 13 _ZN6aaudio25AAudioService
300:   OBJECT GLOBAL DEFAULT 18 _ZTCN6aaudio25AAudioServi
301:   OBJECT GLOBAL DEFAULT 18 _ZTTN6aaudio23AAudioServi
302:   FUNC GLOBAL DEFAULT 13 _ZN6aaudio25AAudioService
303:   FUNC GLOBAL DEFAULT 13 _ZN6aaudio19AAudioClientT
304:   FUNC GLOBAL DEFAULT 13 _ZN11AAudioMixer7mixPartE
305:   FUNC GLOBAL DEFAULT 13 _ZThn208_N6aaudio25AAudio
306:   OBJECT GLOBAL DEFAULT 18 _ZTVN6aaudio25AAudioServi
307:   FUNC GLOBAL DEFAULT 13 _ZN6aaudio25AAudioService
308:   FUNC GLOBAL DEFAULT 13 _ZN6aaudio19AAudioStreamT
309:   FUNC GLOBAL DEFAULT 13 _ZN6aaudio19AAudioClientT
310:   FUNC GLOBAL DEFAULT 13 _ZN6aaudio19AAudioClientT
311:   FUNC GLOBAL DEFAULT 13 _ZThn32_N7android13AAudio
312:   FUNC GLOBAL DEFAULT 13 _ZN7android13AAudioServic
313:   FUNC GLOBAL DEFAULT 13 _ZThn32_N7android13AAudio
314:   OBJECT GLOBAL DEFAULT 18 _ZTVN6aaudio25AAudioServi
315:   FUNC GLOBAL DEFAULT 13 _ZN6aaudio16SharedRingBuf
316:   FUNC GLOBAL DEFAULT 13 _ZN6aaudio17SharedMemoryP
317:   FUNC GLOBAL DEFAULT 13 _ZN6aaudio19AAudioClientT
318:   FUNC GLOBAL DEFAULT 13 _ZN6aaudio25AAudioService
319:   FUNC GLOBAL DEFAULT 13 _ZN6aaudio19AAudioClientT
320:   FUNC GLOBAL DEFAULT 13 _ZThn32_N7android13AAudio
321:   FUNC GLOBAL DEFAULT 13 _ZN6aaudio19AAudioStreamT
322:   FUNC GLOBAL DEFAULT 13 _ZN6aaudio27AAudioService
323:   FUNC GLOBAL DEFAULT 13 _ZN6aaudio25AAudioService
324:   OBJECT GLOBAL DEFAULT 18 _ZTVN6aaudio16SharedRingB
325:   FUNC GLOBAL DEFAULT 13 _ZN7android13AAudioServic
326:   FUNC GLOBAL DEFAULT 13 _ZN6aaudio28AAudioService
327:   FUNC GLOBAL DEFAULT 13 _ZN6aaudio21AAudioEndpoin
328:   FUNC WEAK DEFAULT 13 _ZN7android9SingletonIN6a
329:   FUNC GLOBAL DEFAULT 13 _ZN6aaudio12AAudioThread5
330:   FUNC GLOBAL DEFAULT 13 _ZTv0_n24_N7android13AAud
331:   FUNC GLOBAL DEFAULT 13 _ZN7android13AAudioServic
332:   FUNC GLOBAL DEFAULT 13 _ZN6aaudio23AAudioService
333:   OBJECT WEAK DEFAULT 18 _ZTTNSt3__118basic_string
334:   FUNC WEAK DEFAULT 13 _ZN7android9SingletonIN6a
335:   FUNC GLOBAL DEFAULT 13 _ZN6aaudio23AAudioService
336:   FUNC GLOBAL DEFAULT 13 _ZThn208_N6aaudio25AAudio
337:   FUNC GLOBAL DEFAULT 13 _ZN6aaudio23AAudioService
338:   FUNC GLOBAL DEFAULT 13 _ZN6aaudio23AAudioService
339:   FUNC GLOBAL DEFAULT 13 _ZN6aaudio23AAudioService
340:   FUNC GLOBAL DEFAULT 13 _ZN6aaudio25AAudioService
341:   OBJECT GLOBAL DEFAULT 18 _ZTCN7android13AAudioServ
342:   OBJECT GLOBAL DEFAULT 18 _ZTCN6aaudio28AAudioServi
343:   OBJECT GLOBAL DEFAULT 22 _ZN7android9SingletonIN6a
344:   FUNC GLOBAL DEFAULT 13 _ZN11AAudioMixer3mixEiPN7
345:   FUNC GLOBAL DEFAULT 13 _ZN6aaudio23AAudioService
346:   OBJECT GLOBAL DEFAULT 18 _ZTCN7android13AAudioServ
347:   FUNC GLOBAL DEFAULT 13 _ZThn32_N7android13AAudio
348:   FUNC GLOBAL DEFAULT 13 _ZN6aaudio28AAudioService
349:   FUNC GLOBAL DEFAULT 13 _ZN6aaudio23AAudioService
350:   FUNC WEAK DEFAULT 13 _ZNSt3__115basic_stringbu
351:   FUNC WEAK DEFAULT 13 _ZNSt3__115basic_stringbu
352:   FUNC GLOBAL DEFAULT 13 _ZNK6aaudio27AAudioServic
353:   FUNC GLOBAL DEFAULT 13 _ZN6aaudio25AAudioService
354:   FUNC GLOBAL DEFAULT 13 _ZN6aaudio19AAudioClientT
355:   FUNC GLOBAL DEFAULT 13 _ZThn8_N7android13AAudioS
356:   OBJECT GLOBAL DEFAULT 18 _ZTTN7android13AAudioServ
357:   FUNC GLOBAL DEFAULT 13 _ZN6aaudio23AAudioService
358:   FUNC GLOBAL DEFAULT 13 _ZN6aaudio23AAudioService
359:   FUNC GLOBAL DEFAULT 13 _ZN6aaudio19AAudioClientT
360:   OBJECT GLOBAL DEFAULT 22 _ZN7android9SingletonIN6a
361:   FUNC GLOBAL DEFAULT 13 _ZThn32_N7android13AAudio
362:   FUNC GLOBAL DEFAULT 13 _ZN6aaudio27AAudioService
363:   FUNC GLOBAL DEFAULT 13 _ZN6aaudio23AAudioService
364:   FUNC GLOBAL DEFAULT 13 _ZN6aaudio18TimestampSche
365:   FUNC GLOBAL DEFAULT 13 _ZN6aaudio23AAudioService
366:   FUNC GLOBAL DEFAULT 13 _ZN6aaudio23AAudioService
367:   OBJECT GLOBAL DEFAULT 18 _ZTVN6aaudio19AAudioClien
368:   FUNC GLOBAL DEFAULT 13 _ZN6aaudio21AAudioEndpoin
369:   FUNC GLOBAL DEFAULT 13 _ZThn32_N7android13AAudio
370:   FUNC GLOBAL DEFAULT 13 _ZN6aaudio25AAudioService
371:   FUNC GLOBAL DEFAULT 13 _ZN6aaudio12AAudioThreadC
372:   FUNC GLOBAL DEFAULT 13 _ZN6aaudio12AAudioThread4
373:   OBJECT WEAK DEFAULT 18 _ZTVNSt3__115basic_string
374:   FUNC WEAK DEFAULT 13 _ZN7android9SingletonIN6a
375:   FUNC GLOBAL DEFAULT 13 _ZN6aaudio25AAudioService
376:   FUNC GLOBAL DEFAULT 13 _ZThn56_N6aaudio23AAudioS
377:   FUNC GLOBAL DEFAULT 13 _ZN6aaudio25AAudioService
378:   FUNC WEAK DEFAULT 13 _ZN7android9SingletonIN6a
379:   FUNC GLOBAL DEFAULT 13 _ZN6aaudio19AAudioStreamT
380:   FUNC GLOBAL DEFAULT 13 _ZN6aaudio25AAudioService
381:   FUNC GLOBAL DEFAULT 13 _ZN6aaudio23AAudioService
382:   FUNC GLOBAL DEFAULT 13 _ZN6aaudio23AAudioService
383:   OBJECT GLOBAL DEFAULT 18 _ZTCN6aaudio19AAudioClien
384:   FUNC GLOBAL DEFAULT 13 _ZN6aaudio21AAudioEndpoin
385:   FUNC GLOBAL DEFAULT 13 _ZN7android13AAudioServic
386:   FUNC GLOBAL DEFAULT 13 _ZN7android13AAudioServic
387:   FUNC GLOBAL DEFAULT 13 _ZN7android13AAudioServic
388:   FUNC GLOBAL DEFAULT 13 _ZN7android13AAudioServic
389:   FUNC GLOBAL DEFAULT 13 _ZN6aaudio25AAudioService
390:   FUNC GLOBAL DEFAULT 13 _ZTv0_n24_N6aaudio23AAudi
391:   FUNC GLOBAL DEFAULT 13 _ZN6aaudio23AAudioService
392:   FUNC GLOBAL DEFAULT 13 _ZN6aaudio25AAudioService
393:   FUNC GLOBAL DEFAULT 13 _ZThn56_N6aaudio23AAudioS
394:   FUNC GLOBAL DEFAULT 13 __cfi_check
395:   FUNC GLOBAL DEFAULT 13 _ZThn32_N7android13AAudio
396:   FUNC GLOBAL DEFAULT 13 _ZN6aaudio25AAudioService
397:   FUNC GLOBAL DEFAULT 13 _ZN6aaudio23AAudioService
398:   FUNC GLOBAL DEFAULT 13 _ZN6aaudio25AAudioService
399:   FUNC WEAK DEFAULT 13 _ZNSt3__124__put_characte
400:   FUNC GLOBAL DEFAULT 13 _ZNK6aaudio19AAudioStream
401:   OBJECT GLOBAL DEFAULT 18 _ZTVN6aaudio21AAudioServi
402:   OBJECT GLOBAL DEFAULT 18 _ZTCN6aaudio25AAudioServi
403:   FUNC GLOBAL DEFAULT 13 _ZN6aaudio23AAudioService
404:   FUNC GLOBAL DEFAULT 13 _ZN6aaudio19AAudioClientT
405:   FUNC GLOBAL DEFAULT 13 _ZN6aaudio19AAudioClientT
406:   FUNC GLOBAL DEFAULT 13 _ZN11AAudioMixer5clearEv
407:   FUNC GLOBAL DEFAULT 13 _ZThn32_N7android13AAudio
408:   FUNC GLOBAL DEFAULT 13 _ZN7android13AAudioServic
409:   FUNC GLOBAL DEFAULT 13 _ZN7android13AAudioServic
410:   FUNC GLOBAL DEFAULT 13 _ZNK6aaudio23AAudioServic
411:   FUNC GLOBAL DEFAULT 13 _ZN6aaudio12AAudioThreadC
412:   FUNC GLOBAL DEFAULT 13 _ZN6aaudio16SharedRingBuf
413:   OBJECT GLOBAL DEFAULT 22 _ZN7android9SingletonIN6a
414:   FUNC GLOBAL DEFAULT 13 _ZN6aaudio21AAudioService
415:   FUNC GLOBAL DEFAULT 13 _ZN6aaudio12AAudioThread8
416:   FUNC WEAK DEFAULT 13 _ZNKSt3__115basic_stringb
417:   FUNC GLOBAL DEFAULT 13 _ZN6aaudio25AAudioService
418:   FUNC GLOBAL DEFAULT 13 _ZN6aaudio23AAudioService
419:   FUNC GLOBAL DEFAULT 13 _ZN6aaudio19AAudioClientT
420:   FUNC GLOBAL DEFAULT 13 _ZN6aaudio21AAudioEndpoin
421:   FUNC GLOBAL DEFAULT 13 _ZN6aaudio23AAudioService
422:   FUNC GLOBAL DEFAULT 13 _ZN6aaudio23AAudioService
423:   FUNC GLOBAL DEFAULT 13 _ZN6aaudio21AAudioService
424:   FUNC GLOBAL DEFAULT 13 _ZThn208_N6aaudio25AAudio
425:   FUNC GLOBAL DEFAULT 13 _ZN6aaudio25AAudioService
426:   FUNC GLOBAL DEFAULT 13 _ZTv0_n24_N6aaudio25AAudi
427:   OBJECT GLOBAL DEFAULT 18 _ZTTN6aaudio27AAudioServi
428:   FUNC GLOBAL DEFAULT 13 _ZN6aaudio23AAudioService
429:   FUNC GLOBAL DEFAULT 13 _ZN6aaudio16SharedRingBuf
430:   FUNC WEAK DEFAULT 13 _ZN7android9SingletonIN6a
431:   FUNC GLOBAL DEFAULT 13 _ZN6aaudio19AAudioClientT
432:   FUNC GLOBAL DEFAULT 13 _ZN6aaudio21AAudioEndpoin
433:   FUNC GLOBAL DEFAULT 13 _ZN6aaudio23AAudioService
434:   FUNC GLOBAL DEFAULT 13 _ZTv0_n24_N7android13AAud
435:   FUNC GLOBAL DEFAULT 13 _ZN6aaudio23AAudioService
436:   FUNC GLOBAL DEFAULT 13 _ZN7android13AAudioServic
437:   OBJECT GLOBAL DEFAULT 18 _ZTCN6aaudio25AAudioServi
438:   FUNC GLOBAL DEFAULT 13 _ZN6aaudio23AAudioService
439:   FUNC WEAK DEFAULT 13 _ZN7android9SingletonIN6a
440:   FUNC GLOBAL DEFAULT 13 _ZN6aaudio21AAudioEndpoin
441:   FUNC GLOBAL DEFAULT 13 _ZThn32_N7android13AAudio
442:   OBJECT GLOBAL DEFAULT 18 _ZTCN7android13AAudioServ
443:   OBJECT GLOBAL DEFAULT 18 _ZTCN6aaudio25AAudioServi
444:   FUNC GLOBAL DEFAULT 13 _ZTv0_n24_N6aaudio19AAudi
445:   FUNC GLOBAL DEFAULT 13 _ZN7android13AAudioServic
446:   OBJECT GLOBAL DEFAULT 18 _ZTVN7android13AAudioServ
447:   FUNC GLOBAL DEFAULT 13 _ZN6aaudio21AAudioService
448:   OBJECT GLOBAL DEFAULT 18 _ZTTN6aaudio21AAudioServi
449:   OBJECT GLOBAL DEFAULT 18 _ZTTN6aaudio25AAudioServi
450:   OBJECT GLOBAL DEFAULT 18 _ZTCN6aaudio25AAudioServi
451:   OBJECT GLOBAL DEFAULT 15 _ZN6aaudio12AAudioThread1
452:   FUNC WEAK DEFAULT 13 _ZN7android9SingletonIN6a
453:   FUNC WEAK DEFAULT 13 _ZN7android9SingletonIN6a
454:   FUNC GLOBAL DEFAULT 13 _ZN11AAudioMixerD1Ev
455:   FUNC GLOBAL DEFAULT 13 _ZN6aaudio28AAudioService
456:   FUNC GLOBAL DEFAULT 13 _ZN6aaudio27AAudioService
457:   OBJECT GLOBAL DEFAULT 18 _ZTTN6aaudio25AAudioServi
458:   OBJECT GLOBAL DEFAULT 18 _ZTVN6aaudio23AAudioServi
459:   FUNC GLOBAL DEFAULT 13 _ZNK6aaudio21AAudioServic
460:   FUNC GLOBAL DEFAULT 13 _ZN6aaudio25AAudioService
461:   OBJECT GLOBAL DEFAULT 18 _ZTTN6aaudio23AAudioServi
462:   FUNC GLOBAL DEFAULT 13 _ZN6aaudio25AAudioService
463:   OBJECT GLOBAL DEFAULT 22 _ZN7android9SingletonIN6a
464:   FUNC GLOBAL DEFAULT 13 _ZN6aaudio28AAudioService
465:   FUNC GLOBAL DEFAULT 13 _ZN7android13AAudioServic
466:   OBJECT GLOBAL DEFAULT 18 _ZTVN6aaudio25AAudioServi
467:   FUNC GLOBAL DEFAULT 13 _ZThn32_N7android13AAudio
468:   FUNC GLOBAL DEFAULT 13 _ZN6aaudio23AAudioService
469:   FUNC GLOBAL DEFAULT 13 _ZTv0_n24_N6aaudio28AAudi
470:   FUNC GLOBAL DEFAULT 13 _ZN6aaudio28AAudioService
471:   FUNC GLOBAL DEFAULT 13 _ZN6aaudio23AAudioService
472:   FUNC GLOBAL DEFAULT 13 _ZN6aaudio23AAudioService
473:   FUNC GLOBAL DEFAULT 13 _ZN6aaudio27AAudioService
474:   FUNC WEAK DEFAULT 13 _ZN7android9SingletonIN6a
475:   FUNC WEAK DEFAULT 13 _ZNSt3__127__tree_balance
476:   OBJECT WEAK DEFAULT 18 _ZTCNSt3__118basic_string
477:   FUNC GLOBAL DEFAULT 13 _ZNK6aaudio25AAudioServic
478:   FUNC GLOBAL DEFAULT 13 _ZThn56_N6aaudio23AAudioS
479:   FUNC GLOBAL DEFAULT 13 _ZN6aaudio23AAudioService
480:   FUNC WEAK DEFAULT 13 _ZNSt3__115basic_stringbu
481:   FUNC GLOBAL DEFAULT 13 _ZN6aaudio23AAudioService
482:   FUNC GLOBAL DEFAULT 13 _ZN6aaudio12AAudioThreadC
483:   FUNC GLOBAL DEFAULT 13 _ZN6aaudio16SharedRingBuf
484:   FUNC GLOBAL DEFAULT 13 _ZN6aaudio19AAudioClientT
485:   FUNC WEAK DEFAULT 13 _ZN7android9SingletonIN6a
486:   FUNC GLOBAL DEFAULT 13 _ZNK6aaudio21AAudioEndpoi
487:   FUNC GLOBAL DEFAULT 13 _ZN6aaudio27AAudioService
488:   FUNC GLOBAL DEFAULT 13 _ZN6aaudio23AAudioService
