 0x000000000000000e (SONAME)             Library soname: [libprocessgroup.so]
  
Symbol   contains 627 entries:
Num:   Type Bind Vis Ndx Name
0:   NOTYPE LOCAL DEFAULT UND
1:   FUNC GLOBAL DEFAULT UND __cxa_finalize@LIBC (2)
2:   FUNC GLOBAL DEFAULT UND ACgroupController_getName@LIBCGROUPRC (3)
3:   FUNC GLOBAL DEFAULT UND ACgroupController_getPath@LIBCGROUPRC (3)
4:   FUNC GLOBAL DEFAULT UND ACgroupController_getVers@LIBCGROUPRC (3)
5:   FUNC GLOBAL DEFAULT UND ACgroupFile_getController@LIBCGROUPRC (3)
6:   FUNC GLOBAL DEFAULT UND ACgroupFile_getController@LIBCGROUPRC (3)
7:   FUNC GLOBAL DEFAULT UND ACgroupFile_getVersion@LIBCGROUPRC (3)
8:   FUNC GLOBAL DEFAULT UND _ZN7android4base10LogMess
9:   FUNC GLOBAL DEFAULT UND _ZN7android4base10LogMess
10:   FUNC GLOBAL DEFAULT UND _ZN7android4base10LogMess
11:   FUNC GLOBAL DEFAULT UND _ZN7android4base12StringP
12:   FUNC GLOBAL DEFAULT UND _ZN7android4base16ReadFil
13:   FUNC GLOBAL DEFAULT UND _ZN7android4base21GetMini
14:   FUNC GLOBAL DEFAULT UND _ZNKSt3__112basic_stringI
15:   FUNC GLOBAL DEFAULT UND _ZNKSt3__112basic_stringI
16:   FUNC GLOBAL DEFAULT UND _ZNKSt3__119__shared_weak
17:   FUNC GLOBAL DEFAULT UND _ZNKSt3__120__vector_base
18:   FUNC GLOBAL DEFAULT UND _ZNKSt3__121__basic_strin
19:   FUNC GLOBAL DEFAULT UND _ZNKSt3__123__match_any_b
20:   FUNC GLOBAL DEFAULT UND _ZNKSt3__16locale4nameEv
21:   FUNC GLOBAL DEFAULT UND _ZNKSt3__16locale9use_fac
22:   FUNC GLOBAL DEFAULT UND _ZNKSt3__18ios_base6getlo
23:   FUNC GLOBAL DEFAULT UND _ZNSt3__112basic_stringIc
24:   FUNC GLOBAL DEFAULT UND _ZNSt3__112basic_stringIc
25:   FUNC GLOBAL DEFAULT UND _ZNSt3__112basic_stringIc
26:   FUNC GLOBAL DEFAULT UND _ZNSt3__112basic_stringIc
27:   FUNC GLOBAL DEFAULT UND _ZNSt3__112basic_stringIc
28:   FUNC GLOBAL DEFAULT UND _ZNSt3__112basic_stringIc
29:   FUNC GLOBAL DEFAULT UND _ZNSt3__112basic_stringIc
30:   FUNC GLOBAL DEFAULT UND _ZNSt3__113basic_ostreamI
31:   FUNC GLOBAL DEFAULT UND _ZNSt3__113basic_ostreamI
32:   FUNC GLOBAL DEFAULT UND _ZNSt3__113basic_ostreamI
33:   FUNC GLOBAL DEFAULT UND _ZNSt3__113basic_ostreamI
34:   FUNC GLOBAL DEFAULT UND _ZNSt3__115__get_classnam
35:   FUNC GLOBAL DEFAULT UND _ZNSt3__119__shared_weak_
36:   FUNC GLOBAL DEFAULT UND _ZNSt3__119__shared_weak_
37:   FUNC GLOBAL DEFAULT UND _ZNSt3__120__get_collatio
38:   OBJECT GLOBAL DEFAULT UND _ZNSt3__15ctypeIcE2idE
39:   FUNC GLOBAL DEFAULT UND _ZNSt3__16localeC1ERKS0_
40:   FUNC GLOBAL DEFAULT UND _ZNSt3__16localeC1Ev
41:   FUNC GLOBAL DEFAULT UND _ZNSt3__16localeD1Ev
42:   OBJECT GLOBAL DEFAULT UND _ZNSt3__17collateIcE2idE
43:   FUNC GLOBAL DEFAULT UND _ZNSt3__18ios_base5clearE
44:   FUNC GLOBAL DEFAULT UND _ZNSt3__19to_stringEi
45:   FUNC GLOBAL DEFAULT UND _ZNSt3__19to_stringEj
46:   FUNC GLOBAL DEFAULT UND _ZNSt3__1plIcNS_11char_tr
47:   FUNC GLOBAL DEFAULT UND _ZdlPv
48:   FUNC GLOBAL DEFAULT UND _Znwm
49:   FUNC GLOBAL DEFAULT UND __cxa_guard_acquire
50:   FUNC GLOBAL DEFAULT UND __cxa_guard_release
51:   FUNC GLOBAL DEFAULT UND __errno@LIBC (2)
52:   FUNC GLOBAL DEFAULT UND __stack_chk_fail@LIBC (2)
53:   FUNC GLOBAL DEFAULT UND abort@LIBC (2)
54:   FUNC GLOBAL DEFAULT UND access@LIBC (2)
55:   FUNC GLOBAL DEFAULT UND getpid@LIBC (2)
56:   FUNC GLOBAL DEFAULT UND memchr@LIBC (2)
57:   FUNC GLOBAL DEFAULT UND memcmp@LIBC (2)
58:   FUNC GLOBAL DEFAULT UND memcpy@LIBC (2)
59:   FUNC GLOBAL DEFAULT UND memmove@LIBC (2)
60:   FUNC GLOBAL DEFAULT UND memset@LIBC (2)
61:   FUNC GLOBAL DEFAULT UND strlen@LIBC (2)
62:   FUNC GLOBAL DEFAULT UND _ZN7android4base10StartsW
63:   FUNC GLOBAL DEFAULT UND _ZN7android4base15GetBool
64:   FUNC GLOBAL DEFAULT UND _ZN7android4base17WriteSt
65:   FUNC GLOBAL DEFAULT UND _ZNSt3__111this_thread9sl
66:   FUNC GLOBAL DEFAULT UND _ZNSt3__112basic_stringIc
67:   FUNC GLOBAL DEFAULT UND _ZNSt3__113basic_ostreamI
68:   FUNC GLOBAL DEFAULT UND _ZNSt3__16chrono12steady_
69:   FUNC GLOBAL DEFAULT UND _ZNSt3__19to_stringEl
70:   FUNC GLOBAL DEFAULT UND chown@LIBC (2)
71:   FUNC GLOBAL DEFAULT UND closedir@LIBC (2)
72:   FUNC GLOBAL DEFAULT UND fclose@LIBC (2)
73:   FUNC GLOBAL DEFAULT UND feof@LIBC (2)
74:   FUNC GLOBAL DEFAULT UND fopen@LIBC (2)
75:   FUNC GLOBAL DEFAULT UND fscanf@LIBC (2)
76:   FUNC GLOBAL DEFAULT UND getpgid@LIBC (2)
77:   FUNC GLOBAL DEFAULT UND kill@LIBC (2)
78:   FUNC GLOBAL DEFAULT UND mkdir@LIBC (2)
79:   FUNC GLOBAL DEFAULT UND opendir@LIBC (2)
80:   FUNC GLOBAL DEFAULT UND readdir@LIBC (2)
81:   FUNC GLOBAL DEFAULT UND rmdir@LIBC (2)
82:   FUNC GLOBAL DEFAULT UND _ZN7android4base11GetThre
83:   FUNC GLOBAL DEFAULT UND _ZNSt3__15mutex4lockEv
84:   FUNC GLOBAL DEFAULT UND _ZNSt3__15mutex6unlockEv
85:   FUNC GLOBAL DEFAULT UND _ZNSt3__15mutexD1Ev
86:   FUNC GLOBAL DEFAULT UND _ZNSt3__19to_stringEm
87:   FUNC GLOBAL DEFAULT UND __open_2@LIBC (2)
88:   FUNC GLOBAL DEFAULT UND __write_chk@LIBC_N (4)
89:   FUNC WEAK DEFAULT UND android_fdsan_close_with_@LIBC_Q (5)
90:   FUNC WEAK DEFAULT UND android_fdsan_create_owne@LIBC_Q (5)
91:   FUNC WEAK DEFAULT UND android_fdsan_exchange_ow@LIBC_Q (5)
92:   FUNC GLOBAL DEFAULT UND close@LIBC (2)
93:   FUNC GLOBAL DEFAULT UND prctl@LIBC (2)
94:   FUNC GLOBAL DEFAULT UND strerror@LIBC (2)
95:   FUNC GLOBAL DEFAULT UND strtoul@LIBC (2)
96:   FUNC GLOBAL DEFAULT UND write@LIBC (2)
97:   FUNC GLOBAL DEFAULT UND _ZNSt3__112basic_stringIc
98:   FUNC GLOBAL DEFAULT UND _ZNSt3__112basic_stringIc
99:   FUNC GLOBAL DEFAULT UND _ZNSt3__112basic_stringIc
100:   FUNC GLOBAL DEFAULT UND _ZNSt3__112basic_stringIc
101:   FUNC GLOBAL DEFAULT UND _ZNSt3__112basic_stringIc
102:   FUNC GLOBAL DEFAULT UND _ZNSt3__113basic_istreamI
103:   FUNC GLOBAL DEFAULT UND __memcpy_chk@LIBC (2)
104:   FUNC GLOBAL DEFAULT UND __vsnprintf_chk@LIBC (2)
105:   FUNC GLOBAL DEFAULT UND exit@LIBC (2)
106:   FUNC GLOBAL DEFAULT UND fprintf@LIBC (2)
107:   FUNC GLOBAL DEFAULT UND sscanf@LIBC (2)
108:   OBJECT GLOBAL DEFAULT UND stderr@LIBC (2)
109:   FUNC GLOBAL DEFAULT UND _ZdaPv
110:   FUNC GLOBAL DEFAULT UND _Znam
111:   FUNC GLOBAL DEFAULT UND __strchr_chk@LIBC (2)
112:   FUNC GLOBAL DEFAULT UND free@LIBC (2)
113:   FUNC GLOBAL DEFAULT UND malloc@LIBC (2)
114:   FUNC GLOBAL DEFAULT UND modf@LIBC (6)
115:   FUNC GLOBAL DEFAULT UND strcmp@LIBC (2)
116:   FUNC GLOBAL DEFAULT UND _ZNSt3__113basic_ostreamI
117:   FUNC GLOBAL DEFAULT UND _ZNSt3__113basic_ostreamI
118:   FUNC GLOBAL DEFAULT UND _ZNSt3__113basic_ostreamI
119:   FUNC GLOBAL DEFAULT UND _ZNSt3__115basic_streambu
120:   FUNC GLOBAL DEFAULT UND _ZNSt3__115basic_streambu
121:   FUNC GLOBAL DEFAULT UND _ZNSt3__115basic_streambu
122:   FUNC GLOBAL DEFAULT UND _ZNSt3__115basic_streambu
123:   FUNC GLOBAL DEFAULT UND _ZNSt3__115basic_streambu
124:   FUNC GLOBAL DEFAULT UND _ZNSt3__115basic_streambu
125:   FUNC GLOBAL DEFAULT UND _ZNSt3__115basic_streambu
126:   FUNC GLOBAL DEFAULT UND _ZNSt3__115basic_streambu
127:   FUNC GLOBAL DEFAULT UND _ZNSt3__115basic_streambu
128:   FUNC GLOBAL DEFAULT UND _ZNSt3__18ios_base4initEP
129:   FUNC GLOBAL DEFAULT UND _ZNSt3__19basic_iosIcNS_1
130:   FUNC GLOBAL DEFAULT UND _ZTv0_n24_NSt3__113basic_
131:   FUNC GLOBAL DEFAULT UND _ZTv0_n24_NSt3__113basic_
132:   FUNC GLOBAL DEFAULT UND __cxa_pure_virtual
133:   FUNC GLOBAL DEFAULT UND strpbrk@LIBC (2)
134:   FUNC GLOBAL DEFAULT 14 get_sched_policy
135:   FUNC GLOBAL DEFAULT 14 _ZN4Json5Value14setOffset
136:   FUNC GLOBAL DEFAULT 14 _ZN4Json5Value12removeMem
137:   FUNC GLOBAL DEFAULT 14 _ZN4Json5ValueC2ERKNSt3__
138:   FUNC GLOBAL DEFAULT 14 _ZNK4Json17ValueIteratorB
139:   FUNC GLOBAL DEFAULT 14 _ZN4JsonlsERNSt3__113basi
140:   FUNC WEAK DEFAULT 14 _ZNKSt3__115basic_stringb
141:   FUNC WEAK DEFAULT 14 _ZNSt3__114__split_buffer
142:   FUNC GLOBAL DEFAULT 14 _ZNK12TaskProfiles10GetPr
143:   FUNC GLOBAL DEFAULT 14 _ZN4Json6Reader27decodeUn
144:   FUNC GLOBAL DEFAULT 14 _ZN4Json10FastWriter23ena
145:   FUNC GLOBAL DEFAULT 14 _ZN4Json12StyledWriter12n
146:   FUNC GLOBAL DEFAULT 14 _ZN4Json19valueToQuotedSt
147:   FUNC WEAK DEFAULT 14 _ZNKSt3__113match_results
148:   OBJECT WEAK DEFAULT 18 _ZTVNSt3__115__word_bound
149:   OBJECT WEAK DEFAULT 18 _ZTVNSt3__128__begin_mark
150:   FUNC WEAK DEFAULT 14 _ZNSt3__114__split_buffer
151:   FUNC WEAK DEFAULT 14 _ZNKSt3__110__r_anchorIcE
152:   FUNC WEAK DEFAULT 14 _ZNSt3__111basic_regexIcN
153:   OBJECT GLOBAL DEFAULT 11 _ZN4Json5Value13maxLarges
154:   FUNC GLOBAL DEFAULT 14 _ZNK4Json5Value10hasComme
155:   FUNC GLOBAL DEFAULT 14 _ZNK4Json5Value3endEv
156:   FUNC GLOBAL DEFAULT 14 _ZNK4Json5ValueixEi
157:   FUNC GLOBAL DEFAULT 14 _ZNK16CgroupController4na
158:   FUNC WEAK DEFAULT 14 _ZNKSt3__110__back_refIcE
159:   FUNC WEAK DEFAULT 14 _ZNSt3__111basic_regexIcN
160:   FUNC WEAK DEFAULT 14 _ZNSt3__111basic_regexIcN
161:   OBJECT WEAK DEFAULT 18 _ZTVNSt3__120__bracket_ex
162:   FUNC GLOBAL DEFAULT 14 _ZNK4Json5ValueixEj
163:   FUNC WEAK DEFAULT 14 _ZNSt3__16__treeINS_12__v
164:   FUNC GLOBAL DEFAULT 14 _ZN4Json6Reader12decodeNu
165:   FUNC GLOBAL DEFAULT 14 _ZNK4Json5Value14getOffse
166:   FUNC GLOBAL DEFAULT 14 _ZN4Json13ValueIteratorC2
167:   FUNC WEAK DEFAULT 14 _ZNKSt3__111__lookaheadIc
168:   FUNC GLOBAL DEFAULT 14 cpusets_enabled
169:   FUNC GLOBAL DEFAULT 14 _ZN15SetCgroupActionC1ERK
170:   FUNC GLOBAL DEFAULT 14 _ZN4Json10FastWriter5writ
171:   FUNC WEAK DEFAULT 14 _ZNKSt3__126__end_marked_
172:   FUNC GLOBAL DEFAULT 14 UsePerAppMemcg
173:   FUNC GLOBAL DEFAULT 14 _ZN4Json5ValueixEPKc
174:   FUNC GLOBAL DEFAULT 14 _ZN4Json6Reader9readValue
175:   FUNC GLOBAL DEFAULT 14 _ZN4Json5Value12removeMem
176:   FUNC WEAK DEFAULT 14 _ZNKSt3__16__loopIcE12__e
177:   FUNC WEAK DEFAULT 14 _ZNSt3__114regex_iterator
178:   FUNC GLOBAL DEFAULT 14 _ZN12TaskProfilesC1Ev
179:   FUNC GLOBAL DEFAULT 14 _ZN4Json8FeaturesC1Ev
180:   FUNC GLOBAL DEFAULT 14 _ZN4Json12PathArgumentC2E
181:   FUNC GLOBAL DEFAULT 14 _ZN4Json18ValueConstItera
182:   FUNC GLOBAL DEFAULT 14 _ZNK4Json5ValueneERKS0_
183:   FUNC GLOBAL DEFAULT 14 _ZNK4Json5Value7isArrayEv
184:   FUNC WEAK DEFAULT 14 _ZNSt3__17getlineIcNS_11c
185:   FUNC WEAK DEFAULT 14 _ZNKSt3__111basic_regexIc
186:   FUNC WEAK DEFAULT 14 _ZNKSt3__16__treeINS_12__
187:   OBJECT GLOBAL DEFAULT 18 _ZTV15SetCgroupAction
188:   FUNC GLOBAL DEFAULT 14 _ZN4Json6Reader9pushError
189:   FUNC GLOBAL DEFAULT 14 _ZN4JsonrsERNSt3__113basi
190:   FUNC GLOBAL DEFAULT 14 _ZN9CgroupMap11GetInstanc
191:   FUNC WEAK DEFAULT 14 _ZNSt3__114__split_buffer
192:   FUNC WEAK DEFAULT 14 _ZNSt3__117__owns_two_sta
193:   FUNC GLOBAL DEFAULT 14 DropTaskProfilesResourceC
194:   FUNC GLOBAL DEFAULT 14 _ZN4Json5ValueC1ERKS0_
195:   FUNC GLOBAL DEFAULT 14 _ZNK4Json5Value7asFloatEv
196:   FUNC GLOBAL DEFAULT 14 _ZN4Json8Features3allEv
197:   FUNC GLOBAL DEFAULT 14 _ZNK4Json5ValueeqERKS0_
198:   FUNC GLOBAL DEFAULT 14 _ZN4Json12StyledWriter18h
199:   FUNC WEAK DEFAULT 14 _ZNSt3__16vectorINS_4pair
200:   FUNC GLOBAL DEFAULT 14 _ZNK15SetClampsAction17Ex
201:   FUNC WEAK DEFAULT 14 _ZNKSt3__16__treeINS_12__
202:   FUNC GLOBAL DEFAULT 14 _ZN4Json6Reader11readComm
203:   FUNC GLOBAL DEFAULT 14 _ZN4Json12PathArgumentC1E
204:   FUNC GLOBAL DEFAULT 14 _ZN4Json12PathArgumentC1E
205:   FUNC GLOBAL DEFAULT 14 _ZN4Json18ValueConstItera
206:   OBJECT GLOBAL DEFAULT 11 _ZN4Json5Value8minInt64E
207:   FUNC GLOBAL DEFAULT 14 _ZN4Json18StyledStreamWri
208:   OBJECT WEAK DEFAULT 18 _ZTVNSt3__119basic_ostrin
209:   OBJECT WEAK DEFAULT 18 _ZTVNSt3__120__shared_ptr
210:   FUNC WEAK DEFAULT 14 _ZNSt3__113__tree_removeI
211:   FUNC GLOBAL DEFAULT 14 _ZNK4Json5Value10getComme
212:   FUNC GLOBAL DEFAULT 14 _ZN4Json18StyledStreamWri
213:   FUNC WEAK DEFAULT 14 _ZNSt3__15dequeINS_7__sta
214:   FUNC GLOBAL DEFAULT 14 _ZN4Json6Reader10skipSpac
215:   FUNC GLOBAL DEFAULT 14 _ZN4Json4Path11invalidPat
216:   FUNC GLOBAL DEFAULT 14 _ZN4Json18StyledStreamWri
217:   FUNC WEAK DEFAULT 14 _ZNKSt3__116__back_ref_ic
218:   FUNC WEAK DEFAULT 14 _ZNSt3__111basic_regexIcN
219:   FUNC WEAK DEFAULT 14 _ZNSt3__16vectorINS_9sub_
220:   FUNC GLOBAL DEFAULT 14 _ZNK4Json5Value8asStringE
221:   FUNC GLOBAL DEFAULT 14 _ZNK4Json6Reader19getStru
222:   FUNC GLOBAL DEFAULT 14 _ZN4Json5Value11CommentIn
223:   FUNC GLOBAL DEFAULT 14 _ZN4Json5ValueC2Eb
224:   FUNC GLOBAL DEFAULT 14 _ZNK4Json5Value12isValidI
225:   FUNC GLOBAL DEFAULT 14 _ZNK4Json6Reader25getForm
226:   FUNC GLOBAL DEFAULT 14 _ZN4Json6Reader17skipComm
227:   FUNC GLOBAL DEFAULT 14 _ZN4Json6Reader9pushError
228:   FUNC GLOBAL DEFAULT 14 _ZN4Json17ValueIteratorBa
229:   FUNC GLOBAL DEFAULT 14 _ZN4Json5ValueC1ERKNS_12S
230:   FUNC GLOBAL DEFAULT 14 _ZN4Json18StyledStreamWri
231:   FUNC WEAK DEFAULT 14 _ZNSt3__127__tree_balance
232:   FUNC GLOBAL DEFAULT 14 setProcessGroupLimit
233:   FUNC GLOBAL DEFAULT 14 _ZN4Json6Reader12decodeDo
234:   FUNC GLOBAL DEFAULT 14 _ZN4Json5Value11CommentIn
235:   FUNC GLOBAL DEFAULT 14 _ZN4Json5ValueC2Ed
236:   FUNC GLOBAL DEFAULT 14 _ZNK4Json17ValueIteratorB
237:   FUNC GLOBAL DEFAULT 14 _ZNK4Json5Value6asUIntEv
238:   FUNC WEAK DEFAULT 14 _ZNSt3__111basic_regexIcN
239:   FUNC GLOBAL DEFAULT 14 _ZN4Json17ValueIteratorBa
240:   FUNC GLOBAL DEFAULT 14 _ZN4Json6WriterD2Ev
241:   FUNC GLOBAL DEFAULT 14 _ZNK4Json5Value6isNullEv
242:   FUNC GLOBAL DEFAULT 14 _ZNK4Json5Value7isInt64Ev
243:   FUNC GLOBAL DEFAULT 14 _ZNK4Json5ValuegtERKS0_
244:   FUNC WEAK DEFAULT 14 _ZNSt3__111basic_regexIcN
245:   OBJECT GLOBAL DEFAULT 18 _ZTV15SetClampsAction
246:   FUNC GLOBAL DEFAULT 14 _ZN4Json12StyledWriter5wr
247:   FUNC GLOBAL DEFAULT 14 _ZNK4Json5Value8isMemberE
248:   FUNC WEAK DEFAULT 14 _ZNSt3__16vectorINS_9sub_
249:   FUNC GLOBAL DEFAULT 14 _ZN4Json5Value16resolveRe
250:   FUNC GLOBAL DEFAULT 14 removeAllProcessGroups
251:   FUNC GLOBAL DEFAULT 14 _ZN4Json5ValueC2Ei
252:   FUNC GLOBAL DEFAULT 14 _ZN4Json10FastWriter10wri
253:   OBJECT WEAK DEFAULT 18 _ZTVNSt3__111__end_stateI
254:   FUNC GLOBAL DEFAULT 14 _ZNK4Json5ValueixEPKc
255:   FUNC GLOBAL DEFAULT 14 _ZN4Json6Reader19readCppS
256:   FUNC GLOBAL DEFAULT 14 _ZN4Json6Reader8addErrorE
257:   FUNC WEAK DEFAULT 14 _ZNSt3__15dequeIPN4Json5V
258:   FUNC GLOBAL DEFAULT 14 _ZN4Json12PathArgumentC1E
259:   FUNC GLOBAL DEFAULT 14 _ZN4Json5ValueC2ENS_9Valu
260:   FUNC GLOBAL DEFAULT 14 _ZN4Json5ValueC2Ej
261:   FUNC GLOBAL DEFAULT 14 _ZN4Json12StyledWriter6in
262:   FUNC GLOBAL DEFAULT 14 _ZN4Json13valueToStringEb
263:   FUNC GLOBAL DEFAULT 14 _ZN4Json6Reader11expectTo
264:   FUNC GLOBAL DEFAULT 14 _ZNK4Json4Path7resolveERK
265:   FUNC GLOBAL DEFAULT 14 _ZNK4Json5Value9asCString
266:   FUNC GLOBAL DEFAULT 14 _ZN4Json6Reader10readNumb
267:   FUNC GLOBAL DEFAULT 14 _ZN4Json13valueToStringEd
268:   FUNC GLOBAL DEFAULT 14 _ZN4Json10FastWriter18omi
269:   OBJECT GLOBAL DEFAULT 18 _ZTV19SetTimerSlackAction
270:   FUNC WEAK DEFAULT 14 _ZNSt3__111basic_regexIcN
271:   FUNC WEAK DEFAULT 14 _ZNSt3__111basic_regexIcN
272:   FUNC GLOBAL DEFAULT 14 _ZNK4Json17ValueIteratorB
273:   FUNC WEAK DEFAULT 14 _ZNSt3__111basic_regexIcN
274:   OBJECT WEAK DEFAULT 18 _ZTVNSt3__126__end_marked
275:   FUNC GLOBAL DEFAULT 14 _ZNK4Json6Reader24getLoca
276:   FUNC WEAK DEFAULT 14 _ZNSt3__111basic_regexIcN
277:   FUNC WEAK DEFAULT 14 _ZNSt3__16vectorINS_4pair
278:   OBJECT WEAK DEFAULT 18 _ZTVNSt3__116__back_ref_i
279:   FUNC GLOBAL DEFAULT 14 _ZNK15SetClampsAction14Ex
280:   FUNC GLOBAL DEFAULT 14 _ZN4Json13ValueIteratorC2
281:   FUNC GLOBAL DEFAULT 14 _ZN4Json18ValueConstItera
282:   FUNC GLOBAL DEFAULT 14 _ZNK4Json5Value3getEPKcRK
283:   FUNC GLOBAL DEFAULT 14 _ZNK16CgroupController12G
284:   FUNC GLOBAL DEFAULT 14 _ZN4Json13valueToStringEi
285:   OBJECT GLOBAL DEFAULT 18 _ZTVN4Json6WriterE
286:   FUNC GLOBAL DEFAULT 14 CgroupGetAttributePathFor
287:   OBJECT GLOBAL DEFAULT 11 _ZN4Json5Value6maxIntE
288:   FUNC GLOBAL DEFAULT 14 _ZN4Json13valueToStringEj
289:   FUNC WEAK DEFAULT 14 _ZNKSt3__111__match_anyIc
290:   FUNC GLOBAL DEFAULT 14 createProcessGroup
291:   FUNC WEAK DEFAULT 14 _ZNSt3__16vectorINS_7__st
292:   FUNC GLOBAL DEFAULT 14 _ZN12TaskProfiles4LoadERK
293:   FUNC GLOBAL DEFAULT 14 _ZN4Json5ValueC1Eb
294:   FUNC GLOBAL DEFAULT 14 _ZNK4Json5Value6asBoolEv
295:   FUNC WEAK DEFAULT 14 _ZNSt3__16vectorIPKN4Json
296:   FUNC GLOBAL DEFAULT 14 _ZN4Json12StyledWriter23w
297:   OBJECT GLOBAL DEFAULT 18 _ZN4Json5Value4nullE
298:   FUNC GLOBAL DEFAULT 14 _ZNK16ProfileAttribute14G
299:   FUNC GLOBAL DEFAULT 14 setProcessGroupSwappiness
300:   FUNC GLOBAL DEFAULT 14 _ZN4Json5ValueC1Ed
301:   FUNC GLOBAL DEFAULT 14 _ZNK4Json5Value5emptyEv
302:   FUNC WEAK DEFAULT 14 _ZNSt3__120__shared_ptr_p
303:   OBJECT WEAK DEFAULT 18 _ZTVNSt3__110__r_anchorIc
304:   OBJECT GLOBAL DEFAULT 18 _ZN4Json8kNullRefE
305:   FUNC GLOBAL DEFAULT 14 _ZNK4Json5Value9isNumeric
306:   FUNC GLOBAL DEFAULT 14 _ZN4Json5Value10setCommen
307:   FUNC GLOBAL DEFAULT 14 _ZN4Json5Value8CZStringaS
308:   FUNC GLOBAL DEFAULT 14 _ZN4Json5ValueC2Ex
309:   FUNC GLOBAL DEFAULT 14 _ZN4Json6WriterD1Ev
310:   FUNC WEAK DEFAULT 14 _ZNSt3__111basic_regexIcN
311:   FUNC GLOBAL DEFAULT 14 _ZN4Json5ValueC2Ey
312:   FUNC GLOBAL DEFAULT 14 _ZNK4Json4Path7resolveERK
313:   FUNC GLOBAL DEFAULT 14 _ZNK4Json5Value4typeEv
314:   FUNC GLOBAL DEFAULT 14 _ZNK4Json5Value8isUInt64E
315:   FUNC WEAK DEFAULT 14 _ZNSt3__16__treeINS_12__v
316:   FUNC GLOBAL DEFAULT 14 _ZN16CgroupController8IsU
317:   FUNC WEAK DEFAULT 14 _ZNKSt3__110__l_anchorIcE
318:   FUNC GLOBAL DEFAULT 14 SetTaskProfiles
319:   FUNC WEAK DEFAULT 14 _ZNSt3__114__split_buffer
320:   FUNC GLOBAL DEFAULT 14 _ZNK4Json5Value7compareER
321:   FUNC GLOBAL DEFAULT 14 _ZN4Json12StyledWriter15w
322:   FUNC WEAK DEFAULT 14 _ZNSt3__111basic_regexIcN
323:   OBJECT WEAK DEFAULT 18 _ZTVNSt3__118__match_char
324:   FUNC GLOBAL DEFAULT 14 _ZN15SetCgroupActionC2ERK
325:   FUNC GLOBAL DEFAULT 14 _ZN4Json8Features10strict
326:   OBJECT GLOBAL DEFAULT 11 _ZN4Json5Value6minIntE
327:   FUNC GLOBAL DEFAULT 14 _ZN4Json5ValueC1Ei
328:   FUNC GLOBAL DEFAULT 14 _ZN4Json18StyledStreamWri
329:   OBJECT GLOBAL DEFAULT 18 _ZTV18SetAttributeAction
330:   FUNC GLOBAL DEFAULT 14 _ZN4Json5ValueC1Ej
331:   FUNC GLOBAL DEFAULT 14 _ZNK4Json17ValueIteratorB
332:   FUNC WEAK DEFAULT 14 _ZNSt3__111basic_regexIcN
333:   FUNC GLOBAL DEFAULT 14 _ZN4Json17ValueIteratorBa
334:   FUNC GLOBAL DEFAULT 14 _ZNK4Json5Value14getMembe
335:   FUNC WEAK DEFAULT 14 _ZNSt3__125__lexicographi
336:   FUNC GLOBAL DEFAULT 14 _ZN4Json18StyledStreamWri
337:   FUNC GLOBAL DEFAULT 14 _ZN4Json5Value8CZStringC1
338:   FUNC WEAK DEFAULT 14 _ZNSt3__16__treeINS_12__v
339:   FUNC WEAK DEFAULT 14 _ZNSt3__16vectorINS_9sub_
340:   OBJECT WEAK DEFAULT 18 _ZTVNSt3__111__alternateI
341:   OBJECT WEAK DEFAULT 18 _ZTVNSt3__113__empty_stat
342:   FUNC WEAK DEFAULT 14 _ZNSt3__16vectorIN4Json6R
343:   OBJECT GLOBAL DEFAULT 18 _ZTVN4Json10FastWriterE
344:   FUNC WEAK DEFAULT 14 _ZNSt3__117__owns_two_sta
345:   OBJECT WEAK DEFAULT 18 _ZTVNSt3__110__back_refIc
346:   FUNC GLOBAL DEFAULT 14 _ZNK15SetCgroupAction14Ex
347:   FUNC WEAK DEFAULT 14 _ZNSt3__112__deque_baseIN
348:   FUNC GLOBAL DEFAULT 14 _ZN4Json13valueToStringEx
349:   FUNC GLOBAL DEFAULT 14 _ZN4Json5Value6resizeEj
350:   FUNC GLOBAL DEFAULT 14 _ZNK4Json5Value3getERKNSt
351:   FUNC WEAK DEFAULT 14 _ZNKSt3__112regex_traitsI
352:   FUNC GLOBAL DEFAULT 14 _ZN15SetCgroupAction19Dro
353:   FUNC GLOBAL DEFAULT 14 _ZN4Json6Reader12decodeDo
354:   FUNC GLOBAL DEFAULT 14 _ZN4Json13valueToStringEy
355:   FUNC GLOBAL DEFAULT 14 _ZN4Json13ValueIteratorC1
356:   FUNC GLOBAL DEFAULT 14 _ZN4Json4PathC2ERKNSt3__1
357:   FUNC GLOBAL DEFAULT 14 _ZN4Json6Reader5parseERKN
358:   FUNC GLOBAL DEFAULT 14 _ZN4Json4Path8makePathERK
359:   FUNC GLOBAL DEFAULT 14 _ZN19SetTimerSlackAction2
360:   FUNC GLOBAL DEFAULT 14 _ZNK18SetAttributeAction1
361:   FUNC GLOBAL DEFAULT 14 _ZN4Json5Value4swapERS0_
362:   FUNC GLOBAL DEFAULT 14 _ZN4Json5Value8CZStringC2
363:   FUNC GLOBAL DEFAULT 14 _ZN4Json6Reader18addError
364:   OBJECT GLOBAL DEFAULT 11 _ZN4Json5Value14maxLarges
365:   FUNC GLOBAL DEFAULT 14 _ZN4Json6ReaderC2ERKNS_8F
366:   OBJECT GLOBAL DEFAULT 18 _ZTVN4Json12StyledWriterE
367:   FUNC GLOBAL DEFAULT 14 _ZN4Json12StyledWriterC2E
368:   FUNC WEAK DEFAULT 14 _ZNSt3__115basic_stringbu
369:   FUNC WEAK DEFAULT 14 _ZNKSt3__111basic_regexIc
370:   FUNC GLOBAL DEFAULT 14 _ZN4Json6Reader11getNextC
371:   FUNC GLOBAL DEFAULT 14 _ZN4Json5ValueixEi
372:   FUNC GLOBAL DEFAULT 14 _ZN4Json6Reader9readToken
373:   FUNC GLOBAL DEFAULT 14 _ZN4Json5ValueC2EPKc
374:   FUNC GLOBAL DEFAULT 14 _ZNK4Json5ValueleERKS0_
375:   OBJECT WEAK DEFAULT 18 _ZTVNSt3__118__back_ref_c
376:   FUNC GLOBAL DEFAULT 14 _ZN4Json5ValueixEj
377:   FUNC GLOBAL DEFAULT 14 _ZN4Json12StyledWriter11w
378:   FUNC WEAK DEFAULT 14 _ZNKSt3__117__repeat_one_
379:   FUNC GLOBAL DEFAULT 14 _ZN4Json5ValueaSES0_
380:   FUNC GLOBAL DEFAULT 14 _ZN4Json5Value5clearEv
381:   FUNC GLOBAL DEFAULT 14 _ZNK4Json5Value5beginEv
382:   FUNC WEAK DEFAULT 14 _ZNKSt3__115__word_bounda
383:   FUNC GLOBAL DEFAULT 14 _ZNK15SetCgroupAction17Ex
384:   FUNC GLOBAL DEFAULT 14 _ZN4Json5ValueC1Ex
385:   FUNC GLOBAL DEFAULT 14 _ZN4Json6WriterD0Ev
386:   FUNC WEAK DEFAULT 14 _ZNKSt3__112regex_traitsI
387:   FUNC GLOBAL DEFAULT 14 _ZN4Json6Reader16recoverF
388:   FUNC GLOBAL DEFAULT 14 _ZN4Json5ValueC1Ey
389:   OBJECT GLOBAL DEFAULT 11 _ZN4Json5Value7maxUIntE
390:   FUNC GLOBAL DEFAULT 14 _ZN4Json5ValueD2Ev
391:   FUNC WEAK DEFAULT 14 _ZNSt3__111basic_regexIcN
392:   FUNC GLOBAL DEFAULT 14 killProcessGroup
393:   FUNC GLOBAL DEFAULT 14 _ZN4Json5ValueC1ERKNSt3__
394:   FUNC GLOBAL DEFAULT 14 _ZNK4Json5ValueixERKNSt3_
395:   FUNC WEAK DEFAULT 14 _ZNSt3__16vectorIN4Json12
396:   FUNC GLOBAL DEFAULT 14 _ZN4Json12StyledWriter32w
397:   FUNC WEAK DEFAULT 14 _ZNSt3__111basic_regexIcN
398:   FUNC GLOBAL DEFAULT 14 _ZNK4Json5Value8isStringE
399:   FUNC WEAK DEFAULT 14 _ZNSt3__116__owns_one_sta
400:   FUNC WEAK DEFAULT 14 _ZNSt3__16vectorINS_9sub_
401:   FUNC GLOBAL DEFAULT 14 _ZN4Json17ValueIteratorBa
402:   OBJECT WEAK DEFAULT 18 _ZTVNSt3__121__empty_non_
403:   FUNC WEAK DEFAULT 14 _ZNSt3__16__treeINS_12__v
404:   FUNC WEAK DEFAULT 14 _ZNSt3__114__split_buffer
405:   FUNC GLOBAL DEFAULT 14 _ZN4Json13ValueIteratoraS
406:   FUNC GLOBAL DEFAULT 14 _ZNK4Json4Path4makeERNS_5
407:   FUNC GLOBAL DEFAULT 14 setProcessGroupSoftLimit
408:   FUNC GLOBAL DEFAULT 14 _ZNK4Json5Value15isConver
409:   FUNC GLOBAL DEFAULT 14 _ZNK4Json5Value8isDoubleE
410:   FUNC WEAK DEFAULT 14 _ZNSt3__114__split_buffer
411:   FUNC GLOBAL DEFAULT 14 _ZN4Json5Value10setCommen
412:   FUNC GLOBAL DEFAULT 14 _ZN4Json13ValueIteratorC1
413:   FUNC GLOBAL DEFAULT 14 _ZN4Json13ValueIteratorC1
414:   FUNC GLOBAL DEFAULT 14 _ZN4Json5Value8CZStringC2
415:   FUNC WEAK DEFAULT 14 _ZNSt3__115basic_stringbu
416:   FUNC WEAK DEFAULT 14 _ZNKSt3__111__alternateIc
417:   FUNC WEAK DEFAULT 14 _ZNKSt3__121__empty_non_o
418:   FUNC WEAK DEFAULT 14 _ZNSt3__16__treeINS_12__v
419:   FUNC WEAK DEFAULT 14 _ZNSt3__16vectorINS_10uni
420:   FUNC GLOBAL DEFAULT 14 _ZN4Json17ValueIteratorBa
421:   FUNC GLOBAL DEFAULT 14 _ZNK4Json5Value8CZStringl
422:   FUNC WEAK DEFAULT 14 _ZNKSt3__16__loopIcE6__ex
423:   FUNC WEAK DEFAULT 14 _ZNSt3__16vectorINS_12bas
424:   OBJECT WEAK DEFAULT 18 _ZTVNSt3__116__owns_one_s
425:   FUNC GLOBAL DEFAULT 14 set_sched_policy
426:   FUNC GLOBAL DEFAULT 14 _ZN4Json13ValueIteratorC2
427:   FUNC WEAK DEFAULT 14 _ZNSt3__111basic_regexIcN
428:   FUNC GLOBAL DEFAULT 14 _ZN4Json12PathArgumentC2E
429:   FUNC GLOBAL DEFAULT 14 _ZNK4Json5Value13asLarges
430:   FUNC GLOBAL DEFAULT 14 _ZNK16CgroupController8Ha
431:   FUNC WEAK DEFAULT 14 _ZNKSt3__112__match_charI
432:   FUNC GLOBAL DEFAULT 14 _ZN4Json5Value3endEv
433:   FUNC GLOBAL DEFAULT 14 _ZN4Json5Value8CZStringC1
434:   FUNC GLOBAL DEFAULT 14 _ZNK4Json5ValuentEv
435:   FUNC GLOBAL DEFAULT 14 _ZN4Json6Reader12decodeSt
436:   FUNC GLOBAL DEFAULT 14 _ZN4Json12StyledWriterC1E
437:   FUNC WEAK DEFAULT 14 _ZNKSt3__128__begin_marke
438:   OBJECT GLOBAL DEFAULT 11 _ZN4Json5Value8maxInt64E
439:   FUNC GLOBAL DEFAULT 14 _ZNK4Json5Value12asLarges
440:   FUNC GLOBAL DEFAULT 14 _ZN4Json10FastWriter20dro
441:   FUNC GLOBAL DEFAULT 14 _ZNK4Json6Reader24getForm
442:   FUNC GLOBAL DEFAULT 14 _ZN4Json5Value8CZStringC1
443:   FUNC GLOBAL DEFAULT 14 _ZN4Json5ValueC1EPKcS2_
444:   FUNC GLOBAL DEFAULT 14 _ZNK4Json17ValueIteratorB
445:   FUNC GLOBAL DEFAULT 14 _ZNK4Json5Value7asInt64Ev
446:   FUNC GLOBAL DEFAULT 14 _ZNK4Json5Value8isMemberE
447:   FUNC GLOBAL DEFAULT 14 _ZNK4Json5ValuegeERKS0_
448:   FUNC WEAK DEFAULT 14 _ZNKSt3__112regex_traitsI
449:   FUNC WEAK DEFAULT 14 _ZNSt3__120__shared_ptr_p
450:   FUNC WEAK DEFAULT 14 _ZNSt3__16vectorIcNS_9all
451:   FUNC WEAK DEFAULT 14 _ZNSt3__114__split_buffer
452:   FUNC GLOBAL DEFAULT 14 _ZN4Json5Value5beginEv
453:   FUNC WEAK DEFAULT 14 _ZNKSt3__112regex_traitsI
454:   OBJECT WEAK DEFAULT 18 _ZTVNSt3__120__match_char
455:   FUNC GLOBAL DEFAULT 14 _ZN4Json5ValueD1Ev
456:   FUNC GLOBAL DEFAULT 14 _ZN4Json5Value14setOffset
457:   FUNC WEAK DEFAULT 14 _ZNSt3__16__treeIiNS_4les
458:   FUNC GLOBAL DEFAULT 14 _ZNK4Json6Reader4goodEv
459:   FUNC GLOBAL DEFAULT 14 _ZN4Json12PathArgumentC2E
460:   FUNC GLOBAL DEFAULT 14 _ZNK4Json5Value8CZStringe
461:   FUNC GLOBAL DEFAULT 14 _ZN4Json6ReaderC1ERKNS_8F
462:   FUNC GLOBAL DEFAULT 14 _ZNK16CgroupController4pa
463:   FUNC GLOBAL DEFAULT 14 _ZNK4Json5Value3getEjRKS0
464:   FUNC GLOBAL DEFAULT 14 _ZNK4Json5Value8CZString5
465:   FUNC WEAK DEFAULT 14 _ZNSt3__16__treeINS_12__v
466:   OBJECT WEAK DEFAULT 18 _ZTVNSt3__117__repeat_one
467:   OBJECT WEAK DEFAULT 18 _ZTVNSt3__123__match_any_
468:   FUNC GLOBAL DEFAULT 14 SetProcessProfiles
469:   FUNC GLOBAL DEFAULT 14 _ZN4Json6Reader12currentV
470:   FUNC GLOBAL DEFAULT 14 _ZN4Json5ValueixERKNSt3__
471:   FUNC GLOBAL DEFAULT 14 _ZNK4Json5Value14getOffse
472:   FUNC GLOBAL DEFAULT 14 _ZN4Json12StyledWriter15w
473:   FUNC GLOBAL DEFAULT 14 _ZNK9CgroupMap14FindContr
474:   FUNC GLOBAL DEFAULT 14 _ZNK4Json5Value10isIntegr
475:   FUNC GLOBAL DEFAULT 14 _ZNK4Json5Value8CZString1
476:   FUNC GLOBAL DEFAULT 14 _ZN4Json18StyledStreamWri
477:   FUNC WEAK DEFAULT 14 _ZNSt3__15dequeINS_7__sta
478:   FUNC WEAK DEFAULT 14 _ZNSt3__16vectorINS_4pair
479:   FUNC GLOBAL DEFAULT 14 _ZN4Json6ReaderC2Ev
480:   FUNC GLOBAL DEFAULT 14 _ZNK4Json5Value8asUInt64E
481:   FUNC GLOBAL DEFAULT 14 _ZN4Json18StyledStreamWri
482:   OBJECT WEAK DEFAULT 18 _ZTCNSt3__119basic_ostrin
483:   FUNC WEAK DEFAULT 14 _ZNSt3__111basic_regexIcN
484:   FUNC WEAK DEFAULT 14 _ZNSt3__114__split_buffer
485:   FUNC GLOBAL DEFAULT 14 _ZN4Json5ValueC2ERKS0_
486:   FUNC WEAK DEFAULT 14 _ZNSt3__111basic_regexIcN
487:   FUNC WEAK DEFAULT 14 _ZNSt3__113regex_replaceI
488:   FUNC WEAK DEFAULT 14 _ZNSt3__16vectorIcNS_9all
489:   OBJECT WEAK DEFAULT 18 _ZTVNSt3__110__l_anchorIc
490:   FUNC GLOBAL DEFAULT 14 _ZN4Json13ValueIteratorC2
491:   FUNC GLOBAL DEFAULT 14 _ZN4Json12StyledWriter9pu
492:   FUNC GLOBAL DEFAULT 14 _ZNK16CgroupController7ve
493:   FUNC WEAK DEFAULT 14 _ZNSt3__111basic_regexIcN
494:   FUNC GLOBAL DEFAULT 14 set_cpuset_policy
495:   FUNC WEAK DEFAULT 14 _ZNSt3__15dequeIN4Json6Re
496:   FUNC GLOBAL DEFAULT 14 _ZN4Json5Value8CZStringD2
497:   FUNC GLOBAL DEFAULT 14 _ZN4Json5ValueixERKNS_12S
498:   FUNC WEAK DEFAULT 14 _ZNKSt3__111__alternateIc
499:   FUNC WEAK DEFAULT 14 _ZNSt3__111basic_regexIcN
500:   FUNC GLOBAL DEFAULT 14 _ZN15SetCgroupAction14Add
501:   FUNC GLOBAL DEFAULT 14 _ZN15SetCgroupAction21Ena
502:   FUNC GLOBAL DEFAULT 14 _ZN4Json6Reader10readStri
503:   FUNC GLOBAL DEFAULT 14 _ZN4Json6Reader5parseEPKc
504:   FUNC GLOBAL DEFAULT 14 _ZN4Json12StyledWriter10w
505:   FUNC WEAK DEFAULT 14 _ZNSt3__111basic_regexIcN
506:   FUNC WEAK DEFAULT 14 _ZNSt3__114__split_buffer
507:   OBJECT WEAK DEFAULT 18 _ZTTNSt3__119basic_ostrin
508:   FUNC GLOBAL DEFAULT 14 _ZN4Json5ValueC1ENS_9Valu
509:   FUNC GLOBAL DEFAULT 14 _ZN4Json17ValueIteratorBa
510:   FUNC GLOBAL DEFAULT 14 _ZN4Json5Value8CZString4s
511:   FUNC GLOBAL DEFAULT 14 _ZNK4Json17ValueIteratorB
512:   FUNC GLOBAL DEFAULT 14 _ZNK4Json5ValueltERKS0_
513:   OBJECT WEAK DEFAULT 18 _ZTVNSt3__115basic_string
514:   FUNC GLOBAL DEFAULT 14 _ZN4Json6Reader10addComme
515:   FUNC GLOBAL DEFAULT 14 _ZN4Json6Reader10readObje
516:   FUNC GLOBAL DEFAULT 14 _ZN4Json18StyledStreamWri
517:   FUNC GLOBAL DEFAULT 14 _ZNK12TaskProfiles19DropR
518:   FUNC WEAK DEFAULT 14 _ZNSt3__16__treeINS_12__v
519:   FUNC GLOBAL DEFAULT 14 _ZN4Json6Reader12decodeSt
520:   FUNC GLOBAL DEFAULT 14 _ZN4Json6Reader5parseERNS
521:   FUNC GLOBAL DEFAULT 14 schedboost_enabled
522:   FUNC GLOBAL DEFAULT 14 _ZN4Json13ValueIteratorC1
523:   FUNC GLOBAL DEFAULT 14 _ZN4Json5Value9initBasicE
524:   FUNC WEAK DEFAULT 14 _ZNSt3__112__deque_baseIN
525:   FUNC WEAK DEFAULT 14 _ZNSt3__114__split_buffer
526:   FUNC GLOBAL DEFAULT 14 _ZN4Json4Path12addPathInA
527:   FUNC GLOBAL DEFAULT 14 _ZNK4Json5Value14toStyled
528:   FUNC GLOBAL DEFAULT 14 _ZNK4Json5Value6isBoolEv
529:   FUNC WEAK DEFAULT 14 _ZNSt3__15dequeIN4Json6Re
530:   FUNC GLOBAL DEFAULT 14 _ZN4Json18StyledStreamWri
531:   FUNC WEAK DEFAULT 14 _ZNSt3__124__put_characte
532:   FUNC GLOBAL DEFAULT 14 _ZNK19SetTimerSlackAction
533:   FUNC GLOBAL DEFAULT 14 _ZN4Json18StyledStreamWri
534:   FUNC WEAK DEFAULT 14 _ZNSt3__111basic_regexIcN
535:   FUNC WEAK DEFAULT 14 _ZNSt3__116__owns_one_sta
536:   FUNC GLOBAL DEFAULT 14 get_sched_policy_name
537:   FUNC GLOBAL DEFAULT 14 _ZN4Json6Reader9readArray
538:   FUNC GLOBAL DEFAULT 14 _ZNK4Json5Value8isObjectE
539:   FUNC GLOBAL DEFAULT 14 _ZNK4Json5Value5asIntEv
540:   FUNC WEAK DEFAULT 14 _ZNSt3__111basic_regexIcN
541:   FUNC WEAK DEFAULT 14 _ZNSt3__114__split_buffer
542:   FUNC GLOBAL DEFAULT 14 _ZN4Json5ValueC1EPKc
543:   FUNC GLOBAL DEFAULT 14 _ZNK4Json5Value8CZString5
544:   FUNC GLOBAL DEFAULT 14 _ZN4Json10FastWriterC2Ev
545:   FUNC GLOBAL DEFAULT 14 _ZN9CgroupMapC2Ev
546:   FUNC GLOBAL DEFAULT 14 _ZN4Json6ReaderC1Ev
547:   FUNC GLOBAL DEFAULT 14 _ZN4Json6Reader17readCSty
548:   FUNC WEAK DEFAULT 14 _ZNSt3__114__split_buffer
549:   OBJECT GLOBAL DEFAULT 11 _ZN4Json5Value13minLarges
550:   FUNC GLOBAL DEFAULT 14 _ZN4Json5Value11CommentIn
551:   FUNC GLOBAL DEFAULT 14 _ZNK12TaskProfiles12GetAt
552:   FUNC WEAK DEFAULT 14 _ZNSt3__15dequeIN4Json6Re
553:   FUNC WEAK DEFAULT 14 _ZNSt3__16vectorINS_12bas
554:   FUNC WEAK DEFAULT 14 _ZNSt3__111basic_regexIcN
555:   FUNC WEAK DEFAULT 14 _ZNSt3__16vectorINS_12bas
556:   FUNC GLOBAL DEFAULT 14 _ZN4Json5Value8CZStringD1
557:   FUNC GLOBAL DEFAULT 14 _ZN4Json5ValueC2ERKNS_12S
558:   FUNC WEAK DEFAULT 14 _ZNSt3__115basic_stringbu
559:   FUNC GLOBAL DEFAULT 14 _ZNK16CgroupController16G
560:   FUNC WEAK DEFAULT 14 _ZNKSt3__118__match_char_
561:   OBJECT WEAK DEFAULT 18 _ZTVNSt3__16__loopIcEE
562:   FUNC WEAK DEFAULT 14 _ZNKSt3__120__match_char_
563:   OBJECT GLOBAL DEFAULT 11 _ZN4Json5Value9maxUInt64E
564:   FUNC WEAK DEFAULT 14 _ZNSt3__16__treeINS_12__v
565:   FUNC GLOBAL DEFAULT 14 _ZNK9CgroupMap5PrintEv
566:   FUNC GLOBAL DEFAULT 14 _ZNK4Json6Reader24getLoca
567:   FUNC GLOBAL DEFAULT 14 _ZN4Json18StyledStreamWri
568:   FUNC WEAK DEFAULT 14 _ZNKSt3__112regex_traitsI
569:   FUNC WEAK DEFAULT 14 _ZNSt3__111basic_regexIcN
570:   FUNC GLOBAL DEFAULT 14 _ZNK4Json5Value8asDoubleE
571:   FUNC GLOBAL DEFAULT 14 _ZNK4Json5Value5isIntEv
572:   FUNC GLOBAL DEFAULT 14 _ZN4Json12StyledWriter8un
573:   FUNC GLOBAL DEFAULT 14 _ZNK16CgroupController16G
574:   FUNC WEAK DEFAULT 14 _ZNKSt3__111__end_stateIc
575:   OBJECT WEAK DEFAULT 18 _ZTVNSt3__111__match_anyI
576:   OBJECT WEAK DEFAULT 18 _ZTVNSt3__111__lookaheadI
577:   FUNC GLOBAL DEFAULT 14 _ZNK11TaskProfile17Execut
578:   FUNC GLOBAL DEFAULT 14 _ZN11TaskProfile21EnableR
579:   FUNC GLOBAL DEFAULT 14 _ZN4Json6Reader22decodeUn
580:   FUNC GLOBAL DEFAULT 14 _ZN4Json5ValueC2EPKcS2_
581:   FUNC WEAK DEFAULT 14 _ZNKSt3__113__empty_state
582:   FUNC GLOBAL DEFAULT 14 killProcessGroupOnce
583:   FUNC GLOBAL DEFAULT 14 _ZN12TaskProfilesC2Ev
584:   FUNC GLOBAL DEFAULT 14 _ZN4Json8FeaturesC2Ev
585:   FUNC GLOBAL DEFAULT 14 _ZN4Json18StyledStreamWri
586:   OBJECT WEAK DEFAULT 18 _ZTVNSt3__112__match_char
587:   OBJECT WEAK DEFAULT 18 _ZTVNSt3__117__owns_two_s
588:   FUNC GLOBAL DEFAULT 14 CgroupGetAttributePath
589:   FUNC GLOBAL DEFAULT 14 _ZN12TaskProfiles11GetIns
590:   FUNC WEAK DEFAULT 14 _ZNSt3__15dequeIN4Json6Re
591:   FUNC WEAK DEFAULT 14 _ZNSt3__111basic_regexIcN
592:   FUNC GLOBAL DEFAULT 14 _ZN4Json12PathArgumentC1E
593:   FUNC GLOBAL DEFAULT 14 _ZNK4Json5Value6isUIntEv
594:   FUNC WEAK DEFAULT 14 _ZNSt3__16vectorIN4Json12
595:   FUNC WEAK DEFAULT 14 _ZNKSt3__111basic_regexIc
596:   FUNC WEAK DEFAULT 14 _ZNKSt3__118__back_ref_co
597:   FUNC WEAK DEFAULT 14 _ZNKSt3__120__bracket_exp
598:   FUNC GLOBAL DEFAULT 14 _ZNK11TaskProfile14Execut
599:   FUNC GLOBAL DEFAULT 14 _ZN11TaskProfile19DropRes
600:   FUNC GLOBAL DEFAULT 14 _ZN4Json6Reader12decodeNu
601:   FUNC WEAK DEFAULT 14 _ZNSt3__111basic_regexIcN
602:   FUNC WEAK DEFAULT 14 _ZNSt3__16vectorINS_4pair
603:   FUNC GLOBAL DEFAULT 14 _ZN4Json18ValueConstItera
604:   FUNC GLOBAL DEFAULT 14 _ZN4Json4PathC1ERKNSt3__1
605:   FUNC GLOBAL DEFAULT 14 _ZN4Json5Value8CZStringC2
606:   FUNC GLOBAL DEFAULT 14 _ZN4Json10FastWriterC1Ev
607:   FUNC GLOBAL DEFAULT 14 _ZN9CgroupMap10LoadRcFile
608:   FUNC GLOBAL DEFAULT 14 _ZN9CgroupMapC1Ev
609:   FUNC GLOBAL DEFAULT 14 _ZNK4Json5Value4sizeEv
610:   FUNC GLOBAL DEFAULT 14 _ZN4Json12PathArgumentC2E
611:   FUNC GLOBAL DEFAULT 14 _ZN4Json5Value6appendERKS
612:   FUNC GLOBAL DEFAULT 14 _ZN4Json18ValueConstItera
613:   FUNC GLOBAL DEFAULT 14 _ZN4Json5Value11CommentIn
614:   FUNC GLOBAL DEFAULT 14 _ZN4Json18StyledStreamWri
615:   FUNC WEAK DEFAULT 14 _ZNKSt3__111basic_regexIc
616:   FUNC WEAK DEFAULT 14 _ZNSt3__111basic_regexIcN
617:   FUNC GLOBAL DEFAULT 14 CgroupGetControllerPath
618:   FUNC GLOBAL DEFAULT 14 _ZNK18SetAttributeAction1
619:   FUNC GLOBAL DEFAULT 14 _ZN4Json6Reader5matchEPKc
620:   FUNC GLOBAL DEFAULT 14 _ZN4Json18StyledStreamWri
621:   FUNC GLOBAL DEFAULT 14 _ZN4Json17ValueIteratorBa
622:   FUNC GLOBAL DEFAULT 14 _ZN15SetCgroupAction18IsA
623:   FUNC WEAK DEFAULT 14 _ZNSt3__114__split_buffer
624:   FUNC GLOBAL DEFAULT 14 _ZN4Json5Value11CommentIn
625:   FUNC GLOBAL DEFAULT 14 _ZN4Json12StyledWriter14i
626:   FUNC WEAK DEFAULT 14 _ZNSt3__115basic_stringbu
