 0x000000000000000e (SONAME)             Library soname: [libaudiopolicymanager.so]
  
Symbol   contains 9 entries:
Num:   Type Bind Vis Ndx Name
0:   NOTYPE LOCAL DEFAULT UND
1:   FUNC GLOBAL DEFAULT UND __cxa_finalize@LIBC (2)
2:   FUNC GLOBAL DEFAULT UND _Znwm
3:   FUNC GLOBAL DEFAULT UND _ZN7android18AudioPolicyM
4:   FUNC GLOBAL DEFAULT UND __cfi_slowpath@LIBC_OMR1 (3)
5:   FUNC GLOBAL DEFAULT UND abort@LIBC (2)
6:   FUNC GLOBAL DEFAULT 12 createAudioPolicyManager
7:   FUNC GLOBAL DEFAULT 12 destroyAudioPolicyManager
8:   FUNC GLOBAL DEFAULT 12 __cfi_check
