 0x000000000000000e (SONAME)             Library soname: [libaudioclient.so]
  
Symbol   contains 1311 entries:
Num:   Type Bind Vis Ndx Name
0:   NOTYPE LOCAL DEFAULT UND
1:   FUNC GLOBAL DEFAULT UND __cxa_finalize@LIBC (2)
2:   FUNC GLOBAL DEFAULT UND __cxa_atexit@LIBC (2)
3:   FUNC GLOBAL DEFAULT UND _ZN7android10IInterfaceC2
4:   FUNC GLOBAL DEFAULT UND _ZN7android10IInterfaceD0
5:   FUNC GLOBAL DEFAULT UND _ZN7android10IInterfaceD1
6:   FUNC GLOBAL DEFAULT UND _ZN7android10IInterfaceD2
7:   FUNC GLOBAL DEFAULT UND _ZN7android10VectorImpl13
8:   FUNC GLOBAL DEFAULT UND _ZN7android10VectorImpl5c
9:   FUNC GLOBAL DEFAULT UND _ZN7android10VectorImpl6r
10:   FUNC GLOBAL DEFAULT UND _ZN7android10VectorImpl8i
11:   FUNC GLOBAL DEFAULT UND _ZN7android10VectorImplC2
12:   FUNC GLOBAL DEFAULT UND _ZN7android10VectorImplC2
13:   FUNC GLOBAL DEFAULT UND _ZN7android10VectorImplD2
14:   FUNC GLOBAL DEFAULT UND _ZN7android14sp_report_ra
15:   FUNC GLOBAL DEFAULT UND _ZN7android6Parcel10write
16:   FUNC GLOBAL DEFAULT UND _ZN7android6Parcel10write
17:   FUNC GLOBAL DEFAULT UND _ZN7android6Parcel11write
18:   FUNC GLOBAL DEFAULT UND _ZN7android6Parcel13write
19:   FUNC GLOBAL DEFAULT UND _ZN7android6Parcel15write
20:   FUNC GLOBAL DEFAULT UND _ZN7android6Parcel16write
21:   FUNC GLOBAL DEFAULT UND _ZN7android6Parcel16write
22:   FUNC GLOBAL DEFAULT UND _ZN7android6Parcel19write
23:   FUNC GLOBAL DEFAULT UND _ZN7android6ParcelC1Ev
24:   FUNC GLOBAL DEFAULT UND _ZN7android6ParcelD1Ev
25:   FUNC GLOBAL DEFAULT UND _ZN7android6binder6Status
26:   FUNC GLOBAL DEFAULT UND _ZN7android6binder6Status
27:   FUNC GLOBAL DEFAULT UND _ZN7android6binder6Status
28:   FUNC GLOBAL DEFAULT UND _ZN7android6binder6Status
29:   FUNC GLOBAL DEFAULT UND _ZN7android7BBinder10onTr
30:   FUNC GLOBAL DEFAULT UND _ZN7android7BBinder10ping
31:   FUNC GLOBAL DEFAULT UND _ZN7android7BBinder11link
32:   FUNC GLOBAL DEFAULT UND _ZN7android7BBinder11loca
33:   FUNC GLOBAL DEFAULT UND _ZN7android7BBinder12atta
34:   FUNC GLOBAL DEFAULT UND _ZN7android7BBinder12deta
35:   FUNC GLOBAL DEFAULT UND _ZN7android7BBinder13unli
36:   FUNC GLOBAL DEFAULT UND _ZN7android7BBinder4dumpE
37:   FUNC GLOBAL DEFAULT UND _ZN7android7BBinder8trans
38:   FUNC GLOBAL DEFAULT UND _ZN7android7BBinderD0Ev
39:   FUNC GLOBAL DEFAULT UND _ZN7android7BBinderD1Ev
40:   FUNC GLOBAL DEFAULT UND _ZN7android7IBinder11loca
41:   FUNC GLOBAL DEFAULT UND _ZN7android7IBinder12remo
42:   FUNC GLOBAL DEFAULT UND _ZN7android7IBinder19quer
43:   FUNC GLOBAL DEFAULT UND _ZN7android7IBinderD0Ev
44:   FUNC GLOBAL DEFAULT UND _ZN7android7IBinderD1Ev
45:   FUNC GLOBAL DEFAULT UND _ZN7android7RefBase10onFi
46:   FUNC GLOBAL DEFAULT UND _ZN7android7RefBase13onLa
47:   FUNC GLOBAL DEFAULT UND _ZN7android7RefBase15onLa
48:   FUNC GLOBAL DEFAULT UND _ZN7android7RefBase20onIn
49:   FUNC GLOBAL DEFAULT UND _ZN7android7RefBaseC2Ev
50:   FUNC GLOBAL DEFAULT UND _ZN7android7RefBaseD2Ev
51:   FUNC GLOBAL DEFAULT UND _ZN7android7String8C1ERKS
52:   FUNC GLOBAL DEFAULT UND _ZN7android7String8C1Ev
53:   FUNC GLOBAL DEFAULT UND _ZN7android7String8D1Ev
54:   FUNC GLOBAL DEFAULT UND _ZN7android8String16C1EPK
55:   FUNC GLOBAL DEFAULT UND _ZN7android8String16C1ERK
56:   FUNC GLOBAL DEFAULT UND _ZN7android8String16C1Ev
57:   FUNC GLOBAL DEFAULT UND _ZN7android8String16D1Ev
58:   FUNC GLOBAL DEFAULT UND _ZN7android9BpRefBase10on
59:   FUNC GLOBAL DEFAULT UND _ZN7android9BpRefBase15on
60:   FUNC GLOBAL DEFAULT UND _ZN7android9BpRefBase20on
61:   FUNC GLOBAL DEFAULT UND _ZN7android9BpRefBaseC2ER
62:   FUNC GLOBAL DEFAULT UND _ZN7android9BpRefBaseD0Ev
63:   FUNC GLOBAL DEFAULT UND _ZN7android9BpRefBaseD1Ev
64:   FUNC GLOBAL DEFAULT UND _ZN7android9BpRefBaseD2Ev
65:   FUNC GLOBAL DEFAULT UND _ZNK7android6Parcel10read
66:   FUNC GLOBAL DEFAULT UND _ZNK7android6Parcel12read
67:   FUNC GLOBAL DEFAULT UND _ZNK7android6Parcel14chec
68:   FUNC GLOBAL DEFAULT UND _ZNK7android6Parcel14read
69:   FUNC GLOBAL DEFAULT UND _ZNK7android6Parcel15read
70:   FUNC GLOBAL DEFAULT UND _ZNK7android6Parcel15read
71:   FUNC GLOBAL DEFAULT UND _ZNK7android6Parcel9readF
72:   FUNC GLOBAL DEFAULT UND _ZNK7android6Parcel9readI
73:   FUNC GLOBAL DEFAULT UND _ZNK7android6binder6Statu
74:   FUNC GLOBAL DEFAULT UND _ZNK7android7BBinder10fin
75:   FUNC GLOBAL DEFAULT UND _ZNK7android7BBinder13isB
76:   FUNC GLOBAL DEFAULT UND _ZNK7android7BBinder22get
77:   FUNC GLOBAL DEFAULT UND _ZNK7android7IBinder13che
78:   FUNC GLOBAL DEFAULT UND _ZNK7android7RefBase9decS
79:   FUNC GLOBAL DEFAULT UND _ZNK7android7RefBase9incS
80:   FUNC GLOBAL DEFAULT UND _ZNK7android8String164siz
81:   FUNC GLOBAL DEFAULT UND _ZNKSt3__120__vector_base
82:   FUNC GLOBAL DEFAULT UND _ZTv0_n24_N7android10IInt
83:   FUNC GLOBAL DEFAULT UND _ZTv0_n24_N7android10IInt
84:   FUNC GLOBAL DEFAULT UND _ZTv0_n24_N7android7BBind
85:   FUNC GLOBAL DEFAULT UND _ZTv0_n24_N7android7BBind
86:   FUNC GLOBAL DEFAULT UND _ZTv0_n24_N7android7IBind
87:   FUNC GLOBAL DEFAULT UND _ZTv0_n24_N7android7IBind
88:   FUNC GLOBAL DEFAULT UND _ZTv0_n24_N7android9BpRef
89:   FUNC GLOBAL DEFAULT UND _ZTv0_n24_N7android9BpRef
90:   FUNC GLOBAL DEFAULT UND _ZTv0_n32_N7android9BpRef
91:   FUNC GLOBAL DEFAULT UND _ZTv0_n40_N7android9BpRef
92:   FUNC GLOBAL DEFAULT UND _ZTv0_n48_N7android9BpRef
93:   FUNC GLOBAL DEFAULT UND _ZdlPv
94:   FUNC GLOBAL DEFAULT UND _Znwm
95:   FUNC GLOBAL DEFAULT UND __android_log_print@LIBLOG (3)
96:   FUNC GLOBAL DEFAULT UND __cxa_pure_virtual
97:   FUNC GLOBAL DEFAULT UND __stack_chk_fail@LIBC (2)
98:   FUNC GLOBAL DEFAULT UND abort@LIBC (2)
99:   FUNC GLOBAL DEFAULT UND memcpy@LIBC (2)
100:   FUNC GLOBAL DEFAULT UND memmove@LIBC (2)
101:   FUNC GLOBAL DEFAULT UND strzcmp16
102:   FUNC GLOBAL DEFAULT UND _ZN7android6Parcel11write
103:   FUNC GLOBAL DEFAULT UND _ZNK7android6Parcel10read
104:   FUNC GLOBAL DEFAULT UND _ZN7android10IInterface8a
105:   FUNC GLOBAL DEFAULT UND _ZN7android14IPCThreadSta
106:   FUNC GLOBAL DEFAULT UND _ZN7android14IPCThreadSta
107:   FUNC GLOBAL DEFAULT UND _ZN7android7BBinderC2Ev
108:   FUNC GLOBAL DEFAULT UND _ZN7android7BBinderD2Ev
109:   FUNC GLOBAL DEFAULT UND _ZN7android7RefBase12weak
110:   FUNC GLOBAL DEFAULT UND _ZN7android7RefBase12weak
111:   FUNC GLOBAL DEFAULT UND _ZNK7android14IPCThreadSt
112:   FUNC GLOBAL DEFAULT UND _ZNK7android7IMemory7poin
113:   FUNC GLOBAL DEFAULT UND _ZNK7android7RefBase10cre
114:   FUNC GLOBAL DEFAULT UND __vsnprintf_chk@LIBC (2)
115:   FUNC GLOBAL DEFAULT UND pthread_mutex_destroy@LIBC (2)
116:   FUNC GLOBAL DEFAULT UND pthread_mutex_init@LIBC (2)
117:   FUNC GLOBAL DEFAULT UND pthread_mutex_lock@LIBC (2)
118:   FUNC GLOBAL DEFAULT UND pthread_mutex_unlock@LIBC (2)
119:   FUNC GLOBAL DEFAULT UND sscanf@LIBC (2)
120:   OBJECT GLOBAL DEFAULT UND _ZN7android13TypeConverte
121:   OBJECT GLOBAL DEFAULT UND _ZN7android13TypeConverte
122:   OBJECT GLOBAL DEFAULT UND _ZN7android13TypeConverte
123:   OBJECT GLOBAL DEFAULT UND _ZN7android13TypeConverte
124:   FUNC GLOBAL DEFAULT UND _ZN7android18MediaAnalyti
125:   FUNC GLOBAL DEFAULT UND _ZN7android18MediaAnalyti
126:   FUNC GLOBAL DEFAULT UND _ZN7android18MediaAnalyti
127:   FUNC GLOBAL DEFAULT UND _ZN7android18MediaAnalyti
128:   FUNC GLOBAL DEFAULT UND _ZN7android18MediaAnalyti
129:   FUNC GLOBAL DEFAULT UND _ZN7android18MediaAnalyti
130:   FUNC GLOBAL DEFAULT UND _ZN7android18MediaAnalyti
131:   FUNC GLOBAL DEFAULT UND _ZN7android18MediaAnalyti
132:   FUNC GLOBAL DEFAULT UND _ZN7android6Parcel10write
133:   FUNC GLOBAL DEFAULT UND _ZN7android6Parcel17write
134:   FUNC GLOBAL DEFAULT UND _ZN7android6Parcel5writeE
135:   FUNC GLOBAL DEFAULT UND _ZN7android6Thread10ready
136:   FUNC GLOBAL DEFAULT UND _ZN7android6Thread11reque
137:   FUNC GLOBAL DEFAULT UND _ZN7android6Thread18reque
138:   FUNC GLOBAL DEFAULT UND _ZN7android6Thread3runEPK
139:   FUNC GLOBAL DEFAULT UND _ZN7android6ThreadC2Eb
140:   FUNC GLOBAL DEFAULT UND _ZN7android6ThreadD0Ev
141:   FUNC GLOBAL DEFAULT UND _ZN7android6ThreadD1Ev
142:   FUNC GLOBAL DEFAULT UND _ZN7android6ThreadD2Ev
143:   FUNC GLOBAL DEFAULT UND _ZN7android7IMemory11asIn
144:   FUNC GLOBAL DEFAULT UND _ZN7android7String812appe
145:   FUNC GLOBAL DEFAULT UND _ZN7android7String86appen
146:   FUNC GLOBAL DEFAULT UND _ZN7android8String165setT
147:   FUNC GLOBAL DEFAULT UND _ZNK7android14IPCThreadSt
148:   FUNC GLOBAL DEFAULT UND _ZNK7android18MediaAnalyt
149:   FUNC GLOBAL DEFAULT UND _ZNK7android6Parcel10read
150:   FUNC GLOBAL DEFAULT UND _ZNK7android6Parcel12read
151:   FUNC GLOBAL DEFAULT UND _ZNK7android6Parcel16read
152:   FUNC GLOBAL DEFAULT UND _ZNK7android6Parcel4readE
153:   FUNC GLOBAL DEFAULT UND _ZNK7android6Parcel9readI
154:   FUNC GLOBAL DEFAULT UND _ZNK7android6Parcel9readI
155:   FUNC GLOBAL DEFAULT UND _ZNK7android6Thread11exit
156:   FUNC GLOBAL DEFAULT UND _ZNK7android6Thread6getTi
157:   FUNC GLOBAL DEFAULT UND _ZNK7android7String86leng
158:   FUNC GLOBAL DEFAULT UND _ZNKSt3__121__basic_strin
159:   FUNC GLOBAL DEFAULT UND _ZNKSt3__16locale9use_fac
160:   FUNC GLOBAL DEFAULT UND _ZNKSt3__18ios_base6getlo
161:   FUNC GLOBAL DEFAULT UND _ZNSt3__112basic_stringIc
162:   FUNC GLOBAL DEFAULT UND _ZNSt3__112basic_stringIc
163:   FUNC GLOBAL DEFAULT UND _ZNSt3__112basic_stringIc
164:   FUNC GLOBAL DEFAULT UND _ZNSt3__112basic_stringIc
165:   FUNC GLOBAL DEFAULT UND _ZNSt3__113basic_ostreamI
166:   FUNC GLOBAL DEFAULT UND _ZNSt3__113basic_ostreamI
167:   FUNC GLOBAL DEFAULT UND _ZNSt3__113basic_ostreamI
168:   FUNC GLOBAL DEFAULT UND _ZNSt3__113basic_ostreamI
169:   FUNC GLOBAL DEFAULT UND _ZNSt3__113basic_ostreamI
170:   FUNC GLOBAL DEFAULT UND _ZNSt3__113basic_ostreamI
171:   FUNC GLOBAL DEFAULT UND _ZNSt3__115basic_streambu
172:   FUNC GLOBAL DEFAULT UND _ZNSt3__115basic_streambu
173:   FUNC GLOBAL DEFAULT UND _ZNSt3__115basic_streambu
174:   FUNC GLOBAL DEFAULT UND _ZNSt3__115basic_streambu
175:   FUNC GLOBAL DEFAULT UND _ZNSt3__115basic_streambu
176:   FUNC GLOBAL DEFAULT UND _ZNSt3__115basic_streambu
177:   FUNC GLOBAL DEFAULT UND _ZNSt3__115basic_streambu
178:   FUNC GLOBAL DEFAULT UND _ZNSt3__115basic_streambu
179:   FUNC GLOBAL DEFAULT UND _ZNSt3__115basic_streambu
180:   OBJECT GLOBAL DEFAULT UND _ZNSt3__15ctypeIcE2idE
181:   FUNC GLOBAL DEFAULT UND _ZNSt3__16localeD1Ev
182:   FUNC GLOBAL DEFAULT UND _ZNSt3__18ios_base4initEP
183:   FUNC GLOBAL DEFAULT UND _ZNSt3__18ios_base5clearE
184:   FUNC GLOBAL DEFAULT UND _ZNSt3__19basic_iosIcNS_1
185:   FUNC GLOBAL DEFAULT UND _ZNSt3__19to_stringEi
186:   FUNC GLOBAL DEFAULT UND _ZTv0_n24_N7android6Threa
187:   FUNC GLOBAL DEFAULT UND _ZTv0_n24_N7android6Threa
188:   FUNC GLOBAL DEFAULT UND _ZTv0_n24_NSt3__113basic_
189:   FUNC GLOBAL DEFAULT UND _ZTv0_n24_NSt3__113basic_
190:   FUNC GLOBAL DEFAULT UND __android_log_assert@LIBLOG (3)
191:   FUNC GLOBAL DEFAULT UND androidSetThreadPriority
192:   FUNC GLOBAL DEFAULT UND clock_gettime@LIBC (2)
193:   FUNC GLOBAL DEFAULT UND get_sched_policy
194:   FUNC GLOBAL DEFAULT UND getpid@LIBC (2)
195:   FUNC GLOBAL DEFAULT UND getpriority@LIBC (2)
196:   FUNC GLOBAL DEFAULT UND memset@LIBC (2)
197:   FUNC GLOBAL DEFAULT UND pthread_cond_destroy@LIBC (2)
198:   FUNC GLOBAL DEFAULT UND pthread_cond_init@LIBC (2)
199:   FUNC GLOBAL DEFAULT UND pthread_cond_signal@LIBC (2)
200:   FUNC GLOBAL DEFAULT UND pthread_cond_timedwait@LIBC (2)
201:   FUNC GLOBAL DEFAULT UND pthread_cond_wait@LIBC (2)
202:   FUNC GLOBAL DEFAULT UND pthread_condattr_destroy@LIBC (2)
203:   FUNC GLOBAL DEFAULT UND pthread_condattr_init@LIBC (2)
204:   FUNC GLOBAL DEFAULT UND pthread_condattr_setclock@LIBC (2)
205:   FUNC GLOBAL DEFAULT UND sched_getscheduler@LIBC (2)
206:   FUNC GLOBAL DEFAULT UND set_sched_policy
207:   FUNC GLOBAL DEFAULT UND setpriority@LIBC (2)
208:   FUNC GLOBAL DEFAULT UND strlen@LIBC (2)
209:   FUNC GLOBAL DEFAULT UND systemTime
210:   FUNC GLOBAL DEFAULT UND usleep@LIBC (2)
211:   FUNC GLOBAL DEFAULT UND write@LIBC (2)
212:   FUNC GLOBAL DEFAULT UND _ZN7android10VectorImpl13
213:   FUNC GLOBAL DEFAULT UND _ZN7android10VectorImpl3a
214:   FUNC GLOBAL DEFAULT UND _ZN7android12ProcessState
215:   FUNC GLOBAL DEFAULT UND _ZN7android12ProcessState
216:   OBJECT GLOBAL DEFAULT UND _ZN7android13TypeConverte
217:   FUNC GLOBAL DEFAULT UND _ZN7android14IPCThreadSta
218:   FUNC GLOBAL DEFAULT UND _ZN7android14IPCThreadSta
219:   FUNC GLOBAL DEFAULT UND _ZN7android16SortedVector
220:   FUNC GLOBAL DEFAULT UND _ZN7android16SortedVector
221:   FUNC GLOBAL DEFAULT UND _ZN7android16SortedVector
222:   FUNC GLOBAL DEFAULT UND _ZN7android16SortedVector
223:   FUNC GLOBAL DEFAULT UND _ZN7android20AudioProduct
224:   FUNC GLOBAL DEFAULT UND _ZN7android21defaultServi
225:   FUNC GLOBAL DEFAULT UND _ZN7android7RefBase10rena
226:   FUNC GLOBAL DEFAULT UND _ZN7android7RefBase11rena
227:   FUNC GLOBAL DEFAULT UND _ZN7android7RefBase12weak
228:   FUNC GLOBAL DEFAULT UND _ZN7android7String85setTo
229:   FUNC GLOBAL DEFAULT UND _ZN7android7String8C1EPKc
230:   FUNC GLOBAL DEFAULT UND _ZNK7android16SortedVecto
231:   OBJECT GLOBAL DEFAULT UND _ZTVN7android15AudioAttri
232:   FUNC GLOBAL DEFAULT UND expf@LIBC (4)
233:   FUNC GLOBAL DEFAULT UND logf@LIBC (4)
234:   OBJECT GLOBAL DEFAULT UND _ZN7android14AudioParamet
235:   OBJECT GLOBAL DEFAULT UND _ZN7android14AudioParamet
236:   FUNC GLOBAL DEFAULT UND _ZN7android14AudioParamet
237:   FUNC GLOBAL DEFAULT UND _ZN7android14AudioParamet
238:   FUNC GLOBAL DEFAULT UND _ZNK7android14AudioParame
239:   FUNC GLOBAL DEFAULT UND _ZNK7android6Parcel9readF
240:   FUNC GLOBAL DEFAULT UND _ZNSt3__112__next_primeEm
241:   FUNC GLOBAL DEFAULT UND _ZNSt3__113basic_istreamI
242:   FUNC GLOBAL DEFAULT UND _ZNSt3__113basic_istreamI
243:   FUNC GLOBAL DEFAULT UND _ZNSt3__113basic_ostreamI
244:   FUNC GLOBAL DEFAULT UND _ZNSt3__114basic_iostream
245:   FUNC GLOBAL DEFAULT UND _ZNSt3__114basic_iostream
246:   FUNC GLOBAL DEFAULT UND _ZNSt3__114basic_iostream
247:   OBJECT GLOBAL DEFAULT UND _ZTVN7android14AudioParam
248:   FUNC GLOBAL DEFAULT UND _ZThn16_NSt3__114basic_io
249:   FUNC GLOBAL DEFAULT UND _ZThn16_NSt3__114basic_io
250:   FUNC GLOBAL DEFAULT UND _ZTv0_n24_NSt3__113basic_
251:   FUNC GLOBAL DEFAULT UND _ZTv0_n24_NSt3__113basic_
252:   FUNC GLOBAL DEFAULT UND _ZTv0_n24_NSt3__114basic_
253:   FUNC GLOBAL DEFAULT UND _ZTv0_n24_NSt3__114basic_
254:   FUNC GLOBAL DEFAULT UND gain_from_float
255:   FUNC GLOBAL DEFAULT UND isnanf@LIBC (2)
256:   FUNC GLOBAL DEFAULT UND powf@LIBC (4)
257:   FUNC GLOBAL DEFAULT UND strcmp@LIBC (2)
258:   FUNC GLOBAL DEFAULT UND __errno@LIBC (2)
259:   FUNC GLOBAL DEFAULT UND roundup
260:   FUNC GLOBAL DEFAULT UND strerror@LIBC (2)
261:   FUNC GLOBAL DEFAULT UND syscall@LIBC (2)
262:   FUNC GLOBAL DEFAULT UND _ZN7android6Parcel12write
263:   FUNC GLOBAL DEFAULT UND _ZN7android6Parcel12write
264:   FUNC GLOBAL DEFAULT UND _ZN7android9TimeCheckC1EP
265:   FUNC GLOBAL DEFAULT UND _ZN7android9TimeCheckD1Ev
266:   FUNC GLOBAL DEFAULT UND _ZNK7android6Parcel11read
267:   FUNC GLOBAL DEFAULT UND _ZNK7android6Parcel11read
268:   FUNC GLOBAL DEFAULT UND _ZNK7android6Parcel9readI
269:   FUNC GLOBAL DEFAULT UND _ZNSt3__112basic_stringIc
270:   FUNC GLOBAL DEFAULT UND _ZNSt3__19to_stringEj
271:   FUNC GLOBAL DEFAULT UND __android_log_error_write@LIBLOG_M (5)
272:   FUNC GLOBAL DEFAULT UND calloc@LIBC (2)
273:   FUNC GLOBAL DEFAULT UND free@LIBC (2)
274:   FUNC GLOBAL DEFAULT UND multiuser_get_app_id
275:   FUNC GLOBAL DEFAULT UND _ZN7android15AudioAttribu
276:   FUNC GLOBAL DEFAULT UND _ZN7android16AudioVolumeG
277:   FUNC GLOBAL DEFAULT UND _ZN7android19AudioDeviceT
278:   FUNC GLOBAL DEFAULT UND _ZN7android20AudioProduct
279:   FUNC GLOBAL DEFAULT UND _ZN7android6Parcel9writeB
280:   FUNC GLOBAL DEFAULT UND _ZN7android8AudioMix14rea
281:   FUNC GLOBAL DEFAULT UND _ZNK7android19AudioDevice
282:   FUNC GLOBAL DEFAULT UND _ZNK7android6Parcel12data
283:   FUNC GLOBAL DEFAULT UND _ZNK7android6Parcel15setD
284:   FUNC GLOBAL DEFAULT UND _ZNK7android6Parcel8readB
285:   FUNC GLOBAL DEFAULT UND _ZNK7android6Parcel9dataA
286:   FUNC GLOBAL DEFAULT UND _ZNK7android8AudioMix13wr
287:   OBJECT GLOBAL DEFAULT UND _ZTVN7android16AudioVolum
288:   OBJECT GLOBAL DEFAULT UND _ZTVN7android20AudioProdu
289:   FUNC GLOBAL DEFAULT UND _ZdaPv
290:   FUNC GLOBAL DEFAULT UND _Znam
291:   FUNC GLOBAL DEFAULT UND strnlen@LIBC (2)
292:   FUNC GLOBAL DEFAULT UND malloc@LIBC (2)
293:   FUNC GLOBAL DEFAULT UND __strlen_chk@LIBC (2)
294:   FUNC GLOBAL DEFAULT UND property_get
295:   FUNC GLOBAL DEFAULT UND pthread_cond_broadcast@LIBC (2)
296:   FUNC GLOBAL DEFAULT UND sincos@LIBC (4)
297:   FUNC GLOBAL DEFAULT UND strchr@LIBC (2)
298:   FUNC GLOBAL DEFAULT UND strstr@LIBC (2)
299:   FUNC GLOBAL DEFAULT UND _ZN7android13IAudioManage
300:   FUNC GLOBAL DEFAULT UND _ZN7android6binder6Status
301:   FUNC GLOBAL DEFAULT UND _ZN7android7BBinderC1Ev
302:   FUNC WEAK DEFAULT UND android_set_abort_message@LIBC (2)
303:   FUNC GLOBAL DEFAULT 14 _ZN7android10AudioTrack16
304:   OBJECT WEAK DEFAULT 18 _ZTTNSt3__118basic_string
305:   OBJECT GLOBAL DEFAULT 23 _ZN7android19IAudioPolicy
306:   OBJECT GLOBAL DEFAULT 18 _ZTCN7android8BnEffectE0_
307:   FUNC GLOBAL DEFAULT 14 _ZN7android15TrackPlayerB
308:   FUNC GLOBAL DEFAULT 14 _ZN7android5media13BpAudi
309:   OBJECT GLOBAL DEFAULT 18 _ZTCN7android5media13BnAu
310:   FUNC GLOBAL DEFAULT 14 _ZN7android11AudioEffectC
311:   FUNC GLOBAL DEFAULT 14 _ZN7android11AudioSystem2
312:   FUNC GLOBAL DEFAULT 14 _ZN7android21AudioTrackSe
313:   FUNC GLOBAL DEFAULT 14 _ZN7android27StaticAudioT
314:   FUNC GLOBAL DEFAULT 14 _ZN7android13ToneGenerato
315:   OBJECT GLOBAL DEFAULT 18 _ZTCN7android15TrackPlaye
316:   FUNC GLOBAL DEFAULT 14 _ZN7android11AudioSystem1
317:   OBJECT GLOBAL DEFAULT 18 _ZTTN7android14BnEffectCl
318:   FUNC GLOBAL DEFAULT 14 _ZN7android5media19IAudio
319:   FUNC GLOBAL DEFAULT 14 _ZN7android11AudioEffect1
320:   FUNC GLOBAL DEFAULT 14 _ZN7android10AudioTrack7s
321:   FUNC GLOBAL DEFAULT 14 _ZNK7android10AudioTrack1
322:   FUNC GLOBAL DEFAULT 14 _ZN7android11IAudioTrackD
323:   FUNC GLOBAL DEFAULT 14 _ZN7android11AudioEffect1
324:   FUNC WEAK DEFAULT 14 _ZNK7android6VectorINS_22
325:   FUNC GLOBAL DEFAULT 14 _ZN7android11AudioSystem1
326:   FUNC GLOBAL DEFAULT 14 _ZN7android11AudioSystem2
327:   FUNC GLOBAL DEFAULT 14 _ZN7android11AudioSystem1
328:   FUNC GLOBAL DEFAULT 14 _ZN7android21AudioTrackSe
329:   FUNC WEAK DEFAULT 14 _ZNSt3__16__treeINS_12__v
330:   OBJECT GLOBAL DEFAULT 18 _ZTVN7android11AudioRecor
331:   FUNC WEAK DEFAULT 14 _ZN7android2spINS_13IAudi
332:   FUNC WEAK DEFAULT 14 _ZNSt3__16vectorIN7androi
333:   FUNC GLOBAL DEFAULT 14 _ZN7android13ToneGenerato
334:   FUNC GLOBAL DEFAULT 14 _ZN7android5media8BnPlaye
335:   FUNC GLOBAL DEFAULT 14 _ZN7android18audio_track_
336:   FUNC GLOBAL DEFAULT 14 _ZNK7android11IAudioTrack
337:   OBJECT GLOBAL DEFAULT 11 _ZN7android13ToneGenerato
338:   FUNC GLOBAL DEFAULT 14 _ZN7android11AudioSystem1
339:   OBJECT GLOBAL DEFAULT 18 _ZTCN7android11AudioSyste
340:   OBJECT GLOBAL DEFAULT 18 _ZTVN7android20BnAudioFli
341:   FUNC GLOBAL DEFAULT 14 _ZN7android11AudioSystem1
342:   FUNC GLOBAL DEFAULT 14 _ZN7android21AudioTrackCl
343:   OBJECT GLOBAL DEFAULT 18 _ZTCN7android14BnAudioFli
344:   OBJECT WEAK DEFAULT 18 _ZTCN7android20BpAudioPol
345:   OBJECT WEAK DEFAULT 18 _ZTVN7android8BpEffectE
346:   FUNC GLOBAL DEFAULT 14 _ZN7android5media7IPlayer
347:   FUNC GLOBAL DEFAULT 14 _ZTv0_n24_N7android13IEff
348:   OBJECT GLOBAL DEFAULT 18 _ZTTN7android19IAudioFlin
349:   OBJECT GLOBAL DEFAULT 18 _ZTCN7android20BnAudioPol
350:   FUNC GLOBAL DEFAULT 14 _ZN7android5media14IPlaye
351:   FUNC GLOBAL DEFAULT 14 _ZN7android11ClientProxy1
352:   FUNC GLOBAL DEFAULT 14 _ZN7android11AudioSystem1
353:   FUNC GLOBAL DEFAULT 14 _ZNK7android19IAudioFling
354:   FUNC GLOBAL DEFAULT 14 _ZN7android21AudioTrackCl
355:   FUNC GLOBAL DEFAULT 14 _ZN7android10PlayerBase9s
356:   FUNC WEAK DEFAULT 14 _ZNK7android6VectorIiE8do
357:   OBJECT GLOBAL DEFAULT 11 _ZN7android11ClientProxy1
358:   FUNC GLOBAL DEFAULT 14 _ZN7android11AudioSystem2
359:   FUNC GLOBAL DEFAULT 14 _ZN7android8BnEffect10onT
360:   OBJECT GLOBAL DEFAULT 18 _ZTCN7android8BnEffectE0_
361:   OBJECT GLOBAL DEFAULT 18 _ZTVN7android15TrackPlaye
362:   OBJECT GLOBAL DEFAULT 18 _ZTCN7android5media13BpAu
363:   OBJECT GLOBAL DEFAULT 18 _ZTVN7android5media8BpPla
364:   FUNC GLOBAL DEFAULT 14 _ZN7android11AudioRecord5
365:   FUNC GLOBAL DEFAULT 14 _ZN7android10AudioTrack21
366:   FUNC WEAK DEFAULT 14 _ZNSt3__16vectorIjNS_9all
367:   FUNC GLOBAL DEFAULT 14 _ZN7android10PlayerBase5p
368:   FUNC GLOBAL DEFAULT 14 _ZN7android11AudioSystem2
369:   FUNC GLOBAL DEFAULT 14 _ZN7android19IAudioFlinge
370:   FUNC GLOBAL DEFAULT 14 _ZN7android10AudioTrack20
371:   FUNC GLOBAL DEFAULT 14 _ZN7android27StaticAudioT
372:   FUNC WEAK DEFAULT 14 _ZNSt3__16vectorI18audio_
373:   FUNC GLOBAL DEFAULT 14 _ZN7android13ToneGenerato
374:   FUNC GLOBAL DEFAULT 14 _ZN7android5media13BpAudi
375:   FUNC GLOBAL DEFAULT 14 _ZN7android15TrackPlayerB
376:   FUNC GLOBAL DEFAULT 14 _ZN7android5media13BnAudi
377:   FUNC GLOBAL DEFAULT 14 _ZN7android11AudioEffect1
378:   FUNC GLOBAL DEFAULT 14 _ZN7android11AudioSystem2
379:   OBJECT GLOBAL DEFAULT 18 _ZTCN7android11AudioSyste
380:   OBJECT GLOBAL DEFAULT 18 _ZTCN7android10AudioTrack
381:   FUNC GLOBAL DEFAULT 14 _ZN7android11IAudioTrack1
382:   OBJECT WEAK DEFAULT 18 _ZTTN7android20BpAudioPol
383:   FUNC GLOBAL DEFAULT 14 _ZN7android10PlayerBase15
384:   FUNC WEAK DEFAULT 14 _ZN7android11BnInterfaceI
385:   FUNC GLOBAL DEFAULT 14 _ZN7android11AudioSystem2
386:   FUNC WEAK DEFAULT 14 _ZNK7android6VectorINS_2s
387:   FUNC GLOBAL DEFAULT 14 _ZN7android13IEffectClien
388:   FUNC GLOBAL DEFAULT 14 _ZN7android11AudioRecord1
389:   OBJECT GLOBAL DEFAULT 18 _ZTTN7android11AudioRecor
390:   FUNC WEAK DEFAULT 14 _ZNSt3__16vectorIN7androi
391:   FUNC GLOBAL DEFAULT 14 _ZN7android11ClientProxyC
392:   FUNC GLOBAL DEFAULT 14 _ZN7android11AudioSystem1
393:   FUNC GLOBAL DEFAULT 14 _ZNK7android10AudioTrack4
394:   FUNC GLOBAL DEFAULT 14 _ZNK7android27StaticAudio
395:   FUNC GLOBAL DEFAULT 14 _ZN7android11AudioRecordC
396:   FUNC GLOBAL DEFAULT 14 _ZTv0_n24_N7android5media
397:   FUNC GLOBAL DEFAULT 14 _ZThn8_N7android5media8Bn
398:   OBJECT WEAK DEFAULT 18 _ZTCN7android20BpAudioPol
399:   FUNC GLOBAL DEFAULT 14 _ZTv0_n24_N7android7IEffe
400:   FUNC GLOBAL DEFAULT 14 _ZN7android11AudioSystem1
401:   FUNC GLOBAL DEFAULT 14 _ZN7android11AudioSystem2
402:   OBJECT GLOBAL DEFAULT 18 _ZTCN7android19IAudioFlin
403:   OBJECT WEAK DEFAULT 18 _ZTCN7android12BpAudioTra
404:   OBJECT GLOBAL DEFAULT 18 _ZTTN7android5media12IAud
405:   OBJECT GLOBAL DEFAULT 23 _ZN7android11AudioSystem1
406:   FUNC GLOBAL DEFAULT 14 _ZN7android11AudioSystem2
407:   FUNC GLOBAL DEFAULT 14 _ZN7android13IAudioFlinge
408:   OBJECT GLOBAL DEFAULT 18 _ZTCN7android14BnEffectCl
409:   FUNC WEAK DEFAULT 14 _ZNSt3__16vectorIiNS_9all
410:   OBJECT GLOBAL DEFAULT 18 _ZTCN7android5media8BnPla
411:   FUNC GLOBAL DEFAULT 14 _ZN7android11AudioRecord1
412:   FUNC GLOBAL DEFAULT 14 _ZN7android11AudioSystem1
413:   FUNC GLOBAL DEFAULT 14 _ZN7android11AudioSystem3
414:   FUNC GLOBAL DEFAULT 14 _ZN7android10AudioTrack13
415:   FUNC WEAK DEFAULT 14 _ZN7android11BnInterfaceI
416:   OBJECT GLOBAL DEFAULT 18 _ZTCN7android14BnEffectCl
417:   FUNC GLOBAL DEFAULT 14 _ZN7android11AudioEffect2
418:   FUNC GLOBAL DEFAULT 14 _ZN7android11AudioSystem1
419:   FUNC GLOBAL DEFAULT 14 _ZThn8_N7android11AudioSy
420:   FUNC WEAK DEFAULT 14 _ZNK7android6VectorINS_19
421:   FUNC GLOBAL DEFAULT 14 _ZN7android7IEffectD2Ev
422:   FUNC GLOBAL DEFAULT 14 _ZThn8_N7android10PlayerB
423:   FUNC GLOBAL DEFAULT 14 _ZN7android11AudioEffect2
424:   FUNC GLOBAL DEFAULT 14 _ZN7android11AudioSystem1
425:   FUNC GLOBAL DEFAULT 14 _ZN7android10AudioTrack15
426:   FUNC GLOBAL DEFAULT 14 _ZN7android15TrackPlayerB
427:   OBJECT WEAK DEFAULT 18 _ZTVN7android5media12Volu
428:   FUNC GLOBAL DEFAULT 14 _ZN7android11AudioRecord2
429:   FUNC GLOBAL DEFAULT 14 _ZN7android11AudioRecord2
430:   FUNC GLOBAL DEFAULT 14 _ZN7android11AudioSystem1
431:   FUNC WEAK DEFAULT 14 _ZNSt3__113__tree_removeI
432:   FUNC GLOBAL DEFAULT 14 _ZThn8_N7android11AudioSy
433:   FUNC GLOBAL DEFAULT 14 _ZNK7android27StaticAudio
434:   FUNC WEAK DEFAULT 14 _ZNK7android6VectorINS_2s
435:   FUNC GLOBAL DEFAULT 14 _ZN7android13ToneGenerato
436:   FUNC GLOBAL DEFAULT 14 _ZN7android10PlayerBase15
437:   OBJECT GLOBAL DEFAULT 18 _ZTCN7android5media12IAud
438:   OBJECT WEAK DEFAULT 18 _ZTVN7android12SortedVect
439:   FUNC GLOBAL DEFAULT 14 _ZN7android11AudioRecord1
440:   FUNC WEAK DEFAULT 14 _ZNSt3__115basic_stringbu
441:   FUNC GLOBAL DEFAULT 14 _ZN7android11AudioSystem1
442:   FUNC GLOBAL DEFAULT 14 _ZN7android11AudioSystem2
443:   OBJECT GLOBAL DEFAULT 23 _ZN7android11AudioSystem2
444:   FUNC GLOBAL DEFAULT 14 _ZN7android11AudioSystem2
445:   FUNC GLOBAL DEFAULT 14 _ZN7android11AudioSystem2
446:   FUNC GLOBAL DEFAULT 14 _ZTv0_n24_N7android19IAud
447:   OBJECT GLOBAL DEFAULT 18 _ZTCN7android20BnAudioFli
448:   FUNC GLOBAL DEFAULT 14 _ZN7android27StaticAudioT
449:   FUNC GLOBAL DEFAULT 14 _ZN7android13IEffectClien
450:   FUNC GLOBAL DEFAULT 14 _ZN7android11AudioRecord1
451:   FUNC GLOBAL DEFAULT 14 _ZN7android11AudioRecord2
452:   FUNC GLOBAL DEFAULT 14 _ZN7android10AudioTrackD1
453:   FUNC GLOBAL DEFAULT 14 _ZN7android27StaticAudioT
454:   FUNC GLOBAL DEFAULT 14 _ZNK7android13IAudioFling
455:   FUNC WEAK DEFAULT 14 _ZNSt3__112__hash_tableIN
456:   OBJECT GLOBAL DEFAULT 18 _ZTVN7android26BnAudioPol
457:   FUNC GLOBAL DEFAULT 14 _ZN7android5media13BpAudi
458:   OBJECT GLOBAL DEFAULT 23 _ZN7android11AudioSystem2
459:   FUNC GLOBAL DEFAULT 14 _ZN7android10AudioTrack7l
460:   FUNC GLOBAL DEFAULT 14 _ZN7android11AudioSystem1
461:   FUNC GLOBAL DEFAULT 14 _ZN7android11ServerProxyC
462:   FUNC GLOBAL DEFAULT 14 _ZN7android13IAudioFlinge
463:   FUNC GLOBAL DEFAULT 14 _ZThn8_N7android20BnAudio
464:   FUNC GLOBAL DEFAULT 14 _ZN7android10AudioTrack6r
465:   OBJECT GLOBAL DEFAULT 18 _ZTVN7android20BnAudioPol
466:   FUNC GLOBAL DEFAULT 14 _ZN7android10PlayerBaseD0
467:   OBJECT WEAK DEFAULT 18 _ZTCN7android11AudioEffec
468:   FUNC GLOBAL DEFAULT 14 _ZN7android11ClientProxyC
469:   FUNC GLOBAL DEFAULT 14 _ZN7android5media13BpAudi
470:   FUNC GLOBAL DEFAULT 14 _ZN7android11AudioSystem1
471:   FUNC GLOBAL DEFAULT 14 _ZN7android11AudioSystem2
472:   FUNC GLOBAL DEFAULT 14 _ZN7android20BnAudioFling
473:   OBJECT GLOBAL DEFAULT 23 _ZN7android25IAudioPolicy
474:   OBJECT GLOBAL DEFAULT 18 _ZTTN7android19IAudioPoli
475:   FUNC GLOBAL DEFAULT 14 _ZN7android5media8BpPlaye
476:   FUNC GLOBAL DEFAULT 14 _ZN7android11AudioSystem1
477:   FUNC GLOBAL DEFAULT 14 _ZN7android11AudioSystem1
478:   FUNC GLOBAL DEFAULT 14 _ZN7android13ToneGenerato
479:   OBJECT GLOBAL DEFAULT 18 _ZTCN7android15TrackPlaye
480:   FUNC GLOBAL DEFAULT 14 _ZN7android13IEffectClien
481:   FUNC GLOBAL DEFAULT 14 _ZN7android10AudioTrack21
482:   OBJECT GLOBAL DEFAULT 18 _ZTVN7android10AudioTrack
483:   FUNC GLOBAL DEFAULT 14 _ZN7android5media7IPlayer
484:   FUNC GLOBAL DEFAULT 14 _ZN7android11AudioRecord1
485:   FUNC GLOBAL DEFAULT 14 _ZN7android11AudioSystem1
486:   OBJECT GLOBAL DEFAULT 18 _ZTTN7android20BnAudioFli
487:   FUNC WEAK DEFAULT 14 _ZNSt3__16vectorIiNS_9all
488:   FUNC GLOBAL DEFAULT 14 _ZN7android11ClientProxy1
489:   OBJECT WEAK DEFAULT 18 _ZTVN7android17AudioIoDes
490:   FUNC GLOBAL DEFAULT 14 _ZN7android7IEffect14getD
491:   OBJECT WEAK DEFAULT 18 _ZTTN7android14BpEffectCl
492:   FUNC WEAK DEFAULT 14 _ZNK7android6VectorIfE10d
493:   OBJECT GLOBAL DEFAULT 18 _ZTCN7android5media13BpAu
494:   FUNC GLOBAL DEFAULT 14 _ZN7android11AudioSystem2
495:   FUNC GLOBAL DEFAULT 14 _ZN7android10PlayerBaseC2
496:   FUNC GLOBAL DEFAULT 14 _ZN7android11AudioSystem1
497:   FUNC GLOBAL DEFAULT 14 _ZN7android11AudioSystem2
498:   FUNC GLOBAL DEFAULT 14 _ZN7android11AudioSystem9
499:   FUNC GLOBAL DEFAULT 14 _ZN7android10PlayerBase15
500:   FUNC GLOBAL DEFAULT 14 _ZNK7android11AudioRecord
501:   FUNC GLOBAL DEFAULT 14 _ZN7android11AudioSystem3
502:   FUNC GLOBAL DEFAULT 14 _ZN7android21AudioTrackSe
503:   OBJECT WEAK DEFAULT 18 _ZTVN7android6VectorINS_8
504:   OBJECT GLOBAL DEFAULT 11 _ZN7android11ClientProxy8
505:   OBJECT GLOBAL DEFAULT 18 _ZTVN7android5media13BnAu
506:   FUNC GLOBAL DEFAULT 14 _ZN7android11AudioEffectD
507:   FUNC GLOBAL DEFAULT 14 _ZN7android10AudioTrack15
508:   FUNC GLOBAL DEFAULT 14 _ZTv0_n24_N7android10Audi
509:   OBJECT GLOBAL DEFAULT 18 _ZTVN7android22AudioRecor
510:   OBJECT WEAK DEFAULT 18 _ZTVN7android11AudioClien
511:   FUNC GLOBAL DEFAULT 14 _ZN7android19IAudioPolicy
512:   FUNC GLOBAL DEFAULT 14 _ZN7android11AudioEffect2
513:   FUNC GLOBAL DEFAULT 14 _ZNK7android11AudioEffect
514:   FUNC GLOBAL DEFAULT 14 _ZN7android11AudioSystem1
515:   FUNC GLOBAL DEFAULT 14 _ZN7android26BnAudioPolic
516:   FUNC GLOBAL DEFAULT 14 _ZN7android10PlayerBase14
517:   FUNC GLOBAL DEFAULT 14 _ZThn8_N7android11AudioSy
518:   FUNC GLOBAL DEFAULT 14 _ZN7android27StaticAudioT
519:   OBJECT GLOBAL DEFAULT 23 _ZN7android11AudioSystem1
520:   FUNC GLOBAL DEFAULT 14 _ZN7android10AudioTrack17
521:   FUNC GLOBAL DEFAULT 14 _ZNK7android10AudioTrack2
522:   OBJECT GLOBAL DEFAULT 18 _ZTTN7android13IEffectCli
523:   FUNC GLOBAL DEFAULT 14 _ZN7android5media12IAudio
524:   FUNC GLOBAL DEFAULT 14 _ZN7android11AudioEffect1
525:   FUNC GLOBAL DEFAULT 14 _ZN7android11AudioRecordD
526:   FUNC GLOBAL DEFAULT 14 _ZN7android25IAudioPolicy
527:   FUNC GLOBAL DEFAULT 14 _ZN7android10AudioTrack12
528:   FUNC WEAK DEFAULT 14 _ZNK7android12SortedVecto
529:   FUNC GLOBAL DEFAULT 14 _ZN7android27StaticAudioT
530:   FUNC GLOBAL DEFAULT 14 _ZN7android15TrackPlayerB
531:   FUNC GLOBAL DEFAULT 14 _ZN7android24RecordingAct
532:   OBJECT WEAK DEFAULT 18 _ZTTNSt3__119basic_ostrin
533:   FUNC GLOBAL DEFAULT 14 _ZN7android11AudioSystem1
534:   OBJECT GLOBAL DEFAULT 18 _ZTCN7android11AudioSyste
535:   FUNC WEAK DEFAULT 14 _ZNK7android12SortedVecto
536:   FUNC WEAK DEFAULT 14 _ZNK7android6VectorINS_19
537:   FUNC GLOBAL DEFAULT 14 _ZN7android11AudioRecord1
538:   FUNC WEAK DEFAULT 14 _ZNK7android12SortedVecto
539:   FUNC WEAK DEFAULT 14 _ZNSt3__16__treeINS_12__v
540:   FUNC GLOBAL DEFAULT 14 _ZN7android11AudioRecord1
541:   OBJECT WEAK DEFAULT 18 _ZTVN7android13IAudioFlin
542:   FUNC GLOBAL DEFAULT 14 _ZN7android11AudioSystem2
543:   FUNC GLOBAL DEFAULT 14 _ZN7android25IAudioPolicy
544:   OBJECT WEAK DEFAULT 18 _ZTCN7android14BpEffectCl
545:   OBJECT GLOBAL DEFAULT 18 _ZTCN7android5media8BpPla
546:   OBJECT WEAK DEFAULT 18 _ZTCN7android11AudioEffec
547:   FUNC GLOBAL DEFAULT 14 _ZN7android11AudioSystem1
548:   FUNC GLOBAL DEFAULT 14 _ZN7android11AudioSystem2
549:   FUNC GLOBAL DEFAULT 14 _ZN7android11AudioSystem2
550:   FUNC WEAK DEFAULT 14 _ZNK7android6VectorINS_2s
551:   OBJECT WEAK DEFAULT 18 _ZTTN7android8BpEffectE
552:   OBJECT GLOBAL DEFAULT 18 _ZTCN7android5media13BnAu
553:   FUNC WEAK DEFAULT 14 _ZNK7android12SortedVecto
554:   FUNC GLOBAL DEFAULT 14 _ZN7android10AudioTrack22
555:   FUNC GLOBAL DEFAULT 14 _ZN7android11AudioEffect1
556:   FUNC GLOBAL DEFAULT 14 _ZN7android11AudioEffect2
557:   FUNC WEAK DEFAULT 14 _ZNSt3__124__put_characte
558:   FUNC WEAK DEFAULT 14 _ZNK7android6VectorINS_2s
559:   OBJECT GLOBAL DEFAULT 18 _ZTCN7android14BnAudioFli
560:   FUNC GLOBAL DEFAULT 14 _ZN7android5media14IPlaye
561:   FUNC GLOBAL DEFAULT 14 _ZN7android11AudioSystem1
562:   FUNC GLOBAL DEFAULT 14 _ZN7android10AudioTrack14
563:   OBJECT WEAK DEFAULT 18 _ZTVN7android26BpAudioPol
564:   FUNC GLOBAL DEFAULT 14 _ZN7android13ToneGenerato
565:   FUNC GLOBAL DEFAULT 14 _ZN7android5media8BpPlaye
566:   OBJECT GLOBAL DEFAULT 18 _ZTVN7android11AudioEffec
567:   FUNC GLOBAL DEFAULT 14 _ZN7android11AudioSystem2
568:   OBJECT GLOBAL DEFAULT 18 _ZTVN7android14BnEffectCl
569:   FUNC GLOBAL DEFAULT 14 _ZN7android5media8BpPlaye
570:   FUNC GLOBAL DEFAULT 14 _ZN7android10AudioTrack16
571:   FUNC GLOBAL DEFAULT 14 _ZN7android19IAudioFlinge
572:   OBJECT WEAK DEFAULT 18 _ZTTN7android12BpAudioTra
573:   FUNC GLOBAL DEFAULT 14 _ZN7android11AudioSystem1
574:   FUNC WEAK DEFAULT 14 _ZNSt3__16__treeINS_12__v
575:   OBJECT WEAK DEFAULT 18 _ZTVN7android6VectorINS_2
576:   FUNC GLOBAL DEFAULT 14 _ZN7android11AudioSystem1
577:   FUNC GLOBAL DEFAULT 14 _ZN7android11AudioSystem1
578:   FUNC WEAK DEFAULT 14 _ZNSt3__16vectorI19audio_
579:   OBJECT GLOBAL DEFAULT 23 _ZN7android11IAudioTrack1
580:   FUNC GLOBAL DEFAULT 14 _ZN7android13ToneGenerato
581:   OBJECT GLOBAL DEFAULT 18 _ZTCN7android11AudioSyste
582:   FUNC GLOBAL DEFAULT 14 _ZN7android10AudioTrack16
583:   FUNC GLOBAL DEFAULT 14 _ZNK7android10AudioTrack8
584:   FUNC GLOBAL DEFAULT 14 _ZN7android7IEffect14setD
585:   FUNC GLOBAL DEFAULT 14 _ZN7android11AudioRecord1
586:   OBJECT GLOBAL DEFAULT 18 _ZTCN7android5media8BpPla
587:   OBJECT GLOBAL DEFAULT 18 _ZTTN7android10AudioTrack
588:   FUNC WEAK DEFAULT 14 _ZNK7android6VectorINS_19
589:   OBJECT WEAK DEFAULT 18 _ZTVN7android12BpAudioTra
590:   FUNC WEAK DEFAULT 14 _ZNK7android12SortedVecto
591:   OBJECT WEAK DEFAULT 18 _ZTCN7android11AudioEffec
592:   FUNC GLOBAL DEFAULT 14 _ZN7android11AudioRecord3
593:   FUNC GLOBAL DEFAULT 14 _ZN7android11AudioRecord4
594:   FUNC GLOBAL DEFAULT 14 _ZN7android11ClientProxy9
595:   FUNC GLOBAL DEFAULT 14 _ZNK7android10AudioTrack1
596:   FUNC WEAK DEFAULT 14 _ZNSt3__14listIN7android5
597:   OBJECT GLOBAL DEFAULT 18 _ZTCN7android10PlayerBase
598:   FUNC WEAK DEFAULT 14 _ZNK7android6VectorINS_2s
599:   FUNC GLOBAL DEFAULT 14 _ZN7android19IAudioPolicy
600:   OBJECT GLOBAL DEFAULT 23 _ZN7android13IEffectClien
601:   FUNC GLOBAL DEFAULT 14 _ZN7android11AudioSystem3
602:   OBJECT GLOBAL DEFAULT 23 _ZN7android11AudioSystem8
603:   OBJECT WEAK DEFAULT 18 _ZTVN7android5media13Volu
604:   OBJECT GLOBAL DEFAULT 18 _ZTTN7android20BnAudioPol
605:   OBJECT GLOBAL DEFAULT 18 _ZTTN7android5media8BnPla
606:   FUNC GLOBAL DEFAULT 14 _ZN7android10AudioTrack16
607:   FUNC GLOBAL DEFAULT 14 _ZN7android21AudioTrackSe
608:   OBJECT GLOBAL DEFAULT 18 _ZTTN7android12BnAudioTra
609:   OBJECT GLOBAL DEFAULT 18 _ZTCN7android15TrackPlaye
610:   FUNC GLOBAL DEFAULT 14 _ZN7android11AudioSystem1
611:   FUNC WEAK DEFAULT 14 _ZNSt3__16__treeINS_12__v
612:   FUNC GLOBAL DEFAULT 14 _ZN7android10AudioTrack13
613:   FUNC GLOBAL DEFAULT 14 _ZNK7android10AudioTrack7
614:   FUNC GLOBAL DEFAULT 14 _ZN7android11AudioEffect2
615:   FUNC GLOBAL DEFAULT 14 _ZN7android13ToneGenerato
616:   FUNC GLOBAL DEFAULT 14 _ZN7android5media8BpPlaye
617:   FUNC GLOBAL DEFAULT 14 _ZN7android11AudioRecord1
618:   OBJECT GLOBAL DEFAULT 18 _ZTVN7android11AudioRecor
619:   FUNC WEAK DEFAULT 14 _ZNK7android12SortedVecto
620:   FUNC GLOBAL DEFAULT 14 _ZN7android13ToneGenerato
621:   FUNC GLOBAL DEFAULT 14 _ZN7android11AudioEffectC
622:   FUNC GLOBAL DEFAULT 14 _ZTv0_n24_N7android11Audi
623:   FUNC GLOBAL DEFAULT 14 _ZN7android10AudioTrack23
624:   FUNC WEAK DEFAULT 14 _ZNK7android6VectorINS_19
625:   FUNC GLOBAL DEFAULT 14 _ZNK7android7IEffect22get
626:   FUNC WEAK DEFAULT 14 _ZNSt3__16__treeINS_12__v
627:   FUNC GLOBAL DEFAULT 14 _ZNK7android22AudioRecord
628:   FUNC GLOBAL DEFAULT 14 _ZN7android11AudioSystem2
629:   FUNC GLOBAL DEFAULT 14 _ZN7android10AudioTrack25
630:   FUNC WEAK DEFAULT 14 _ZNK7android6VectorIiE16d
631:   FUNC GLOBAL DEFAULT 14 _ZNK7android11AudioEffect
632:   OBJECT GLOBAL DEFAULT 23 _ZN7android11AudioSystem1
633:   FUNC GLOBAL DEFAULT 14 _ZN7android11AudioSystem2
634:   FUNC GLOBAL DEFAULT 14 _ZNK7android11AudioEffect
635:   OBJECT WEAK DEFAULT 18 _ZTVN7android11AudioEffec
636:   FUNC GLOBAL DEFAULT 14 _ZN7android10AudioTrack7f
637:   FUNC GLOBAL DEFAULT 14 _ZN7android15TrackPlayerB
638:   FUNC GLOBAL DEFAULT 14 _ZN7android15TrackPlayerB
639:   OBJECT WEAK DEFAULT 18 _ZTVNSt3__115basic_string
640:   FUNC GLOBAL DEFAULT 14 _ZN7android11AudioSystem1
641:   FUNC GLOBAL DEFAULT 14 _ZN7android11AudioSystem1
642:   OBJECT GLOBAL DEFAULT 18 _ZTVN7android13IEffectCli
643:   FUNC GLOBAL DEFAULT 14 _ZN7android10AudioTrack5w
644:   FUNC WEAK DEFAULT 14 _ZNK7android12SortedVecto
645:   FUNC GLOBAL DEFAULT 14 _ZN7android18audio_track_
646:   OBJECT GLOBAL DEFAULT 18 _ZTCN7android20BnAudioFli
647:   FUNC WEAK DEFAULT 14 _ZNK7android6VectorINS_19
648:   OBJECT GLOBAL DEFAULT 18 _ZTVN7android12BnAudioTra
649:   FUNC WEAK DEFAULT 14 _ZNK7android6VectorINS0_I
650:   FUNC GLOBAL DEFAULT 14 _ZN7android10AudioTrack12
651:   OBJECT GLOBAL DEFAULT 23 _ZN7android11AudioSystem2
652:   OBJECT GLOBAL DEFAULT 23 _ZN7android13IAudioFlinge
653:   OBJECT WEAK DEFAULT 18 _ZTCN7android26BpAudioPol
654:   OBJECT GLOBAL DEFAULT 11 _ZN7android13ToneGenerato
655:   OBJECT GLOBAL DEFAULT 18 _ZTVN7android5media14IPla
656:   FUNC WEAK DEFAULT 14 _ZNSt3__112__hash_tableIN
657:   OBJECT GLOBAL DEFAULT 18 _ZTTN7android5media13BpAu
658:   FUNC GLOBAL DEFAULT 14 _ZTv0_n24_N7android13IEff
659:   FUNC WEAK DEFAULT 14 _ZNSt3__16__treeINS_12__v
660:   FUNC GLOBAL DEFAULT 14 _ZN7android10AudioTrackC1
661:   FUNC GLOBAL DEFAULT 14 _ZN7android11IAudioTrackD
662:   FUNC GLOBAL DEFAULT 14 _ZN7android11AudioEffect1
663:   FUNC GLOBAL DEFAULT 14 _ZN7android11AudioSystem1
664:   FUNC GLOBAL DEFAULT 14 _ZN7android11AudioSystem1
665:   OBJECT GLOBAL DEFAULT 18 _ZTVN7android19IAudioFlin
666:   FUNC WEAK DEFAULT 14 _ZNK7android6VectorINS_22
667:   OBJECT GLOBAL DEFAULT 18 _ZTTN7android5media19IAud
668:   FUNC GLOBAL DEFAULT 14 _ZN7android11AudioSystem1
669:   FUNC GLOBAL DEFAULT 14 _ZN7android11AudioSystem2
670:   FUNC GLOBAL DEFAULT 14 _ZN7android5ProxyC2EPNS_1
671:   FUNC GLOBAL DEFAULT 14 _ZThn8_N7android8BnEffect
672:   FUNC GLOBAL DEFAULT 14 _ZN7android11AudioEffect2
673:   FUNC GLOBAL DEFAULT 14 _ZN7android11AudioSystem1
674:   FUNC GLOBAL DEFAULT 14 _ZN7android21AudioTrackCl
675:   FUNC GLOBAL DEFAULT 14 _ZN7android25IAudioPolicy
676:   FUNC WEAK DEFAULT 14 _ZNK7android6VectorINS_2s
677:   FUNC GLOBAL DEFAULT 14 _ZN7android27StaticAudioT
678:   FUNC GLOBAL DEFAULT 14 _ZN7android13IAudioFlinge
679:   OBJECT GLOBAL DEFAULT 18 _ZTVN7android11IAudioTrac
680:   FUNC GLOBAL DEFAULT 14 _ZTv0_n24_N7android11IAud
681:   FUNC GLOBAL DEFAULT 14 _ZN7android13ToneGenerato
682:   FUNC GLOBAL DEFAULT 14 _ZNK7android11AudioRecord
683:   FUNC GLOBAL DEFAULT 14 _ZN7android11AudioSystem7
684:   FUNC GLOBAL DEFAULT 14 _ZN7android10AudioTrack12
685:   FUNC GLOBAL DEFAULT 14 _ZN7android10AudioTrack17
686:   FUNC GLOBAL DEFAULT 14 _ZN7android10AudioTrack3s
687:   FUNC GLOBAL DEFAULT 14 _ZN7android10AudioTrack5s
688:   FUNC WEAK DEFAULT 14 _ZNK7android6VectorINS_22
689:   FUNC GLOBAL DEFAULT 14 _ZN7android11AudioRecord1
690:   FUNC GLOBAL DEFAULT 14 _ZN7android11AudioSystem1
691:   FUNC GLOBAL DEFAULT 14 _ZN7android10AudioTrack18
692:   OBJECT GLOBAL DEFAULT 18 _ZTCN7android20BnAudioFli
693:   OBJECT GLOBAL DEFAULT 18 _ZTCN7android26BnAudioPol
694:   FUNC GLOBAL DEFAULT 14 _ZNK7android5media12IAudi
695:   FUNC GLOBAL DEFAULT 14 _ZN7android11AudioSystem2
696:   FUNC GLOBAL DEFAULT 14 _ZN7android11AudioRecord2
697:   FUNC GLOBAL DEFAULT 14 _ZN7android11ServerProxy1
698:   OBJECT WEAK DEFAULT 18 _ZTCN7android14BpEffectCl
699:   FUNC WEAK DEFAULT 14 _ZNK7android6VectorINS0_I
700:   OBJECT WEAK DEFAULT 18 _ZTVN7android5media12Volu
701:   FUNC GLOBAL DEFAULT 14 _ZN7android11AudioRecord1
702:   OBJECT WEAK DEFAULT 18 _ZTCN7android20BpAudioPol
703:   FUNC GLOBAL DEFAULT 14 _ZN7android11IAudioTrackC
704:   OBJECT WEAK DEFAULT 18 _ZTCN7android8BpEffectE8_
705:   FUNC GLOBAL DEFAULT 14 _ZN7android5media12IAudio
706:   FUNC GLOBAL DEFAULT 14 _ZN7android11AudioEffect1
707:   FUNC WEAK DEFAULT 14 _ZNK7android12SortedVecto
708:   OBJECT WEAK DEFAULT 18 _ZTCN7android8BpEffectE0_
709:   FUNC GLOBAL DEFAULT 14 _ZN7android11AudioEffect1
710:   FUNC GLOBAL DEFAULT 14 _ZNK7android10AudioTrack1
711:   FUNC GLOBAL DEFAULT 14 _ZTv0_n24_N7android13IAud
712:   FUNC WEAK DEFAULT 14 _ZNK7android6Parcel20read
713:   FUNC GLOBAL DEFAULT 14 _ZTv0_n24_N7android5media
714:   FUNC GLOBAL DEFAULT 14 _ZN7android19IAudioFlinge
715:   FUNC GLOBAL DEFAULT 14 _ZNK7android10AudioTrack2
716:   FUNC GLOBAL DEFAULT 14 _ZN7android19IAudioPolicy
717:   FUNC GLOBAL DEFAULT 14 _ZN7android11AudioSystem2
718:   FUNC WEAK DEFAULT 14 _ZNSt3__16__treeINS_12__v
719:   FUNC WEAK DEFAULT 14 _ZNSt3__112__hash_tableIN
720:   FUNC GLOBAL DEFAULT 14 _ZN7android19IAudioFlinge
721:   OBJECT GLOBAL DEFAULT 18 _ZTCN7android20BnAudioPol
722:   FUNC WEAK DEFAULT 14 _ZNK7android6VectorIfE15d
723:   FUNC GLOBAL DEFAULT 14 _ZN7android11AudioSystem1
724:   OBJECT GLOBAL DEFAULT 18 _ZTCN7android14BnAudioFli
725:   OBJECT GLOBAL DEFAULT 18 _ZTVN7android8BnEffectE
726:   OBJECT GLOBAL DEFAULT 18 _ZTVN7android5media8BnPla
727:   FUNC GLOBAL DEFAULT 14 _ZTv0_n24_N7android5media
728:   FUNC GLOBAL DEFAULT 14 _ZN7android11ClientProxy1
729:   FUNC GLOBAL DEFAULT 14 _ZN7android11AudioSystem1
730:   OBJECT WEAK DEFAULT 18 _ZTVN7android13IAudioFlin
731:   FUNC GLOBAL DEFAULT 14 _ZN7android27StaticAudioT
732:   OBJECT GLOBAL DEFAULT 18 _ZTCN7android26BnAudioPol
733:   FUNC GLOBAL DEFAULT 14 _ZN7android10AudioTrack9s
734:   OBJECT WEAK DEFAULT 18 _ZTVN7android14BpEffectCl
735:   FUNC GLOBAL DEFAULT 14 _ZN7android11AudioSystem2
736:   FUNC WEAK DEFAULT 14 _ZNK7android12SortedVecto
737:   FUNC GLOBAL DEFAULT 14 _ZN7android20BnAudioPolic
738:   FUNC WEAK DEFAULT 14 _ZNK7android12SortedVecto
739:   OBJECT GLOBAL DEFAULT 23 _ZN7android5media7IPlayer
740:   FUNC GLOBAL DEFAULT 14 _ZN7android5media8BpPlaye
741:   FUNC GLOBAL DEFAULT 14 _ZN7android10AudioTrack13
742:   FUNC GLOBAL DEFAULT 14 _ZN7android15TrackPlayerB
743:   FUNC GLOBAL DEFAULT 14 _ZN7android5media8BpPlaye
744:   OBJECT GLOBAL DEFAULT 23 _ZN7android19IAudioFlinge
745:   FUNC WEAK DEFAULT 14 _ZNK7android6VectorINS_2s
746:   FUNC GLOBAL DEFAULT 14 _ZN7android5media19IAudio
747:   FUNC GLOBAL DEFAULT 14 _ZN7android11AudioSystem2
748:   FUNC GLOBAL DEFAULT 14 _ZN7android5ProxyC1EPNS_1
749:   OBJECT GLOBAL DEFAULT 18 _ZTCN7android5media13BnAu
750:   OBJECT WEAK DEFAULT 18 _ZTVN7android6VectorIiEE
751:   FUNC GLOBAL DEFAULT 14 _ZN7android11AudioSystem1
752:   FUNC GLOBAL DEFAULT 14 _ZN7android19IAudioFlinge
753:   OBJECT GLOBAL DEFAULT 18 _ZTCN7android11AudioSyste
754:   FUNC GLOBAL DEFAULT 14 _ZTv0_n24_N7android19IAud
755:   OBJECT GLOBAL DEFAULT 18 _ZTVN7android10AudioTrack
756:   OBJECT GLOBAL DEFAULT 18 _ZTCN7android15TrackPlaye
757:   FUNC WEAK DEFAULT 14 _ZNSt3__16__treeINS_12__v
758:   FUNC GLOBAL DEFAULT 14 _ZNK7android19IAudioPolic
759:   FUNC WEAK DEFAULT 14 _ZN7android11BnInterfaceI
760:   FUNC GLOBAL DEFAULT 14 _ZN7android13IEffectClien
761:   OBJECT WEAK DEFAULT 18 _ZTVN7android22AudioRecor
762:   FUNC GLOBAL DEFAULT 14 _ZN7android10AudioTrack13
763:   FUNC GLOBAL DEFAULT 14 _ZN7android10AudioTrackD2
764:   FUNC GLOBAL DEFAULT 14 _ZN7android15TrackPlayerB
765:   OBJECT GLOBAL DEFAULT 18 _ZTTN7android11AudioSyste
766:   FUNC GLOBAL DEFAULT 14 _ZTv0_n24_N7android15Trac
767:   FUNC GLOBAL DEFAULT 14 _ZN7android11AudioRecord1
768:   OBJECT GLOBAL DEFAULT 18 _ZTCN7android11AudioRecor
769:   OBJECT GLOBAL DEFAULT 18 _ZTCN7android10PlayerBase
770:   OBJECT GLOBAL DEFAULT 23 _ZN7android19IAudioFlinge
771:   OBJECT WEAK DEFAULT 18 _ZTVN7android5media12Volu
772:   FUNC GLOBAL DEFAULT 14 _ZN7android7IEffectD0Ev
773:   OBJECT WEAK DEFAULT 18 _ZTCN7android8BpEffectE0_
774:   FUNC GLOBAL DEFAULT 14 _ZN7android11AudioSystem1
775:   FUNC GLOBAL DEFAULT 14 _ZN7android10PlayerBase4i
776:   FUNC GLOBAL DEFAULT 14 _ZN7android10PlayerBaseD1
777:   FUNC GLOBAL DEFAULT 14 _ZN7android11AudioRecord1
778:   FUNC GLOBAL DEFAULT 14 _ZN7android11AudioEffect1
779:   FUNC GLOBAL DEFAULT 14 _ZN7android11AudioSystem1
780:   FUNC GLOBAL DEFAULT 14 _ZN7android11AudioSystem2
781:   OBJECT GLOBAL DEFAULT 18 _ZTTN7android26BnAudioPol
782:   OBJECT WEAK DEFAULT 18 _ZTVN7android6VectorIfEE
783:   FUNC GLOBAL DEFAULT 14 _ZN7android11AudioSystem3
784:   FUNC GLOBAL DEFAULT 14 _ZN7android10AudioTrack16
785:   FUNC GLOBAL DEFAULT 14 _ZN7android10AudioTrack9s
786:   OBJECT GLOBAL DEFAULT 18 _ZTVN7android10PlayerBase
787:   OBJECT GLOBAL DEFAULT 18 _ZTTN7android15TrackPlaye
788:   FUNC GLOBAL DEFAULT 14 _ZN7android11AudioSystem1
789:   FUNC WEAK DEFAULT 14 _ZNSt3__16__treeINS_12__v
790:   OBJECT GLOBAL DEFAULT 18 _ZTCN7android11AudioSyste
791:   FUNC GLOBAL DEFAULT 14 _ZN7android10AudioTrack13
792:   OBJECT GLOBAL DEFAULT 18 _ZTVN7android19IAudioPoli
793:   OBJECT GLOBAL DEFAULT 18 _ZTCN7android11IAudioTrac
794:   FUNC GLOBAL DEFAULT 14 _ZN7android13ToneGenerato
795:   FUNC GLOBAL DEFAULT 14 _ZN7android11AudioSystem1
796:   FUNC GLOBAL DEFAULT 14 _ZN7android11AudioSystem2
797:   FUNC GLOBAL DEFAULT 14 _ZN7android11AudioSystem4
798:   FUNC WEAK DEFAULT 14 _ZNK7android12SortedVecto
799:   OBJECT WEAK DEFAULT 18 _ZTCN7android12BpAudioTra
800:   OBJECT GLOBAL DEFAULT 23 _ZN7android7IEffect10desc
801:   FUNC GLOBAL DEFAULT 14 _ZN7android5media7IPlayer
802:   FUNC GLOBAL DEFAULT 14 _ZN7android11AudioRecord1
803:   OBJECT GLOBAL DEFAULT 18 _ZTCN7android5media14IPla
804:   FUNC GLOBAL DEFAULT 14 _ZN7android11AudioSystem1
805:   FUNC WEAK DEFAULT 14 _ZNK7android12SortedVecto
806:   FUNC GLOBAL DEFAULT 14 _ZN7android15TrackPlayerB
807:   FUNC GLOBAL DEFAULT 14 _ZN7android11AudioEffectC
808:   FUNC GLOBAL DEFAULT 14 _ZN7android11AudioSystem1
809:   FUNC GLOBAL DEFAULT 14 _ZN7android13IAudioFlinge
810:   FUNC GLOBAL DEFAULT 14 _ZN7android7IEffectC2Ev
811:   OBJECT GLOBAL DEFAULT 18 _ZTCN7android10PlayerBase
812:   OBJECT GLOBAL DEFAULT 18 _ZTTN7android5media14IPla
813:   FUNC GLOBAL DEFAULT 14 _ZN7android11AudioSystem2
814:   FUNC GLOBAL DEFAULT 14 _ZN7android10AudioTrack17
815:   FUNC GLOBAL DEFAULT 14 _ZN7android20BnAudioPolic
816:   FUNC GLOBAL DEFAULT 14 _ZN7android15TrackPlayerB
817:   FUNC WEAK DEFAULT 14 _ZNSt3__115basic_stringbu
818:   OBJECT GLOBAL DEFAULT 18 _ZTTN7android14BnAudioFli
819:   OBJECT GLOBAL DEFAULT 23 _ZN7android19IAudioPolicy
820:   FUNC GLOBAL DEFAULT 14 _ZN7android13ToneGenerato
821:   OBJECT WEAK DEFAULT 18 _ZTVN7android6VectorINS_2
822:   OBJECT GLOBAL DEFAULT 18 _ZTCN7android7IEffectE0_N
823:   OBJECT GLOBAL DEFAULT 18 _ZTCN7android8BnEffectE0_
824:   FUNC GLOBAL DEFAULT 14 _ZN7android10PlayerBase11
825:   FUNC GLOBAL DEFAULT 14 _ZN7android11AudioRecord1
826:   FUNC GLOBAL DEFAULT 14 _ZN7android11AudioRecordC
827:   FUNC GLOBAL DEFAULT 14 _ZNK7android11AudioRecord
828:   FUNC GLOBAL DEFAULT 14 _ZN7android10AudioTrack12
829:   FUNC GLOBAL DEFAULT 14 _ZN7android11AudioEffectD
830:   FUNC GLOBAL DEFAULT 14 _ZN7android11AudioRecord1
831:   FUNC WEAK DEFAULT 14 _ZN7android11BnInterfaceI
832:   FUNC GLOBAL DEFAULT 14 _ZN7android10AudioTrack12
833:   FUNC GLOBAL DEFAULT 14 _ZTv0_n24_N7android10Audi
834:   OBJECT GLOBAL DEFAULT 18 _ZTCN7android8BnEffectE8_
835:   OBJECT WEAK DEFAULT 18 _ZTCN7android11AudioEffec
836:   FUNC GLOBAL DEFAULT 14 _ZN7android11AudioRecord1
837:   FUNC GLOBAL DEFAULT 14 _ZN7android11AudioSystem2
838:   FUNC WEAK DEFAULT 14 _ZNK7android6VectorINS_2s
839:   FUNC GLOBAL DEFAULT 14 _ZN7android10AudioTrack26
840:   FUNC GLOBAL DEFAULT 14 _ZN7android10AudioTrackC1
841:   FUNC GLOBAL DEFAULT 14 _ZN7android21AudioTrackCl
842:   FUNC GLOBAL DEFAULT 14 _ZN7android19IAudioPolicy
843:   OBJECT GLOBAL DEFAULT 18 _ZTCN7android12BnAudioTra
844:   FUNC GLOBAL DEFAULT 14 _ZN7android5media19IAudio
845:   FUNC GLOBAL DEFAULT 14 _ZN7android11AudioRecord1
846:   OBJECT GLOBAL DEFAULT 23 _ZN7android11AudioSystem1
847:   FUNC GLOBAL DEFAULT 14 _ZN7android10AudioTrack16
848:   OBJECT GLOBAL DEFAULT 18 _ZTVN7android27StaticAudi
849:   FUNC WEAK DEFAULT 14 _ZNK7android6VectorIfE7do
850:   FUNC WEAK DEFAULT 14 _ZNK7android6VectorINS_2s
851:   FUNC GLOBAL DEFAULT 14 _ZN7android10AudioTrack22
852:   FUNC GLOBAL DEFAULT 14 _ZN7android11AudioSystem2
853:   FUNC GLOBAL DEFAULT 14 _ZN7android11AudioSystem1
854:   FUNC GLOBAL DEFAULT 14 _ZN7android11AudioSystem2
855:   OBJECT GLOBAL DEFAULT 18 _ZTVN7android21AudioTrack
856:   FUNC GLOBAL DEFAULT 14 _ZN7android13IAudioFlinge
857:   OBJECT GLOBAL DEFAULT 18 _ZTCN7android20BnAudioPol
858:   OBJECT GLOBAL DEFAULT 18 _ZTCN7android26BnAudioPol
859:   OBJECT WEAK DEFAULT 18 _ZTCN7android26BpAudioPol
860:   FUNC GLOBAL DEFAULT 14 _ZN7android11AudioSystem1
861:   OBJECT GLOBAL DEFAULT 18 _ZTCN7android11AudioSyste
862:   FUNC GLOBAL DEFAULT 14 _ZN7android10AudioTrack13
863:   FUNC GLOBAL DEFAULT 14 _ZN7android10AudioTrack19
864:   FUNC GLOBAL DEFAULT 14 _ZN7android7IEffect11asIn
865:   OBJECT WEAK DEFAULT 18 _ZTCN7android20BpAudioFli
866:   OBJECT GLOBAL DEFAULT 23 _ZN7android5media12IAudio
867:   FUNC WEAK DEFAULT 14 _ZNK7android6VectorINS0_I
868:   FUNC GLOBAL DEFAULT 14 _ZNK7android5media7IPlaye
869:   FUNC GLOBAL DEFAULT 14 _ZN7android11AudioRecordD
870:   FUNC GLOBAL DEFAULT 14 _ZThn8_N7android26BnAudio
871:   FUNC GLOBAL DEFAULT 14 _ZN7android5media12IAudio
872:   FUNC GLOBAL DEFAULT 14 _ZN7android11AudioSystem1
873:   FUNC GLOBAL DEFAULT 14 _ZN7android11AudioSystem1
874:   OBJECT GLOBAL DEFAULT 18 _ZTCN7android11AudioSyste
875:   OBJECT GLOBAL DEFAULT 18 _ZTVN7android11AudioSyste
876:   OBJECT GLOBAL DEFAULT 18 _ZTCN7android14BnAudioFli
877:   FUNC GLOBAL DEFAULT 14 _ZN7android24RecordingAct
878:   FUNC GLOBAL DEFAULT 14 _ZN7android11AudioSystem1
879:   OBJECT WEAK DEFAULT 18 _ZTCN7android26BpAudioPol
880:   FUNC WEAK DEFAULT 14 _ZNK7android6VectorIfE8do
881:   FUNC GLOBAL DEFAULT 14 _ZNK7android13IEffectClie
882:   OBJECT WEAK DEFAULT 18 _ZTCN7android20BpAudioFli
883:   FUNC GLOBAL DEFAULT 14 _ZThn8_N7android15TrackPl
884:   FUNC GLOBAL DEFAULT 14 _ZN7android11AudioSystem1
885:   FUNC GLOBAL DEFAULT 14 _ZN7android27StaticAudioT
886:   OBJECT WEAK DEFAULT 18 _ZTVN7android12SortedVect
887:   OBJECT GLOBAL DEFAULT 23 _ZN7android13IAudioFlinge
888:   FUNC WEAK DEFAULT 14 _ZNK7android6VectorINS_8A
889:   FUNC GLOBAL DEFAULT 14 _ZNK7android10AudioTrack1
890:   FUNC WEAK DEFAULT 14 _ZN7android11BnInterfaceI
891:   FUNC WEAK DEFAULT 14 _ZN7android11BnInterfaceI
892:   FUNC GLOBAL DEFAULT 14 _ZN7android11AudioRecord2
893:   OBJECT GLOBAL DEFAULT 18 _ZTCN7android11AudioRecor
894:   FUNC GLOBAL DEFAULT 14 _ZN7android11AudioSystem1
895:   FUNC GLOBAL DEFAULT 14 _ZN7android11AudioSystem1
896:   FUNC GLOBAL DEFAULT 14 _ZN7android11AudioEffect1
897:   FUNC GLOBAL DEFAULT 14 _ZN7android11AudioRecord1
898:   FUNC GLOBAL DEFAULT 14 _ZN7android11AudioSystem1
899:   FUNC GLOBAL DEFAULT 14 _ZN7android27StaticAudioT
900:   FUNC WEAK DEFAULT 14 _ZNSt3__16__treeINS_12__v
901:   FUNC GLOBAL DEFAULT 14 _ZNK7android10AudioTrack1
902:   FUNC GLOBAL DEFAULT 14 _ZTv0_n24_N7android10Play
903:   FUNC GLOBAL DEFAULT 14 _ZN7android5media12IAudio
904:   OBJECT WEAK DEFAULT 18 _ZTVN7android5media14Micr
905:   FUNC GLOBAL DEFAULT 14 _ZN7android25IAudioPolicy
906:   FUNC GLOBAL DEFAULT 14 _ZTv0_n24_N7android25IAud
907:   OBJECT GLOBAL DEFAULT 18 _ZTCN7android13IAudioFlin
908:   OBJECT GLOBAL DEFAULT 18 _ZTCN7android5media13BnAu
909:   FUNC GLOBAL DEFAULT 14 _ZN7android10AudioTrack16
910:   FUNC WEAK DEFAULT 14 _ZNK7android12SortedVecto
911:   FUNC GLOBAL DEFAULT 14 _ZN7android10AudioTrack14
912:   FUNC GLOBAL DEFAULT 14 _ZN7android10AudioTrack17
913:   FUNC WEAK DEFAULT 14 _ZNSt3__112__hash_tableIN
914:   OBJECT GLOBAL DEFAULT 18 _ZTCN7android5media13BpAu
915:   OBJECT GLOBAL DEFAULT 18 _ZTCN7android5media19IAud
916:   FUNC GLOBAL DEFAULT 14 _ZN7android11AudioSystem2
917:   FUNC GLOBAL DEFAULT 14 _ZN7android11AudioSystem2
918:   FUNC GLOBAL DEFAULT 14 _ZN7android10PlayerBase18
919:   FUNC GLOBAL DEFAULT 14 _ZN7android11AudioRecord1
920:   FUNC GLOBAL DEFAULT 14 _ZNK7android11AudioRecord
921:   FUNC GLOBAL DEFAULT 14 _ZN7android11AudioSystem1
922:   FUNC GLOBAL DEFAULT 14 _ZN7android10AudioTrack16
923:   FUNC GLOBAL DEFAULT 14 _ZN7android27StaticAudioT
924:   OBJECT GLOBAL DEFAULT 18 _ZTCN7android12BnAudioTra
925:   OBJECT GLOBAL DEFAULT 23 _ZN7android5media7IPlayer
926:   OBJECT WEAK DEFAULT 18 _ZTCN7android11AudioEffec
927:   FUNC WEAK DEFAULT 14 _ZNK7android12SortedVecto
928:   OBJECT GLOBAL DEFAULT 18 _ZTCN7android11AudioSyste
929:   FUNC GLOBAL DEFAULT 14 _ZN7android10AudioTrack21
930:   FUNC GLOBAL DEFAULT 14 _ZNK7android10AudioTrack1
931:   FUNC GLOBAL DEFAULT 14 _ZN7android10PlayerBase5s
932:   FUNC GLOBAL DEFAULT 14 _ZN7android5media8BpPlaye
933:   FUNC WEAK DEFAULT 14 _ZNK7android6VectorINS_2s
934:   FUNC GLOBAL DEFAULT 14 _ZN7android10AudioTrack14
935:   FUNC GLOBAL DEFAULT 14 _ZN7android10AudioTrack16
936:   FUNC GLOBAL DEFAULT 14 _ZN7android11ServerProxy1
937:   OBJECT WEAK DEFAULT 18 _ZTCN7android11AudioEffec
938:   FUNC GLOBAL DEFAULT 14 _ZN7android11AudioSystem1
939:   FUNC WEAK DEFAULT 14 _ZNSt3__16__treeINS_12__v
940:   FUNC GLOBAL DEFAULT 14 _ZN7android10AudioTrack22
941:   FUNC GLOBAL DEFAULT 14 _ZTv0_n24_N7android19IAud
942:   OBJECT WEAK DEFAULT 18 _ZTTN7android26BpAudioPol
943:   FUNC GLOBAL DEFAULT 14 _ZN7android5media12IAudio
944:   FUNC GLOBAL DEFAULT 14 _ZN7android11AudioEffect1
945:   FUNC GLOBAL DEFAULT 14 _ZN7android11AudioSystem1
946:   FUNC GLOBAL DEFAULT 14 _ZN7android11AudioSystem1
947:   FUNC GLOBAL DEFAULT 14 _ZN7android25IAudioPolicy
948:   FUNC GLOBAL DEFAULT 14 _ZN7android19IAudioFlinge
949:   FUNC GLOBAL DEFAULT 14 _ZN7android20BnAudioPolic
950:   FUNC GLOBAL DEFAULT 14 _ZN7android13ToneGenerato
951:   FUNC GLOBAL DEFAULT 14 _ZN7android10PlayerBase17
952:   FUNC WEAK DEFAULT 14 _ZNK7android6VectorIiE15d
953:   FUNC GLOBAL DEFAULT 14 _ZN7android24RecordingAct
954:   FUNC GLOBAL DEFAULT 14 _ZN7android21AudioTrackSe
955:   OBJECT GLOBAL DEFAULT 18 _ZTTN7android25IAudioPoli
956:   OBJECT WEAK DEFAULT 18 _ZTCN7android12BpAudioTra
957:   OBJECT WEAK DEFAULT 18 _ZTCNSt3__119basic_ostrin
958:   OBJECT GLOBAL DEFAULT 18 _ZTCN7android11AudioSyste
959:   OBJECT GLOBAL DEFAULT 18 _ZTCN7android26BnAudioPol
960:   FUNC GLOBAL DEFAULT 14 _ZNK7android21AudioTrackC
961:   FUNC GLOBAL DEFAULT 14 _ZNK7android21AudioTrackS
962:   FUNC GLOBAL DEFAULT 14 _ZN7android25IAudioPolicy
963:   FUNC WEAK DEFAULT 14 _ZNK7android6VectorIfE12d
964:   FUNC GLOBAL DEFAULT 14 _ZN7android11AudioEffect2
965:   OBJECT GLOBAL DEFAULT 18 _ZTVN7android11ServerProx
966:   OBJECT GLOBAL DEFAULT 18 _ZTTN7android8BnEffectE
967:   OBJECT GLOBAL DEFAULT 18 _ZTTN7android10PlayerBase
968:   OBJECT GLOBAL DEFAULT 18 _ZTCN7android5media13BnAu
969:   OBJECT WEAK DEFAULT 18 _ZTVN7android6VectorINS0_
970:   FUNC GLOBAL DEFAULT 14 _ZN7android11AudioSystem2
971:   FUNC WEAK DEFAULT 14 _ZNK7android12SortedVecto
972:   FUNC GLOBAL DEFAULT 14 _ZN7android13IEffectClien
973:   FUNC WEAK DEFAULT 14 _ZNSt3__16vectorI19effect
974:   OBJECT GLOBAL DEFAULT 23 _ZN7android13IEffectClien
975:   FUNC GLOBAL DEFAULT 14 _ZTv0_n24_N7android11Audi
976:   FUNC GLOBAL DEFAULT 14 _ZN7android11AudioSystem1
977:   FUNC GLOBAL DEFAULT 14 _ZN7android11AudioSystem2
978:   FUNC GLOBAL DEFAULT 14 _ZNK7android25IAudioPolic
979:   FUNC GLOBAL DEFAULT 14 _ZN7android5media14IPlaye
980:   FUNC GLOBAL DEFAULT 14 _ZN7android11AudioSystem2
981:   FUNC WEAK DEFAULT 14 _ZNK7android12SortedVecto
982:   FUNC GLOBAL DEFAULT 14 _ZN7android10AudioTrackC1
983:   OBJECT WEAK DEFAULT 18 _ZTCN7android8BpEffectE0_
984:   FUNC GLOBAL DEFAULT 14 _ZN7android11AudioSystem2
985:   FUNC WEAK DEFAULT 14 _ZN7android2spINS_11Audio
986:   FUNC WEAK DEFAULT 14 _ZNK7android6VectorINS_22
987:   OBJECT GLOBAL DEFAULT 18 _ZTTN7android11IAudioTrac
988:   FUNC GLOBAL DEFAULT 14 _ZN7android10AudioTrack9s
989:   FUNC GLOBAL DEFAULT 14 _ZN7android5media14IPlaye
990:   FUNC GLOBAL DEFAULT 14 _ZThn8_N7android11AudioSy
991:   FUNC GLOBAL DEFAULT 14 _ZNK7android27StaticAudio
992:   FUNC WEAK DEFAULT 14 _ZNK7android6VectorINS_2s
993:   FUNC GLOBAL DEFAULT 14 _ZN7android5media14IPlaye
994:   FUNC GLOBAL DEFAULT 14 _ZN7android27StaticAudioT
995:   OBJECT WEAK DEFAULT 18 _ZTVNSt3__118basic_string
996:   FUNC GLOBAL DEFAULT 14 _ZN7android11AudioSystem1
997:   FUNC GLOBAL DEFAULT 14 _ZN7android11AudioSystem1
998:   FUNC WEAK DEFAULT 14 _ZNK7android6VectorIiE10d
999:   FUNC GLOBAL DEFAULT 14 _ZNK7android11AudioRecord
1000:   OBJECT WEAK DEFAULT 18 _ZTVN7android13IAudioFlin
1001:   OBJECT GLOBAL DEFAULT 18 _ZTVN7android11AudioSyste
1002:   OBJECT GLOBAL DEFAULT 18 _ZTCN7android10AudioTrack
1003:   OBJECT GLOBAL DEFAULT 18 _ZTCN7android12BnAudioTra
1004:   OBJECT GLOBAL DEFAULT 18 _ZTCN7android8BnEffectE8_
1005:   OBJECT GLOBAL DEFAULT 18 _ZTCN7android15TrackPlaye
1006:   FUNC GLOBAL DEFAULT 14 _ZN7android11AudioSystem2
1007:   FUNC GLOBAL DEFAULT 14 _ZN7android10AudioTrack11
1008:   FUNC GLOBAL DEFAULT 14 _ZN7android11IAudioTrackD
1009:   OBJECT GLOBAL DEFAULT 18 _ZTCN7android12BnAudioTra
1010:   OBJECT GLOBAL DEFAULT 18 _ZTVN7android5media13BpAu
1011:   FUNC GLOBAL DEFAULT 14 _ZN7android11AudioSystem1
1012:   FUNC GLOBAL DEFAULT 14 _ZN7android11AudioSystem1
1013:   FUNC GLOBAL DEFAULT 14 _ZNK7android27StaticAudio
1014:   FUNC GLOBAL DEFAULT 14 _ZN7android5media13BpAudi
1015:   FUNC GLOBAL DEFAULT 14 _ZN7android11AudioEffect1
1016:   FUNC GLOBAL DEFAULT 14 _ZN7android5media12IAudio
1017:   OBJECT GLOBAL DEFAULT 18 _ZTVN7android5media12IAud
1018:   FUNC WEAK DEFAULT 14 _ZNSt3__16__treeINS_12__v
1019:   OBJECT WEAK DEFAULT 18 _ZTTN7android14BpAudioFli
1020:   OBJECT GLOBAL DEFAULT 18 _ZTCN7android20BnAudioPol
1021:   FUNC GLOBAL DEFAULT 14 _ZN7android11IAudioTrack1
1022:   FUNC GLOBAL DEFAULT 14 _ZN7android11AudioEffect3
1023:   FUNC GLOBAL DEFAULT 14 _ZN7android11AudioRecord1
1024:   FUNC WEAK DEFAULT 14 _ZN7android2spINS_11Audio
1025:   FUNC GLOBAL DEFAULT 14 _ZNK7android21AudioTrackS
1026:   FUNC GLOBAL DEFAULT 14 _ZN7android20BnAudioPolic
1027:   FUNC GLOBAL DEFAULT 14 _ZTv0_n24_N7android11IAud
1028:   FUNC GLOBAL DEFAULT 14 _ZN7android5media14IPlaye
1029:   FUNC GLOBAL DEFAULT 14 _ZN7android11AudioSystem1
1030:   FUNC GLOBAL DEFAULT 14 _ZN7android11AudioSystem3
1031:   FUNC WEAK DEFAULT 14 _ZNK7android6VectorINS_2s
1032:   OBJECT WEAK DEFAULT 18 _ZTCN7android20BpAudioFli
1033:   OBJECT WEAK DEFAULT 18 _ZTCN7android20BpAudioFli
1034:   FUNC GLOBAL DEFAULT 14 _ZThn8_N7android20BnAudio
1035:   FUNC GLOBAL DEFAULT 14 _ZNK7android10AudioTrack1
1036:   OBJECT GLOBAL DEFAULT 23 _ZN7android25IAudioPolicy
1037:   FUNC GLOBAL DEFAULT 14 _ZN7android5media13BpAudi
1038:   OBJECT GLOBAL DEFAULT 18 _ZTCN7android5media8BpPla
1039:   FUNC GLOBAL DEFAULT 14 _ZN7android11AudioRecord1
1040:   FUNC GLOBAL DEFAULT 14 _ZN7android10AudioTrack15
1041:   FUNC GLOBAL DEFAULT 14 _ZNK7android10AudioTrack1
1042:   OBJECT GLOBAL DEFAULT 18 _ZTCN7android5media19IAud
1043:   FUNC WEAK DEFAULT 14 _ZNSt3__16__treeINS_12__v
1044:   FUNC GLOBAL DEFAULT 14 _ZN7android11ClientProxy1
1045:   OBJECT GLOBAL DEFAULT 18 _ZTCN7android11AudioSyste
1046:   OBJECT WEAK DEFAULT 18 _ZTCNSt3__118basic_string
1047:   OBJECT GLOBAL DEFAULT 23 _ZN7android11IAudioTrack1
1048:   FUNC WEAK DEFAULT 14 _ZNK7android6VectorINS0_I
1049:   OBJECT GLOBAL DEFAULT 18 _ZTVN7android7IEffectE
1050:   OBJECT GLOBAL DEFAULT 18 _ZTVN7android5media19IAud
1051:   OBJECT GLOBAL DEFAULT 18 _ZTCN7android5media7IPlay
1052:   FUNC GLOBAL DEFAULT 14 _ZN7android11AudioSystem1
1053:   OBJECT GLOBAL DEFAULT 18 _ZTVN7android10AudioTrack
1054:   FUNC WEAK DEFAULT 14 _ZNSt3__16vectorIN7androi
1055:   FUNC GLOBAL DEFAULT 14 _ZN7android10PlayerBase20
1056:   FUNC GLOBAL DEFAULT 14 _ZThn8_N7android11AudioSy
1057:   FUNC GLOBAL DEFAULT 14 _ZTv0_n24_N7android13IAud
1058:   FUNC GLOBAL DEFAULT 14 _ZN7android5media19IAudio
1059:   OBJECT GLOBAL DEFAULT 18 _ZTCN7android5media8BnPla
1060:   FUNC GLOBAL DEFAULT 14 _ZN7android11AudioEffect7
1061:   FUNC GLOBAL DEFAULT 14 _ZN7android11AudioRecord1
1062:   FUNC GLOBAL DEFAULT 14 _ZN7android11AudioRecord1
1063:   FUNC GLOBAL DEFAULT 14 _ZN7android19IAudioFlinge
1064:   OBJECT WEAK DEFAULT 18 _ZTCN7android14BpAudioFli
1065:   OBJECT GLOBAL DEFAULT 18 _ZTTN7android13IAudioFlin
1066:   OBJECT GLOBAL DEFAULT 18 _ZTVN7android11AudioRecor
1067:   FUNC GLOBAL DEFAULT 14 _ZN7android11AudioSystem1
1068:   FUNC WEAK DEFAULT 14 _ZNSt3__16__treeINS_12__v
1069:   FUNC GLOBAL DEFAULT 14 _ZN7android13IEffectClien
1070:   FUNC WEAK DEFAULT 14 _ZNK7android6VectorINS_22
1071:   FUNC GLOBAL DEFAULT 14 _ZTv0_n24_N7android5media
1072:   OBJECT GLOBAL DEFAULT 23 _ZN7android11AudioSystem1
1073:   FUNC WEAK DEFAULT 14 _ZNK7android6VectorINS_8A
1074:   FUNC WEAK DEFAULT 14 _ZNSt3__16vectorIN7androi
1075:   FUNC GLOBAL DEFAULT 14 _ZN7android5media8BpPlaye
1076:   OBJECT GLOBAL DEFAULT 18 _ZTTN7android5media7IPlay
1077:   FUNC WEAK DEFAULT 14 _ZNSt3__115basic_stringbu
1078:   FUNC GLOBAL DEFAULT 14 _ZN7android11AudioSystem1
1079:   FUNC WEAK DEFAULT 14 _ZN7android2spINS_19IAudi
1080:   FUNC GLOBAL DEFAULT 14 _ZN7android10AudioTrack10
1081:   FUNC GLOBAL DEFAULT 14 _ZN7android19IAudioPolicy
1082:   FUNC GLOBAL DEFAULT 14 _ZNK7android10AudioTrack9
1083:   FUNC GLOBAL DEFAULT 14 _ZN7android27StaticAudioT
1084:   FUNC WEAK DEFAULT 14 _ZNK7android6VectorINS_8A
1085:   FUNC GLOBAL DEFAULT 14 _ZN7android5media14IPlaye
1086:   FUNC GLOBAL DEFAULT 14 _ZN7android24RecordingAct
1087:   FUNC GLOBAL DEFAULT 14 _ZN7android11AudioSystem1
1088:   OBJECT WEAK DEFAULT 18 _ZTVN7android6VectorINS_2
1089:   FUNC GLOBAL DEFAULT 14 _ZN7android27StaticAudioT
1090:   FUNC WEAK DEFAULT 14 _ZNSt3__16__treeINS_12__v
1091:   FUNC GLOBAL DEFAULT 14 _ZN7android10AudioTrack23
1092:   FUNC GLOBAL DEFAULT 14 _ZN7android21AudioTrackCl
1093:   FUNC WEAK DEFAULT 14 _ZNK7android6VectorINS_2s
1094:   FUNC GLOBAL DEFAULT 14 _ZN7android11AudioRecord1
1095:   FUNC GLOBAL DEFAULT 14 _ZN7android10AudioTrack15
1096:   FUNC GLOBAL DEFAULT 14 _ZNK7android10AudioTrack2
1097:   FUNC GLOBAL DEFAULT 14 _ZThn8_N7android14BnAudio
1098:   FUNC GLOBAL DEFAULT 14 _ZTv0_n24_N7android7IEffe
1099:   OBJECT GLOBAL DEFAULT 18 _ZTVN7android5media7IPlay
1100:   FUNC GLOBAL DEFAULT 14 _ZN7android10AudioTrack15
1101:   OBJECT GLOBAL DEFAULT 18 _ZTVN7android14BnAudioFli
1102:   FUNC GLOBAL DEFAULT 14 _ZN7android13IEffectClien
1103:   FUNC GLOBAL DEFAULT 14 _ZN7android11AudioSystem1
1104:   OBJECT GLOBAL DEFAULT 18 _ZTVN7android21AudioTrack
1105:   FUNC GLOBAL DEFAULT 14 _ZN7android11ServerProxy1
1106:   FUNC GLOBAL DEFAULT 14 _ZN7android14BnAudioFling
1107:   FUNC GLOBAL DEFAULT 14 _ZN7android15TrackPlayerB
1108:   FUNC GLOBAL DEFAULT 14 _ZTv0_n24_N7android15Trac
1109:   FUNC GLOBAL DEFAULT 14 _ZN7android11AudioRecord1
1110:   FUNC GLOBAL DEFAULT 14 _ZNK7android11AudioRecord
1111:   OBJECT WEAK DEFAULT 18 _ZTVN7android12SortedVect
1112:   FUNC GLOBAL DEFAULT 14 _ZN7android10AudioTrack18
1113:   OBJECT GLOBAL DEFAULT 18 _ZTVN7android27StaticAudi
1114:   FUNC WEAK DEFAULT 14 _ZNK7android6VectorIiE12d
1115:   FUNC GLOBAL DEFAULT 14 _ZN7android10AudioTrack4s
1116:   FUNC WEAK DEFAULT 14 _ZNK7android6VectorINS_8A
1117:   OBJECT GLOBAL DEFAULT 18 _ZTCN7android19IAudioPoli
1118:   OBJECT GLOBAL DEFAULT 18 _ZTCN7android20BnAudioPol
1119:   FUNC GLOBAL DEFAULT 14 _ZN7android7IEffectD1Ev
1120:   FUNC GLOBAL DEFAULT 14 _ZThn8_N7android10PlayerB
1121:   FUNC GLOBAL DEFAULT 14 _ZN7android11AudioRecord3
1122:   OBJECT WEAK DEFAULT 18 _ZTVNSt3__119basic_ostrin
1123:   FUNC WEAK DEFAULT 14 _ZNK7android6VectorINS_2s
1124:   FUNC GLOBAL DEFAULT 14 _ZN7android10PlayerBaseD2
1125:   FUNC GLOBAL DEFAULT 14 _ZN7android15TrackPlayerB
1126:   FUNC GLOBAL DEFAULT 14 _ZN7android11AudioSystem1
1127:   FUNC GLOBAL DEFAULT 14 _ZN7android11AudioSystem2
1128:   FUNC GLOBAL DEFAULT 14 _ZN7android10AudioTrack17
1129:   OBJECT WEAK DEFAULT 18 _ZTVN7android20BpAudioFli
1130:   FUNC WEAK DEFAULT 14 _ZNK7android6VectorINS_2s
1131:   OBJECT WEAK DEFAULT 18 _ZTVN7android6VectorINS_1
1132:   OBJECT WEAK DEFAULT 18 _ZTVN7android6VectorINS_2
1133:   FUNC GLOBAL DEFAULT 14 _ZThn8_N7android12BnAudio
1134:   FUNC WEAK DEFAULT 14 _ZN7android11BnInterfaceI
1135:   FUNC GLOBAL DEFAULT 14 _ZN7android27StaticAudioT
1136:   FUNC GLOBAL DEFAULT 14 _ZN7android11AudioSystem2
1137:   FUNC GLOBAL DEFAULT 14 _ZN7android11AudioSystem1
1138:   OBJECT GLOBAL DEFAULT 18 _ZTCN7android11AudioSyste
1139:   FUNC WEAK DEFAULT 14 _ZNKSt3__115basic_stringb
1140:   FUNC GLOBAL DEFAULT 14 _ZN7android11AudioSystem1
1141:   FUNC GLOBAL DEFAULT 14 _ZN7android10AudioTrackD0
1142:   OBJECT GLOBAL DEFAULT 18 _ZTTN7android10AudioTrack
1143:   FUNC GLOBAL DEFAULT 14 _ZN7android12BnAudioTrack
1144:   FUNC GLOBAL DEFAULT 14 _ZN7android15TrackPlayerB
1145:   FUNC GLOBAL DEFAULT 14 _ZN7android11AudioRecord3
1146:   FUNC GLOBAL DEFAULT 14 _ZThn8_N7android5media13B
1147:   FUNC GLOBAL DEFAULT 14 _ZN7android11AudioSystem2
1148:   FUNC GLOBAL DEFAULT 14 _ZN7android10PlayerBase6s
1149:   FUNC GLOBAL DEFAULT 14 _ZN7android5media14IPlaye
1150:   FUNC GLOBAL DEFAULT 14 _ZN7android10AudioTrack5p
1151:   FUNC GLOBAL DEFAULT 14 _ZN7android13IAudioFlinge
1152:   FUNC GLOBAL DEFAULT 14 _ZN7android11IAudioTrack1
1153:   OBJECT GLOBAL DEFAULT 18 _ZTCN7android10PlayerBase
1154:   OBJECT GLOBAL DEFAULT 23 _ZN7android5media12IAudio
1155:   FUNC GLOBAL DEFAULT 14 _ZN7android27StaticAudioT
1156:   FUNC GLOBAL DEFAULT 14 _ZN7android15TrackPlayerB
1157:   FUNC GLOBAL DEFAULT 14 _ZN7android5media13BpAudi
1158:   FUNC GLOBAL DEFAULT 14 _ZN7android5media19IAudio
1159:   OBJECT WEAK DEFAULT 18 _ZTCN7android14BpEffectCl
1160:   FUNC GLOBAL DEFAULT 14 _ZN7android13ToneGenerato
1161:   OBJECT WEAK DEFAULT 18 _ZTCN7android11AudioEffec
1162:   FUNC GLOBAL DEFAULT 14 _ZN7android11AudioSystem1
1163:   FUNC WEAK DEFAULT 14 _ZNSt3__16vectorI14audio_
1164:   OBJECT GLOBAL DEFAULT 18 _ZTCN7android5media14IPla
1165:   FUNC GLOBAL DEFAULT 14 _ZN7android11AudioEffect1
1166:   FUNC GLOBAL DEFAULT 14 _ZN7android10AudioTrackC2
1167:   OBJECT WEAK DEFAULT 18 _ZTCNSt3__118basic_string
1168:   FUNC WEAK DEFAULT 14 _ZNK7android12SortedVecto
1169:   OBJECT GLOBAL DEFAULT 18 _ZTCN7android5media13BpAu
1170:   FUNC GLOBAL DEFAULT 14 _ZN7android11AudioSystem1
1171:   FUNC WEAK DEFAULT 14 _ZNK7android6VectorIiE7do
1172:   FUNC WEAK DEFAULT 14 _ZNSt3__16vectorIfNS_9all
1173:   FUNC GLOBAL DEFAULT 14 _ZN7android11AudioSystem1
1174:   FUNC GLOBAL DEFAULT 14 _ZN7android10AudioTrackC2
1175:   OBJECT WEAK DEFAULT 18 _ZTVN7android16AudioSessi
1176:   FUNC GLOBAL DEFAULT 14 _ZN7android5media7IPlayer
1177:   FUNC GLOBAL DEFAULT 14 _ZN7android5media7IPlayer
1178:   FUNC GLOBAL DEFAULT 14 _ZN7android11AudioSystem1
1179:   FUNC WEAK DEFAULT 14 _ZN7android11BnInterfaceI
1180:   FUNC GLOBAL DEFAULT 14 _ZNK7android10AudioTrack1
1181:   FUNC WEAK DEFAULT 14 _ZNK7android12SortedVecto
1182:   OBJECT GLOBAL DEFAULT 18 _ZTVN7android13IAudioFlin
1183:   FUNC GLOBAL DEFAULT 14 _ZN7android5media19IAudio
1184:   FUNC GLOBAL DEFAULT 14 _ZN7android11AudioSystem2
1185:   FUNC GLOBAL DEFAULT 14 _ZN7android11AudioSystem2
1186:   FUNC GLOBAL DEFAULT 14 _ZN7android11AudioEffectC
1187:   FUNC GLOBAL DEFAULT 14 _ZN7android11AudioSystem1
1188:   FUNC GLOBAL DEFAULT 14 _ZN7android10AudioTrack10
1189:   OBJECT GLOBAL DEFAULT 18 _ZTCN7android15TrackPlaye
1190:   FUNC GLOBAL DEFAULT 14 _ZN7android11AudioSystem2
1191:   FUNC GLOBAL DEFAULT 14 _ZN7android5media8BpPlaye
1192:   FUNC GLOBAL DEFAULT 14 _ZN7android11AudioRecordC
1193:   FUNC GLOBAL DEFAULT 14 _ZNK7android11AudioRecord
1194:   FUNC WEAK DEFAULT 14 _ZNK7android6VectorINS_2s
1195:   FUNC GLOBAL DEFAULT 14 _ZN7android10AudioTrack5f
1196:   FUNC GLOBAL DEFAULT 14 _ZN7android27StaticAudioT
1197:   OBJECT GLOBAL DEFAULT 18 _ZTVN7android11ClientProx
1198:   FUNC GLOBAL DEFAULT 14 _ZN7android13IAudioFlinge
1199:   OBJECT WEAK DEFAULT 18 _ZTCN7android14BpAudioFli
1200:   OBJECT WEAK DEFAULT 18 _ZTCN7android14BpEffectCl
1201:   OBJECT GLOBAL DEFAULT 18 _ZTTN7android5media13BnAu
1202:   OBJECT GLOBAL DEFAULT 18 _ZTCN7android5media8BnPla
1203:   FUNC GLOBAL DEFAULT 14 _ZThn8_N7android14BnEffec
1204:   FUNC GLOBAL DEFAULT 14 _ZN7android11AudioRecord2
1205:   FUNC GLOBAL DEFAULT 14 _ZN7android11AudioSystem1
1206:   FUNC GLOBAL DEFAULT 14 _ZN7android10PlayerBase11
1207:   FUNC GLOBAL DEFAULT 14 _ZN7android11AudioEffectD
1208:   FUNC WEAK DEFAULT 14 _ZNSt3__16vectorI19effect
1209:   FUNC GLOBAL DEFAULT 14 _ZThn8_N7android15TrackPl
1210:   FUNC GLOBAL DEFAULT 14 _ZN7android11AudioRecordC
1211:   OBJECT GLOBAL DEFAULT 18 _ZTCN7android20BnAudioFli
1212:   FUNC GLOBAL DEFAULT 14 _ZN7android19IAudioPolicy
1213:   FUNC WEAK DEFAULT 14 _ZNK7android12SortedVecto
1214:   FUNC GLOBAL DEFAULT 14 _ZN7android5media7IPlayer
1215:   FUNC WEAK DEFAULT 14 _ZNSt3__127__tree_balance
1216:   OBJECT GLOBAL DEFAULT 18 _ZTCN7android5media8BnPla
1217:   FUNC GLOBAL DEFAULT 14 _ZN7android11AudioEffectC
1218:   FUNC GLOBAL DEFAULT 14 _ZN7android14BnEffectClie
1219:   FUNC GLOBAL DEFAULT 14 _ZN7android11AudioSystem1
1220:   FUNC GLOBAL DEFAULT 14 _ZN7android13ToneGenerato
1221:   FUNC WEAK DEFAULT 14 _ZNK7android6VectorINS0_I
1222:   OBJECT WEAK DEFAULT 18 _ZTVN7android13IAudioFlin
1223:   OBJECT GLOBAL DEFAULT 18 _ZTCN7android14BnAudioFli
1224:   OBJECT WEAK DEFAULT 18 _ZTCN7android14BpAudioFli
1225:   OBJECT GLOBAL DEFAULT 18 _ZTCN7android10PlayerBase
1226:   FUNC WEAK DEFAULT 14 _ZNK7android6VectorINS_2s
1227:   FUNC GLOBAL DEFAULT 14 _ZN7android10AudioTrack21
1228:   FUNC WEAK DEFAULT 14 _ZNK7android6VectorINS_22
1229:   FUNC GLOBAL DEFAULT 14 _ZTv0_n24_N7android10Play
1230:   FUNC GLOBAL DEFAULT 14 _ZN7android5media12IAudio
1231:   FUNC WEAK DEFAULT 14 _ZNK7android6VectorINS0_I
1232:   FUNC GLOBAL DEFAULT 14 _ZN7android11AudioRecordD
1233:   FUNC GLOBAL DEFAULT 14 _ZN7android11AudioSystem1
1234:   FUNC GLOBAL DEFAULT 14 _ZN7android11AudioSystem2
1235:   FUNC GLOBAL DEFAULT 14 _ZN7android25IAudioPolicy
1236:   FUNC GLOBAL DEFAULT 14 _ZTv0_n24_N7android25IAud
1237:   FUNC GLOBAL DEFAULT 14 _ZN7android10AudioTrack16
1238:   OBJECT GLOBAL DEFAULT 18 _ZTTN7android7IEffectE
1239:   FUNC WEAK DEFAULT 14 _ZNK7android6VectorINS_2s
1240:   FUNC GLOBAL DEFAULT 14 _ZN7android10AudioTrack16
1241:   FUNC GLOBAL DEFAULT 14 _ZN7android10AudioTrack21
1242:   FUNC GLOBAL DEFAULT 14 _ZN7android10AudioTrackC2
1243:   OBJECT GLOBAL DEFAULT 18 _ZTCN7android12BnAudioTra
1244:   OBJECT GLOBAL DEFAULT 18 _ZTCN7android14BnEffectCl
1245:   FUNC GLOBAL DEFAULT 14 _ZN7android13ToneGenerato
1246:   FUNC GLOBAL DEFAULT 14 _ZN7android15TrackPlayerB
1247:   OBJECT GLOBAL DEFAULT 18 _ZTTN7android5media8BpPla
1248:   FUNC GLOBAL DEFAULT 14 _ZN7android11AudioSystem2
1249:   FUNC GLOBAL DEFAULT 14 _ZN7android11AudioRecord4
1250:   FUNC WEAK DEFAULT 14 _ZNK7android6VectorINS_19
1251:   OBJECT GLOBAL DEFAULT 18 _ZTCN7android25IAudioPoli
1252:   FUNC GLOBAL DEFAULT 14 _ZN7android24RecordingAct
1253:   FUNC GLOBAL DEFAULT 14 _ZN7android11AudioSystem1
1254:   FUNC GLOBAL DEFAULT 14 _ZN7android11AudioSystem2
1255:   FUNC GLOBAL DEFAULT 14 _ZN7android19IAudioPolicy
1256:   FUNC WEAK DEFAULT 14 _ZNK7android6VectorINS_8A
1257:   OBJECT WEAK DEFAULT 18 _ZTVN7android20BpAudioPol
1258:   OBJECT GLOBAL DEFAULT 18 _ZTCN7android14BnEffectCl
1259:   FUNC GLOBAL DEFAULT 14 _ZN7android11AudioSystem1
1260:   FUNC GLOBAL DEFAULT 14 _ZThn8_N7android11AudioSy
1261:   FUNC WEAK DEFAULT 14 _ZN7android11BnInterfaceI
1262:   OBJECT GLOBAL DEFAULT 18 _ZTCN7android13IEffectCli
1263:   FUNC GLOBAL DEFAULT 14 _ZN7android5media7IPlayer
1264:   OBJECT GLOBAL DEFAULT 18 _ZTCN7android5media8BpPla
1265:   FUNC GLOBAL DEFAULT 14 _ZN7android11AudioEffectC
1266:   FUNC GLOBAL DEFAULT 14 _ZN7android10AudioTrack11
1267:   FUNC GLOBAL DEFAULT 14 _ZTv0_n24_N7android19IAud
1268:   FUNC WEAK DEFAULT 14 _ZNK7android6VectorIfE16d
1269:   FUNC GLOBAL DEFAULT 14 _ZN7android11AudioSystem2
1270:   OBJECT GLOBAL DEFAULT 23 _ZN7android11AudioSystem5
1271:   FUNC GLOBAL DEFAULT 14 _ZThn8_N7android11AudioSy
1272:   FUNC GLOBAL DEFAULT 14 _ZN7android11ClientProxy2
1273:   FUNC WEAK DEFAULT 14 _ZNK7android12SortedVecto
1274:   FUNC WEAK DEFAULT 14 _ZNK7android12SortedVecto
1275:   FUNC GLOBAL DEFAULT 14 _ZN7android24RecordingAct
1276:   FUNC GLOBAL DEFAULT 14 _ZN7android11AudioSystem1
1277:   OBJECT WEAK DEFAULT 18 _ZTTN7android20BpAudioFli
1278:   OBJECT WEAK DEFAULT 18 _ZTCN7android20BpAudioPol
1279:   OBJECT GLOBAL DEFAULT 18 _ZTCN7android14BnEffectCl
1280:   OBJECT WEAK DEFAULT 18 _ZTVN7android14BpAudioFli
1281:   OBJECT WEAK DEFAULT 18 _ZTCN7android12BpAudioTra
1282:   FUNC GLOBAL DEFAULT 14 _ZN7android13ToneGenerato
1283:   FUNC GLOBAL DEFAULT 14 _ZN7android11AudioSystem1
1284:   OBJECT GLOBAL DEFAULT 18 _ZTCN7android11AudioSyste
1285:   OBJECT GLOBAL DEFAULT 18 _ZTCN7android5media8BnPla
1286:   OBJECT GLOBAL DEFAULT 18 _ZTTN7android11AudioRecor
1287:   FUNC GLOBAL DEFAULT 14 _ZN7android11AudioSystem2
1288:   OBJECT GLOBAL DEFAULT 18 _ZTCN7android11AudioSyste
1289:   FUNC GLOBAL DEFAULT 14 _ZN7android10AudioTrack16
1290:   OBJECT WEAK DEFAULT 18 _ZTVN7android5ProxyE
1291:   OBJECT GLOBAL DEFAULT 18 _ZTCN7android26BnAudioPol
1292:   OBJECT GLOBAL DEFAULT 18 _ZTCN7android20BnAudioFli
1293:   OBJECT GLOBAL DEFAULT 23 _ZN7android7IEffect12defa
1294:   OBJECT WEAK DEFAULT 18 _ZTTN7android11AudioEffec
1295:   FUNC GLOBAL DEFAULT 14 _ZN7android11AudioRecord1
1296:   FUNC WEAK DEFAULT 14 _ZNSt3__115basic_stringbu
1297:   OBJECT GLOBAL DEFAULT 18 _ZTVN7android25IAudioPoli
1298:   OBJECT GLOBAL DEFAULT 18 _ZTCN7android10PlayerBase
1299:   FUNC GLOBAL DEFAULT 14 _ZN7android24RecordingAct
1300:   FUNC GLOBAL DEFAULT 14 _ZN7android11AudioSystem1
1301:   FUNC GLOBAL DEFAULT 14 _ZN7android10AudioTrack15
1302:   OBJECT WEAK DEFAULT 18 _ZTCNSt3__118basic_string
1303:   OBJECT WEAK DEFAULT 18 _ZTCN7android14BpAudioFli
1304:   FUNC GLOBAL DEFAULT 14 _ZN7android10PlayerBase4s
1305:   OBJECT GLOBAL DEFAULT 18 _ZTCN7android15TrackPlaye
1306:   FUNC GLOBAL DEFAULT 14 _ZN7android11AudioSystem1
1307:   FUNC GLOBAL DEFAULT 14 _ZN7android11AudioSystem9
1308:   OBJECT GLOBAL DEFAULT 18 _ZTTN7android11AudioSyste
1309:   FUNC WEAK DEFAULT 14 _ZNK7android6VectorINS_8A
1310:   OBJECT WEAK DEFAULT 18 _ZTCN7android26BpAudioPol
