 0x000000000000000e (SONAME)             Library soname: [libssh.so]
  
Symbol   contains 1096 entries:
Num:   Type Bind Vis Ndx Name
0:   NOTYPE LOCAL DEFAULT UND
1:   FUNC GLOBAL DEFAULT UND __cxa_finalize@LIBC (2)
2:   FUNC GLOBAL DEFAULT UND __stack_chk_fail@LIBC (2)
3:   FUNC GLOBAL DEFAULT UND __strchr_chk@LIBC (2)
4:   FUNC GLOBAL DEFAULT UND __strlcpy_chk@LIBC (2)
5:   FUNC GLOBAL DEFAULT UND free@LIBC (2)
6:   FUNC GLOBAL DEFAULT UND freeaddrinfo@LIBC (2)
7:   FUNC GLOBAL DEFAULT UND getaddrinfo@LIBC (2)
8:   FUNC GLOBAL DEFAULT UND memset@LIBC (2)
9:   FUNC GLOBAL DEFAULT UND strdup@LIBC (2)
10:   FUNC GLOBAL DEFAULT UND strlen@LIBC (2)
11:   FUNC GLOBAL DEFAULT UND strsep@LIBC (2)
12:   FUNC GLOBAL DEFAULT UND strspn@LIBC (2)
13:   FUNC GLOBAL DEFAULT UND strtoul@LIBC (2)
14:   FUNC GLOBAL DEFAULT UND __errno@LIBC (2)
15:   FUNC GLOBAL DEFAULT UND __memcpy_chk@LIBC (2)
16:   FUNC GLOBAL DEFAULT UND __poll_chk@LIBC (2)
17:   FUNC GLOBAL DEFAULT UND read@LIBC (2)
18:   FUNC GLOBAL DEFAULT UND readv@LIBC (2)
19:   FUNC GLOBAL DEFAULT UND calloc@LIBC (2)
20:   FUNC GLOBAL DEFAULT UND close@LIBC (2)
21:   FUNC GLOBAL DEFAULT UND connect@LIBC (2)
22:   FUNC GLOBAL DEFAULT UND fcntl@LIBC (2)
23:   FUNC GLOBAL DEFAULT UND getenv@LIBC (2)
24:   FUNC GLOBAL DEFAULT UND socket@LIBC (2)
25:   FUNC GLOBAL DEFAULT UND strcmp@LIBC (2)
26:   FUNC GLOBAL DEFAULT UND write@LIBC (2)
27:   FUNC GLOBAL DEFAULT UND __open_2@LIBC (2)
28:   FUNC GLOBAL DEFAULT UND asprintf@LIBC (2)
29:   FUNC GLOBAL DEFAULT UND fclose@LIBC (2)
30:   FUNC GLOBAL DEFAULT UND fopen@LIBC (2)
31:   FUNC GLOBAL DEFAULT UND fstat@LIBC (2)
32:   FUNC GLOBAL DEFAULT UND getline@LIBC (2)
33:   FUNC GLOBAL DEFAULT UND getuid@LIBC (2)
34:   FUNC GLOBAL DEFAULT UND open@LIBC (2)
35:   FUNC GLOBAL DEFAULT UND strcspn@LIBC (2)
36:   FUNC GLOBAL DEFAULT UND strncmp@LIBC (2)
37:   FUNC GLOBAL DEFAULT UND unlink@LIBC (2)
38:   FUNC GLOBAL DEFAULT UND atoi@LIBC (2)
39:   FUNC GLOBAL DEFAULT UND gethostname@LIBC (2)
40:   FUNC GLOBAL DEFAULT UND getnameinfo@LIBC (2)
41:   FUNC GLOBAL DEFAULT UND getpeername@LIBC (2)
42:   FUNC GLOBAL DEFAULT UND getsockname@LIBC (2)
43:   FUNC GLOBAL DEFAULT UND strerror@LIBC (2)
44:   FUNC GLOBAL DEFAULT UND __FD_ISSET_chk@LIBC (2)
45:   FUNC GLOBAL DEFAULT UND __FD_SET_chk@LIBC (2)
46:   FUNC GLOBAL DEFAULT UND __read_chk@LIBC (2)
47:   FUNC GLOBAL DEFAULT UND __umask_chk@LIBC (2)
48:   FUNC GLOBAL DEFAULT UND __vsnprintf_chk@LIBC (2)
49:   FUNC GLOBAL DEFAULT UND accept@LIBC (2)
50:   FUNC GLOBAL DEFAULT UND arc4random_buf@LIBC (2)
51:   FUNC GLOBAL DEFAULT UND bind@LIBC (2)
52:   FUNC GLOBAL DEFAULT UND getsockopt@LIBC (2)
53:   FUNC GLOBAL DEFAULT UND inet_ntoa@LIBC (2)
54:   FUNC GLOBAL DEFAULT UND inet_ntop@LIBC (2)
55:   FUNC GLOBAL DEFAULT UND ioctl@LIBC (2)
56:   FUNC GLOBAL DEFAULT UND listen@LIBC (2)
57:   FUNC GLOBAL DEFAULT UND memchr@LIBC (2)
58:   FUNC GLOBAL DEFAULT UND memcmp@LIBC (2)
59:   FUNC GLOBAL DEFAULT UND memcpy@LIBC (2)
60:   FUNC GLOBAL DEFAULT UND sscanf@LIBC (2)
61:   FUNC GLOBAL DEFAULT UND strchr@LIBC (2)
62:   FUNC GLOBAL DEFAULT UND strlcpy@LIBC (2)
63:   FUNC GLOBAL DEFAULT UND strrchr@LIBC (2)
64:   FUNC GLOBAL DEFAULT UND tcgetattr@LIBC (2)
65:   FUNC GLOBAL DEFAULT UND EVP_CIPHER_CTX_ctrl
66:   FUNC GLOBAL DEFAULT UND EVP_CIPHER_CTX_free
67:   FUNC GLOBAL DEFAULT UND EVP_CIPHER_CTX_iv_length
68:   FUNC GLOBAL DEFAULT UND EVP_CIPHER_CTX_key_length
69:   FUNC GLOBAL DEFAULT UND EVP_CIPHER_CTX_new
70:   FUNC GLOBAL DEFAULT UND EVP_CIPHER_CTX_set_key_le
71:   FUNC GLOBAL DEFAULT UND EVP_Cipher
72:   FUNC GLOBAL DEFAULT UND EVP_CipherInit
73:   FUNC GLOBAL DEFAULT UND EVP_aes_128_cbc
74:   FUNC GLOBAL DEFAULT UND EVP_aes_128_ctr
75:   FUNC GLOBAL DEFAULT UND EVP_aes_128_gcm
76:   FUNC GLOBAL DEFAULT UND EVP_aes_192_cbc
77:   FUNC GLOBAL DEFAULT UND EVP_aes_256_cbc
78:   FUNC GLOBAL DEFAULT UND EVP_aes_256_ctr
79:   FUNC GLOBAL DEFAULT UND EVP_aes_256_gcm
80:   FUNC GLOBAL DEFAULT UND realloc@LIBC (2)
81:   FUNC GLOBAL DEFAULT UND _exit@LIBC (2)
82:   FUNC GLOBAL DEFAULT UND BN_clear_free
83:   FUNC GLOBAL DEFAULT UND BN_cmp
84:   FUNC GLOBAL DEFAULT UND BN_hex2bn
85:   FUNC GLOBAL DEFAULT UND BN_is_bit_set
86:   FUNC GLOBAL DEFAULT UND BN_is_negative
87:   FUNC GLOBAL DEFAULT UND BN_new
88:   FUNC GLOBAL DEFAULT UND BN_num_bits
89:   FUNC GLOBAL DEFAULT UND BN_sub
90:   FUNC GLOBAL DEFAULT UND BN_value_one
91:   FUNC GLOBAL DEFAULT UND DH_free
92:   FUNC GLOBAL DEFAULT UND DH_generate_key
93:   FUNC GLOBAL DEFAULT UND DH_new
94:   FUNC GLOBAL DEFAULT UND arc4random_uniform@LIBC (2)
95:   FUNC GLOBAL DEFAULT UND rewind@LIBC (2)
96:   FUNC GLOBAL DEFAULT UND EVP_Digest
97:   FUNC GLOBAL DEFAULT UND EVP_DigestFinal_ex
98:   FUNC GLOBAL DEFAULT UND EVP_DigestInit_ex
99:   FUNC GLOBAL DEFAULT UND EVP_DigestUpdate
100:   FUNC GLOBAL DEFAULT UND EVP_MD_CTX_block_size
101:   FUNC GLOBAL DEFAULT UND EVP_MD_CTX_copy_ex
102:   FUNC GLOBAL DEFAULT UND EVP_md5
103:   FUNC GLOBAL DEFAULT UND EVP_sha1
104:   FUNC GLOBAL DEFAULT UND EVP_sha256
105:   FUNC GLOBAL DEFAULT UND EVP_sha384
106:   FUNC GLOBAL DEFAULT UND EVP_sha512
107:   FUNC GLOBAL DEFAULT UND strcasecmp@LIBC (2)
108:   FUNC GLOBAL DEFAULT UND fprintf@LIBC (2)
109:   FUNC GLOBAL DEFAULT UND fputc@LIBC (2)
110:   FUNC GLOBAL DEFAULT UND RAND_status
111:   FUNC GLOBAL DEFAULT UND SSLeay
112:   FUNC GLOBAL DEFAULT UND __b64_ntop@LIBC (2)
113:   FUNC GLOBAL DEFAULT UND __b64_pton@LIBC (2)
114:   FUNC GLOBAL DEFAULT UND fdopen@LIBC (2)
115:   FUNC GLOBAL DEFAULT UND link@LIBC (2)
116:   FUNC GLOBAL DEFAULT UND mkstemp@LIBC (2)
117:   FUNC GLOBAL DEFAULT UND rename@LIBC (2)
118:   FUNC GLOBAL DEFAULT UND EC_KEY_free
119:   FUNC GLOBAL DEFAULT UND __strlen_chk@LIBC (2)
120:   FUNC GLOBAL DEFAULT UND malloc@LIBC (2)
121:   FUNC GLOBAL DEFAULT UND strlcat@LIBC (2)
122:   FUNC GLOBAL DEFAULT UND BN_bin2bn
123:   FUNC GLOBAL DEFAULT UND DH_compute_key
124:   FUNC GLOBAL DEFAULT UND DH_size
125:   FUNC GLOBAL DEFAULT UND ECDH_compute_key
126:   FUNC GLOBAL DEFAULT UND EC_GROUP_get_degree
127:   FUNC GLOBAL DEFAULT UND EC_KEY_generate_key
128:   FUNC GLOBAL DEFAULT UND EC_KEY_get0_group
129:   FUNC GLOBAL DEFAULT UND EC_KEY_get0_public_key
130:   FUNC GLOBAL DEFAULT UND EC_KEY_new_by_curve_name
131:   FUNC GLOBAL DEFAULT UND EC_POINT_clear_free
132:   FUNC GLOBAL DEFAULT UND EC_POINT_new
133:   FUNC GLOBAL DEFAULT UND localtime@LIBC (2)
134:   FUNC GLOBAL DEFAULT UND strftime@LIBC (2)
135:   FUNC GLOBAL DEFAULT UND time@LIBC (2)
136:   OBJECT GLOBAL DEFAULT UND __progname@LIBC (2)
137:   FUNC GLOBAL DEFAULT UND __write_chk@LIBC_N (3)
138:   FUNC GLOBAL DEFAULT UND closelog@LIBC (2)
139:   FUNC GLOBAL DEFAULT UND exit@LIBC (2)
140:   FUNC GLOBAL DEFAULT UND openlog@LIBC (2)
141:   OBJECT GLOBAL DEFAULT UND stderr@LIBC (2)
142:   FUNC GLOBAL DEFAULT UND syslog@LIBC (2)
143:   FUNC GLOBAL DEFAULT UND isupper@LIBC (2)
144:   FUNC GLOBAL DEFAULT UND tolower@LIBC (2)
145:   FUNC GLOBAL DEFAULT UND __strlcat_chk@LIBC (2)
146:   FUNC GLOBAL DEFAULT UND clock_gettime@LIBC (2)
147:   FUNC GLOBAL DEFAULT UND dirname@LIBC (2)
148:   FUNC GLOBAL DEFAULT UND dup2@LIBC (2)
149:   FUNC GLOBAL DEFAULT UND gai_strerror@LIBC (2)
150:   FUNC GLOBAL DEFAULT UND getpid@LIBC (2)
151:   FUNC GLOBAL DEFAULT UND getppid@LIBC (2)
152:   FUNC GLOBAL DEFAULT UND getpwnam@LIBC (2)
153:   FUNC GLOBAL DEFAULT UND getpwuid@LIBC (2)
154:   FUNC GLOBAL DEFAULT UND getservbyname@LIBC (2)
155:   FUNC GLOBAL DEFAULT UND gettimeofday@LIBC (2)
156:   FUNC GLOBAL DEFAULT UND isalnum@LIBC (2)
157:   FUNC GLOBAL DEFAULT UND isalpha@LIBC (2)
158:   FUNC GLOBAL DEFAULT UND isxdigit@LIBC (2)
159:   FUNC GLOBAL DEFAULT UND localtime_r@LIBC (2)
160:   FUNC GLOBAL DEFAULT UND memmove@LIBC (2)
161:   FUNC GLOBAL DEFAULT UND mktime@LIBC (2)
162:   FUNC GLOBAL DEFAULT UND nanosleep@LIBC (2)
163:   FUNC GLOBAL DEFAULT UND realpath@LIBC (2)
164:   FUNC GLOBAL DEFAULT UND setsockopt@LIBC (2)
165:   FUNC GLOBAL DEFAULT UND stat@LIBC (2)
166:   FUNC GLOBAL DEFAULT UND strpbrk@LIBC (2)
167:   FUNC GLOBAL DEFAULT UND strptime@LIBC (2)
168:   FUNC GLOBAL DEFAULT UND strtol@LIBC (2)
169:   FUNC GLOBAL DEFAULT UND vasprintf@LIBC (2)
170:   FUNC GLOBAL DEFAULT UND waitpid@LIBC (2)
171:   FUNC GLOBAL DEFAULT UND BN_CTX_free
172:   FUNC GLOBAL DEFAULT UND BN_CTX_new
173:   FUNC GLOBAL DEFAULT UND BN_add
174:   FUNC GLOBAL DEFAULT UND BN_add_word
175:   FUNC GLOBAL DEFAULT UND BN_bn2hex
176:   FUNC GLOBAL DEFAULT UND BN_copy
177:   FUNC GLOBAL DEFAULT UND BN_free
178:   FUNC GLOBAL DEFAULT UND BN_is_prime_ex
179:   FUNC GLOBAL DEFAULT UND BN_lshift
180:   FUNC GLOBAL DEFAULT UND BN_mod_word
181:   FUNC GLOBAL DEFAULT UND BN_print_fp
182:   FUNC GLOBAL DEFAULT UND BN_rand
183:   FUNC GLOBAL DEFAULT UND BN_rshift
184:   FUNC GLOBAL DEFAULT UND BN_set_bit
185:   FUNC GLOBAL DEFAULT UND BN_set_word
186:   FUNC GLOBAL DEFAULT UND __fgets_chk@LIBC (2)
187:   FUNC GLOBAL DEFAULT UND ctime@LIBC (2)
188:   FUNC GLOBAL DEFAULT UND fflush@LIBC (2)
189:   FUNC GLOBAL DEFAULT UND fgets@LIBC (2)
190:   FUNC GLOBAL DEFAULT UND fscanf@LIBC (2)
191:   FUNC GLOBAL DEFAULT UND fseek@LIBC (2)
192:   FUNC GLOBAL DEFAULT UND gmtime@LIBC (2)
193:   FUNC GLOBAL DEFAULT UND recvmsg@LIBC (2)
194:   FUNC GLOBAL DEFAULT UND sendmsg@LIBC (2)
195:   FUNC GLOBAL DEFAULT UND shutdown@LIBC (2)
196:   FUNC GLOBAL DEFAULT UND __memset_chk@LIBC (2)
197:   FUNC GLOBAL DEFAULT UND closedir@LIBC (2)
198:   FUNC GLOBAL DEFAULT UND dirfd@LIBC (2)
199:   FUNC GLOBAL DEFAULT UND opendir@LIBC (2)
200:   FUNC GLOBAL DEFAULT UND readdir@LIBC (2)
201:   FUNC GLOBAL DEFAULT UND sysconf@LIBC (2)
202:   FUNC GLOBAL DEFAULT UND fchmod@LIBC (2)
203:   FUNC GLOBAL DEFAULT UND fchown@LIBC (2)
204:   FUNC GLOBAL DEFAULT UND perror@LIBC (2)
205:   FUNC GLOBAL DEFAULT UND utimes@LIBC (2)
206:   FUNC GLOBAL DEFAULT UND grantpt@LIBC (2)
207:   FUNC GLOBAL DEFAULT UND ptsname@LIBC (2)
208:   FUNC GLOBAL DEFAULT UND unlockpt@LIBC (2)
209:   FUNC GLOBAL DEFAULT UND sigaction@LIBC (2)
210:   FUNC GLOBAL DEFAULT UND sigemptyset@LIBC (2)
211:   FUNC GLOBAL DEFAULT UND statfs@LIBC (2)
212:   FUNC GLOBAL DEFAULT UND isspace@LIBC (2)
213:   FUNC GLOBAL DEFAULT UND geteuid@LIBC (2)
214:   FUNC GLOBAL DEFAULT UND isblank@LIBC (2)
215:   FUNC GLOBAL DEFAULT UND iscntrl@LIBC (2)
216:   FUNC GLOBAL DEFAULT UND isdigit@LIBC (2)
217:   FUNC GLOBAL DEFAULT UND isgraph@LIBC (2)
218:   FUNC GLOBAL DEFAULT UND islower@LIBC (2)
219:   FUNC GLOBAL DEFAULT UND isprint@LIBC (2)
220:   FUNC GLOBAL DEFAULT UND ispunct@LIBC (2)
221:   FUNC GLOBAL DEFAULT UND lstat@LIBC (2)
222:   FUNC GLOBAL DEFAULT UND qsort@LIBC (2)
223:   FUNC GLOBAL DEFAULT UND strnlen@LIBC (2)
224:   FUNC GLOBAL DEFAULT UND EVP_MD_CTX_cleanup
225:   FUNC GLOBAL DEFAULT UND EVP_PKEY_type
226:   FUNC GLOBAL DEFAULT UND getgrgid@LIBC (2)
227:   FUNC GLOBAL DEFAULT UND kill@LIBC (2)
228:   FUNC GLOBAL DEFAULT UND tcsetattr@LIBC (2)
229:   FUNC GLOBAL DEFAULT UND toupper@LIBC (2)
230:   FUNC GLOBAL DEFAULT UND getpagesize@LIBC (2)
231:   OBJECT GLOBAL DEFAULT UND environ@LIBC (2)
232:   FUNC GLOBAL DEFAULT UND strtoll@LIBC (2)
233:   FUNC GLOBAL DEFAULT UND arc4random@LIBC (2)
234:   FUNC GLOBAL DEFAULT UND deflate
235:   FUNC GLOBAL DEFAULT UND deflateEnd
236:   FUNC GLOBAL DEFAULT UND deflateInit_
237:   FUNC GLOBAL DEFAULT UND inflate
238:   FUNC GLOBAL DEFAULT UND inflateEnd
239:   FUNC GLOBAL DEFAULT UND inflateInit_
240:   FUNC GLOBAL DEFAULT UND select@LIBC (2)
241:   FUNC GLOBAL DEFAULT UND prctl@LIBC (2)
242:   FUNC GLOBAL DEFAULT UND execlp@LIBC (2)
243:   FUNC GLOBAL DEFAULT UND fork@LIBC (2)
244:   FUNC GLOBAL DEFAULT UND isatty@LIBC (2)
245:   FUNC GLOBAL DEFAULT UND pipe@LIBC (2)
246:   OBJECT GLOBAL DEFAULT UND stdout@LIBC (2)
247:   FUNC GLOBAL DEFAULT UND raise@LIBC (2)
248:   FUNC GLOBAL DEFAULT UND BN_bn2bin
249:   FUNC GLOBAL DEFAULT UND BN_num_bytes
250:   FUNC GLOBAL DEFAULT UND EC_KEY_set_public_key
251:   FUNC GLOBAL DEFAULT UND EC_POINT_free
252:   FUNC GLOBAL DEFAULT UND EC_POINT_oct2point
253:   FUNC GLOBAL DEFAULT UND EC_POINT_point2oct
254:   FUNC GLOBAL DEFAULT UND fwrite@LIBC (2)
255:   FUNC GLOBAL DEFAULT UND DSA_SIG_free
256:   FUNC GLOBAL DEFAULT UND DSA_SIG_new
257:   FUNC GLOBAL DEFAULT UND DSA_do_sign
258:   FUNC GLOBAL DEFAULT UND DSA_do_verify
259:   FUNC GLOBAL DEFAULT UND ECDSA_SIG_free
260:   FUNC GLOBAL DEFAULT UND ECDSA_SIG_new
261:   FUNC GLOBAL DEFAULT UND ECDSA_do_sign
262:   FUNC GLOBAL DEFAULT UND ECDSA_do_verify
263:   FUNC GLOBAL DEFAULT UND BIO_free
264:   FUNC GLOBAL DEFAULT UND BIO_get_mem_data
265:   FUNC GLOBAL DEFAULT UND BIO_new
266:   FUNC GLOBAL DEFAULT UND BIO_s_mem
267:   FUNC GLOBAL DEFAULT UND BIO_write
268:   FUNC GLOBAL DEFAULT UND BN_CTX_get
269:   FUNC GLOBAL DEFAULT UND BN_CTX_start
270:   FUNC GLOBAL DEFAULT UND BN_dup
271:   FUNC GLOBAL DEFAULT UND DSA_free
272:   FUNC GLOBAL DEFAULT UND DSA_generate_key
273:   FUNC GLOBAL DEFAULT UND DSA_generate_parameters_e
274:   FUNC GLOBAL DEFAULT UND DSA_new
275:   FUNC GLOBAL DEFAULT UND EC_GROUP_cmp
276:   FUNC GLOBAL DEFAULT UND EC_GROUP_free
277:   FUNC GLOBAL DEFAULT UND EC_GROUP_get_curve_name
278:   FUNC GLOBAL DEFAULT UND EC_GROUP_get_order
279:   FUNC GLOBAL DEFAULT UND EC_GROUP_method_of
280:   FUNC GLOBAL DEFAULT UND EC_GROUP_new_by_curve_nam
281:   FUNC GLOBAL DEFAULT UND EC_GROUP_set_asn1_flag
282:   FUNC GLOBAL DEFAULT UND EC_KEY_get0_private_key
283:   FUNC GLOBAL DEFAULT UND EC_KEY_set_asn1_flag
284:   FUNC GLOBAL DEFAULT UND EC_KEY_set_group
285:   FUNC GLOBAL DEFAULT UND EC_KEY_set_private_key
286:   FUNC GLOBAL DEFAULT UND EC_METHOD_get_field_type
287:   FUNC GLOBAL DEFAULT UND EC_POINT_cmp
288:   FUNC GLOBAL DEFAULT UND EC_POINT_get_affine_coord
289:   FUNC GLOBAL DEFAULT UND EC_POINT_is_at_infinity
290:   FUNC GLOBAL DEFAULT UND EC_POINT_mul
291:   FUNC GLOBAL DEFAULT UND ERR_get_error
292:   FUNC GLOBAL DEFAULT UND ERR_peek_error
293:   FUNC GLOBAL DEFAULT UND ERR_peek_last_error
294:   FUNC GLOBAL DEFAULT UND EVP_PKEY_free
295:   FUNC GLOBAL DEFAULT UND EVP_PKEY_get1_DSA
296:   FUNC GLOBAL DEFAULT UND EVP_PKEY_get1_EC_KEY
297:   FUNC GLOBAL DEFAULT UND EVP_PKEY_get1_RSA
298:   FUNC GLOBAL DEFAULT UND PEM_read_bio_PrivateKey
299:   FUNC GLOBAL DEFAULT UND PEM_write_bio_DSAPrivateK
300:   FUNC GLOBAL DEFAULT UND PEM_write_bio_ECPrivateKe
301:   FUNC GLOBAL DEFAULT UND PEM_write_bio_RSAPrivateK
302:   FUNC GLOBAL DEFAULT UND RSA_blinding_on
303:   FUNC GLOBAL DEFAULT UND RSA_free
304:   FUNC GLOBAL DEFAULT UND RSA_generate_key_ex
305:   FUNC GLOBAL DEFAULT UND RSA_new
306:   FUNC GLOBAL DEFAULT UND feof@LIBC (2)
307:   FUNC GLOBAL DEFAULT UND strndup@LIBC (2)
308:   FUNC GLOBAL DEFAULT UND BN_div
309:   FUNC GLOBAL DEFAULT UND RSA_public_decrypt
310:   FUNC GLOBAL DEFAULT UND RSA_sign
311:   FUNC GLOBAL DEFAULT UND RSA_size
312:   FUNC GLOBAL DEFAULT UND cfgetispeed@LIBC (2)
313:   FUNC GLOBAL DEFAULT UND cfgetospeed@LIBC (2)
314:   FUNC GLOBAL DEFAULT UND cfsetispeed@LIBC (2)
315:   FUNC GLOBAL DEFAULT UND cfsetospeed@LIBC (2)
316:   FUNC GLOBAL DEFAULT UND capset@LIBC (2)
317:   FUNC GLOBAL DEFAULT UND getegid@LIBC (2)
318:   FUNC GLOBAL DEFAULT UND getgid@LIBC (2)
319:   FUNC GLOBAL DEFAULT UND getgroups@LIBC (2)
320:   FUNC GLOBAL DEFAULT UND initgroups@LIBC (2)
321:   FUNC GLOBAL DEFAULT UND setegid@LIBC (2)
322:   FUNC GLOBAL DEFAULT UND seteuid@LIBC (2)
323:   FUNC GLOBAL DEFAULT UND setgid@LIBC (2)
324:   FUNC GLOBAL DEFAULT UND setgroups@LIBC (2)
325:   FUNC GLOBAL DEFAULT UND setresgid@LIBC (2)
326:   FUNC GLOBAL DEFAULT UND setresuid@LIBC (2)
327:   FUNC GLOBAL DEFAULT UND setuid@LIBC (2)
328:   FUNC GLOBAL DEFAULT UND AES_encrypt
329:   FUNC GLOBAL DEFAULT UND AES_set_encrypt_key
330:   FUNC GLOBAL DEFAULT UND __ctype_get_mb_cur_max@LIBC (2)
331:   FUNC GLOBAL DEFAULT UND fputs@LIBC (2)
332:   FUNC GLOBAL DEFAULT UND setlocale@LIBC (2)
333:   FUNC GLOBAL DEFAULT UND strcasestr@LIBC (2)
334:   FUNC GLOBAL DEFAULT UND strncasecmp@LIBC (2)
335:   FUNC GLOBAL DEFAULT 13 permitopen_port
336:   FUNC GLOBAL DEFAULT 13 ssh_packet_log_type
337:   FUNC GLOBAL DEFAULT 13 sshpkt_get_cstring
338:   FUNC GLOBAL DEFAULT 13 add_host_to_hostfile
339:   FUNC GLOBAL DEFAULT 13 sshkey_write
340:   FUNC GLOBAL DEFAULT 13 ssh_krl_set_comment
341:   FUNC GLOBAL DEFAULT 13 ms_to_timeval
342:   FUNC GLOBAL DEFAULT 13 ssh_packet_not_very_much_
343:   FUNC GLOBAL DEFAULT 13 sshbuf_get_string
344:   FUNC GLOBAL DEFAULT 13 sshbuf_put_u32
345:   FUNC GLOBAL DEFAULT 13 channel_open_message
346:   FUNC GLOBAL DEFAULT 13 channel_request_rforward_
347:   FUNC GLOBAL DEFAULT 13 Blowfish_expand0state
348:   FUNC GLOBAL DEFAULT 13 channel_update_permission
349:   FUNC GLOBAL DEFAULT 13 strtonum
350:   FUNC GLOBAL DEFAULT 13 strdelim
351:   FUNC GLOBAL DEFAULT 13 verify_host_key_dns
352:   FUNC GLOBAL DEFAULT 13 sshkey_load_file
353:   FUNC GLOBAL DEFAULT 13 match_pattern_list
354:   FUNC GLOBAL DEFAULT 13 convtime
355:   FUNC GLOBAL DEFAULT 13 get_rdomain
356:   FUNC GLOBAL DEFAULT 13 sshbuf_set_parent
357:   FUNC GLOBAL DEFAULT 13 ssh_fetch_identitylist
358:   FUNC GLOBAL DEFAULT 13 sshbuf_get_u64
359:   FUNC GLOBAL DEFAULT 13 dh_estimate
360:   FUNC GLOBAL DEFAULT 13 kex_gen_client
361:   FUNC GLOBAL DEFAULT 13 temporarily_use_uid
362:   FUNC GLOBAL DEFAULT 13 sshkey_cert_copy
363:   FUNC GLOBAL DEFAULT 13 ssh_packet_send_debug
364:   FUNC GLOBAL DEFAULT 13 EVP_CIPHER_CTX_get_iv
365:   FUNC GLOBAL DEFAULT 13 crypto_sign_ed25519_ref_f
366:   FUNC GLOBAL DEFAULT 13 blf_key
367:   FUNC GLOBAL DEFAULT 13 strmode
368:   FUNC GLOBAL DEFAULT 13 atomiciov
369:   FUNC GLOBAL DEFAULT 13 ssh_krl_init
370:   FUNC GLOBAL DEFAULT 13 mac_alg_list
371:   FUNC GLOBAL DEFAULT 13 bitmap_test_bit
372:   FUNC GLOBAL DEFAULT 13 x11_connect_display
373:   FUNC GLOBAL DEFAULT 13 crypto_sign_ed25519_ref_f
374:   FUNC GLOBAL DEFAULT 13 sshbuf_consume_end
375:   FUNC GLOBAL DEFAULT 13 chop
376:   FUNC GLOBAL DEFAULT 13 ssh_digest_update
377:   FUNC GLOBAL DEFAULT 13 kex_free
378:   FUNC GLOBAL DEFAULT 13 kex_c25519_dec
379:   FUNC GLOBAL DEFAULT 13 sshbuf_peek_string_direct
380:   FUNC GLOBAL DEFAULT 13 sshkey_load_public
381:   FUNC GLOBAL DEFAULT 13 ssh_gai_strerror
382:   FUNC GLOBAL DEFAULT 13 set_reuseaddr
383:   FUNC GLOBAL DEFAULT 13 bandwidth_limit_init
384:   FUNC GLOBAL DEFAULT 13 compat_pkalg_proposal
385:   FUNC GLOBAL DEFAULT 13 chan_write_failed
386:   FUNC GLOBAL DEFAULT 13 EVP_CIPHER_CTX_set_iv
387:   FUNC GLOBAL DEFAULT 13 ssh_packet_get_state
388:   FUNC GLOBAL DEFAULT 13 ssh_packet_send2
389:   FUNC GLOBAL DEFAULT 13 mac_compute
390:   FUNC GLOBAL DEFAULT 13 blf_cbc_encrypt
391:   FUNC GLOBAL DEFAULT 13 DH_set0_key
392:   FUNC GLOBAL DEFAULT 13 sshkey_curve_name_to_nid
393:   FUNC GLOBAL DEFAULT 13 do_log
394:   FUNC GLOBAL DEFAULT 13 bcrypt_pbkdf
395:   FUNC GLOBAL DEFAULT 13 ssh_rsa_complete_crt_para
396:   FUNC GLOBAL DEFAULT 13 chan_ibuf_empty
397:   FUNC GLOBAL DEFAULT 13 channel_input_data
398:   FUNC GLOBAL DEFAULT 13 ssh_dispatch_range
399:   FUNC GLOBAL DEFAULT 13 kexgex_hash
400:   FUNC GLOBAL DEFAULT 13 sshkey_generate
401:   FUNC GLOBAL DEFAULT 13 msetlocale
402:   FUNC GLOBAL DEFAULT 13 channel_disable_admin
403:   FUNC GLOBAL DEFAULT 13 channel_set_x11_refuse_ti
404:   FUNC GLOBAL DEFAULT 13 DH_get0_pqg
405:   FUNC GLOBAL DEFAULT 13 log_change_level
406:   FUNC GLOBAL DEFAULT 13 x11_create_display_inet
407:   FUNC GLOBAL DEFAULT 13 compat_cipher_proposal
408:   FUNC GLOBAL DEFAULT 13 blf_enc
409:   FUNC GLOBAL DEFAULT 13 blf_ecb_decrypt
410:   FUNC GLOBAL DEFAULT 13 timingsafe_bcmp
411:   FUNC GLOBAL DEFAULT 13 cipher_warning_message
412:   FUNC GLOBAL DEFAULT 13 crypto_sign_ed25519_ref_s
413:   FUNC GLOBAL DEFAULT 13 sshkey_ecdsa_key_to_nid
414:   FUNC GLOBAL DEFAULT 13 sshbuf_len
415:   FUNC GLOBAL DEFAULT 13 ssh_krl_revoke_key_sha1
416:   FUNC GLOBAL DEFAULT 13 log_init
417:   FUNC GLOBAL DEFAULT 13 sshkey_new
418:   FUNC GLOBAL DEFAULT 13 mac_check
419:   FUNC GLOBAL DEFAULT 13 a2tun
420:   FUNC GLOBAL DEFAULT 13 parse_user_host_port
421:   FUNC GLOBAL DEFAULT 13 ssh_packet_process_incomi
422:   FUNC GLOBAL DEFAULT 13 channel_format_extended_u
423:   FUNC GLOBAL DEFAULT 13 crypto_sign_ed25519_ref_f
424:   FUNC GLOBAL DEFAULT 13 kex_prop2buf
425:   FUNC GLOBAL DEFAULT 13 sshbuf_put_eckey
426:   FUNC GLOBAL DEFAULT 13 ssh_rsa_sign
427:   FUNC GLOBAL DEFAULT 13 match_filter_whitelist
428:   FUNC GLOBAL DEFAULT 13 sshbuf_put_bignum2
429:   FUNC GLOBAL DEFAULT 13 kex_kem_sntrup4591761x255
430:   FUNC GLOBAL DEFAULT 13 ssh_get_authentication_so
431:   FUNC GLOBAL DEFAULT 13 kex_c25519_keypair
432:   FUNC GLOBAL DEFAULT 13 umac_delete
433:   FUNC GLOBAL DEFAULT 13 atomiciov6
434:   FUNC GLOBAL DEFAULT 13 chan_mark_dead
435:   FUNC GLOBAL DEFAULT 13 forward_equals
436:   FUNC GLOBAL DEFAULT 13 sshkey_check_cert_sigtype
437:   FUNC GLOBAL DEFAULT 13 dispatch_protocol_ignore
438:   FUNC GLOBAL DEFAULT 13 bitmap_clear_bit
439:   FUNC GLOBAL DEFAULT 13 sshpkt_put_u8
440:   FUNC GLOBAL DEFAULT 13 ssh_digest_bytes
441:   FUNC GLOBAL DEFAULT 13 sshkey_curve_nid_to_name
442:   FUNC GLOBAL DEFAULT 13 sshkey_ecdsa_bits_to_nid
443:   FUNC GLOBAL DEFAULT 13 sshkey_enable_maxsign
444:   FUNC GLOBAL DEFAULT 13 channel_by_remote_id
445:   FUNC GLOBAL DEFAULT 13 sshbuf_put_bignum2_bytes
446:   FUNC GLOBAL DEFAULT 13 parse_user_host_path
447:   FUNC GLOBAL DEFAULT 13 compat_init_setproctitle
448:   FUNC GLOBAL DEFAULT 13 crypto_sign_ed25519_keypa
449:   FUNC GLOBAL DEFAULT 13 sshkey_putb
450:   FUNC GLOBAL DEFAULT 13 mktemp_proto
451:   FUNC GLOBAL DEFAULT 13 channel_connect_by_listen
452:   FUNC GLOBAL DEFAULT 13 oom_adjust_restore
453:   FUNC GLOBAL DEFAULT 13 ssh_packet_read_expect
454:   FUNC GLOBAL DEFAULT 13 sshpkt_get
455:   FUNC GLOBAL DEFAULT 13 crypto_sign_ed25519_ref_s
456:   FUNC GLOBAL DEFAULT 13 chachapoly_crypt
457:   FUNC GLOBAL DEFAULT 13 sshbuf_get_u16
458:   FUNC GLOBAL DEFAULT 13 bitmap_free
459:   FUNC GLOBAL DEFAULT 13 cleanup_exit
460:   FUNC GLOBAL DEFAULT 13 match_hostname
461:   FUNC GLOBAL DEFAULT 13 ssh_packet_connection_is_
462:   FUNC GLOBAL DEFAULT 13 sshbuf_free
463:   FUNC GLOBAL DEFAULT 13 cipher_free
464:   FUNC GLOBAL DEFAULT 13 sshbuf_get_stringb
465:   FUNC GLOBAL DEFAULT 13 sshkey_type_is_cert
466:   FUNC GLOBAL DEFAULT 13 ssh_hmac_free
467:   FUNC GLOBAL DEFAULT 13 bindresvport_sa
468:   FUNC GLOBAL DEFAULT 13 sshkey_dump_ec_key
469:   FUNC GLOBAL DEFAULT 13 dh_pub_is_valid
470:   FUNC GLOBAL DEFAULT 13 kex_send_kexinit
471:   FUNC GLOBAL DEFAULT 13 ssh_set_newkeys
472:   FUNC GLOBAL DEFAULT 13 ssh_packet_send2_wrapped
473:   FUNC GLOBAL DEFAULT 13 chan_obuf_empty
474:   FUNC GLOBAL DEFAULT 13 channel_register_open_con
475:   FUNC GLOBAL DEFAULT 13 crypto_hash_sha512
476:   FUNC GLOBAL DEFAULT 13 kex_dh_compute_key
477:   FUNC GLOBAL DEFAULT 13 oom_adjust_setup
478:   FUNC GLOBAL DEFAULT 13 ask_permission
479:   FUNC GLOBAL DEFAULT 13 channel_set_af
480:   FUNC GLOBAL DEFAULT 13 sshpkt_get_end
481:   FUNC GLOBAL DEFAULT 13 xcalloc
482:   FUNC GLOBAL DEFAULT 13 kex_free_newkeys
483:   FUNC GLOBAL DEFAULT 13 seed_rng
484:   FUNC GLOBAL DEFAULT 13 RSA_get0_key
485:   OBJECT GLOBAL DEFAULT 21 umac128_ctx
486:   FUNC GLOBAL DEFAULT 13 sshpkt_put_cstring
487:   FUNC GLOBAL DEFAULT 13 crypto_sign_ed25519_open
488:   FUNC GLOBAL DEFAULT 13 ssh_libcrypto_init
489:   FUNC GLOBAL DEFAULT 13 ssh_packet_set_server
490:   FUNC GLOBAL DEFAULT 13 rijndaelEncrypt
491:   FUNC GLOBAL DEFAULT 13 sshbuf_parent
492:   FUNC GLOBAL DEFAULT 13 addr_match_cidr_list
493:   FUNC GLOBAL DEFAULT 13 debug
494:   FUNC GLOBAL DEFAULT 13 ssh_packet_is_rekeying
495:   FUNC GLOBAL DEFAULT 13 ECDSA_SIG_get0
496:   FUNC GLOBAL DEFAULT 13 ssh_packet_set_input_hook
497:   FUNC GLOBAL DEFAULT 13 ssh_lock_agent
498:   FUNC GLOBAL DEFAULT 13 monotime
499:   FUNC GLOBAL DEFAULT 13 cipher_seclen
500:   FUNC GLOBAL DEFAULT 13 sanitise_stdfd
501:   FUNC GLOBAL DEFAULT 13 dh_new_group_asc
502:   FUNC GLOBAL DEFAULT 13 DSA_set0_key
503:   FUNC GLOBAL DEFAULT 13 ssh_packet_set_mux
504:   FUNC GLOBAL DEFAULT 13 sshkey_names_valid2
505:   FUNC GLOBAL DEFAULT 13 channel_find_open
506:   FUNC GLOBAL DEFAULT 13 sshpkt_fatal
507:   FUNC GLOBAL DEFAULT 13 channel_send_window_chang
508:   FUNC GLOBAL DEFAULT 13 strnvis
509:   FUNC GLOBAL DEFAULT 13 sshkey_puts
510:   FUNC GLOBAL DEFAULT 13 recallocarray
511:   FUNC GLOBAL DEFAULT 13 channel_setup_local_fwd_l
512:   FUNC GLOBAL DEFAULT 13 dh_new_group1
513:   FUNC GLOBAL DEFAULT 13 sshbuf_put_ec
514:   FUNC GLOBAL DEFAULT 13 mm_send_fd
515:   FUNC GLOBAL DEFAULT 13 DSA_get0_pqg
516:   FUNC GLOBAL DEFAULT 13 sshbuf_refcount
517:   FUNC GLOBAL DEFAULT 13 dh_gen_key
518:   FUNC GLOBAL DEFAULT 13 ssh_packet_stop_discard
519:   FUNC GLOBAL DEFAULT 13 crypto_sign_ed25519_ref_s
520:   FUNC GLOBAL DEFAULT 13 put_u32_le
521:   FUNC GLOBAL DEFAULT 13 kex_verify_host_key
522:   FUNC GLOBAL DEFAULT 13 sshkey_verify
523:   FUNC GLOBAL DEFAULT 13 umac_final
524:   FUNC GLOBAL DEFAULT 13 colon
525:   FUNC GLOBAL DEFAULT 13 verbose
526:   FUNC GLOBAL DEFAULT 13 channel_connect_stdio_fwd
527:   FUNC GLOBAL DEFAULT 13 channel_input_oclose
528:   FUNC GLOBAL DEFAULT 13 safe_path_fd
529:   FUNC GLOBAL DEFAULT 13 sshkey_putb_plain
530:   FUNC GLOBAL DEFAULT 13 ssh_update_card
531:   FUNC GLOBAL DEFAULT 13 crypto_verify_32
532:   FUNC GLOBAL DEFAULT 13 init_hostkeys
533:   FUNC GLOBAL DEFAULT 13 kex_derive_keys
534:   FUNC GLOBAL DEFAULT 13 platform_disable_tracing
535:   FUNC GLOBAL DEFAULT 13 ssh_ecdsa_verify
536:   FUNC GLOBAL DEFAULT 13 ssh_hmac_bytes
537:   FUNC GLOBAL DEFAULT 13 xreallocarray
538:   FUNC GLOBAL DEFAULT 13 export_dns_rr
539:   FUNC GLOBAL DEFAULT 13 crypto_sign_ed25519_ref_f
540:   FUNC GLOBAL DEFAULT 13 ssh_packet_set_tos
541:   FUNC GLOBAL DEFAULT 13 sshbuf_b64tod
542:   FUNC GLOBAL DEFAULT 13 compat_kex_proposal
543:   FUNC GLOBAL DEFAULT 13 closefrom
544:   FUNC GLOBAL DEFAULT 13 ssh_packet_set_log_preamb
545:   FUNC GLOBAL DEFAULT 13 bitmap_to_string
546:   FUNC GLOBAL DEFAULT 13 kex_exchange_identificati
547:   FUNC GLOBAL DEFAULT 13 ssh_krl_check_key
548:   FUNC GLOBAL DEFAULT 13 read_passphrase
549:   FUNC GLOBAL DEFAULT 13 sshbuf_allocate
550:   FUNC GLOBAL DEFAULT 13 logdie
551:   FUNC GLOBAL DEFAULT 13 get_peer_port
552:   FUNC GLOBAL DEFAULT 13 crypto_sign_ed25519_ref_p
553:   FUNC GLOBAL DEFAULT 13 umac_new
554:   FUNC GLOBAL DEFAULT 13 sshkey_load_private_type_
555:   FUNC GLOBAL DEFAULT 13 ssh_packet_get_maxsize
556:   FUNC GLOBAL DEFAULT 13 ssh_digest_alg_name
557:   FUNC GLOBAL DEFAULT 13 match_list
558:   FUNC GLOBAL DEFAULT 13 put_u32
559:   FUNC GLOBAL DEFAULT 13 sshbuf_get_bignum2_bytes_
560:   FUNC GLOBAL DEFAULT 13 ssh_packet_get_mux
561:   FUNC GLOBAL DEFAULT 13 sshkey_cert_check_authori
562:   FUNC GLOBAL DEFAULT 13 chan_is_dead
563:   FUNC GLOBAL DEFAULT 13 crypto_sign_ed25519_ref_s
564:   FUNC GLOBAL DEFAULT 13 crypto_sign_ed25519_ref_f
565:   FUNC GLOBAL DEFAULT 13 channel_add_permission
566:   OBJECT GLOBAL DEFAULT 21 BSDoptreset
567:   FUNC GLOBAL DEFAULT 13 crypto_sign_ed25519_ref_s
568:   FUNC GLOBAL DEFAULT 13 cipher_keylen
569:   FUNC GLOBAL DEFAULT 13 channel_input_open_confir
570:   FUNC GLOBAL DEFAULT 13 ssh_packet_set_alive_time
571:   FUNC GLOBAL DEFAULT 13 x11_request_forwarding_wi
572:   FUNC GLOBAL DEFAULT 13 crypto_sign_ed25519_ref_s
573:   FUNC GLOBAL DEFAULT 13 child_set_env
574:   FUNC GLOBAL DEFAULT 13 ssh_msg_send
575:   FUNC GLOBAL DEFAULT 13 sshkey_format_text
576:   FUNC GLOBAL DEFAULT 13 channel_free_all
577:   FUNC GLOBAL DEFAULT 13 channel_input_open_failur
578:   FUNC GLOBAL DEFAULT 13 sshpkt_ptr
579:   FUNC GLOBAL DEFAULT 13 kex_input_kexinit
580:   FUNC GLOBAL DEFAULT 13 sshpkt_get_u8
581:   FUNC GLOBAL DEFAULT 13 mac_valid
582:   FUNC GLOBAL DEFAULT 13 fmprintf
583:   FUNC GLOBAL DEFAULT 13 channel_by_id
584:   FUNC GLOBAL DEFAULT 13 sshbuf_check_reserve
585:   FUNC GLOBAL DEFAULT 13 ssh_digest_copy_state
586:   FUNC GLOBAL DEFAULT 13 kex_c25519_enc
587:   FUNC GLOBAL DEFAULT 13 sshkey_parse_private_file
588:   FUNC GLOBAL DEFAULT 13 tun_open
589:   FUNC GLOBAL DEFAULT 13 cipher_set_keyiv
590:   FUNC GLOBAL DEFAULT 13 crypto_sign_ed25519_ref_d
591:   FUNC GLOBAL DEFAULT 13 crypto_sign_ed25519_ref_f
592:   FUNC GLOBAL DEFAULT 13 kex_prop_free
593:   FUNC GLOBAL DEFAULT 13 kex_kem_sntrup4591761x255
594:   FUNC GLOBAL DEFAULT 13 get_u64
595:   FUNC GLOBAL DEFAULT 13 ssh_krl_file_contains_key
596:   FUNC GLOBAL DEFAULT 13 chacha_ivsetup
597:   FUNC GLOBAL DEFAULT 13 channel_init_channels
598:   FUNC GLOBAL DEFAULT 13 crypto_sign_ed25519
599:   FUNC GLOBAL DEFAULT 13 kex_buf2prop
600:   FUNC GLOBAL DEFAULT 13 mac_clear
601:   FUNC GLOBAL DEFAULT 13 safe_path
602:   FUNC GLOBAL DEFAULT 13 sshkey_to_base64
603:   FUNC GLOBAL DEFAULT 13 tohex
604:   FUNC GLOBAL DEFAULT 13 ssh_compatible_openssl
605:   FUNC GLOBAL DEFAULT 13 ssh_remote_ipaddr
606:   FUNC GLOBAL DEFAULT 13 set_log_handler
607:   FUNC GLOBAL DEFAULT 13 utimensat
608:   FUNC GLOBAL DEFAULT 13 get_local_ipaddr
609:   FUNC GLOBAL DEFAULT 13 channel_output_poll
610:   FUNC GLOBAL DEFAULT 13 waitrfd
611:   FUNC GLOBAL DEFAULT 13 ssh_msg_recv
612:   FUNC GLOBAL DEFAULT 13 setlogin
613:   OBJECT GLOBAL DEFAULT 15 BSDoptopt
614:   FUNC GLOBAL DEFAULT 13 bitmap_new
615:   FUNC GLOBAL DEFAULT 13 hostfile_replace_entries
616:   FUNC GLOBAL DEFAULT 13 percent_expand
617:   FUNC GLOBAL DEFAULT 13 ssh_ed25519_sign
618:   FUNC GLOBAL DEFAULT 13 sshkey_to_blob
619:   FUNC GLOBAL DEFAULT 13 sshbuf_putb
620:   OBJECT GLOBAL DEFAULT 17 digests
621:   FUNC GLOBAL DEFAULT 13 kex_gen_server
622:   FUNC GLOBAL DEFAULT 13 argv_assemble
623:   FUNC GLOBAL DEFAULT 13 atoi_err
624:   FUNC GLOBAL DEFAULT 13 get_u32_le
625:   FUNC GLOBAL DEFAULT 13 get_local_name
626:   FUNC GLOBAL DEFAULT 13 crypto_sign_ed25519_ref_f
627:   FUNC GLOBAL DEFAULT 13 iptos2str
628:   FUNC GLOBAL DEFAULT 13 stravis
629:   FUNC GLOBAL DEFAULT 13 rq_recip3
630:   FUNC GLOBAL DEFAULT 13 sshpkt_get_u32
631:   FUNC GLOBAL DEFAULT 13 sshpkt_put_string
632:   FUNC GLOBAL DEFAULT 13 cipher_by_name
633:   OBJECT GLOBAL DEFAULT 15 BSDopterr
634:   FUNC GLOBAL DEFAULT 13 ssh_dss_sign
635:   FUNC GLOBAL DEFAULT 13 ssh_agent_sign
636:   FUNC GLOBAL DEFAULT 13 ssh_close_authentication_
637:   FUNC GLOBAL DEFAULT 13 mbtowc
638:   FUNC GLOBAL DEFAULT 13 channel_proxy_downstream
639:   FUNC GLOBAL DEFAULT 13 sshbuf_dup_string
640:   FUNC GLOBAL DEFAULT 13 sshbuf_putf
641:   FUNC GLOBAL DEFAULT 13 cipher_get_length
642:   FUNC GLOBAL DEFAULT 13 gen_candidates
643:   FUNC GLOBAL DEFAULT 13 Blowfish_encipher
644:   FUNC GLOBAL DEFAULT 13 sshpkt_put_u64
645:   FUNC GLOBAL DEFAULT 13 channel_request_remote_fo
646:   FUNC GLOBAL DEFAULT 13 log_redirect_stderr_to
647:   OBJECT GLOBAL DEFAULT 21 BSDoptarg
648:   FUNC GLOBAL DEFAULT 13 ssh_ed25519_verify
649:   FUNC GLOBAL DEFAULT 13 channel_cancel_rport_list
650:   FUNC GLOBAL DEFAULT 13 kex_dh_keygen
651:   FUNC GLOBAL DEFAULT 13 tilde_expand_filename
652:   FUNC GLOBAL DEFAULT 13 ssh_ecdsa_sign
653:   FUNC GLOBAL DEFAULT 13 sshkey_sigalg_by_name
654:   FUNC GLOBAL DEFAULT 13 sshkey_in_file
655:   FUNC GLOBAL DEFAULT 13 channel_lookup
656:   FUNC GLOBAL DEFAULT 13 proto_spec
657:   FUNC GLOBAL DEFAULT 13 ssh_dispatch_set
658:   FUNC GLOBAL DEFAULT 13 log_is_on_stderr
659:   FUNC GLOBAL DEFAULT 13 platform_sys_dir_uid
660:   FUNC GLOBAL DEFAULT 13 fmt_scaled
661:   FUNC GLOBAL DEFAULT 13 setproctitle
662:   FUNC GLOBAL DEFAULT 13 ssh_packet_get_bytes
663:   FUNC GLOBAL DEFAULT 13 set_nodelay
664:   FUNC GLOBAL DEFAULT 13 sshbuf_put_stringb
665:   FUNC GLOBAL DEFAULT 13 sigdie
666:   FUNC GLOBAL DEFAULT 13 strsignal
667:   FUNC GLOBAL DEFAULT 13 ssh_dss_verify
668:   FUNC GLOBAL DEFAULT 13 ssh_free_identitylist
669:   FUNC GLOBAL DEFAULT 13 get_peer_ipaddr
670:   FUNC GLOBAL DEFAULT 13 channel_close_all
671:   FUNC GLOBAL DEFAULT 13 EVP_MD_CTX_new
672:   FUNC GLOBAL DEFAULT 13 sshkey_fromb
673:   FUNC GLOBAL DEFAULT 13 ssh_malloc_init
674:   FUNC GLOBAL DEFAULT 13 sshbuf_get_cstring
675:   FUNC GLOBAL DEFAULT 13 sshkey_check_revoked
676:   FUNC GLOBAL DEFAULT 13 channel_cancel_cleanup
677:   FUNC GLOBAL DEFAULT 13 DH_get0_key
678:   FUNC GLOBAL DEFAULT 13 ssh_dispatch_run
679:   FUNC GLOBAL DEFAULT 13 crypto_sign_ed25519_ref_f
680:   FUNC GLOBAL DEFAULT 13 sshbuf_get_ec
681:   FUNC GLOBAL DEFAULT 13 set_rdomain
682:   FUNC GLOBAL DEFAULT 13 reallocarray
683:   FUNC GLOBAL DEFAULT 13 sshpkt_add_padding
684:   FUNC GLOBAL DEFAULT 13 sshkey_private_serialize_
685:   FUNC GLOBAL DEFAULT 13 sshkey_read
686:   FUNC GLOBAL DEFAULT 13 crypto_sign_ed25519_ref_f
687:   FUNC GLOBAL DEFAULT 13 umac_update
688:   FUNC GLOBAL DEFAULT 13 ssh_packet_rdomain_in
689:   FUNC GLOBAL DEFAULT 13 channel_cancel_lport_list
690:   FUNC GLOBAL DEFAULT 13 kexc25519_keygen
691:   FUNC GLOBAL DEFAULT 13 umac128_delete
692:   FUNC GLOBAL DEFAULT 13 platform_pledge_agent
693:   FUNC GLOBAL DEFAULT 13 xstrdup
694:   FUNC GLOBAL DEFAULT 13 channel_request_start
695:   FUNC GLOBAL DEFAULT 13 cipher_init
696:   FUNC GLOBAL DEFAULT 13 match_filter_blacklist
697:   FUNC GLOBAL DEFAULT 13 kex_send_newkeys
698:   FUNC GLOBAL DEFAULT 13 crypto_sign_ed25519_ref_s
699:   FUNC GLOBAL DEFAULT 13 sshbuf_get_eckey
700:   FUNC GLOBAL DEFAULT 13 crypto_sign_ed25519_ref_f
701:   FUNC GLOBAL DEFAULT 13 ssh_hmac_init
702:   FUNC GLOBAL DEFAULT 13 sshpkt_get_bignum2
703:   FUNC GLOBAL DEFAULT 13 match_user
704:   FUNC GLOBAL DEFAULT 13 sshpkt_msg_ignore
705:   FUNC GLOBAL DEFAULT 13 kex_setup
706:   FUNC GLOBAL DEFAULT 13 unix_listener
707:   FUNC GLOBAL DEFAULT 13 compat_datafellows
708:   FUNC GLOBAL DEFAULT 13 rijndaelKeySetupEnc
709:   FUNC GLOBAL DEFAULT 13 sshkey_signatures_left
710:   FUNC GLOBAL DEFAULT 13 error
711:   FUNC GLOBAL DEFAULT 13 sshbuf_get
712:   FUNC GLOBAL DEFAULT 13 ssh_digest_free
713:   FUNC GLOBAL DEFAULT 13 sshbuf_reserve
714:   FUNC GLOBAL DEFAULT 13 sshkey_drop_cert
715:   FUNC GLOBAL DEFAULT 13 ssh_tty_make_modes
716:   FUNC GLOBAL DEFAULT 13 sshbuf_mutable_ptr
717:   FUNC GLOBAL DEFAULT 13 bitmap_nbytes
718:   FUNC GLOBAL DEFAULT 13 ssh_packet_set_nonblockin
719:   FUNC GLOBAL DEFAULT 13 sshkey_ssh_name_plain
720:   FUNC GLOBAL DEFAULT 13 permanently_set_uid
721:   OBJECT GLOBAL DEFAULT 10 crypto_sign_ed25519_ref_g
722:   FUNC GLOBAL DEFAULT 13 getsid
723:   FUNC GLOBAL DEFAULT 13 sshbuf_get_u32
724:   FUNC GLOBAL DEFAULT 13 blf_cbc_decrypt
725:   FUNC GLOBAL DEFAULT 13 ssh_packet_inc_alive_time
726:   FUNC GLOBAL DEFAULT 13 sock_set_v6only
727:   FUNC GLOBAL DEFAULT 13 crypto_sign_ed25519_ref_s
728:   FUNC GLOBAL DEFAULT 13 vfmprintf
729:   FUNC GLOBAL DEFAULT 13 get_u16
730:   FUNC GLOBAL DEFAULT 13 openpty
731:   FUNC GLOBAL DEFAULT 13 ssh_packet_set_connection
732:   FUNC GLOBAL DEFAULT 13 sshbuf_dump_data
733:   FUNC GLOBAL DEFAULT 13 sshkey_set_filename
734:   FUNC GLOBAL DEFAULT 13 bitmap_set_bit
735:   FUNC GLOBAL DEFAULT 13 ssh_digest_final
736:   FUNC GLOBAL DEFAULT 13 ssh_packet_read_poll_seqn
737:   FUNC GLOBAL DEFAULT 13 crypto_kem_sntrup4591761_
738:   FUNC GLOBAL DEFAULT 13 crypto_sign_ed25519_ref_s
739:   FUNC GLOBAL DEFAULT 13 sshpkt_peek_string_direct
740:   FUNC GLOBAL DEFAULT 13 channel_input_status_conf
741:   FUNC GLOBAL DEFAULT 13 ssh_digest_start
742:   FUNC GLOBAL DEFAULT 13 kex_names_cat
743:   FUNC GLOBAL DEFAULT 13 addargs
744:   FUNC GLOBAL DEFAULT 13 sshkey_private_serialize_
745:   FUNC GLOBAL DEFAULT 13 debug2
746:   FUNC GLOBAL DEFAULT 13 atomicio
747:   FUNC GLOBAL DEFAULT 13 channel_setup_remote_fwd_
748:   FUNC GLOBAL DEFAULT 13 sshpkt_put
749:   FUNC GLOBAL DEFAULT 13 ssh_packet_write_poll
750:   FUNC GLOBAL DEFAULT 13 sshkey_froms
751:   FUNC GLOBAL DEFAULT 13 debug3
752:   FUNC GLOBAL DEFAULT 13 sshpkt_get_string
753:   FUNC GLOBAL DEFAULT 13 match_usergroup_pattern_l
754:   FUNC GLOBAL DEFAULT 13 sshkey_private_to_fileblo
755:   FUNC GLOBAL DEFAULT 13 ssh_krl_revoke_cert_by_se
756:   FUNC GLOBAL DEFAULT 13 sshbuf_put_u64
757:   FUNC GLOBAL DEFAULT 13 EVP_PKEY_base_id
758:   FUNC GLOBAL DEFAULT 13 sshkey_from_blob
759:   FUNC GLOBAL DEFAULT 13 channel_stop_listening
760:   FUNC GLOBAL DEFAULT 13 match_host_and_ip
761:   FUNC GLOBAL DEFAULT 13 sshbuf_dump
762:   FUNC GLOBAL DEFAULT 13 sshkey_parse_private_file
763:   FUNC GLOBAL DEFAULT 13 crypto_sign_ed25519_ref_u
764:   FUNC GLOBAL DEFAULT 13 host_hash
765:   FUNC GLOBAL DEFAULT 13 ssh_krl_revoke_cert_by_se
766:   FUNC GLOBAL DEFAULT 13 log_level_name
767:   FUNC GLOBAL DEFAULT 13 path_absolute
768:   FUNC GLOBAL DEFAULT 13 ssh_get_progname
769:   FUNC GLOBAL DEFAULT 13 ssh_packet_get_input
770:   FUNC GLOBAL DEFAULT 13 dh_new_group14
771:   FUNC GLOBAL DEFAULT 13 ssh_krl_revoke_cert_by_ke
772:   FUNC GLOBAL DEFAULT 13 ssh_krl_set_version
773:   FUNC GLOBAL DEFAULT 13 scan_scaled
774:   FUNC GLOBAL DEFAULT 13 mprintf
775:   FUNC GLOBAL DEFAULT 13 ssh_hmac_update_buffer
776:   FUNC GLOBAL DEFAULT 13 argv_split
777:   OBJECT GLOBAL DEFAULT 15 BSDoptind
778:   FUNC GLOBAL DEFAULT 13 channel_register_filter
779:   FUNC GLOBAL DEFAULT 13 dh_new_group16
780:   FUNC GLOBAL DEFAULT 13 ssh_digest_blocksize
781:   FUNC GLOBAL DEFAULT 13 ssh_dispatch_run_fatal
782:   FUNC GLOBAL DEFAULT 13 ssh_packet_set_rekey_limi
783:   FUNC GLOBAL DEFAULT 13 uuencode
784:   FUNC GLOBAL DEFAULT 13 sys_tun_infilter
785:   FUNC GLOBAL DEFAULT 13 sshpkt_get_string_direct
786:   FUNC GLOBAL DEFAULT 13 sshpkt_send
787:   FUNC GLOBAL DEFAULT 13 dh_new_group18
788:   FUNC GLOBAL DEFAULT 13 kex_dh_dec
789:   FUNC GLOBAL DEFAULT 13 cleanhostname
790:   FUNC GLOBAL DEFAULT 13 _ssh__compat_globfree
791:   FUNC GLOBAL DEFAULT 13 sshkey_alg_list
792:   FUNC GLOBAL DEFAULT 13 ssh_krl_from_blob
793:   FUNC GLOBAL DEFAULT 13 strdelimw
794:   FUNC GLOBAL DEFAULT 13 ssh_err
795:   FUNC GLOBAL DEFAULT 13 sshpkt_getb_froms
796:   FUNC GLOBAL DEFAULT 13 sshkey_curve_nid_to_bits
797:   FUNC GLOBAL DEFAULT 13 sshkey_load_private_type
798:   FUNC GLOBAL DEFAULT 13 sshbuf_alloc
799:   FUNC GLOBAL DEFAULT 13 sshkey_format_cert_validi
800:   FUNC GLOBAL DEFAULT 13 crypto_sign_ed25519_ref_f
801:   FUNC GLOBAL DEFAULT 13 monotime_ts
802:   FUNC GLOBAL DEFAULT 13 _ssh__compat_glob
803:   FUNC GLOBAL DEFAULT 13 RSA_set0_factors
804:   FUNC GLOBAL DEFAULT 13 sshpkt_put_ec
805:   FUNC GLOBAL DEFAULT 13 free_hostkeys
806:   FUNC GLOBAL DEFAULT 13 innetgr
807:   FUNC GLOBAL DEFAULT 13 DSA_SIG_set0
808:   FUNC GLOBAL DEFAULT 13 DSA_get0_key
809:   FUNC GLOBAL DEFAULT 13 sshbuf_putfv
810:   FUNC GLOBAL DEFAULT 13 sshbuf_dtob64
811:   FUNC GLOBAL DEFAULT 13 ssh_digest_buffer
812:   FUNC GLOBAL DEFAULT 13 umac128_final
813:   FUNC GLOBAL DEFAULT 13 ssh_packet_set_timeout
814:   FUNC GLOBAL DEFAULT 13 uudecode
815:   FUNC GLOBAL DEFAULT 13 cipher_get_keyiv
816:   FUNC GLOBAL DEFAULT 13 sshkey_sign
817:   FUNC GLOBAL DEFAULT 13 log_level_number
818:   FUNC GLOBAL DEFAULT 13 monotime_tv
819:   FUNC GLOBAL DEFAULT 13 pledge
820:   FUNC GLOBAL DEFAULT 13 sshbuf_new
821:   FUNC GLOBAL DEFAULT 13 poly1305_auth
822:   FUNC GLOBAL DEFAULT 13 crypto_sign_ed25519_ref_f
823:   FUNC GLOBAL DEFAULT 13 put_host_port
824:   FUNC GLOBAL DEFAULT 13 cipher_alg_list
825:   FUNC GLOBAL DEFAULT 13 cipher_is_cbc
826:   FUNC GLOBAL DEFAULT 13 crypto_sign_ed25519_ref_f
827:   FUNC GLOBAL DEFAULT 13 sshkey_ec_validate_public
828:   FUNC GLOBAL DEFAULT 13 channel_prepare_select
829:   FUNC GLOBAL DEFAULT 13 channel_set_fds
830:   FUNC GLOBAL DEFAULT 13 cipher_crypt
831:   FUNC GLOBAL DEFAULT 13 pwcopy
832:   FUNC GLOBAL DEFAULT 13 replacearg
833:   FUNC GLOBAL DEFAULT 13 channel_not_very_much_buf
834:   FUNC GLOBAL DEFAULT 13 strvisx
835:   FUNC GLOBAL DEFAULT 13 sshkey_puts_opts
836:   FUNC GLOBAL DEFAULT 13 cipher_ctx_is_plaintext
837:   FUNC GLOBAL DEFAULT 13 chan_rcvd_eow
838:   FUNC GLOBAL DEFAULT 13 ssh_packet_close
839:   FUNC GLOBAL DEFAULT 13 ssh_packet_remaining
840:   FUNC GLOBAL DEFAULT 13 platform_pledge_mux
841:   FUNC GLOBAL DEFAULT 13 explicit_bzero
842:   FUNC GLOBAL DEFAULT 13 ssh_hmac_final
843:   FUNC GLOBAL DEFAULT 13 bandwidth_limit
844:   FUNC GLOBAL DEFAULT 13 mm_receive_fd
845:   FUNC GLOBAL DEFAULT 13 Blowfish_stream2word
846:   FUNC GLOBAL DEFAULT 13 fstatvfs
847:   FUNC GLOBAL DEFAULT 13 ssh_add_identity_constrai
848:   FUNC GLOBAL DEFAULT 13 umac128_new
849:   FUNC GLOBAL DEFAULT 13 getpgid
850:   FUNC GLOBAL DEFAULT 13 ssh_local_port
851:   FUNC GLOBAL DEFAULT 13 ssh_hmac_start
852:   FUNC GLOBAL DEFAULT 13 kex_kem_sntrup4591761x255
853:   FUNC GLOBAL DEFAULT 13 rresvport_af
854:   FUNC GLOBAL DEFAULT 13 sshbuf_put_cstring
855:   OBJECT GLOBAL DEFAULT 21 datafellows
856:   FUNC GLOBAL DEFAULT 13 sshbuf_ptr
857:   FUNC GLOBAL DEFAULT 13 kex_ecdh_dec
858:   FUNC GLOBAL DEFAULT 13 sshkey_cert_type
859:   FUNC GLOBAL DEFAULT 13 lookup_key_in_hostkeys_by
860:   FUNC GLOBAL DEFAULT 13 kex_names_valid
861:   FUNC GLOBAL DEFAULT 13 exited_cleanly
862:   FUNC GLOBAL DEFAULT 13 sys_tun_outfilter
863:   FUNC GLOBAL DEFAULT 13 sshkey_private_serialize
864:   FUNC GLOBAL DEFAULT 13 channel_register_status_c
865:   FUNC GLOBAL DEFAULT 13 set_nonblock
866:   FUNC GLOBAL DEFAULT 13 Blowfish_decipher
867:   FUNC GLOBAL DEFAULT 13 ssh_tty_parse_modes
868:   FUNC GLOBAL DEFAULT 13 ssh_hmac_update
869:   FUNC GLOBAL DEFAULT 13 sshpkt_put_bignum2
870:   FUNC GLOBAL DEFAULT 13 Blowfish_expandstate
871:   FUNC GLOBAL DEFAULT 13 sshbuf_put_u16
872:   FUNC GLOBAL DEFAULT 13 ssh_packet_get_output
873:   FUNC GLOBAL DEFAULT 13 chan_read_failed
874:   FUNC GLOBAL DEFAULT 13 dh_new_group_fallback
875:   FUNC GLOBAL DEFAULT 13 ssh_digest_alg_by_name
876:   FUNC GLOBAL DEFAULT 13 kexgex_client
877:   FUNC GLOBAL DEFAULT 13 sshkey_from_private
878:   FUNC GLOBAL DEFAULT 13 log_facility_name
879:   FUNC GLOBAL DEFAULT 13 crypto_sign_ed25519_ref_s
880:   FUNC GLOBAL DEFAULT 13 atomicio6
881:   FUNC GLOBAL DEFAULT 13 hpdelim2
882:   FUNC GLOBAL DEFAULT 13 blf_ecb_encrypt
883:   FUNC GLOBAL DEFAULT 13 ssh_remove_all_identities
884:   FUNC GLOBAL DEFAULT 13 ssh_packet_disconnect
885:   FUNC GLOBAL DEFAULT 13 crypto_sign_ed25519_ref_s
886:   FUNC GLOBAL DEFAULT 13 readpassphrase
887:   FUNC GLOBAL DEFAULT 13 ssh_packet_clear_keys
888:   FUNC GLOBAL DEFAULT 13 sshkey_plain_to_blob
889:   FUNC GLOBAL DEFAULT 13 ssh_local_ipaddr
890:   FUNC GLOBAL DEFAULT 13 sshbuf_set_max_size
891:   FUNC GLOBAL DEFAULT 13 ipv64_normalise_mapped
892:   FUNC GLOBAL DEFAULT 13 DH_set0_pqg
893:   FUNC GLOBAL DEFAULT 13 ssh_digest_update_buffer
894:   FUNC GLOBAL DEFAULT 13 channel_input_extended_da
895:   FUNC GLOBAL DEFAULT 13 ssh_digest_memory
896:   FUNC GLOBAL DEFAULT 13 valid_domain
897:   FUNC GLOBAL DEFAULT 13 group_from_gid
898:   FUNC GLOBAL DEFAULT 13 xmalloc
899:   FUNC GLOBAL DEFAULT 13 crypto_sign_ed25519_ref_f
900:   FUNC GLOBAL DEFAULT 13 crypto_sign_ed25519_ref_s
901:   FUNC GLOBAL DEFAULT 13 sshbuf_fromb
902:   FUNC GLOBAL DEFAULT 13 hostfile_read_key
903:   FUNC GLOBAL DEFAULT 13 r3_recip
904:   FUNC GLOBAL DEFAULT 13 fchownat
905:   FUNC GLOBAL DEFAULT 13 ssh_packet_set_authentica
906:   FUNC GLOBAL DEFAULT 13 sshpkt_fmt_connection_id
907:   FUNC GLOBAL DEFAULT 13 sshbuf_dtob16
908:   FUNC GLOBAL DEFAULT 13 crypto_sign_ed25519_ref_s
909:   FUNC GLOBAL DEFAULT 13 ssh_packet_have_data_to_w
910:   FUNC GLOBAL DEFAULT 13 fatal
911:   FUNC GLOBAL DEFAULT 13 channel_new
912:   FUNC GLOBAL DEFAULT 13 sshbuf_consume
913:   FUNC GLOBAL DEFAULT 13 xrecallocarray
914:   FUNC GLOBAL DEFAULT 13 choose_dh
915:   FUNC GLOBAL DEFAULT 13 kex_assemble_names
916:   FUNC GLOBAL DEFAULT 13 valid_env_name
917:   FUNC GLOBAL DEFAULT 13 sshkey_type_from_name
918:   FUNC GLOBAL DEFAULT 13 addr_match_list
919:   FUNC GLOBAL DEFAULT 13 log_facility_number
920:   FUNC GLOBAL DEFAULT 13 llabs
921:   FUNC GLOBAL DEFAULT 13 ssh_packet_set_maxsize
922:   FUNC GLOBAL DEFAULT 13 ssh_krl_free
923:   FUNC GLOBAL DEFAULT 13 umac128_update
924:   FUNC GLOBAL DEFAULT 13 chan_rcvd_oclose
925:   FUNC GLOBAL DEFAULT 13 sshkey_perm_ok
926:   FUNC GLOBAL DEFAULT 13 channel_send_open
927:   FUNC GLOBAL DEFAULT 13 ssh_remote_port
928:   FUNC GLOBAL DEFAULT 13 parse_absolute_time
929:   FUNC GLOBAL DEFAULT 13 ssh_packet_set_protocol_f
930:   FUNC GLOBAL DEFAULT 13 freezero
931:   FUNC GLOBAL DEFAULT 13 crypto_sign_ed25519_ref_f
932:   FUNC GLOBAL DEFAULT 13 sshkey_ec_nid_to_hash_alg
933:   FUNC GLOBAL DEFAULT 13 sshbuf_reset
934:   FUNC GLOBAL DEFAULT 13 sshkey_load_cert
935:   FUNC GLOBAL DEFAULT 13 dh_new_group
936:   FUNC GLOBAL DEFAULT 13 ssh_packet_get_rekey_time
937:   FUNC GLOBAL DEFAULT 13 ssh_packet_is_interactive
938:   FUNC GLOBAL DEFAULT 13 sshpkt_get_ec
939:   FUNC GLOBAL DEFAULT 13 channel_free
940:   FUNC GLOBAL DEFAULT 13 log_level_get
941:   FUNC GLOBAL DEFAULT 13 RSA_get0_crt_params
942:   FUNC GLOBAL DEFAULT 13 dump_base64
943:   FUNC GLOBAL DEFAULT 13 sshbuf_put_u8
944:   FUNC GLOBAL DEFAULT 13 logit
945:   FUNC GLOBAL DEFAULT 13 ssh_packet_write_wait
946:   FUNC GLOBAL DEFAULT 13 ciphers_valid
947:   FUNC GLOBAL DEFAULT 13 kex_new
948:   FUNC GLOBAL DEFAULT 13 blf_dec
949:   FUNC GLOBAL DEFAULT 13 crypto_kem_sntrup4591761_
950:   FUNC GLOBAL DEFAULT 13 mac_init
951:   FUNC GLOBAL DEFAULT 13 parse_ipqos
952:   FUNC GLOBAL DEFAULT 13 BSDgetopt
953:   FUNC GLOBAL DEFAULT 13 ssh_krl_revoke_key
954:   FUNC GLOBAL DEFAULT 13 match_pattern
955:   FUNC GLOBAL DEFAULT 13 sshkey_check_sigtype
956:   FUNC GLOBAL DEFAULT 13 bitmap_zero
957:   FUNC GLOBAL DEFAULT 13 chan_rcvd_ieof
958:   FUNC GLOBAL DEFAULT 13 channel_input_window_adju
959:   FUNC GLOBAL DEFAULT 13 crypto_sign_ed25519_ref_f
960:   FUNC GLOBAL DEFAULT 13 check_key_in_hostkeys
961:   FUNC GLOBAL DEFAULT 13 hostkeys_foreach
962:   FUNC GLOBAL DEFAULT 13 sshbuf_froms
963:   FUNC GLOBAL DEFAULT 13 strvis
964:   FUNC GLOBAL DEFAULT 13 kex_input_ext_info
965:   FUNC GLOBAL DEFAULT 13 kex_load_hostkey
966:   FUNC GLOBAL DEFAULT 13 sshkey_ecdsa_nid_from_nam
967:   FUNC GLOBAL DEFAULT 13 get_u32
968:   FUNC GLOBAL DEFAULT 13 chachapoly_get_length
969:   FUNC GLOBAL DEFAULT 13 cipher_blocksize
970:   FUNC GLOBAL DEFAULT 13 ssh_krl_revoke_key_explic
971:   FUNC GLOBAL DEFAULT 13 vis
972:   FUNC GLOBAL DEFAULT 13 sshbuf_put
973:   FUNC GLOBAL DEFAULT 13 mac_setup
974:   FUNC GLOBAL DEFAULT 13 put_u64
975:   FUNC GLOBAL DEFAULT 13 hpdelim
976:   FUNC GLOBAL DEFAULT 13 RSA_set0_key
977:   FUNC GLOBAL DEFAULT 13 getpeereid
978:   FUNC GLOBAL DEFAULT 13 ssh_packet_set_state
979:   FUNC GLOBAL DEFAULT 13 sshkey_certify
980:   FUNC GLOBAL DEFAULT 13 freeargs
981:   FUNC GLOBAL DEFAULT 13 statvfs
982:   FUNC GLOBAL DEFAULT 13 platform_pledge_sftp_serv
983:   FUNC GLOBAL DEFAULT 13 sshbuf_get_string_direct
984:   FUNC GLOBAL DEFAULT 13 do_log2
985:   FUNC GLOBAL DEFAULT 13 lowercase
986:   FUNC GLOBAL DEFAULT 13 sshkey_size
987:   FUNC GLOBAL DEFAULT 13 sshkey_equal_public
988:   FUNC GLOBAL DEFAULT 13 get_local_port
989:   FUNC GLOBAL DEFAULT 13 sshkey_ssh_name
990:   FUNC GLOBAL DEFAULT 13 ssh_packet_get_connection
991:   FUNC GLOBAL DEFAULT 13 crypto_scalarmult_curve25
992:   FUNC GLOBAL DEFAULT 13 kex_dh_enc
993:   OBJECT GLOBAL DEFAULT 21 umac_ctx
994:   FUNC GLOBAL DEFAULT 13 sshbuf_put_string
995:   FUNC GLOBAL DEFAULT 13 sshkey_type_plain
996:   FUNC GLOBAL DEFAULT 13 channel_connect_to_port
997:   FUNC GLOBAL DEFAULT 13 channel_input_ieof
998:   FUNC GLOBAL DEFAULT 13 channel_proxy_upstream
999:   FUNC GLOBAL DEFAULT 13 sshpkt_put_u32
1000:   FUNC GLOBAL DEFAULT 13 cipher_ivlen
1001:   FUNC GLOBAL DEFAULT 13 crypto_sign_ed25519_ref_i
1002:   FUNC GLOBAL DEFAULT 13 DSA_set0_pqg
1003:   FUNC GLOBAL DEFAULT 13 crypto_sign_ed25519_ref_s
1004:   FUNC GLOBAL DEFAULT 13 channel_permit_all
1005:   FUNC GLOBAL DEFAULT 13 sshpkt_putb
1006:   FUNC GLOBAL DEFAULT 13 cipher_authlen
1007:   FUNC GLOBAL DEFAULT 13 bitmap_nbits
1008:   FUNC GLOBAL DEFAULT 13 ssh_crc32
1009:   FUNC GLOBAL DEFAULT 13 mysignal
1010:   FUNC GLOBAL DEFAULT 13 sshkey_save_private
1011:   FUNC GLOBAL DEFAULT 13 kex_ecdh_keypair
1012:   FUNC GLOBAL DEFAULT 13 DSA_SIG_get0
1013:   FUNC GLOBAL DEFAULT 13 ssh_packet_set_interactiv
1014:   FUNC GLOBAL DEFAULT 13 sshkey_load_private
1015:   FUNC GLOBAL DEFAULT 13 dispatch_protocol_error
1016:   FUNC GLOBAL DEFAULT 13 ssh_krl_to_blob
1017:   FUNC GLOBAL DEFAULT 13 ssh_packet_read
1018:   FUNC GLOBAL DEFAULT 13 cipher_get_keyiv_len
1019:   FUNC GLOBAL DEFAULT 13 sshbuf_get_bignum2
1020:   FUNC GLOBAL DEFAULT 13 ssh_rsa_verify
1021:   FUNC GLOBAL DEFAULT 13 bitmap_from_string
1022:   FUNC GLOBAL DEFAULT 13 ssh_packet_read_seqnr
1023:   FUNC GLOBAL DEFAULT 13 parse_uri
1024:   FUNC GLOBAL DEFAULT 13 fchmodat
1025:   FUNC GLOBAL DEFAULT 13 RSA_get0_factors
1026:   FUNC GLOBAL DEFAULT 13 xasprintf
1027:   FUNC GLOBAL DEFAULT 13 ssh_packet_get_connection
1028:   FUNC GLOBAL DEFAULT 13 kexc25519_shared_key
1029:   FUNC GLOBAL DEFAULT 13 channel_connect_to_path
1030:   FUNC GLOBAL DEFAULT 13 sshpkt_disconnect
1031:   FUNC GLOBAL DEFAULT 13 prime_test
1032:   FUNC GLOBAL DEFAULT 13 Blowfish_initstate
1033:   FUNC GLOBAL DEFAULT 13 ssh_packet_read_poll2
1034:   FUNC GLOBAL DEFAULT 13 channel_still_open
1035:   FUNC GLOBAL DEFAULT 13 ECDSA_SIG_set0
1036:   FUNC GLOBAL DEFAULT 13 user_from_uid
1037:   FUNC GLOBAL DEFAULT 13 channel_register_cleanup
1038:   FUNC GLOBAL DEFAULT 13 ssh_dispatch_init
1039:   FUNC GLOBAL DEFAULT 13 sshpkt_get_u64
1040:   FUNC GLOBAL DEFAULT 13 sshkey_dump_ec_point
1041:   FUNC GLOBAL DEFAULT 13 channel_clear_permission
1042:   FUNC GLOBAL DEFAULT 13 kex_start_rekex
1043:   FUNC GLOBAL DEFAULT 13 format_absolute_time
1044:   FUNC GLOBAL DEFAULT 13 ssh_clear_newkeys
1045:   FUNC GLOBAL DEFAULT 13 sshkey_fingerprint
1046:   FUNC GLOBAL DEFAULT 13 unset_nonblock
1047:   FUNC GLOBAL DEFAULT 13 crypto_sign_ed25519_ref_s
1048:   FUNC GLOBAL DEFAULT 13 sshkey_to_certified
1049:   FUNC GLOBAL DEFAULT 13 ssh_packet_get_protocol_f
1050:   FUNC GLOBAL DEFAULT 13 sshkey_free
1051:   FUNC GLOBAL DEFAULT 13 DH_set_length
1052:   FUNC GLOBAL DEFAULT 13 kex_ecdh_enc
1053:   FUNC GLOBAL DEFAULT 13 sys_tun_open
1054:   FUNC GLOBAL DEFAULT 13 ssh_packet_connection_af
1055:   FUNC GLOBAL DEFAULT 13 sshkey_is_cert
1056:   FUNC GLOBAL DEFAULT 13 crypto_kem_sntrup4591761_
1057:   FUNC GLOBAL DEFAULT 13 ssh_alloc_session_state
1058:   FUNC GLOBAL DEFAULT 13 sshkey_ec_validate_privat
1059:   FUNC GLOBAL DEFAULT 13 restore_uid
1060:   FUNC GLOBAL DEFAULT 13 sshkey_equal
1061:   FUNC GLOBAL DEFAULT 13 a2port
1062:   FUNC GLOBAL DEFAULT 13 sshbuf_from
1063:   FUNC GLOBAL DEFAULT 13 sshkey_load_private_cert
1064:   FUNC GLOBAL DEFAULT 13 channel_close_fd
1065:   FUNC GLOBAL DEFAULT 13 kex_dh_keypair
1066:   FUNC GLOBAL DEFAULT 13 ssh_krl_revoke_key_sha256
1067:   FUNC GLOBAL DEFAULT 13 ms_subtract_diff
1068:   FUNC GLOBAL DEFAULT 13 sshbuf_avail
1069:   FUNC GLOBAL DEFAULT 13 EVP_MD_CTX_free
1070:   FUNC GLOBAL DEFAULT 13 crypto_sign_ed25519_ref_s
1071:   FUNC GLOBAL DEFAULT 13 sshkey_type
1072:   FUNC GLOBAL DEFAULT 13 kex_alg_list
1073:   FUNC GLOBAL DEFAULT 13 kex_ready
1074:   FUNC GLOBAL DEFAULT 13 RSA_set0_crt_params
1075:   FUNC GLOBAL DEFAULT 13 chacha_keysetup
1076:   FUNC GLOBAL DEFAULT 13 channel_connect_by_listen
1077:   FUNC GLOBAL DEFAULT 13 sshkey_fingerprint_raw
1078:   OBJECT GLOBAL DEFAULT 15 oom_adjust
1079:   FUNC GLOBAL DEFAULT 13 snmprintf
1080:   FUNC GLOBAL DEFAULT 13 ssh_remove_identity
1081:   FUNC GLOBAL DEFAULT 13 daemonized
1082:   FUNC GLOBAL DEFAULT 13 put_u16
1083:   FUNC GLOBAL DEFAULT 13 sshbuf_max_size
1084:   FUNC GLOBAL DEFAULT 13 channel_after_select
1085:   FUNC GLOBAL DEFAULT 13 sshpkt_put_stringb
1086:   FUNC GLOBAL DEFAULT 13 chachapoly_init
1087:   FUNC GLOBAL DEFAULT 13 load_hostkeys
1088:   FUNC GLOBAL DEFAULT 13 kexc25519_shared_key_ext
1089:   FUNC GLOBAL DEFAULT 13 sshkey_private_deserializ
1090:   FUNC GLOBAL DEFAULT 13 sshbuf_get_u8
1091:   FUNC GLOBAL DEFAULT 13 chacha_encrypt_bytes
1092:   FUNC GLOBAL DEFAULT 13 sshpkt_start
1093:   FUNC GLOBAL DEFAULT 13 monotime_double
1094:   FUNC GLOBAL DEFAULT 13 timeout_connect
1095:   FUNC GLOBAL DEFAULT 13 sshkey_certify_custom
