 0x000000000000000e (SONAME)             Library soname: [libmedia.so]
  
Symbol   contains 1555 entries:
Num:   Type Bind Vis Ndx Name
0:   NOTYPE LOCAL DEFAULT UND
1:   FUNC GLOBAL DEFAULT UND __cxa_finalize@LIBC (2)
2:   FUNC GLOBAL DEFAULT UND __cxa_atexit@LIBC (2)
3:   FUNC GLOBAL DEFAULT UND _ZN7android10IInterface8a
4:   FUNC GLOBAL DEFAULT UND _ZN7android10IInterfaceC2
5:   FUNC GLOBAL DEFAULT UND _ZN7android10IInterfaceD0
6:   FUNC GLOBAL DEFAULT UND _ZN7android10IInterfaceD1
7:   FUNC GLOBAL DEFAULT UND _ZN7android10IInterfaceD2
8:   FUNC GLOBAL DEFAULT UND _ZN7android10VectorImpl13
9:   FUNC GLOBAL DEFAULT UND _ZN7android14sp_report_ra
10:   FUNC GLOBAL DEFAULT UND _ZN7android16SortedVector
11:   FUNC GLOBAL DEFAULT UND _ZN7android16SortedVector
12:   FUNC GLOBAL DEFAULT UND _ZN7android16SortedVector
13:   FUNC GLOBAL DEFAULT UND _ZN7android6Parcel10write
14:   FUNC GLOBAL DEFAULT UND _ZN7android6Parcel10write
15:   FUNC GLOBAL DEFAULT UND _ZN7android6Parcel11write
16:   FUNC GLOBAL DEFAULT UND _ZN7android6Parcel12write
17:   FUNC GLOBAL DEFAULT UND _ZN7android6Parcel12write
18:   FUNC GLOBAL DEFAULT UND _ZN7android6Parcel17write
19:   FUNC GLOBAL DEFAULT UND _ZN7android6Parcel19write
20:   FUNC GLOBAL DEFAULT UND _ZN7android6ParcelC1Ev
21:   FUNC GLOBAL DEFAULT UND _ZN7android6ParcelD1Ev
22:   FUNC GLOBAL DEFAULT UND _ZN7android7BBinder10onTr
23:   FUNC GLOBAL DEFAULT UND _ZN7android7BBinder10ping
24:   FUNC GLOBAL DEFAULT UND _ZN7android7BBinder11link
25:   FUNC GLOBAL DEFAULT UND _ZN7android7BBinder11loca
26:   FUNC GLOBAL DEFAULT UND _ZN7android7BBinder12atta
27:   FUNC GLOBAL DEFAULT UND _ZN7android7BBinder12deta
28:   FUNC GLOBAL DEFAULT UND _ZN7android7BBinder13unli
29:   FUNC GLOBAL DEFAULT UND _ZN7android7BBinder4dumpE
30:   FUNC GLOBAL DEFAULT UND _ZN7android7BBinder8trans
31:   FUNC GLOBAL DEFAULT UND _ZN7android7BBinderD0Ev
32:   FUNC GLOBAL DEFAULT UND _ZN7android7BBinderD1Ev
33:   FUNC GLOBAL DEFAULT UND _ZN7android7IBinder11loca
34:   FUNC GLOBAL DEFAULT UND _ZN7android7IBinder12remo
35:   FUNC GLOBAL DEFAULT UND _ZN7android7IBinder19quer
36:   FUNC GLOBAL DEFAULT UND _ZN7android7IBinderD0Ev
37:   FUNC GLOBAL DEFAULT UND _ZN7android7IBinderD1Ev
38:   FUNC GLOBAL DEFAULT UND _ZN7android7IMemory11asIn
39:   FUNC GLOBAL DEFAULT UND _ZN7android7RefBase10onFi
40:   FUNC GLOBAL DEFAULT UND _ZN7android7RefBase13onLa
41:   FUNC GLOBAL DEFAULT UND _ZN7android7RefBase15onLa
42:   FUNC GLOBAL DEFAULT UND _ZN7android7RefBase20onIn
43:   FUNC GLOBAL DEFAULT UND _ZN7android7RefBaseC2Ev
44:   FUNC GLOBAL DEFAULT UND _ZN7android7RefBaseD2Ev
45:   FUNC GLOBAL DEFAULT UND _ZN7android7String85setTo
46:   FUNC GLOBAL DEFAULT UND _ZN7android7String8C1EPKc
47:   FUNC GLOBAL DEFAULT UND _ZN7android7String8C1ERKS
48:   FUNC GLOBAL DEFAULT UND _ZN7android7String8C1Ev
49:   FUNC GLOBAL DEFAULT UND _ZN7android7String8D1Ev
50:   FUNC GLOBAL DEFAULT UND _ZN7android8String16C1EPK
51:   FUNC GLOBAL DEFAULT UND _ZN7android8String16D1Ev
52:   FUNC GLOBAL DEFAULT UND _ZN7android9BpRefBase10on
53:   FUNC GLOBAL DEFAULT UND _ZN7android9BpRefBase15on
54:   FUNC GLOBAL DEFAULT UND _ZN7android9BpRefBase20on
55:   FUNC GLOBAL DEFAULT UND _ZN7android9BpRefBaseC2ER
56:   FUNC GLOBAL DEFAULT UND _ZN7android9BpRefBaseD0Ev
57:   FUNC GLOBAL DEFAULT UND _ZN7android9BpRefBaseD1Ev
58:   FUNC GLOBAL DEFAULT UND _ZN7android9BpRefBaseD2Ev
59:   FUNC GLOBAL DEFAULT UND _ZNK7android6Parcel10read
60:   FUNC GLOBAL DEFAULT UND _ZNK7android6Parcel11read
61:   FUNC GLOBAL DEFAULT UND _ZNK7android6Parcel11read
62:   FUNC GLOBAL DEFAULT UND _ZNK7android6Parcel14chec
63:   FUNC GLOBAL DEFAULT UND _ZNK7android6Parcel16read
64:   FUNC GLOBAL DEFAULT UND _ZNK7android6Parcel9dataA
65:   FUNC GLOBAL DEFAULT UND _ZNK7android6Parcel9readI
66:   FUNC GLOBAL DEFAULT UND _ZNK7android6Parcel9readI
67:   FUNC GLOBAL DEFAULT UND _ZNK7android6Parcel9readI
68:   FUNC GLOBAL DEFAULT UND _ZNK7android7BBinder10fin
69:   FUNC GLOBAL DEFAULT UND _ZNK7android7BBinder13isB
70:   FUNC GLOBAL DEFAULT UND _ZNK7android7BBinder22get
71:   FUNC GLOBAL DEFAULT UND _ZNK7android7IBinder13che
72:   FUNC GLOBAL DEFAULT UND _ZNK7android7RefBase9decS
73:   FUNC GLOBAL DEFAULT UND _ZNK7android7RefBase9incS
74:   FUNC GLOBAL DEFAULT UND _ZNK7android8String164siz
75:   FUNC GLOBAL DEFAULT UND _ZTv0_n24_N7android10IInt
76:   FUNC GLOBAL DEFAULT UND _ZTv0_n24_N7android10IInt
77:   FUNC GLOBAL DEFAULT UND _ZTv0_n24_N7android7BBind
78:   FUNC GLOBAL DEFAULT UND _ZTv0_n24_N7android7BBind
79:   FUNC GLOBAL DEFAULT UND _ZTv0_n24_N7android7IBind
80:   FUNC GLOBAL DEFAULT UND _ZTv0_n24_N7android7IBind
81:   FUNC GLOBAL DEFAULT UND _ZTv0_n24_N7android9BpRef
82:   FUNC GLOBAL DEFAULT UND _ZTv0_n24_N7android9BpRef
83:   FUNC GLOBAL DEFAULT UND _ZTv0_n32_N7android9BpRef
84:   FUNC GLOBAL DEFAULT UND _ZTv0_n40_N7android9BpRef
85:   FUNC GLOBAL DEFAULT UND _ZTv0_n48_N7android9BpRef
86:   FUNC GLOBAL DEFAULT UND _ZdlPv
87:   FUNC GLOBAL DEFAULT UND _Znwm
88:   FUNC GLOBAL DEFAULT UND __cxa_pure_virtual
89:   FUNC GLOBAL DEFAULT UND __stack_chk_fail@LIBC (2)
90:   FUNC GLOBAL DEFAULT UND abort@LIBC (2)
91:   FUNC GLOBAL DEFAULT UND memmove@LIBC (2)
92:   FUNC GLOBAL DEFAULT UND strcmp@LIBC (2)
93:   FUNC GLOBAL DEFAULT UND strzcmp16
94:   FUNC GLOBAL DEFAULT UND _ZN7android7String812appe
95:   FUNC GLOBAL DEFAULT UND _ZN7android11AudioSystem1
96:   FUNC GLOBAL DEFAULT UND _ZN7android11AudioSystem2
97:   FUNC GLOBAL DEFAULT UND _ZN7android11AudioSystem2
98:   FUNC GLOBAL DEFAULT UND _ZN7android14IPCThreadSta
99:   FUNC GLOBAL DEFAULT UND _ZN7android14IPCThreadSta
100:   FUNC GLOBAL DEFAULT UND _ZN7android6Parcel10appen
101:   FUNC GLOBAL DEFAULT UND _ZN7android7BBinderC2Ev
102:   FUNC GLOBAL DEFAULT UND _ZN7android7BBinderD2Ev
103:   FUNC GLOBAL DEFAULT UND _ZN7android7RefBase12weak
104:   FUNC GLOBAL DEFAULT UND _ZNK7android6Parcel8dataS
105:   FUNC GLOBAL DEFAULT UND _ZNK7android7RefBase10cre
106:   FUNC GLOBAL DEFAULT UND __android_log_print@LIBLOG (3)
107:   FUNC GLOBAL DEFAULT UND androidGetThreadId
108:   FUNC GLOBAL DEFAULT UND inet_aton@LIBC (2)
109:   FUNC GLOBAL DEFAULT UND pthread_cond_destroy@LIBC (2)
110:   FUNC GLOBAL DEFAULT UND pthread_cond_init@LIBC (2)
111:   FUNC GLOBAL DEFAULT UND pthread_cond_signal@LIBC (2)
112:   FUNC GLOBAL DEFAULT UND pthread_cond_wait@LIBC (2)
113:   FUNC GLOBAL DEFAULT UND pthread_condattr_destroy@LIBC (2)
114:   FUNC GLOBAL DEFAULT UND pthread_condattr_init@LIBC (2)
115:   FUNC GLOBAL DEFAULT UND pthread_condattr_setclock@LIBC (2)
116:   FUNC GLOBAL DEFAULT UND pthread_mutex_destroy@LIBC (2)
117:   FUNC GLOBAL DEFAULT UND pthread_mutex_init@LIBC (2)
118:   FUNC GLOBAL DEFAULT UND pthread_mutex_lock@LIBC (2)
119:   FUNC GLOBAL DEFAULT UND pthread_mutex_unlock@LIBC (2)
120:   FUNC GLOBAL DEFAULT UND _ZN7android6Parcel13write
121:   FUNC GLOBAL DEFAULT UND _ZN7android7String8C1ERKN
122:   FUNC GLOBAL DEFAULT UND _ZN7android8String165setT
123:   FUNC GLOBAL DEFAULT UND _ZN7android8String166appe
124:   FUNC GLOBAL DEFAULT UND _ZNK7android6Parcel12read
125:   FUNC GLOBAL DEFAULT UND _ZNK7android6Parcel17read
126:   FUNC GLOBAL DEFAULT UND _ZNK7android7IMemory4size
127:   FUNC GLOBAL DEFAULT UND _ZNK7android7IMemory7poin
128:   FUNC GLOBAL DEFAULT UND memcpy@LIBC (2)
129:   FUNC GLOBAL DEFAULT UND _ZN7android10VectorImpl16
130:   FUNC GLOBAL DEFAULT UND _ZN7android10VectorImpl6r
131:   FUNC GLOBAL DEFAULT UND _ZN7android10VectorImpl8i
132:   FUNC GLOBAL DEFAULT UND _ZN7android10VectorImplC2
133:   FUNC GLOBAL DEFAULT UND _ZN7android10VectorImplC2
134:   FUNC GLOBAL DEFAULT UND _ZN7android10VectorImplD2
135:   FUNC GLOBAL DEFAULT UND _ZN7android12MetaDataBase
136:   FUNC GLOBAL DEFAULT UND _ZN7android15PermissionCa
137:   FUNC GLOBAL DEFAULT UND _ZN7android6Parcel15write
138:   FUNC GLOBAL DEFAULT UND _ZN7android7RefBase10rena
139:   FUNC GLOBAL DEFAULT UND _ZN7android7RefBase11rena
140:   FUNC GLOBAL DEFAULT UND _ZN7android7RefBase12weak
141:   FUNC GLOBAL DEFAULT UND _ZN7android7RefBase12weak
142:   FUNC GLOBAL DEFAULT UND _ZN7android7String85setTo
143:   FUNC GLOBAL DEFAULT UND _ZN7android7String86appen
144:   FUNC GLOBAL DEFAULT UND _ZN7android7String86appen
145:   FUNC GLOBAL DEFAULT UND _ZN7android7String86forma
146:   FUNC GLOBAL DEFAULT UND _ZN7android8MetaData16cre
147:   FUNC GLOBAL DEFAULT UND _ZNK7android12MetaDataBas
148:   FUNC GLOBAL DEFAULT UND _ZNK7android14IPCThreadSt
149:   FUNC GLOBAL DEFAULT UND _ZNK7android14IPCThreadSt
150:   FUNC GLOBAL DEFAULT UND _ZNK7android6Parcel10read
151:   FUNC GLOBAL DEFAULT UND _ZNK7android6Parcel14read
152:   FUNC GLOBAL DEFAULT UND _ZNK7android7String86leng
153:   FUNC GLOBAL DEFAULT UND localtime@LIBC (2)
154:   FUNC GLOBAL DEFAULT UND memset@LIBC (2)
155:   FUNC GLOBAL DEFAULT UND strftime@LIBC (2)
156:   FUNC GLOBAL DEFAULT UND time@LIBC (2)
157:   FUNC GLOBAL DEFAULT UND write@LIBC (2)
158:   OBJECT GLOBAL DEFAULT UND _ZN7android11MediaBuffer1
159:   FUNC GLOBAL DEFAULT UND _ZN7android6Parcel19write
160:   FUNC GLOBAL DEFAULT UND _ZNK7android6Parcel16read
161:   FUNC GLOBAL DEFAULT UND _ZNK7android6Parcel18read
162:   FUNC GLOBAL DEFAULT UND _ZNKSt3__121__basic_strin
163:   FUNC GLOBAL DEFAULT UND _ZNSt3__112__next_primeEm
164:   FUNC GLOBAL DEFAULT UND close@LIBC (2)
165:   FUNC GLOBAL DEFAULT UND dup@LIBC (2)
166:   FUNC GLOBAL DEFAULT UND memcmp@LIBC (2)
167:   FUNC GLOBAL DEFAULT UND strlen@LIBC (2)
168:   FUNC GLOBAL DEFAULT UND _ZN7android15IMediaCodecL
169:   FUNC GLOBAL DEFAULT UND _ZNK7android6Parcel12data
170:   FUNC GLOBAL DEFAULT UND _ZN7android10VectorImpl13
171:   FUNC GLOBAL DEFAULT UND _ZN7android10VectorImpl8i
172:   FUNC GLOBAL DEFAULT UND _ZN7android22IGraphicBuff
173:   FUNC GLOBAL DEFAULT UND _ZN7android6Parcel10write
174:   FUNC GLOBAL DEFAULT UND _ZN7android6Parcel11write
175:   FUNC GLOBAL DEFAULT UND _ZN7android6Parcel5writeE
176:   FUNC GLOBAL DEFAULT UND _ZN7android6Parcel9writeB
177:   FUNC GLOBAL DEFAULT UND _ZNK7android6Parcel10read
178:   FUNC GLOBAL DEFAULT UND _ZNK7android6Parcel15setD
179:   FUNC GLOBAL DEFAULT UND _ZNK7android6Parcel4readE
180:   FUNC GLOBAL DEFAULT UND _ZNK7android6Parcel8readB
181:   FUNC GLOBAL DEFAULT UND _ZNK7android6Parcel9readF
182:   FUNC GLOBAL DEFAULT UND _ZNK7android6Parcel9readF
183:   FUNC GLOBAL DEFAULT UND _ZNK7android6Parcel9readI
184:   FUNC GLOBAL DEFAULT UND __android_log_error_write@LIBLOG_M (4)
185:   FUNC GLOBAL DEFAULT UND __strlen_chk@LIBC (2)
186:   FUNC GLOBAL DEFAULT UND __vsnprintf_chk@LIBC (2)
187:   FUNC GLOBAL DEFAULT UND _ZN7android10VectorImpl5c
188:   FUNC GLOBAL DEFAULT UND _ZN7android14createHalTok
189:   FUNC GLOBAL DEFAULT UND _ZN7android14deleteHalTok
190:   FUNC GLOBAL DEFAULT UND _ZN7android20IGraphicBuff
191:   FUNC GLOBAL DEFAULT UND _ZN7android20retrieveHalI
192:   FUNC GLOBAL DEFAULT UND _ZN7android21ICameraRecor
193:   FUNC GLOBAL DEFAULT UND _ZN7android6Parcel14write
194:   FUNC GLOBAL DEFAULT UND _ZN7android6Parcel15write
195:   FUNC GLOBAL DEFAULT UND _ZN7android6Parcel16write
196:   FUNC GLOBAL DEFAULT UND _ZN7android6Parcel16write
197:   FUNC GLOBAL DEFAULT UND _ZN7android8String16C1ERK
198:   FUNC GLOBAL DEFAULT UND _ZN7android8String16C1Ev
199:   FUNC GLOBAL DEFAULT UND _ZN7android8hardware7ICam
200:   FUNC GLOBAL DEFAULT UND _ZNK7android6Parcel12read
201:   FUNC GLOBAL DEFAULT UND _ZNK7android6Parcel14read
202:   FUNC GLOBAL DEFAULT UND _ZNK7android6Parcel15read
203:   FUNC GLOBAL DEFAULT UND _ZNK7android6Parcel15read
204:   FUNC GLOBAL DEFAULT UND _ZNK7android6Parcel8readB
205:   FUNC GLOBAL DEFAULT UND _ZNKSt3__120__vector_base
206:   FUNC GLOBAL DEFAULT UND _ZdaPv
207:   FUNC GLOBAL DEFAULT UND _Znam
208:   FUNC GLOBAL DEFAULT UND _ZN7android11MediaBuffer1
209:   FUNC GLOBAL DEFAULT UND _ZN7android11MediaBuffer5
210:   FUNC GLOBAL DEFAULT UND _ZN7android11MediaBuffer7
211:   FUNC GLOBAL DEFAULT UND _ZN7android11MediaBuffer7
212:   FUNC GLOBAL DEFAULT UND _ZN7android11MediaBuffer9
213:   FUNC GLOBAL DEFAULT UND _ZN7android11MediaBuffer9
214:   FUNC GLOBAL DEFAULT UND _ZN7android11MediaBufferC
215:   FUNC GLOBAL DEFAULT UND _ZN7android11MediaBufferC
216:   FUNC GLOBAL DEFAULT UND _ZN7android11MediaBufferD
217:   FUNC GLOBAL DEFAULT UND _ZN7android12MetaDataBase
218:   FUNC GLOBAL DEFAULT UND _ZN7android16MediaBufferG
219:   FUNC GLOBAL DEFAULT UND _ZN7android16MediaBufferG
220:   FUNC GLOBAL DEFAULT UND _ZN7android16MediaBufferG
221:   FUNC GLOBAL DEFAULT UND _ZN7android16MediaBufferG
222:   FUNC GLOBAL DEFAULT UND _ZN7android6Parcel11write
223:   FUNC GLOBAL DEFAULT UND _ZNK7android11MediaBuffer
224:   FUNC GLOBAL DEFAULT UND _ZNK7android11MediaBuffer
225:   FUNC GLOBAL DEFAULT UND _ZNK7android11MediaBuffer
226:   FUNC GLOBAL DEFAULT UND _ZNK7android11MediaBuffer
227:   FUNC GLOBAL DEFAULT UND _ZNK7android12MetaDataBas
228:   FUNC GLOBAL DEFAULT UND _ZNK7android6Parcel10read
229:   FUNC GLOBAL DEFAULT UND __android_log_assert@LIBLOG (3)
230:   FUNC GLOBAL DEFAULT UND _ZN7android10VectorImpl3a
231:   FUNC GLOBAL DEFAULT UND _ZN7android10VectorImpl4p
232:   FUNC GLOBAL DEFAULT UND _ZN7android7RefBase11rena
233:   FUNC GLOBAL DEFAULT UND _ZN7android8AMessage10Fro
234:   FUNC GLOBAL DEFAULT UND _ZNK7android8AMessage13wr
235:   NOTYPE WEAK DEFAULT UND __scudo_set_rss_limit
236:   FUNC GLOBAL DEFAULT UND android_mallopt@LIBC_Q (5)
237:   FUNC GLOBAL DEFAULT UND property_get_int64
238:   FUNC GLOBAL DEFAULT UND sysconf@LIBC (2)
239:   FUNC GLOBAL DEFAULT UND __errno@LIBC (2)
240:   FUNC GLOBAL DEFAULT UND fcntl@LIBC (2)
241:   FUNC GLOBAL DEFAULT UND strerror@LIBC (2)
242:   FUNC GLOBAL DEFAULT UND _ZN7android16SortedVector
243:   FUNC GLOBAL DEFAULT UND _ZNK7android16SortedVecto
244:   FUNC GLOBAL DEFAULT UND get_sched_policy
245:   FUNC GLOBAL DEFAULT UND gettid@LIBC (2)
246:   FUNC GLOBAL DEFAULT UND set_sched_policy
247:   FUNC GLOBAL DEFAULT UND _ZN7android21defaultServi
248:   FUNC GLOBAL DEFAULT UND usleep@LIBC (2)
249:   FUNC GLOBAL DEFAULT UND _ZN7android2os17Persistab
250:   FUNC GLOBAL DEFAULT UND _ZN7android6Parcel19write
251:   FUNC GLOBAL DEFAULT UND _ZNK7android2os17Persista
252:   FUNC GLOBAL DEFAULT UND _ZNK7android2os17Persista
253:   FUNC GLOBAL DEFAULT UND _ZNK7android6Parcel18read
254:   OBJECT GLOBAL DEFAULT UND _ZTVN7android2os17Persist
255:   FUNC GLOBAL DEFAULT UND EAS_Config
256:   FUNC GLOBAL DEFAULT UND EAS_Init
257:   FUNC GLOBAL DEFAULT UND EAS_Render
258:   FUNC GLOBAL DEFAULT UND EAS_Shutdown
259:   FUNC GLOBAL DEFAULT UND JET_Clear_Queue
260:   FUNC GLOBAL DEFAULT UND JET_CloseFile
261:   FUNC GLOBAL DEFAULT UND JET_GetEvent
262:   FUNC GLOBAL DEFAULT UND JET_Init
263:   FUNC GLOBAL DEFAULT UND JET_OpenFile
264:   FUNC GLOBAL DEFAULT UND JET_Pause
265:   FUNC GLOBAL DEFAULT UND JET_Play
266:   FUNC GLOBAL DEFAULT UND JET_QueueSegment
267:   FUNC GLOBAL DEFAULT UND JET_SetMuteFlag
268:   FUNC GLOBAL DEFAULT UND JET_SetMuteFlags
269:   FUNC GLOBAL DEFAULT UND JET_Shutdown
270:   FUNC GLOBAL DEFAULT UND JET_Status
271:   FUNC GLOBAL DEFAULT UND JET_TriggerClip
272:   FUNC GLOBAL DEFAULT UND _ZN7android10AudioTrack3s
273:   FUNC GLOBAL DEFAULT UND _ZN7android10AudioTrack4s
274:   FUNC GLOBAL DEFAULT UND _ZN7android10AudioTrack5f
275:   FUNC GLOBAL DEFAULT UND _ZN7android10AudioTrack5p
276:   FUNC GLOBAL DEFAULT UND _ZN7android10AudioTrack5s
277:   FUNC GLOBAL DEFAULT UND _ZN7android10AudioTrack5w
278:   FUNC GLOBAL DEFAULT UND _ZN7android10AudioTrackC1
279:   FUNC GLOBAL DEFAULT UND _ZN7android6Thread10ready
280:   FUNC GLOBAL DEFAULT UND _ZN7android6Thread11reque
281:   FUNC GLOBAL DEFAULT UND _ZN7android6Thread3runEPK
282:   FUNC GLOBAL DEFAULT UND _ZN7android6ThreadC2Eb
283:   FUNC GLOBAL DEFAULT UND _ZN7android6ThreadD0Ev
284:   FUNC GLOBAL DEFAULT UND _ZN7android6ThreadD1Ev
285:   FUNC GLOBAL DEFAULT UND _ZN7android6ThreadD2Ev
286:   FUNC GLOBAL DEFAULT UND _ZTv0_n24_N7android6Threa
287:   FUNC GLOBAL DEFAULT UND _ZTv0_n24_N7android6Threa
288:   FUNC GLOBAL DEFAULT UND __strcat_chk@LIBC (2)
289:   FUNC GLOBAL DEFAULT UND __strcpy_chk@LIBC (2)
290:   FUNC GLOBAL DEFAULT UND access@LIBC (2)
291:   FUNC GLOBAL DEFAULT UND closedir@LIBC (2)
292:   FUNC GLOBAL DEFAULT UND free@LIBC (2)
293:   FUNC GLOBAL DEFAULT UND malloc@LIBC (2)
294:   FUNC GLOBAL DEFAULT UND opendir@LIBC (2)
295:   FUNC GLOBAL DEFAULT UND property_get
296:   FUNC GLOBAL DEFAULT UND readdir@LIBC (2)
297:   FUNC GLOBAL DEFAULT UND stat@LIBC (2)
298:   FUNC GLOBAL DEFAULT UND strcpy@LIBC (2)
299:   FUNC GLOBAL DEFAULT UND strdup@LIBC (2)
300:   FUNC GLOBAL DEFAULT UND strncmp@LIBC (2)
301:   FUNC GLOBAL DEFAULT UND strtok@LIBC (2)
302:   FUNC GLOBAL DEFAULT UND __strlcat_chk@LIBC (2)
303:   FUNC GLOBAL DEFAULT UND strnlen@LIBC (2)
304:   FUNC GLOBAL DEFAULT UND ucnv_close_android@LIBANDROIDICU_EXTERNAL_1 (6)
305:   FUNC GLOBAL DEFAULT UND ucnv_convertEx_android@LIBANDROIDICU_EXTERNAL_1 (6)
306:   FUNC GLOBAL DEFAULT UND ucnv_getNextUChar_android@LIBANDROIDICU_EXTERNAL_1 (6)
307:   FUNC GLOBAL DEFAULT UND ucnv_open_android@LIBANDROIDICU_EXTERNAL_1 (6)
308:   FUNC GLOBAL DEFAULT UND ucsdet_close_android@LIBANDROIDICU_EXTERNAL_1 (6)
309:   FUNC GLOBAL DEFAULT UND ucsdet_detectAll_android@LIBANDROIDICU_EXTERNAL_1 (6)
310:   FUNC GLOBAL DEFAULT UND ucsdet_detect_android@LIBANDROIDICU_EXTERNAL_1 (6)
311:   FUNC GLOBAL DEFAULT UND ucsdet_getConfidence_andr@LIBANDROIDICU_EXTERNAL_1 (6)
312:   FUNC GLOBAL DEFAULT UND ucsdet_getName_android@LIBANDROIDICU_EXTERNAL_1 (6)
313:   FUNC GLOBAL DEFAULT UND ucsdet_open_android@LIBANDROIDICU_EXTERNAL_1 (6)
314:   FUNC GLOBAL DEFAULT UND ucsdet_setText_android@LIBANDROIDICU_EXTERNAL_1 (6)
315:   FUNC GLOBAL DEFAULT UND _ZN7android16SortedVector
316:   FUNC GLOBAL DEFAULT UND XML_GetBuffer
317:   FUNC GLOBAL DEFAULT UND XML_ParseBuffer
318:   FUNC GLOBAL DEFAULT UND XML_ParserCreate
319:   FUNC GLOBAL DEFAULT UND XML_ParserFree
320:   FUNC GLOBAL DEFAULT UND XML_SetElementHandler
321:   FUNC GLOBAL DEFAULT UND XML_SetUserData
322:   FUNC GLOBAL DEFAULT UND _ZN7android10VectorImplaS
323:   FUNC GLOBAL DEFAULT UND atoi@LIBC (2)
324:   FUNC GLOBAL DEFAULT UND fclose@LIBC (2)
325:   FUNC GLOBAL DEFAULT UND fopen@LIBC (2)
326:   FUNC GLOBAL DEFAULT UND fread@LIBC (2)
327:   FUNC GLOBAL DEFAULT UND _ZN7android11AudioEffect1
328:   FUNC GLOBAL DEFAULT UND _ZN7android11AudioEffect1
329:   FUNC GLOBAL DEFAULT UND _ZN7android11AudioEffect1
330:   FUNC GLOBAL DEFAULT UND _ZN7android11AudioEffect1
331:   FUNC GLOBAL DEFAULT UND _ZN7android11AudioEffect1
332:   FUNC GLOBAL DEFAULT UND _ZN7android11AudioEffect1
333:   FUNC GLOBAL DEFAULT UND _ZN7android11AudioEffect2
334:   FUNC GLOBAL DEFAULT UND _ZN7android11AudioEffect2
335:   FUNC GLOBAL DEFAULT UND _ZN7android11AudioEffect7
336:   FUNC GLOBAL DEFAULT UND _ZN7android11AudioEffectC
337:   FUNC GLOBAL DEFAULT UND _ZN7android11AudioEffectD
338:   FUNC GLOBAL DEFAULT UND _ZN7android6Thread18reque
339:   FUNC GLOBAL DEFAULT UND _ZNK7android6Thread11exit
340:   FUNC GLOBAL DEFAULT UND fixed_fft_real
341:   FUNC GLOBAL DEFAULT UND qsort@LIBC (2)
342:   FUNC GLOBAL DEFAULT UND _ZN7android8AMessageC1Ev
343:   FUNC WEAK DEFAULT UND android_set_abort_message@LIBC (2)
344:   FUNC GLOBAL DEFAULT UND __open_2@LIBC (2)
345:   FUNC GLOBAL DEFAULT UND lseek@LIBC (2)
346:   FUNC GLOBAL DEFAULT UND read@LIBC (2)
347:   FUNC GLOBAL DEFAULT 14 _ZN7android11MediaPlayer1
348:   FUNC GLOBAL DEFAULT 14 _ZN7android17IMediaHTTPSe
349:   FUNC WEAK DEFAULT 14 _ZNK7android6VectorIfE15d
350:   OBJECT WEAK DEFAULT 18 _ZTCN7android13BpMediaSou
351:   OBJECT GLOBAL DEFAULT 18 _ZTCN7android16BnStreamLi
352:   OBJECT GLOBAL DEFAULT 18 _ZN7android13MediaProfile
353:   FUNC GLOBAL DEFAULT 14 _ZN7android14IMediaRecord
354:   OBJECT WEAK DEFAULT 18 _ZTVN7android6VectorIPNS_
355:   FUNC GLOBAL DEFAULT 14 _ZN7android15IStreamListe
356:   FUNC WEAK DEFAULT 14 _ZNK7android6VectorIPNS_1
357:   FUNC GLOBAL DEFAULT 14 _ZN7android11MediaPlayer2
358:   OBJECT GLOBAL DEFAULT 18 _ZTCN7android21BnMediaRec
359:   OBJECT GLOBAL DEFAULT 18 _ZTCN7android13BnMediaPla
360:   FUNC GLOBAL DEFAULT 14 _ZTv0_n24_N7android14IMed
361:   FUNC WEAK DEFAULT 14 _ZNK7android6VectorINS_13
362:   FUNC GLOBAL DEFAULT 14 _ZTv0_n24_N7android13IStr
363:   FUNC GLOBAL DEFAULT 14 _ZN7android13MediaResourc
364:   OBJECT GLOBAL DEFAULT 18 _ZTCN7android11MediaPlaye
365:   OBJECT GLOBAL DEFAULT 18 _ZTCN7android24BnResource
366:   FUNC WEAK DEFAULT 14 _ZNK7android6VectorINS_17
367:   FUNC GLOBAL DEFAULT 14 _ZN7android12IMediaSource
368:   FUNC GLOBAL DEFAULT 14 _ZN7android20IRemoteDispl
369:   FUNC WEAK DEFAULT 14 _ZNK7android12SortedVecto
370:   OBJECT WEAK DEFAULT 18 _ZTCN7android23BpMediaExt
371:   OBJECT WEAK DEFAULT 18 _ZTVN7android19BpMediaPla
372:   FUNC GLOBAL DEFAULT 14 _ZN7android12IMediaSource
373:   FUNC GLOBAL DEFAULT 14 _ZTv0_n24_N7android15IStr
374:   OBJECT GLOBAL DEFAULT 18 _ZTTN7android11MediaPlaye
375:   OBJECT WEAK DEFAULT 18 _ZTVN7android5media12Volu
376:   OBJECT WEAK DEFAULT 18 _ZTCN7android14BpStreamSo
377:   FUNC GLOBAL DEFAULT 14 _ZN7android5media4midi14M
378:   FUNC WEAK DEFAULT 14 _ZNK7android12SortedVecto
379:   OBJECT WEAK DEFAULT 18 _ZTVN7android24BpResource
380:   OBJECT WEAK DEFAULT 18 _ZTVN7android6VectorINS_1
381:   FUNC WEAK DEFAULT 14 _ZNK7android12SortedVecto
382:   FUNC GLOBAL DEFAULT 14 _ZN7android22IMediaExtrac
383:   FUNC GLOBAL DEFAULT 14 _ZThn8_N7android15BnMedia
384:   FUNC GLOBAL DEFAULT 14 _ZTv0_n24_N7android19IMed
385:   FUNC WEAK DEFAULT 14 _ZNK7android6VectorINS_13
386:   FUNC GLOBAL DEFAULT 14 _ZN7android11IDataSourceD
387:   FUNC GLOBAL DEFAULT 14 _ZN7android11MediaPlayer2
388:   OBJECT GLOBAL DEFAULT 18 _ZTVN7android19BnMediaPla
389:   FUNC WEAK DEFAULT 14 _ZNSt3__16__treeINS_12__v
390:   FUNC GLOBAL DEFAULT 14 _ZN7android11IDataSourceC
391:   FUNC GLOBAL DEFAULT 14 _ZN7android18IMediaPlayer
392:   OBJECT GLOBAL DEFAULT 23 _ZN7android19IMediaPlayer
393:   FUNC GLOBAL DEFAULT 14 _ZTv0_n24_N7android20IMed
394:   FUNC WEAK DEFAULT 14 _ZNK7android6VectorIhE10d
395:   FUNC GLOBAL DEFAULT 14 _ZN7android14IMediaRecord
396:   OBJECT WEAK DEFAULT 18 _ZTCN7android14BpStreamSo
397:   OBJECT GLOBAL DEFAULT 18 _ZTTN7android13IStreamSou
398:   FUNC GLOBAL DEFAULT 14 _ZN7android16BnMediaExtra
399:   FUNC WEAK DEFAULT 14 _ZNSt3__112__hash_tableIN
400:   OBJECT GLOBAL DEFAULT 23 _ZN7android20IMediaRecord
401:   OBJECT GLOBAL DEFAULT 23 _ZN7android13IStreamSourc
402:   FUNC GLOBAL DEFAULT 14 _ZN7android19IMediaDeathN
403:   FUNC GLOBAL DEFAULT 14 _ZN7android11MediaPlayer2
404:   OBJECT GLOBAL DEFAULT 18 _ZTCN7android20BnMediaPla
405:   FUNC WEAK DEFAULT 14 _ZNK7android6VectorIPNS_1
406:   OBJECT WEAK DEFAULT 18 _ZTVN7android6VectorIPNS_
407:   FUNC GLOBAL DEFAULT 14 _ZN7android11MediaPlayer2
408:   OBJECT WEAK DEFAULT 18 _ZTCN7android21BpMediaHTT
409:   FUNC GLOBAL DEFAULT 14 _ZN7android19MediaResourc
410:   OBJECT GLOBAL DEFAULT 18 _ZTTN7android11IDataSourc
411:   OBJECT GLOBAL DEFAULT 18 _ZTCN7android22MediaMetad
412:   FUNC WEAK DEFAULT 14 _ZNK7android6VectorIPNS_1
413:   OBJECT WEAK DEFAULT 18 _ZTCN7android18BpMediaHTT
414:   FUNC GLOBAL DEFAULT 14 _ZN7android13MediaRecorde
415:   FUNC GLOBAL DEFAULT 14 _ZThn8_N7android11MediaPl
416:   FUNC GLOBAL DEFAULT 14 _ZN7android13MediaProfile
417:   FUNC GLOBAL DEFAULT 14 _ZN7android18IMediaPlayer
418:   FUNC GLOBAL DEFAULT 14 _ZN7android14IMediaRecord
419:   FUNC GLOBAL DEFAULT 14 _ZN7android13MediaProfile
420:   OBJECT WEAK DEFAULT 18 _ZTVN7android6VectorINS_1
421:   OBJECT WEAK DEFAULT 18 _ZTVN7android6VectorIPNS_
422:   FUNC WEAK DEFAULT 14 _ZNK7android12SortedVecto
423:   FUNC GLOBAL DEFAULT 14 _ZN7android11MediaPlayer1
424:   OBJECT GLOBAL DEFAULT 18 _ZN7android5media4midi14M
425:   FUNC GLOBAL DEFAULT 14 _ZN7android11MediaPlayer1
426:   FUNC GLOBAL DEFAULT 14 _ZNK7android13MediaProfil
427:   FUNC WEAK DEFAULT 14 _ZNK7android6VectorIiE12d
428:   FUNC GLOBAL DEFAULT 14 _ZTv0_n24_N7android23IMed
429:   FUNC GLOBAL DEFAULT 14 _ZNK7android12MediaScanne
430:   FUNC GLOBAL DEFAULT 14 _ZN7android13MediaProfile
431:   FUNC WEAK DEFAULT 14 _ZN7android11BnInterfaceI
432:   OBJECT WEAK DEFAULT 18 _ZTVN7android6VectorIiEE
433:   FUNC GLOBAL DEFAULT 14 _ZN7android5media8Metadat
434:   OBJECT GLOBAL DEFAULT 18 _ZTCN7android13MediaRecor
435:   FUNC GLOBAL DEFAULT 14 _ZN7android20IMediaHTTPCo
436:   OBJECT WEAK DEFAULT 18 _ZTCN7android23BpMediaExt
437:   OBJECT GLOBAL DEFAULT 18 _ZTCN7android15IStreamLis
438:   FUNC GLOBAL DEFAULT 14 _ZN7android9JetPlayerC1EP
439:   FUNC GLOBAL DEFAULT 14 _ZN7android13MediaProfile
440:   FUNC GLOBAL DEFAULT 14 _ZN7android13MediaProfile
441:   FUNC WEAK DEFAULT 14 _ZNK7android6VectorINS_13
442:   FUNC GLOBAL DEFAULT 14 _ZN7android11MediaPlayer1
443:   FUNC GLOBAL DEFAULT 14 _ZN7android20IMediaHTTPCo
444:   OBJECT GLOBAL DEFAULT 23 _ZN7android17IMediaHTTPSe
445:   FUNC WEAK DEFAULT 14 _ZNSt3__16__treeINS_12__v
446:   FUNC WEAK DEFAULT 14 _ZNK7android6VectorINS_2s
447:   FUNC GLOBAL DEFAULT 14 _ZN7android10Visualizer20
448:   FUNC GLOBAL DEFAULT 14 _ZN7android11MediaPlayer2
449:   FUNC WEAK DEFAULT 14 _ZN7android11BnInterfaceI
450:   FUNC GLOBAL DEFAULT 14 _ZN7android13BnMediaSourc
451:   FUNC WEAK DEFAULT 14 _ZNK7android6VectorINS_2s
452:   OBJECT GLOBAL DEFAULT 18 _ZTCN7android14BnStreamSo
453:   FUNC WEAK DEFAULT 14 _ZNK7android6VectorINS_8S
454:   FUNC WEAK DEFAULT 14 _ZNK7android6VectorIPNS_1
455:   OBJECT GLOBAL DEFAULT 18 _ZTTN7android14IMediaReco
456:   OBJECT WEAK DEFAULT 18 _ZTCN7android14BpStreamSo
457:   FUNC GLOBAL DEFAULT 14 _ZN7android11MediaPlayer1
458:   OBJECT GLOBAL DEFAULT 18 _ZTCN7android21BnRemoteDi
459:   OBJECT GLOBAL DEFAULT 18 _ZTCN7android14BnStreamSo
460:   FUNC WEAK DEFAULT 14 _ZNK7android6VectorINS_13
461:   OBJECT GLOBAL DEFAULT 18 _ZTVN7android22IMediaExtr
462:   FUNC WEAK DEFAULT 14 _ZNSt3__16__treeINS_12__v
463:   FUNC GLOBAL DEFAULT 14 _ZN7android19MediaResourc
464:   OBJECT GLOBAL DEFAULT 18 _ZTTN7android20IMediaHTTP
465:   FUNC WEAK DEFAULT 14 _ZNK7android6VectorINS0_I
466:   FUNC WEAK DEFAULT 14 _ZNSt3__113__tree_removeI
467:   FUNC WEAK DEFAULT 14 _ZNK7android6VectorINS_13
468:   FUNC WEAK DEFAULT 14 _ZNK7android6VectorINS_17
469:   FUNC GLOBAL DEFAULT 14 _ZN7android14IRemoteDispl
470:   FUNC GLOBAL DEFAULT 14 _ZN7android11MediaPlayer1
471:   OBJECT WEAK DEFAULT 18 _ZTTN7android16BpMediaExt
472:   OBJECT GLOBAL DEFAULT 18 _ZTCN7android23BnResource
473:   FUNC GLOBAL DEFAULT 14 _ZN7android13MediaResourc
474:   OBJECT GLOBAL DEFAULT 18 _ZTCN7android15BnRemoteDi
475:   FUNC GLOBAL DEFAULT 14 _ZN7android13IStreamSourc
476:   FUNC GLOBAL DEFAULT 14 _ZThn8_N7android16BnStrea
477:   FUNC GLOBAL DEFAULT 14 _ZN7android5media8Metadat
478:   FUNC GLOBAL DEFAULT 14 _ZN7android13MediaRecorde
479:   FUNC WEAK DEFAULT 14 _ZNK7android12SortedVecto
480:   FUNC GLOBAL DEFAULT 14 _ZNK7android18IMediaPlaye
481:   OBJECT GLOBAL DEFAULT 18 _ZTVN7android11MediaPlaye
482:   FUNC GLOBAL DEFAULT 14 _ZTv0_n32_N7android11Medi
483:   OBJECT GLOBAL DEFAULT 18 _ZTCN7android19IMediaPlay
484:   OBJECT GLOBAL DEFAULT 18 _ZTCN7android12IMediaSour
485:   FUNC WEAK DEFAULT 14 _ZNK7android6VectorINS_13
486:   FUNC GLOBAL DEFAULT 14 _ZN7android11StringArray4
487:   FUNC WEAK DEFAULT 14 _ZNK7android12SortedVecto
488:   OBJECT WEAK DEFAULT 18 _ZTTN7android21BpMediaRec
489:   FUNC GLOBAL DEFAULT 14 _ZN7android22MediaMetadat
490:   OBJECT WEAK DEFAULT 18 _ZN7android13MediaProfile
491:   OBJECT GLOBAL DEFAULT 18 _ZTCN7android24BnResource
492:   FUNC GLOBAL DEFAULT 14 _ZN7android11StringArray1
493:   FUNC WEAK DEFAULT 14 _ZNK7android6VectorINS_17
494:   OBJECT GLOBAL DEFAULT 18 _ZTCN7android18IMediaPlay
495:   OBJECT WEAK DEFAULT 18 _ZTVN7android21BpMediaRec
496:   OBJECT GLOBAL DEFAULT 18 _ZTTN7android14BnStreamSo
497:   FUNC GLOBAL DEFAULT 14 _ZN7android13MediaAlbumAr
498:   OBJECT WEAK DEFAULT 18 _ZTCN7android18BpMediaHTT
499:   FUNC WEAK DEFAULT 14 _ZNK7android6VectorINS_2w
500:   OBJECT GLOBAL DEFAULT 18 _ZTCN7android16BnStreamLi
501:   FUNC GLOBAL DEFAULT 14 _ZN7android13MediaRecorde
502:   OBJECT GLOBAL DEFAULT 18 _ZTTN7android22MediaMetad
503:   OBJECT WEAK DEFAULT 18 _ZTVN7android9JetPlayer15
504:   FUNC GLOBAL DEFAULT 14 _ZN7android11MediaPlayer1
505:   OBJECT WEAK DEFAULT 18 _ZTTN7android15BpRemoteDi
506:   FUNC GLOBAL DEFAULT 14 _ZN7android11StringArrayD
507:   FUNC GLOBAL DEFAULT 14 _ZN7android11MediaPlayer1
508:   OBJECT GLOBAL DEFAULT 18 _ZTCN7android16BnMediaExt
509:   FUNC WEAK DEFAULT 14 _ZNSt3__127__tree_balance
510:   OBJECT WEAK DEFAULT 18 _ZTCN7android23BpResource
511:   FUNC WEAK DEFAULT 14 _ZNK7android6VectorINS_2w
512:   FUNC GLOBAL DEFAULT 14 _ZTv0_n24_N7android12IMed
513:   FUNC GLOBAL DEFAULT 14 _ZN7android12IMediaSource
514:   OBJECT GLOBAL DEFAULT 18 _ZTTN7android13BnMediaSou
515:   FUNC WEAK DEFAULT 14 _ZNK7android6VectorIPNS_1
516:   OBJECT WEAK DEFAULT 18 _ZTCN7android12BpDataSour
517:   OBJECT GLOBAL DEFAULT 18 _ZTVN7android11IDataSourc
518:   OBJECT GLOBAL DEFAULT 18 _ZTTN7android13MediaRecor
519:   FUNC WEAK DEFAULT 14 _ZNK7android12SortedVecto
520:   OBJECT WEAK DEFAULT 18 _ZTVN7android12SortedVect
521:   OBJECT WEAK DEFAULT 18 _ZTVN7android6VectorINS_2
522:   OBJECT GLOBAL DEFAULT 18 _ZTVN7android22MediaMetad
523:   OBJECT GLOBAL DEFAULT 18 _ZN7android5media4midi14M
524:   FUNC GLOBAL DEFAULT 14 _ZN7android12BnDataSource
525:   FUNC GLOBAL DEFAULT 14 _ZN7android11MediaPlayer9
526:   FUNC GLOBAL DEFAULT 14 _ZN7android15IMediaExtrac
527:   FUNC GLOBAL DEFAULT 14 _ZN7android12IMediaPlayer
528:   FUNC WEAK DEFAULT 14 _ZN7android11BnInterfaceI
529:   FUNC GLOBAL DEFAULT 14 _ZNK7android13MediaProfil
530:   OBJECT WEAK DEFAULT 18 _ZTCN7android16BpMediaExt
531:   OBJECT GLOBAL DEFAULT 18 _ZTVN7android22IResourceM
532:   FUNC GLOBAL DEFAULT 14 _ZN7android13MediaResourc
533:   OBJECT WEAK DEFAULT 18 _ZTTN7android16BpStreamLi
534:   OBJECT GLOBAL DEFAULT 18 _ZN7android13MediaProfile
535:   FUNC WEAK DEFAULT 14 _ZNK7android6VectorIPNS_1
536:   OBJECT WEAK DEFAULT 18 _ZTCN7android20BpMediaPla
537:   FUNC WEAK DEFAULT 14 _ZN7android11BnInterfaceI
538:   FUNC GLOBAL DEFAULT 14 _ZNK7android13MediaResour
539:   FUNC GLOBAL DEFAULT 14 _ZN7android5media4midi14M
540:   FUNC GLOBAL DEFAULT 14 _ZN7android13MediaRecorde
541:   OBJECT WEAK DEFAULT 18 _ZTCN7android24BpMediaMet
542:   FUNC GLOBAL DEFAULT 14 _ZN7android22MediaMetadat
543:   FUNC GLOBAL DEFAULT 14 _ZN7android10Visualizer6g
544:   OBJECT GLOBAL DEFAULT 18 _ZTTN7android12BnDataSour
545:   OBJECT WEAK DEFAULT 18 _ZTCN7android19BpMediaPla
546:   FUNC GLOBAL DEFAULT 14 _ZN7android22MediaMetadat
547:   OBJECT WEAK DEFAULT 18 _ZTCN7android21BpMediaRec
548:   FUNC GLOBAL DEFAULT 14 _ZN7android13MediaProfile
549:   OBJECT GLOBAL DEFAULT 18 _ZTCN7android11MediaPlaye
550:   OBJECT GLOBAL DEFAULT 18 _ZTVN7android14IRemoteDis
551:   FUNC WEAK DEFAULT 14 _ZNSt3__115__equal_aligne
552:   FUNC WEAK DEFAULT 14 _ZNK7android6VectorINS_13
553:   OBJECT WEAK DEFAULT 18 _ZTVN7android6VectorIPNS_
554:   FUNC GLOBAL DEFAULT 14 _ZNK7android20IMediaRecor
555:   FUNC GLOBAL DEFAULT 14 _ZN7android12MediaScanner
556:   FUNC GLOBAL DEFAULT 14 _ZN7android11MediaPlayer1
557:   OBJECT WEAK DEFAULT 18 _ZTVN7android14BpStreamSo
558:   FUNC GLOBAL DEFAULT 14 _ZN7android13MediaRecorde
559:   FUNC WEAK DEFAULT 14 _ZNK7android6VectorIPNS_1
560:   OBJECT GLOBAL DEFAULT 23 _ZN7android20IMediaHTTPCo
561:   FUNC GLOBAL DEFAULT 14 _ZN7android20IMediaRecord
562:   FUNC WEAK DEFAULT 14 _ZNK7android6VectorINS_13
563:   FUNC WEAK DEFAULT 14 _ZNSt3__16__treeINS_12__v
564:   OBJECT WEAK DEFAULT 18 _ZTVN7android19DataSource
565:   OBJECT GLOBAL DEFAULT 18 _ZTTN7android18IMediaPlay
566:   FUNC GLOBAL DEFAULT 14 _ZN7android19IMediaPlayer
567:   FUNC WEAK DEFAULT 14 _ZNK7android6VectorINS_13
568:   OBJECT WEAK DEFAULT 18 _ZTVN7android6VectorIPNS_
569:   FUNC GLOBAL DEFAULT 14 _ZN7android22IResourceMan
570:   FUNC GLOBAL DEFAULT 14 _ZN7android14BnStreamSour
571:   FUNC GLOBAL DEFAULT 14 _ZNK7android23IMediaMetad
572:   OBJECT GLOBAL DEFAULT 18 _ZTCN7android24BnMediaMet
573:   OBJECT GLOBAL DEFAULT 11 _ZN7android39kPolicySuppo
574:   FUNC GLOBAL DEFAULT 14 _ZN7android12IMediaPlayer
575:   FUNC WEAK DEFAULT 14 _ZNK7android6VectorINS0_I
576:   OBJECT WEAK DEFAULT 18 _ZTVN7android6VectorINS_1
577:   OBJECT GLOBAL DEFAULT 23 _ZN7android15IMediaExtrac
578:   FUNC WEAK DEFAULT 14 _ZNK7android6VectorINS_7S
579:   FUNC GLOBAL DEFAULT 14 _ZN7android9JetPlayer12lo
580:   FUNC GLOBAL DEFAULT 14 _ZThn8_N7android20IMediaH
581:   FUNC GLOBAL DEFAULT 14 _ZN7android18MediaScanner
582:   OBJECT WEAK DEFAULT 18 _ZTVN7android5media14Micr
583:   FUNC GLOBAL DEFAULT 14 _ZTv0_n24_N7android23IRes
584:   FUNC GLOBAL DEFAULT 14 _ZN7android19IMediaDeathN
585:   OBJECT WEAK DEFAULT 18 _ZTCN7android21BpMediaRec
586:   OBJECT GLOBAL DEFAULT 18 _ZTCN7android24BnMediaMet
587:   FUNC WEAK DEFAULT 14 _ZNK7android6VectorIPNS_1
588:   OBJECT GLOBAL DEFAULT 18 _ZTCN7android16BnMediaExt
589:   FUNC GLOBAL DEFAULT 14 _ZN7android12IMediaPlayer
590:   FUNC GLOBAL DEFAULT 14 _ZN7android14IMediaRecord
591:   FUNC GLOBAL DEFAULT 14 _ZThn8_N7android13BnMedia
592:   OBJECT GLOBAL DEFAULT 18 _ZTCN7android20IRemoteDis
593:   FUNC GLOBAL DEFAULT 14 _ZNK7android5media4midi14
594:   FUNC GLOBAL DEFAULT 14 _ZN7android14IMediaRecord
595:   FUNC GLOBAL DEFAULT 14 _ZN7android13MediaResourc
596:   FUNC GLOBAL DEFAULT 14 _ZN7android20AMediaFormat
597:   FUNC GLOBAL DEFAULT 14 _ZN7android11MediaPlayer1
598:   OBJECT GLOBAL DEFAULT 23 _ZN7android18IMediaPlayer
599:   FUNC GLOBAL DEFAULT 14 _ZNK7android20IMediaHTTPC
600:   OBJECT GLOBAL DEFAULT 23 _ZN7android22IMediaExtrac
601:   OBJECT WEAK DEFAULT 18 _ZTVN7android6VectorINS0_
602:   FUNC GLOBAL DEFAULT 14 _ZN7android15IStreamListe
603:   FUNC GLOBAL DEFAULT 14 _ZN7android5media8Metadat
604:   FUNC GLOBAL DEFAULT 14 _ZN7android13MediaRecorde
605:   OBJECT WEAK DEFAULT 18 _ZTVN7android6VectorINS_1
606:   FUNC GLOBAL DEFAULT 14 _ZN7android10Visualizer15
607:   FUNC GLOBAL DEFAULT 14 _ZN7android10Visualizer15
608:   FUNC GLOBAL DEFAULT 14 _ZN7android12MediaScanner
609:   FUNC WEAK DEFAULT 14 _ZNK7android6VectorIPNS_1
610:   FUNC GLOBAL DEFAULT 14 _ZN7android21BnRemoteDisp
611:   FUNC WEAK DEFAULT 14 _ZNK7android12SortedVecto
612:   FUNC WEAK DEFAULT 14 _ZNK7android6VectorINS_13
613:   FUNC WEAK DEFAULT 14 _ZNK7android6VectorIPNS_1
614:   FUNC GLOBAL DEFAULT 14 _ZN7android10VisualizerD1
615:   FUNC WEAK DEFAULT 14 _ZNK7android6VectorIiE7do
616:   OBJECT WEAK DEFAULT 18 _ZTCN7android13BpMediaSou
617:   FUNC WEAK DEFAULT 14 _ZNK7android12SortedVecto
618:   OBJECT GLOBAL DEFAULT 23 _ZN7android13IStreamSourc
619:   FUNC GLOBAL DEFAULT 14 _ZN7android13MediaRecorde
620:   FUNC GLOBAL DEFAULT 14 _ZN7android25CharacterEnc
621:   OBJECT GLOBAL DEFAULT 23 _ZN7android22IMediaExtrac
622:   FUNC GLOBAL DEFAULT 14 _ZN7android20IRemoteDispl
623:   FUNC GLOBAL DEFAULT 14 _ZN7android25CharacterEnc
624:   FUNC GLOBAL DEFAULT 14 _ZN7android13MediaProfile
625:   OBJECT WEAK DEFAULT 18 _ZTCN7android20BpMediaPla
626:   OBJECT GLOBAL DEFAULT 18 _ZTVN7android15BnRemoteDi
627:   FUNC WEAK DEFAULT 14 _ZN7android11BnInterfaceI
628:   FUNC GLOBAL DEFAULT 14 _ZTv0_n24_N7android22IRes
629:   FUNC GLOBAL DEFAULT 14 _ZN7android13MediaRecorde
630:   FUNC GLOBAL DEFAULT 14 _ZThn8_N7android13MediaRe
631:   FUNC GLOBAL DEFAULT 14 _ZN7android18MediaScanner
632:   FUNC GLOBAL DEFAULT 14 _ZN7android11MediaPlayer4
633:   OBJECT GLOBAL DEFAULT 23 _ZN7android12IMediaPlayer
634:   FUNC GLOBAL DEFAULT 14 _ZTv0_n24_N7android14IRem
635:   FUNC GLOBAL DEFAULT 14 _ZN7android22IResourceMan
636:   FUNC WEAK DEFAULT 14 _ZNK7android6VectorIPNS_1
637:   FUNC WEAK DEFAULT 14 _ZNK7android6VectorINS_2w
638:   FUNC GLOBAL DEFAULT 14 _ZN7android14IRemoteDispl
639:   OBJECT GLOBAL DEFAULT 18 _ZTCN7android21BnRemoteDi
640:   OBJECT GLOBAL DEFAULT 18 _ZTVN7android20IRemoteDis
641:   FUNC GLOBAL DEFAULT 14 _ZN7android23IMediaMetada
642:   FUNC WEAK DEFAULT 14 _ZNK7android6VectorINS_8S
643:   FUNC GLOBAL DEFAULT 14 _ZN7android11IDataSource1
644:   FUNC GLOBAL DEFAULT 14 _ZN7android20IMediaRecord
645:   OBJECT GLOBAL DEFAULT 18 _ZTCN7android23BnResource
646:   FUNC GLOBAL DEFAULT 14 _ZThn8_N7android14BnStrea
647:   FUNC WEAK DEFAULT 14 _ZNK7android6VectorINS_13
648:   FUNC GLOBAL DEFAULT 14 _ZN7android15IMediaExtrac
649:   FUNC WEAK DEFAULT 14 _ZNK7android6VectorINS_17
650:   FUNC WEAK DEFAULT 14 _ZNK7android6VectorIiE15d
651:   FUNC GLOBAL DEFAULT 14 _ZN7android22MediaMetadat
652:   FUNC GLOBAL DEFAULT 14 _ZTv0_n40_N7android11Medi
653:   FUNC GLOBAL DEFAULT 14 _ZN7android19registerMedi
654:   FUNC GLOBAL DEFAULT 14 _ZThn8_N7android21BnMedia
655:   OBJECT WEAK DEFAULT 18 _ZTCN7android15BpRemoteDi
656:   FUNC GLOBAL DEFAULT 14 _ZNK7android13MediaProfil
657:   FUNC WEAK DEFAULT 14 _ZNK7android12SortedVecto
658:   OBJECT WEAK DEFAULT 18 _ZTCN7android21BpMediaHTT
659:   OBJECT GLOBAL DEFAULT 18 _ZTVN7android13BnMediaPla
660:   OBJECT WEAK DEFAULT 18 _ZTVN7android6VectorIfEE
661:   FUNC GLOBAL DEFAULT 14 _ZN7android22MediaMetadat
662:   FUNC WEAK DEFAULT 14 _ZNK7android6VectorIPK13U
663:   FUNC GLOBAL DEFAULT 14 _ZN7android11MediaPlayer1
664:   FUNC GLOBAL DEFAULT 14 _ZN7android15BnMediaRecor
665:   FUNC WEAK DEFAULT 14 _ZNK7android12SortedVecto
666:   OBJECT GLOBAL DEFAULT 23 _ZN7android13MediaProfile
667:   FUNC GLOBAL DEFAULT 14 _ZN7android13MediaProfile
668:   FUNC WEAK DEFAULT 14 _ZNK7android6VectorIPNS_1
669:   OBJECT GLOBAL DEFAULT 18 _ZTCN7android12BnDataSour
670:   FUNC GLOBAL DEFAULT 14 _ZTv0_n24_N7android20IMed
671:   FUNC WEAK DEFAULT 14 _ZNSt3__112__hash_tableIN
672:   OBJECT GLOBAL DEFAULT 18 _ZTCN7android21BnMediaRec
673:   OBJECT GLOBAL DEFAULT 18 _ZTTN7android12IMediaPlay
674:   FUNC GLOBAL DEFAULT 14 _ZNK7android19MediaResour
675:   OBJECT GLOBAL DEFAULT 18 _ZTCN7android11MediaPlaye
676:   FUNC GLOBAL DEFAULT 14 _ZN7android15IMediaExtrac
677:   OBJECT WEAK DEFAULT 18 _ZTVN7android17Persistent
678:   FUNC WEAK DEFAULT 14 _ZNK7android12SortedVecto
679:   FUNC GLOBAL DEFAULT 14 _ZNK7android13MediaProfil
680:   OBJECT GLOBAL DEFAULT 18 _ZTVN7android19IMediaPlay
681:   OBJECT GLOBAL DEFAULT 18 _ZTCN7android19BnMediaPla
682:   FUNC GLOBAL DEFAULT 14 _ZN7android13IStreamSourc
683:   FUNC GLOBAL DEFAULT 14 _ZN7android13MediaRecorde
684:   FUNC GLOBAL DEFAULT 14 _ZN7android9JetPlayer24fi
685:   FUNC WEAK DEFAULT 14 _ZNK7android12SortedVecto
686:   FUNC GLOBAL DEFAULT 14 _ZN7android13MediaProfile
687:   OBJECT GLOBAL DEFAULT 18 _ZTVN7android5media4midi1
688:   FUNC GLOBAL DEFAULT 14 _ZN7android13MediaProfile
689:   OBJECT WEAK DEFAULT 18 _ZTCN7android13BpMediaSou
690:   FUNC GLOBAL DEFAULT 14 _ZN7android20IRemoteDispl
691:   FUNC GLOBAL DEFAULT 14 _ZN7android15IStreamListe
692:   OBJECT GLOBAL DEFAULT 18 _ZTCN7android13MediaRecor
693:   FUNC GLOBAL DEFAULT 14 _ZN7android5media4midieqE
694:   FUNC GLOBAL DEFAULT 14 _ZN7android11MediaPlayer6
695:   FUNC GLOBAL DEFAULT 14 _ZN7android12IMediaSource
696:   OBJECT GLOBAL DEFAULT 18 _ZTTN7android20IMediaReco
697:   FUNC GLOBAL DEFAULT 14 _ZN7android12IMediaSource
698:   FUNC WEAK DEFAULT 14 _ZNK7android6VectorINS_19
699:   OBJECT GLOBAL DEFAULT 23 _ZN7android23IMediaMetada
700:   FUNC WEAK DEFAULT 14 _ZNK7android6VectorINS_13
701:   FUNC GLOBAL DEFAULT 14 _ZN7android19IMediaDeathN
702:   FUNC GLOBAL DEFAULT 14 _ZNK7android22IMediaExtra
703:   FUNC WEAK DEFAULT 14 _ZNK7android6Parcel20read
704:   FUNC GLOBAL DEFAULT 14 _ZN7android13MediaRecorde
705:   OBJECT WEAK DEFAULT 18 _ZTCN7android18BpMediaHTT
706:   FUNC GLOBAL DEFAULT 14 _ZNK7android19MediaResour
707:   FUNC GLOBAL DEFAULT 14 _ZN7android11MediaPlayer4
708:   FUNC GLOBAL DEFAULT 14 _ZN7android9JetPlayer12qu
709:   FUNC GLOBAL DEFAULT 14 _ZNK7android13MediaResour
710:   FUNC GLOBAL DEFAULT 14 _ZN7android10Visualizer18
711:   OBJECT WEAK DEFAULT 18 _ZTVN7android15BpMediaRec
712:   FUNC GLOBAL DEFAULT 14 _ZN7android15IMediaExtrac
713:   OBJECT WEAK DEFAULT 18 _ZTCN7android13BpMediaPla
714:   FUNC GLOBAL DEFAULT 14 _ZN7android13BnMediaSourc
715:   FUNC GLOBAL DEFAULT 14 _ZN7android13MediaRecorde
716:   OBJECT GLOBAL DEFAULT 18 _ZTCN7android13MediaRecor
717:   FUNC WEAK DEFAULT 14 _ZNK7android6VectorIPK13U
718:   FUNC WEAK DEFAULT 14 _ZNK7android6VectorINS_13
719:   FUNC GLOBAL DEFAULT 14 _ZTv0_n24_N7android11Medi
720:   FUNC GLOBAL DEFAULT 14 _ZN7android13BnMediaSourc
721:   OBJECT WEAK DEFAULT 18 _ZTVN7android6VectorIPNS_
722:   OBJECT GLOBAL DEFAULT 18 _ZTCN7android17IMediaHTTP
723:   FUNC GLOBAL DEFAULT 14 _ZN7android9JetPlayerD2Ev
724:   FUNC GLOBAL DEFAULT 14 _ZNK7android13MediaProfil
725:   FUNC WEAK DEFAULT 14 _ZNK7android6VectorINS_17
726:   FUNC WEAK DEFAULT 14 _ZNSt3__16__treeINS_12__v
727:   OBJECT WEAK DEFAULT 18 _ZTCN7android15BpRemoteDi
728:   OBJECT GLOBAL DEFAULT 18 _ZTCN7android12BnDataSour
729:   OBJECT GLOBAL DEFAULT 18 _ZTCN7android20IMediaHTTP
730:   FUNC GLOBAL DEFAULT 14 _ZN7android17IMediaHTTPSe
731:   FUNC WEAK DEFAULT 14 _ZNSt3__112__hash_tableIN
732:   OBJECT GLOBAL DEFAULT 18 _ZTCN7android23IMediaMeta
733:   OBJECT GLOBAL DEFAULT 18 _ZTCN7android24BnMediaMet
734:   FUNC GLOBAL DEFAULT 14 _ZN7android9JetPlayer4dum
735:   OBJECT WEAK DEFAULT 18 _ZTCN7android21BpMediaRec
736:   FUNC GLOBAL DEFAULT 14 _ZNK7android12IMediaPlaye
737:   FUNC GLOBAL DEFAULT 14 _ZN7android18MediaScanner
738:   OBJECT WEAK DEFAULT 18 _ZTVN7android16BpMediaExt
739:   OBJECT WEAK DEFAULT 18 _ZTCN7android15BpMediaRec
740:   OBJECT GLOBAL DEFAULT 23 _ZN7android23IMediaMetada
741:   OBJECT GLOBAL DEFAULT 23 _ZN7android22MediaMetadat
742:   FUNC WEAK DEFAULT 14 _ZNSt3__16__treeINS_12__v
743:   FUNC GLOBAL DEFAULT 14 _ZN7android13IStreamSourc
744:   OBJECT WEAK DEFAULT 18 _ZTCN7android16BpMediaExt
745:   FUNC GLOBAL DEFAULT 14 _ZN7android13IStreamSourc
746:   FUNC WEAK DEFAULT 14 _ZNK7android6VectorINS_13
747:   FUNC WEAK DEFAULT 14 _ZNK7android6VectorINS_13
748:   FUNC GLOBAL DEFAULT 14 _ZN7android11MediaPlayerD
749:   OBJECT GLOBAL DEFAULT 18 _ZTCN7android14IRemoteDis
750:   FUNC GLOBAL DEFAULT 14 _ZN7android13MediaRecorde
751:   FUNC GLOBAL DEFAULT 14 _ZN7android12MediaScanner
752:   FUNC GLOBAL DEFAULT 14 _ZN7android11MediaPlayerC
753:   OBJECT GLOBAL DEFAULT 18 _ZTCN7android23BnMediaExt
754:   OBJECT GLOBAL DEFAULT 18 _ZTCN7android24BnMediaMet
755:   OBJECT GLOBAL DEFAULT 18 _ZTCN7android22IMediaExtr
756:   OBJECT WEAK DEFAULT 18 _ZTCN7android9JetPlayer15
757:   FUNC GLOBAL DEFAULT 14 _ZN7android13MediaProfile
758:   FUNC GLOBAL DEFAULT 14 _ZN7android11StringArrayD
759:   FUNC WEAK DEFAULT 14 _ZNK7android6VectorIPNS_1
760:   OBJECT GLOBAL DEFAULT 11 _ZN7android35kPolicySuppo
761:   FUNC GLOBAL DEFAULT 14 _ZN7android11StringArrayC
762:   FUNC GLOBAL DEFAULT 14 _ZN7android17BufferingSet
763:   FUNC WEAK DEFAULT 14 _ZNK7android6VectorINS_13
764:   OBJECT WEAK DEFAULT 18 _ZTCN7android23BpMediaExt
765:   FUNC WEAK DEFAULT 14 _ZNK7android6VectorIPNS_1
766:   OBJECT GLOBAL DEFAULT 18 _ZTCN7android13MediaRecor
767:   FUNC GLOBAL DEFAULT 14 _ZN7android12MediaScanner
768:   OBJECT WEAK DEFAULT 18 _ZTCN7android21BpMediaHTT
769:   OBJECT WEAK DEFAULT 18 _ZTVN7android6VectorINS_7
770:   OBJECT GLOBAL DEFAULT 18 _ZTCN7android20IMediaReco
771:   FUNC GLOBAL DEFAULT 14 _ZTv0_n24_N7android12IMed
772:   FUNC GLOBAL DEFAULT 14 _ZN7android5media8Metadat
773:   OBJECT GLOBAL DEFAULT 18 _ZTCN7android10Visualizer
774:   FUNC WEAK DEFAULT 14 _ZNSt3__16vectorIfNS_9all
775:   FUNC GLOBAL DEFAULT 14 _ZN7android13MediaRecorde
776:   OBJECT GLOBAL DEFAULT 18 _ZTVN7android12MediaScann
777:   FUNC GLOBAL DEFAULT 14 _ZNK7android13MediaProfil
778:   FUNC WEAK DEFAULT 14 _ZNK7android6VectorIPNS_1
779:   FUNC GLOBAL DEFAULT 14 _ZN7android5media8Metadat
780:   OBJECT WEAK DEFAULT 18 _ZTTN7android13BpMediaSou
781:   OBJECT WEAK DEFAULT 18 _ZTCN7android21BpRemoteDi
782:   OBJECT WEAK DEFAULT 18 _ZTVN7android16BpStreamLi
783:   FUNC GLOBAL DEFAULT 14 _ZTv0_n24_N7android22Medi
784:   FUNC GLOBAL DEFAULT 14 _ZN7android13MediaResourc
785:   OBJECT GLOBAL DEFAULT 18 _ZTCN7android16BnMediaExt
786:   FUNC WEAK DEFAULT 14 _ZNK7android6VectorIPNS_1
787:   FUNC GLOBAL DEFAULT 14 _ZN7android10Visualizer18
788:   OBJECT WEAK DEFAULT 18 _ZTVN7android18BpMediaHTT
789:   FUNC GLOBAL DEFAULT 14 _ZN7android23IResourceMan
790:   FUNC GLOBAL DEFAULT 14 _ZN7android19IMediaDeathN
791:   FUNC WEAK DEFAULT 14 _ZNK7android6VectorINS_13
792:   OBJECT GLOBAL DEFAULT 18 _ZTVN7android11StringArra
793:   OBJECT GLOBAL DEFAULT 18 _ZTCN7android19BnMediaPla
794:   FUNC GLOBAL DEFAULT 14 _ZTv0_n24_N7android13BnMe
795:   FUNC GLOBAL DEFAULT 14 _ZN7android13MediaRecorde
796:   FUNC WEAK DEFAULT 14 _ZNK7android12SortedVecto
797:   FUNC WEAK DEFAULT 14 _ZNK7android12SortedVecto
798:   FUNC WEAK DEFAULT 14 _ZNK7android6VectorINS_13
799:   FUNC GLOBAL DEFAULT 14 _ZTv0_n24_N7android15IMed
800:   FUNC GLOBAL DEFAULT 14 _ZN7android13MediaRecorde
801:   FUNC GLOBAL DEFAULT 14 _ZN7android17IMediaHTTPSe
802:   FUNC GLOBAL DEFAULT 14 _ZN7android13MediaProfile
803:   FUNC WEAK DEFAULT 14 _ZNK7android6VectorINS_13
804:   FUNC WEAK DEFAULT 14 _ZNK7android6VectorINS_13
805:   FUNC GLOBAL DEFAULT 14 _ZN7android11MediaPlayer1
806:   OBJECT WEAK DEFAULT 18 _ZTCN7android15BpMediaRec
807:   FUNC WEAK DEFAULT 14 _ZNK7android6VectorIPNS_1
808:   FUNC GLOBAL DEFAULT 14 _ZN7android13MediaResourc
809:   FUNC WEAK DEFAULT 14 _ZNK7android6VectorIiE8do
810:   FUNC WEAK DEFAULT 14 _ZN7android2spINS_19IMedi
811:   OBJECT GLOBAL DEFAULT 18 _ZTVN7android12BnDataSour
812:   OBJECT WEAK DEFAULT 18 _ZTTN7android21BpRemoteDi
813:   FUNC GLOBAL DEFAULT 14 _ZN7android13MediaProfile
814:   FUNC GLOBAL DEFAULT 14 _ZN7android19IMediaPlayer
815:   OBJECT GLOBAL DEFAULT 18 _ZTCN7android23BnResource
816:   FUNC GLOBAL DEFAULT 14 _ZThn8_N7android24BnResou
817:   FUNC WEAK DEFAULT 14 _ZNK7android6VectorIPNS_1
818:   FUNC GLOBAL DEFAULT 14 _ZN7android11MediaPlayer1
819:   FUNC GLOBAL DEFAULT 14 _ZN7android19IMediaPlayer
820:   OBJECT GLOBAL DEFAULT 18 _ZTCN7android19BnMediaPla
821:   FUNC GLOBAL DEFAULT 14 _ZTv0_n24_N7android14IMed
822:   FUNC GLOBAL DEFAULT 14 _ZTv0_n24_N7android13IStr
823:   FUNC GLOBAL DEFAULT 14 _ZTv0_n24_N7android11IDat
824:   FUNC GLOBAL DEFAULT 14 _ZN7android12IMediaPlayer
825:   OBJECT GLOBAL DEFAULT 18 _ZTCN7android15BnMediaRec
826:   FUNC GLOBAL DEFAULT 14 _ZTv0_n24_N7android13Medi
827:   FUNC GLOBAL DEFAULT 14 _ZN7android11MediaPlayer1
828:   FUNC GLOBAL DEFAULT 14 _ZN7android12IMediaPlayer
829:   FUNC GLOBAL DEFAULT 14 _ZN7android12IMediaSource
830:   FUNC GLOBAL DEFAULT 14 _ZN7android20IRemoteDispl
831:   OBJECT WEAK DEFAULT 18 _ZTCN7android24BpResource
832:   FUNC GLOBAL DEFAULT 14 _ZN7android13MediaRecorde
833:   FUNC WEAK DEFAULT 14 _ZNSt3__16__treeINS_12__v
834:   FUNC GLOBAL DEFAULT 14 _ZN7android13MediaProfile
835:   FUNC GLOBAL DEFAULT 14 _ZN7android10Visualizer5d
836:   FUNC GLOBAL DEFAULT 14 _ZN7android11MediaPlayer1
837:   FUNC GLOBAL DEFAULT 14 _ZTv0_n24_N7android15IStr
838:   FUNC GLOBAL DEFAULT 14 _ZN7android9JetPlayer10lo
839:   FUNC GLOBAL DEFAULT 14 _ZN7android9JetPlayer6ren
840:   OBJECT GLOBAL DEFAULT 18 _ZTCN7android12BnDataSour
841:   OBJECT GLOBAL DEFAULT 18 _ZTCN7android14IMediaReco
842:   OBJECT WEAK DEFAULT 18 _ZTVN7android21BpRemoteDi
843:   FUNC WEAK DEFAULT 14 _ZNK7android6VectorINS_13
844:   FUNC WEAK DEFAULT 14 _ZNK7android6VectorINS_13
845:   FUNC GLOBAL DEFAULT 14 _ZTv0_n24_N7android22IMed
846:   FUNC GLOBAL DEFAULT 14 _ZN7android13MediaRecorde
847:   FUNC GLOBAL DEFAULT 14 _ZN7android9JetPlayer16se
848:   FUNC WEAK DEFAULT 14 _ZNK7android12SortedVecto
849:   FUNC GLOBAL DEFAULT 14 _ZN7android22IMediaExtrac
850:   OBJECT GLOBAL DEFAULT 18 _ZTCN7android13BnMediaPla
851:   OBJECT GLOBAL DEFAULT 18 _ZTCN7android13BnMediaSou
852:   FUNC GLOBAL DEFAULT 14 _ZN7android13MediaRecorde
853:   FUNC WEAK DEFAULT 14 _ZNSt3__16__treeINS_12__v
854:   FUNC WEAK DEFAULT 14 _ZNK7android6VectorINS_13
855:   FUNC GLOBAL DEFAULT 14 _ZN7android11IDataSourceD
856:   FUNC GLOBAL DEFAULT 14 _ZN7android11MediaPlayer2
857:   FUNC GLOBAL DEFAULT 14 _ZThn8_N7android20BnMedia
858:   OBJECT WEAK DEFAULT 18 _ZTVN7android6VectorIPNS_
859:   FUNC GLOBAL DEFAULT 14 _ZTv0_n24_N7android20IRem
860:   FUNC GLOBAL DEFAULT 14 _ZNK7android13IStreamSour
861:   OBJECT GLOBAL DEFAULT 18 _ZTVN7android19IMediaDeat
862:   FUNC WEAK DEFAULT 14 _ZNK7android6VectorIPNS_1
863:   OBJECT WEAK DEFAULT 18 _ZTVN7android20BpMediaPla
864:   OBJECT GLOBAL DEFAULT 23 _ZN7android19IMediaDeathN
865:   FUNC WEAK DEFAULT 14 _ZNK7android6VectorINS_13
866:   FUNC GLOBAL DEFAULT 14 _ZN7android10Visualizer11
867:   OBJECT GLOBAL DEFAULT 18 _ZTCN7android11MediaPlaye
868:   FUNC WEAK DEFAULT 14 _ZNK7android12SortedVecto
869:   FUNC GLOBAL DEFAULT 14 _ZN7android13IStreamSourc
870:   FUNC GLOBAL DEFAULT 14 _ZN7android19IMediaDeathN
871:   OBJECT WEAK DEFAULT 18 _ZTCN7android13BpMediaSou
872:   FUNC WEAK DEFAULT 14 _ZNK7android12SortedVecto
873:   OBJECT WEAK DEFAULT 18 _ZTCN7android19BpMediaPla
874:   FUNC WEAK DEFAULT 14 _ZNK7android6VectorINS0_I
875:   OBJECT GLOBAL DEFAULT 18 _ZTTN7android15BnRemoteDi
876:   OBJECT WEAK DEFAULT 18 _ZTVN7android6VectorINS_1
877:   OBJECT GLOBAL DEFAULT 18 _ZTCN7android16BnStreamLi
878:   FUNC WEAK DEFAULT 14 _ZNK7android6VectorINS_13
879:   OBJECT WEAK DEFAULT 18 _ZTTN7android12BpDataSour
880:   FUNC WEAK DEFAULT 14 _ZNK7android6VectorINS_2w
881:   FUNC WEAK DEFAULT 14 _ZNK7android6VectorIPNS_1
882:   FUNC GLOBAL DEFAULT 14 _ZN7android22IResourceMan
883:   FUNC GLOBAL DEFAULT 14 _ZN7android15IStreamListe
884:   FUNC GLOBAL DEFAULT 14 _ZN7android13MediaProfile
885:   FUNC GLOBAL DEFAULT 14 _ZN7android13MediaProfile
886:   OBJECT GLOBAL DEFAULT 18 _ZTVN7android15IMediaExtr
887:   FUNC GLOBAL DEFAULT 14 _ZN7android22IResourceMan
888:   FUNC GLOBAL DEFAULT 14 _ZN7android18IMediaPlayer
889:   OBJECT GLOBAL DEFAULT 18 _ZTTN7android19BnMediaPla
890:   OBJECT WEAK DEFAULT 18 _ZTTN7android19BpMediaPla
891:   FUNC GLOBAL DEFAULT 14 _ZN7android14IRemoteDispl
892:   FUNC GLOBAL DEFAULT 14 _ZN7android22IResourceMan
893:   OBJECT GLOBAL DEFAULT 23 _ZN7android11IDataSource1
894:   FUNC GLOBAL DEFAULT 14 _ZN7android14IRemoteDispl
895:   FUNC GLOBAL DEFAULT 14 _ZN7android22IResourceMan
896:   OBJECT GLOBAL DEFAULT 18 _ZTCN7android22IResourceM
897:   FUNC GLOBAL DEFAULT 14 _ZN7android13MediaRecorde
898:   FUNC GLOBAL DEFAULT 14 _Z15translate_errori
899:   FUNC GLOBAL DEFAULT 14 _ZN7android11MediaPlayer2
900:   FUNC GLOBAL DEFAULT 14 _ZN7android19IMediaPlayer
901:   OBJECT GLOBAL DEFAULT 18 _ZTCN7android14BnStreamSo
902:   FUNC GLOBAL DEFAULT 14 _ZN7android13MediaRecorde
903:   OBJECT WEAK DEFAULT 18 _ZTCN7android16BpStreamLi
904:   FUNC GLOBAL DEFAULT 14 _ZN7android13MediaRecorde
905:   FUNC GLOBAL DEFAULT 14 _ZTv0_n24_N7android23IMed
906:   FUNC GLOBAL DEFAULT 14 _ZN7android22MediaMetadat
907:   FUNC GLOBAL DEFAULT 14 _ZN7android13MediaProfile
908:   FUNC GLOBAL DEFAULT 14 _ZN7android13MediaProfile
909:   FUNC WEAK DEFAULT 14 _ZN7android11BnInterfaceI
910:   FUNC GLOBAL DEFAULT 14 _ZN7android18limitProcess
911:   FUNC WEAK DEFAULT 14 _ZNK7android6VectorIPNS_1
912:   OBJECT WEAK DEFAULT 18 _ZTCN7android12BpDataSour
913:   FUNC GLOBAL DEFAULT 14 _ZN7android11MediaPlayer1
914:   FUNC GLOBAL DEFAULT 14 _ZN7android11MediaPlayer1
915:   OBJECT WEAK DEFAULT 18 _ZTVN7android6VectorIhEE
916:   FUNC GLOBAL DEFAULT 14 _ZN7android22MediaMetadat
917:   FUNC GLOBAL DEFAULT 14 _ZN7android25CharacterEnc
918:   FUNC WEAK DEFAULT 14 _ZNK7android12SortedVecto
919:   FUNC GLOBAL DEFAULT 14 _ZN7android11MediaPlayer7
920:   FUNC GLOBAL DEFAULT 14 _ZN7android20IMediaHTTPCo
921:   FUNC GLOBAL DEFAULT 14 _ZN7android22MediaMetadat
922:   FUNC GLOBAL DEFAULT 14 _ZN7android9JetPlayerC2EP
923:   FUNC WEAK DEFAULT 14 _ZNK7android6VectorINS_13
924:   FUNC GLOBAL DEFAULT 14 _ZNK7android13MediaResour
925:   FUNC GLOBAL DEFAULT 14 _ZThn8_N7android12BnDataS
926:   FUNC GLOBAL DEFAULT 14 _ZTv0_n24_N7android18IMed
927:   FUNC GLOBAL DEFAULT 14 _ZN7android19MediaResourc
928:   OBJECT GLOBAL DEFAULT 18 _ZTVN7android10Visualizer
929:   OBJECT GLOBAL DEFAULT 18 _ZTCN7android12BnDataSour
930:   FUNC GLOBAL DEFAULT 14 _ZN7android22registerMedi
931:   OBJECT GLOBAL DEFAULT 18 _ZTCN7android19BnMediaPla
932:   OBJECT WEAK DEFAULT 18 _ZTVN7android13BpMediaPla
933:   FUNC GLOBAL DEFAULT 14 _ZNK7android14IMediaRecor
934:   FUNC GLOBAL DEFAULT 14 _ZThn8_N7android15BnRemot
935:   FUNC GLOBAL DEFAULT 14 _ZN7android22MediaMetadat
936:   FUNC GLOBAL DEFAULT 14 _ZN7android9JetPlayer4ini
937:   FUNC GLOBAL DEFAULT 14 _ZN7android13MediaProfile
938:   OBJECT GLOBAL DEFAULT 18 _ZTTN7android10Visualizer
939:   FUNC GLOBAL DEFAULT 14 _ZNK7android15IMediaExtra
940:   FUNC WEAK DEFAULT 14 _ZNK7android12SortedVecto
941:   FUNC GLOBAL DEFAULT 14 _ZN7android15IStreamListe
942:   OBJECT WEAK DEFAULT 18 _ZTVN7android6VectorINS_2
943:   FUNC GLOBAL DEFAULT 14 _ZN7android10Visualizer14
944:   FUNC GLOBAL DEFAULT 14 _ZN7android11IDataSource1
945:   OBJECT GLOBAL DEFAULT 23 _ZN7android12IMediaPlayer
946:   FUNC WEAK DEFAULT 14 _ZNK7android6VectorIfE16d
947:   OBJECT GLOBAL DEFAULT 23 _ZN7android12IMediaSource
948:   FUNC GLOBAL DEFAULT 14 _ZN7android15IStreamListe
949:   FUNC GLOBAL DEFAULT 14 _ZN7android13MediaRecorde
950:   FUNC WEAK DEFAULT 14 _ZNK7android12SortedVecto
951:   FUNC GLOBAL DEFAULT 14 _ZN7android11MediaPlayer6
952:   OBJECT GLOBAL DEFAULT 18 _ZTTN7android16BnMediaExt
953:   FUNC WEAK DEFAULT 14 _ZNK7android6VectorIhE15d
954:   OBJECT GLOBAL DEFAULT 18 _ZTVN7android12IMediaPlay
955:   OBJECT GLOBAL DEFAULT 18 _ZTVN7android15IStreamLis
956:   OBJECT GLOBAL DEFAULT 18 _ZTCN7android23BnMediaExt
957:   OBJECT WEAK DEFAULT 18 _ZTTN7android15BpMediaRec
958:   OBJECT GLOBAL DEFAULT 18 _ZN7android13MediaProfile
959:   FUNC GLOBAL DEFAULT 14 _ZN7android14dumpExtracto
960:   FUNC WEAK DEFAULT 14 _ZNSt3__16__treeINS_12__v
961:   FUNC WEAK DEFAULT 14 _ZNK7android6VectorIPNS_1
962:   FUNC WEAK DEFAULT 14 _ZNK7android12SortedVecto
963:   FUNC GLOBAL DEFAULT 14 _ZTv0_n32_N7android11Medi
964:   OBJECT WEAK DEFAULT 18 _ZTCN7android20BpMediaPla
965:   OBJECT WEAK DEFAULT 18 _ZTVN7android6VectorINS_1
966:   FUNC GLOBAL DEFAULT 14 _ZN7android20IMediaHTTPCo
967:   FUNC WEAK DEFAULT 14 _ZNK7android6VectorINS_7S
968:   OBJECT GLOBAL DEFAULT 18 _ZTCN7android16BnMediaExt
969:   FUNC GLOBAL DEFAULT 14 _ZN7android14IRemoteDispl
970:   FUNC WEAK DEFAULT 14 _ZNK7android6VectorIPNS_1
971:   FUNC GLOBAL DEFAULT 14 _ZN7android19IMediaDeathN
972:   FUNC GLOBAL DEFAULT 14 _ZTv0_n32_N7android13Medi
973:   OBJECT WEAK DEFAULT 18 _ZTCN7android13BpMediaPla
974:   OBJECT WEAK DEFAULT 18 _ZTCN7android24BpResource
975:   FUNC WEAK DEFAULT 14 _ZNK7android6VectorINS_2s
976:   OBJECT GLOBAL DEFAULT 18 _ZTTN7android23IMediaMeta
977:   FUNC GLOBAL DEFAULT 14 _ZN7android9JetPlayer4pla
978:   FUNC WEAK DEFAULT 14 _ZNK7android6VectorIPK13U
979:   OBJECT GLOBAL DEFAULT 23 _ZN7android23IResourceMan
980:   FUNC GLOBAL DEFAULT 14 _ZN7android13MediaRecorde
981:   FUNC GLOBAL DEFAULT 14 _ZN7android13MediaProfile
982:   FUNC WEAK DEFAULT 14 _ZNK7android6VectorIPNS_1
983:   FUNC GLOBAL DEFAULT 14 _ZN7android19MediaResourc
984:   FUNC GLOBAL DEFAULT 14 _ZN7android11IDataSource1
985:   FUNC GLOBAL DEFAULT 14 _ZTv0_n24_N7android17IMed
986:   FUNC GLOBAL DEFAULT 14 _ZN7android16BnStreamList
987:   FUNC WEAK DEFAULT 14 _ZNK7android6VectorINS_13
988:   OBJECT GLOBAL DEFAULT 18 _ZTCN7android19BnMediaPla
989:   FUNC GLOBAL DEFAULT 14 _ZN7android18MediaScanner
990:   OBJECT WEAK DEFAULT 18 _ZTCN7android21BpRemoteDi
991:   FUNC GLOBAL DEFAULT 14 _ZN7android18MediaScanner
992:   FUNC GLOBAL DEFAULT 14 _ZTv0_n24_N7android19IMed
993:   FUNC WEAK DEFAULT 14 _ZNSt3__16__treeINS_12__v
994:   FUNC GLOBAL DEFAULT 14 _ZN7android11MediaPlayer6
995:   OBJECT GLOBAL DEFAULT 18 _ZTCN7android21BnMediaRec
996:   FUNC GLOBAL DEFAULT 14 _ZN7android22MediaMetadat
997:   FUNC GLOBAL DEFAULT 14 _ZN7android25CharacterEnc
998:   OBJECT WEAK DEFAULT 18 _ZTTN7android23BpMediaExt
999:   FUNC WEAK DEFAULT 14 _ZNK7android6VectorINS0_I
1000:   OBJECT GLOBAL DEFAULT 18 _ZTVN7android14IMediaReco
1001:   FUNC GLOBAL DEFAULT 14 _ZNK7android22IResourceMa
1002:   OBJECT GLOBAL DEFAULT 18 _ZTVN7android13IStreamSou
1003:   FUNC WEAK DEFAULT 14 _ZNK7android6VectorINS_13
1004:   FUNC WEAK DEFAULT 14 _ZNK7android6VectorIPNS_1
1005:   OBJECT GLOBAL DEFAULT 18 _ZTTN7android16BnStreamLi
1006:   FUNC GLOBAL DEFAULT 14 _ZN7android13MediaRecorde
1007:   OBJECT WEAK DEFAULT 18 _ZTCN7android24BpMediaMet
1008:   FUNC GLOBAL DEFAULT 14 _ZN7android5media4midi14M
1009:   FUNC GLOBAL DEFAULT 14 _ZN7android13MediaProfile
1010:   FUNC GLOBAL DEFAULT 14 _ZN7android10Visualizer18
1011:   OBJECT GLOBAL DEFAULT 18 _ZTCN7android11MediaPlaye
1012:   OBJECT GLOBAL DEFAULT 23 _ZN7android19IMediaPlayer
1013:   FUNC GLOBAL DEFAULT 14 _ZN7android13MediaRecorde
1014:   OBJECT GLOBAL DEFAULT 18 _ZTCN7android23BnMediaExt
1015:   OBJECT WEAK DEFAULT 18 _ZTCN7android19BpMediaPla
1016:   FUNC GLOBAL DEFAULT 14 _ZThn8_N7android21BnRemot
1017:   FUNC GLOBAL DEFAULT 14 _ZN7android13MediaProfile
1018:   FUNC WEAK DEFAULT 14 _ZNK7android6VectorIPNS_1
1019:   FUNC GLOBAL DEFAULT 14 _ZN7android17IMediaHTTPSe
1020:   FUNC GLOBAL DEFAULT 14 _ZN7android5media8Metadat
1021:   FUNC GLOBAL DEFAULT 14 _ZN7android13MediaRecorde
1022:   OBJECT WEAK DEFAULT 18 _ZTCN7android14BpStreamSo
1023:   FUNC GLOBAL DEFAULT 14 _ZN7android22MediaMetadat
1024:   FUNC GLOBAL DEFAULT 14 _ZN7android11MediaPlayer1
1025:   OBJECT GLOBAL DEFAULT 18 _ZTTN7android23BnMediaExt
1026:   FUNC GLOBAL DEFAULT 14 _ZThn8_N7android13BnMedia
1027:   FUNC GLOBAL DEFAULT 14 _ZThn8_N7android19BnMedia
1028:   FUNC GLOBAL DEFAULT 14 _ZN7android12MediaScanner
1029:   FUNC GLOBAL DEFAULT 14 _ZThn8_N7android17IMediaH
1030:   FUNC GLOBAL DEFAULT 14 _ZNK7android17ExtractorIn
1031:   FUNC GLOBAL DEFAULT 14 _ZN7android23IMediaMetada
1032:   FUNC GLOBAL DEFAULT 14 _ZN7android24BnResourceMa
1033:   FUNC GLOBAL DEFAULT 14 _ZN7android13MediaRecorde
1034:   FUNC GLOBAL DEFAULT 14 _ZN7android12MediaScanner
1035:   OBJECT GLOBAL DEFAULT 18 _ZTCN7android13BnMediaPla
1036:   OBJECT GLOBAL DEFAULT 18 _ZTCN7android13BnMediaSou
1037:   OBJECT GLOBAL DEFAULT 18 _ZTTN7android19IMediaDeat
1038:   OBJECT GLOBAL DEFAULT 23 _ZN7android13MediaProfile
1039:   OBJECT WEAK DEFAULT 18 _ZTVN7android12SortedVect
1040:   OBJECT GLOBAL DEFAULT 18 _ZTTN7android20IRemoteDis
1041:   OBJECT GLOBAL DEFAULT 18 _ZTCN7android23IResourceM
1042:   OBJECT GLOBAL DEFAULT 18 _ZTVN7android14BnStreamSo
1043:   FUNC WEAK DEFAULT 14 _ZNK7android6VectorIPNS_1
1044:   FUNC WEAK DEFAULT 14 _ZN7android11BnInterfaceI
1045:   OBJECT GLOBAL DEFAULT 18 _ZN7android5media4midi14M
1046:   FUNC GLOBAL DEFAULT 14 _ZN7android20IMediaHTTPCo
1047:   FUNC WEAK DEFAULT 14 _ZNK7android6VectorINS_7S
1048:   OBJECT GLOBAL DEFAULT 18 _ZTTN7android23IResourceM
1049:   FUNC GLOBAL DEFAULT 14 _ZN7android13MediaRecorde
1050:   OBJECT GLOBAL DEFAULT 18 _ZN7android5media4midi14M
1051:   OBJECT GLOBAL DEFAULT 23 _ZN7android20IRemoteDispl
1052:   OBJECT GLOBAL DEFAULT 18 _ZTVN7android20BnMediaPla
1053:   FUNC GLOBAL DEFAULT 14 _ZN7android23IResourceMan
1054:   FUNC WEAK DEFAULT 14 _ZNK7android6VectorINS_2s
1055:   FUNC GLOBAL DEFAULT 14 _ZN7android13MediaProfile
1056:   FUNC GLOBAL DEFAULT 14 _ZNK7android11IDataSource
1057:   FUNC GLOBAL DEFAULT 14 _ZN7android20IMediaRecord
1058:   OBJECT GLOBAL DEFAULT 18 _ZTCN7android21BnRemoteDi
1059:   FUNC GLOBAL DEFAULT 14 _ZN7android23IResourceMan
1060:   FUNC GLOBAL DEFAULT 14 _ZN7android12MediaScanner
1061:   FUNC GLOBAL DEFAULT 14 _ZThn8_N7android20IMediaH
1062:   OBJECT WEAK DEFAULT 18 _ZTVN7android12SortedVect
1063:   FUNC GLOBAL DEFAULT 14 _ZN7android13MediaProfile
1064:   FUNC GLOBAL DEFAULT 14 _ZN7android11MediaPlayer1
1065:   FUNC WEAK DEFAULT 14 _ZNK7android6VectorINS_2w
1066:   OBJECT GLOBAL DEFAULT 23 _ZN7android14IMediaRecord
1067:   FUNC WEAK DEFAULT 14 _ZNK7android6VectorIiE10d
1068:   OBJECT WEAK DEFAULT 18 _ZTVN7android24RemoteMedi
1069:   OBJECT WEAK DEFAULT 18 _ZTTN7android23BpResource
1070:   FUNC GLOBAL DEFAULT 14 _ZN7android13MediaProfile
1071:   OBJECT WEAK DEFAULT 18 _ZTCN7android23BpMediaExt
1072:   FUNC GLOBAL DEFAULT 14 _ZN7android10Visualizer14
1073:   FUNC GLOBAL DEFAULT 14 _ZN7android14IMediaRecord
1074:   FUNC WEAK DEFAULT 14 _ZNSt3__16__treeINS_12__v
1075:   FUNC WEAK DEFAULT 14 _ZNK7android6VectorIPNS_1
1076:   OBJECT GLOBAL DEFAULT 18 _ZTTN7android17IMediaHTTP
1077:   OBJECT GLOBAL DEFAULT 18 _ZTVN7android15BnMediaRec
1078:   FUNC GLOBAL DEFAULT 14 _ZN7android13MediaResourc
1079:   FUNC GLOBAL DEFAULT 14 _ZN7android13MediaRecorde
1080:   FUNC GLOBAL DEFAULT 14 _ZTv0_n40_N7android13Medi
1081:   FUNC WEAK DEFAULT 14 _ZNK7android6VectorIPNS_1
1082:   OBJECT GLOBAL DEFAULT 18 _ZTCN7android21BnMediaRec
1083:   OBJECT GLOBAL DEFAULT 18 _ZTCN7android13BnMediaSou
1084:   FUNC GLOBAL DEFAULT 14 _ZN7android5media8Metadat
1085:   OBJECT GLOBAL DEFAULT 23 _ZN7android20IMediaHTTPCo
1086:   FUNC GLOBAL DEFAULT 14 _ZThn8_N7android16BnMedia
1087:   OBJECT GLOBAL DEFAULT 18 _ZTTN7android21BnMediaRec
1088:   OBJECT GLOBAL DEFAULT 23 _ZN7android22IResourceMan
1089:   FUNC GLOBAL DEFAULT 14 _ZNK7android20IRemoteDisp
1090:   OBJECT GLOBAL DEFAULT 18 _ZTTN7android23BnResource
1091:   OBJECT GLOBAL DEFAULT 23 _ZN7android19IMediaDeathN
1092:   FUNC WEAK DEFAULT 14 _ZNK7android6VectorINS_13
1093:   FUNC GLOBAL DEFAULT 14 _ZN7android10VisualizerD0
1094:   FUNC GLOBAL DEFAULT 14 _ZN7android20IMediaHTTPCo
1095:   FUNC GLOBAL DEFAULT 14 _ZN7android20IRemoteDispl
1096:   FUNC GLOBAL DEFAULT 14 _ZN7android11StringArray5
1097:   FUNC GLOBAL DEFAULT 14 _ZNK7android13MediaProfil
1098:   FUNC GLOBAL DEFAULT 14 _ZN7android20IRemoteDispl
1099:   FUNC WEAK DEFAULT 14 _ZNK7android6VectorINS_19
1100:   FUNC GLOBAL DEFAULT 14 _ZN7android13MediaRecorde
1101:   FUNC GLOBAL DEFAULT 14 _ZN7android13MediaProfile
1102:   OBJECT GLOBAL DEFAULT 18 _ZTVN7android10Visualizer
1103:   OBJECT GLOBAL DEFAULT 18 _ZTCN7android17IMediaHTTP
1104:   OBJECT GLOBAL DEFAULT 18 _ZTCN7android20BnMediaPla
1105:   FUNC GLOBAL DEFAULT 14 _ZNK7android15IStreamList
1106:   FUNC GLOBAL DEFAULT 14 _ZN7android22MediaMetadat
1107:   FUNC GLOBAL DEFAULT 14 _ZTv0_n24_N7android22IRes
1108:   FUNC GLOBAL DEFAULT 14 _ZThn8_N7android13MediaRe
1109:   OBJECT GLOBAL DEFAULT 18 _ZN7android13MediaProfile
1110:   FUNC WEAK DEFAULT 14 _ZN7android11BnInterfaceI
1111:   FUNC GLOBAL DEFAULT 14 _ZN7android22IMediaExtrac
1112:   FUNC GLOBAL DEFAULT 14 _ZN7android22IMediaExtrac
1113:   OBJECT GLOBAL DEFAULT 18 _ZTVN7android21BnMediaRec
1114:   FUNC WEAK DEFAULT 14 _ZNK7android6VectorIfE7do
1115:   FUNC GLOBAL DEFAULT 14 _ZTv0_n24_N7android14IRem
1116:   FUNC GLOBAL DEFAULT 14 _ZN7android20IRemoteDispl
1117:   OBJECT GLOBAL DEFAULT 18 _ZTVN7android13MediaRecor
1118:   FUNC GLOBAL DEFAULT 14 _ZTv0_n24_N7android19IMed
1119:   FUNC GLOBAL DEFAULT 14 _ZN7android13MediaProfile
1120:   FUNC GLOBAL DEFAULT 14 _ZN7android22IMediaExtrac
1121:   FUNC GLOBAL DEFAULT 14 _ZN7android22IMediaExtrac
1122:   OBJECT WEAK DEFAULT 18 _ZTCN7android15BpRemoteDi
1123:   FUNC GLOBAL DEFAULT 14 _ZN7android23BnResourceMa
1124:   FUNC GLOBAL DEFAULT 14 _ZN7android13MediaRecorde
1125:   FUNC GLOBAL DEFAULT 14 _ZN7android23IMediaMetada
1126:   OBJECT GLOBAL DEFAULT 18 _ZTTN7android22IMediaExtr
1127:   FUNC GLOBAL DEFAULT 14 _ZN7android20IMediaRecord
1128:   OBJECT GLOBAL DEFAULT 18 _ZTCN7android15BnRemoteDi
1129:   FUNC WEAK DEFAULT 14 _ZNK7android6VectorINS_13
1130:   FUNC WEAK DEFAULT 14 _ZNK7android6VectorIPNS_1
1131:   FUNC GLOBAL DEFAULT 14 _ZN7android15IMediaExtrac
1132:   FUNC GLOBAL DEFAULT 14 _ZTv0_n24_N7android20IMed
1133:   OBJECT GLOBAL DEFAULT 18 _ZTVN7android13BnMediaSou
1134:   FUNC GLOBAL DEFAULT 14 _ZN7android10Visualizer10
1135:   OBJECT GLOBAL DEFAULT 18 _ZTTN7android12IMediaSour
1136:   OBJECT WEAK DEFAULT 18 _ZTVN7android12SortedVect
1137:   FUNC GLOBAL DEFAULT 14 _ZN7android13MediaProfile
1138:   FUNC GLOBAL DEFAULT 14 _ZN7android20BnMediaPlaye
1139:   OBJECT GLOBAL DEFAULT 18 _ZTCN7android20BnMediaPla
1140:   OBJECT GLOBAL DEFAULT 23 _ZN7android15IStreamListe
1141:   OBJECT GLOBAL DEFAULT 18 _ZTTN7android15IMediaExtr
1142:   FUNC WEAK DEFAULT 14 _ZNK7android6VectorIhE12d
1143:   FUNC WEAK DEFAULT 14 _ZN7android11BnInterfaceI
1144:   FUNC GLOBAL DEFAULT 14 _ZN7android13MediaRecorde
1145:   FUNC GLOBAL DEFAULT 14 _ZN7android13MediaRecorde
1146:   FUNC GLOBAL DEFAULT 14 _ZN7android23IMediaMetada
1147:   FUNC WEAK DEFAULT 14 _ZNK7android6VectorIPK13U
1148:   FUNC GLOBAL DEFAULT 14 _ZN7android13MediaProfile
1149:   FUNC GLOBAL DEFAULT 14 _ZThn8_N7android23BnResou
1150:   FUNC GLOBAL DEFAULT 14 _ZNK7android13MediaProfil
1151:   FUNC GLOBAL DEFAULT 14 _ZN7android11MediaPlayer1
1152:   FUNC GLOBAL DEFAULT 14 _ZThn8_N7android11MediaPl
1153:   FUNC WEAK DEFAULT 14 _ZN7android11BnInterfaceI
1154:   FUNC GLOBAL DEFAULT 14 _ZN7android5media8Metadat
1155:   FUNC GLOBAL DEFAULT 14 _ZN7android13MediaRecorde
1156:   FUNC GLOBAL DEFAULT 14 _ZN7android13MediaProfile
1157:   FUNC WEAK DEFAULT 14 _ZNK7android12SortedVecto
1158:   OBJECT WEAK DEFAULT 18 _ZTVN7android12BpDataSour
1159:   FUNC GLOBAL DEFAULT 14 _ZN7android18IMediaPlayer
1160:   OBJECT GLOBAL DEFAULT 18 _ZTCN7android16BnStreamLi
1161:   OBJECT GLOBAL DEFAULT 23 _ZN7android19IMediaDeathN
1162:   FUNC GLOBAL DEFAULT 14 _ZN7android18IMediaPlayer
1163:   FUNC WEAK DEFAULT 14 _ZNK7android6VectorIiE16d
1164:   FUNC GLOBAL DEFAULT 14 _ZN7android11MediaPlayer1
1165:   FUNC GLOBAL DEFAULT 14 _ZN7android11MediaPlayer5
1166:   FUNC WEAK DEFAULT 14 _ZNK7android6VectorIPNS_1
1167:   FUNC GLOBAL DEFAULT 14 _ZN7android22MediaMetadat
1168:   FUNC GLOBAL DEFAULT 14 _ZN7android18MediaScanner
1169:   FUNC GLOBAL DEFAULT 14 _ZN7android11MediaPlayer8
1170:   OBJECT WEAK DEFAULT 18 _ZTCN7android13BpMediaPla
1171:   FUNC GLOBAL DEFAULT 14 _ZN7android11MediaPlayer2
1172:   FUNC GLOBAL DEFAULT 14 _ZN7android11MediaPlayer9
1173:   FUNC WEAK DEFAULT 14 _ZNSt3__16__treeINS_12__v
1174:   OBJECT WEAK DEFAULT 18 _ZTCN7android23BpResource
1175:   OBJECT GLOBAL DEFAULT 18 _ZTTN7android22IResourceM
1176:   FUNC GLOBAL DEFAULT 14 _ZNK7android13MediaRecord
1177:   OBJECT GLOBAL DEFAULT 18 _ZTCN7android21BnMediaRec
1178:   FUNC GLOBAL DEFAULT 14 _ZN7android13MediaRecorde
1179:   FUNC WEAK DEFAULT 14 _ZNSt3__16__treeINS_12__v
1180:   FUNC WEAK DEFAULT 14 _ZNK7android6VectorIPNS_1
1181:   OBJECT GLOBAL DEFAULT 18 _ZTVN7android18IMediaPlay
1182:   FUNC GLOBAL DEFAULT 14 _ZN7android13BnMediaSourc
1183:   FUNC GLOBAL DEFAULT 14 _ZN7android13MediaRecorde
1184:   FUNC WEAK DEFAULT 14 _ZNK7android6VectorIPNS_1
1185:   FUNC GLOBAL DEFAULT 14 _ZTv0_n24_N7android11Medi
1186:   OBJECT GLOBAL DEFAULT 18 _ZTTN7android19IMediaPlay
1187:   OBJECT GLOBAL DEFAULT 18 _ZTCN7android15BnMediaRec
1188:   OBJECT GLOBAL DEFAULT 23 _ZN7android19IMediaDeathN
1189:   FUNC GLOBAL DEFAULT 14 _ZN7android13MediaProfile
1190:   FUNC WEAK DEFAULT 14 _ZNK7android6VectorIPNS_1
1191:   FUNC WEAK DEFAULT 14 _ZNK7android6VectorIhE7do
1192:   FUNC WEAK DEFAULT 14 _ZNSt3__16vectorIiNS_9all
1193:   OBJECT WEAK DEFAULT 18 _ZTCN7android21BpRemoteDi
1194:   FUNC GLOBAL DEFAULT 14 _ZN7android9JetPlayerD1Ev
1195:   FUNC GLOBAL DEFAULT 14 _ZNK7android23IResourceMa
1196:   OBJECT GLOBAL DEFAULT 18 _ZTTN7android15IStreamLis
1197:   OBJECT WEAK DEFAULT 18 _ZTCN7android24BpMediaMet
1198:   FUNC GLOBAL DEFAULT 14 _ZN7android19MediaResourc
1199:   FUNC GLOBAL DEFAULT 14 _ZN7android15BnRemoteDisp
1200:   FUNC GLOBAL DEFAULT 14 _ZN7android11MediaPlayer1
1201:   OBJECT GLOBAL DEFAULT 18 _ZTVN7android16BnMediaExt
1202:   OBJECT GLOBAL DEFAULT 18 _ZTCN7android15BnRemoteDi
1203:   OBJECT WEAK DEFAULT 18 _ZTCN7android24BpMediaMet
1204:   OBJECT GLOBAL DEFAULT 18 _ZTVN7android22MediaMetad
1205:   FUNC GLOBAL DEFAULT 14 _ZThn8_N7android13BnMedia
1206:   FUNC WEAK DEFAULT 14 _ZNK7android6VectorIfE8do
1207:   FUNC WEAK DEFAULT 14 _ZNK7android12SortedVecto
1208:   FUNC GLOBAL DEFAULT 14 _ZN7android13IStreamSourc
1209:   FUNC GLOBAL DEFAULT 14 _ZNK7android13MediaResour
1210:   FUNC GLOBAL DEFAULT 14 _ZN7android11MediaPlayer1
1211:   FUNC GLOBAL DEFAULT 14 _ZN7android18IMediaPlayer
1212:   OBJECT GLOBAL DEFAULT 18 _ZTCN7android15BnMediaRec
1213:   OBJECT GLOBAL DEFAULT 18 _ZTTN7android14IRemoteDis
1214:   OBJECT GLOBAL DEFAULT 18 _ZTCN7android23BnResource
1215:   FUNC WEAK DEFAULT 14 _ZNK7android12SortedVecto
1216:   FUNC WEAK DEFAULT 14 _ZNK7android6VectorINS_7S
1217:   OBJECT WEAK DEFAULT 18 _ZTCN7android15BpMediaRec
1218:   FUNC WEAK DEFAULT 14 _ZNK7android6VectorINS_19
1219:   FUNC GLOBAL DEFAULT 14 _ZN7android9JetPlayer7rel
1220:   FUNC GLOBAL DEFAULT 14 _ZN7android25CharacterEnc
1221:   FUNC WEAK DEFAULT 14 _ZNK7android6VectorIPNS_1
1222:   FUNC WEAK DEFAULT 14 _ZNK7android12SortedVecto
1223:   OBJECT WEAK DEFAULT 18 _ZTTN7android14BpStreamSo
1224:   FUNC GLOBAL DEFAULT 14 _ZN7android5media8Metadat
1225:   FUNC GLOBAL DEFAULT 14 _ZN7android9JetPlayer22fi
1226:   FUNC WEAK DEFAULT 14 _ZNK7android6VectorIPK13U
1227:   FUNC GLOBAL DEFAULT 14 _ZN7android11MediaPlayerD
1228:   OBJECT WEAK DEFAULT 18 _ZTCN7android16BpMediaExt
1229:   FUNC GLOBAL DEFAULT 14 _ZN7android12IMediaPlayer
1230:   OBJECT GLOBAL DEFAULT 18 _ZTCN7android15BnMediaRec
1231:   FUNC GLOBAL DEFAULT 14 _ZN7android23IResourceMan
1232:   OBJECT GLOBAL DEFAULT 18 _ZTVN7android17IMediaHTTP
1233:   OBJECT GLOBAL DEFAULT 18 _ZTCN7android20BnMediaPla
1234:   FUNC GLOBAL DEFAULT 14 _ZN7android13MediaRecorde
1235:   FUNC WEAK DEFAULT 14 _ZNK7android6VectorIPNS_1
1236:   OBJECT GLOBAL DEFAULT 18 _ZTCN7android15BnRemoteDi
1237:   OBJECT WEAK DEFAULT 18 _ZTCN7android15BpRemoteDi
1238:   OBJECT GLOBAL DEFAULT 18 _ZTCN7android24BnMediaMet
1239:   FUNC GLOBAL DEFAULT 14 _ZN7android12MediaScanner
1240:   FUNC GLOBAL DEFAULT 14 _ZN7android11StringArrayD
1241:   OBJECT WEAK DEFAULT 18 _ZTCN7android21BpMediaHTT
1242:   FUNC GLOBAL DEFAULT 14 _ZN7android13MediaRecorde
1243:   FUNC GLOBAL DEFAULT 14 _ZN7android23IMediaMetada
1244:   FUNC GLOBAL DEFAULT 14 _ZN7android11StringArrayC
1245:   FUNC GLOBAL DEFAULT 14 _ZN7android17BufferingSet
1246:   FUNC WEAK DEFAULT 14 _ZNSt3__16__treeINS_12__v
1247:   OBJECT GLOBAL DEFAULT 18 _ZTCN7android20IMediaHTTP
1248:   FUNC GLOBAL DEFAULT 14 _ZTv0_n24_N7android12IMed
1249:   FUNC GLOBAL DEFAULT 14 _ZThn8_N7android24BnMedia
1250:   FUNC GLOBAL DEFAULT 14 _ZN7android13MediaProfile
1251:   FUNC GLOBAL DEFAULT 14 _ZN7android17IMediaHTTPSe
1252:   FUNC GLOBAL DEFAULT 14 _ZTv0_n24_N7android12IMed
1253:   OBJECT GLOBAL DEFAULT 18 _ZTCN7android14BnStreamSo
1254:   FUNC GLOBAL DEFAULT 14 _ZN7android11MediaPlayer1
1255:   FUNC WEAK DEFAULT 14 _ZNSt3__16vectorIN7androi
1256:   FUNC GLOBAL DEFAULT 14 _ZN7android9JetPlayer9clo
1257:   OBJECT GLOBAL DEFAULT 18 _ZTCN7android11MediaPlaye
1258:   OBJECT GLOBAL DEFAULT 18 _ZTTN7android13BnMediaPla
1259:   OBJECT GLOBAL DEFAULT 18 _ZTVN7android16BnStreamLi
1260:   OBJECT WEAK DEFAULT 18 _ZTTN7android20BpMediaPla
1261:   FUNC GLOBAL DEFAULT 14 _ZN7android11MediaPlayer7
1262:   OBJECT WEAK DEFAULT 18 _ZTCN7android23BpResource
1263:   OBJECT GLOBAL DEFAULT 23 _ZN7android22MediaMetadat
1264:   OBJECT GLOBAL DEFAULT 18 _ZTVN7android20IMediaHTTP
1265:   OBJECT GLOBAL DEFAULT 18 _ZTCN7android15IMediaExtr
1266:   FUNC GLOBAL DEFAULT 14 _ZN7android18IMediaPlayer
1267:   FUNC GLOBAL DEFAULT 14 _ZN7android13MediaRecorde
1268:   FUNC GLOBAL DEFAULT 14 _ZN7android22MediaMetadat
1269:   FUNC WEAK DEFAULT 14 _ZNK7android6VectorINS_8S
1270:   FUNC GLOBAL DEFAULT 14 _ZTv0_n24_N7android15IMed
1271:   FUNC GLOBAL DEFAULT 14 _ZN7android17IMediaHTTPSe
1272:   OBJECT WEAK DEFAULT 18 _ZTCN7android20BpMediaPla
1273:   OBJECT GLOBAL DEFAULT 23 _ZN7android20IRemoteDispl
1274:   OBJECT WEAK DEFAULT 18 _ZTCN7android21BpRemoteDi
1275:   OBJECT GLOBAL DEFAULT 18 _ZTCN7android19IMediaDeat
1276:   OBJECT WEAK DEFAULT 18 _ZTVN7android13DecryptHan
1277:   FUNC GLOBAL DEFAULT 14 _ZNK7android14IRemoteDisp
1278:   FUNC WEAK DEFAULT 14 _ZNSt3__16vectorIN7androi
1279:   FUNC GLOBAL DEFAULT 14 _ZN7android18MediaScanner
1280:   OBJECT GLOBAL DEFAULT 23 _ZN7android11IDataSource1
1281:   FUNC GLOBAL DEFAULT 14 _ZN7android11MediaPlayer1
1282:   OBJECT WEAK DEFAULT 18 _ZTVN7android6VectorINS_8
1283:   FUNC GLOBAL DEFAULT 14 _ZN7android9JetPlayer10cl
1284:   OBJECT GLOBAL DEFAULT 18 _ZTVN7android18MediaScann
1285:   FUNC GLOBAL DEFAULT 14 _ZN7android10VisualizerC1
1286:   OBJECT GLOBAL DEFAULT 18 _ZTCN7android13BnMediaPla
1287:   FUNC WEAK DEFAULT 14 _ZNK7android6VectorINS_19
1288:   FUNC WEAK DEFAULT 14 _ZNSt3__16__treeINS_12__v
1289:   FUNC GLOBAL DEFAULT 14 _ZN7android19IMediaPlayer
1290:   OBJECT WEAK DEFAULT 18 _ZTCN7android24BpResource
1291:   FUNC WEAK DEFAULT 14 _ZNK7android6VectorINS_2s
1292:   FUNC GLOBAL DEFAULT 14 _ZN7android13MediaProfile
1293:   FUNC GLOBAL DEFAULT 14 _ZN7android10VisualizerC2
1294:   FUNC GLOBAL DEFAULT 14 _ZTv0_n24_N7android11IDat
1295:   FUNC GLOBAL DEFAULT 14 _ZNK7android17BufferingSe
1296:   FUNC GLOBAL DEFAULT 14 _ZN7android23BnMediaExtra
1297:   FUNC GLOBAL DEFAULT 14 _ZN7android12IMediaPlayer
1298:   FUNC WEAK DEFAULT 14 _ZNK7android6VectorINS_13
1299:   OBJECT GLOBAL DEFAULT 18 _ZTCN7android13IStreamSou
1300:   FUNC GLOBAL DEFAULT 14 _ZTv0_n24_N7android13Medi
1301:   FUNC WEAK DEFAULT 14 _ZNK7android12SortedVecto
1302:   FUNC GLOBAL DEFAULT 14 _ZN7android12IMediaSource
1303:   OBJECT GLOBAL DEFAULT 18 _ZTCN7android13MediaRecor
1304:   FUNC WEAK DEFAULT 14 _ZN7android2spINS_22Media
1305:   FUNC GLOBAL DEFAULT 14 _ZNK7android5media4midi14
1306:   FUNC GLOBAL DEFAULT 14 _ZN7android13MediaAlbumAr
1307:   FUNC WEAK DEFAULT 14 _ZNK7android12SortedVecto
1308:   FUNC GLOBAL DEFAULT 14 _ZN7android14IMediaRecord
1309:   FUNC GLOBAL DEFAULT 14 _ZN7android13IStreamSourc
1310:   FUNC GLOBAL DEFAULT 14 _ZN7android13BnMediaSourc
1311:   OBJECT GLOBAL DEFAULT 23 _ZN7android22IResourceMan
1312:   FUNC GLOBAL DEFAULT 14 _ZTv0_n24_N7android23IRes
1313:   OBJECT GLOBAL DEFAULT 18 _ZTCN7android12BnDataSour
1314:   FUNC GLOBAL DEFAULT 14 _ZTv0_n24_N7android22IMed
1315:   OBJECT GLOBAL DEFAULT 18 _ZTTN7android15BnMediaRec
1316:   FUNC GLOBAL DEFAULT 14 _ZNK7android12IMediaSourc
1317:   FUNC WEAK DEFAULT 14 _ZNK7android6VectorINS_2s
1318:   FUNC WEAK DEFAULT 14 _ZNK7android6VectorIPNS_1
1319:   FUNC GLOBAL DEFAULT 14 _ZN7android11MediaPlayer1
1320:   OBJECT WEAK DEFAULT 18 _ZTCN7android16BpMediaExt
1321:   FUNC GLOBAL DEFAULT 14 _ZThn8_N7android13BnMedia
1322:   FUNC GLOBAL DEFAULT 14 _ZN7android14IRemoteDispl
1323:   OBJECT GLOBAL DEFAULT 18 _ZTCN7android16BnStreamLi
1324:   FUNC GLOBAL DEFAULT 14 _ZN7android11IDataSourceD
1325:   OBJECT GLOBAL DEFAULT 18 _ZTCN7android11IDataSourc
1326:   FUNC GLOBAL DEFAULT 14 _ZTv0_n24_N7android20IRem
1327:   FUNC GLOBAL DEFAULT 14 _ZN7android13MediaRecorde
1328:   FUNC GLOBAL DEFAULT 14 _ZN7android12MediaScanner
1329:   FUNC GLOBAL DEFAULT 14 _ZN7android25CharacterEnc
1330:   FUNC GLOBAL DEFAULT 14 _ZNK7android17IMediaHTTPS
1331:   OBJECT GLOBAL DEFAULT 18 _ZTCN7android16BnMediaExt
1332:   OBJECT GLOBAL DEFAULT 18 _ZTCN7android21BnRemoteDi
1333:   OBJECT GLOBAL DEFAULT 18 _ZTVN7android23IMediaMeta
1334:   FUNC GLOBAL DEFAULT 14 _Z23reverse_translate_err
1335:   OBJECT GLOBAL DEFAULT 18 _ZN7android5media4midi14M
1336:   OBJECT GLOBAL DEFAULT 23 _ZN7android15IMediaExtrac
1337:   OBJECT GLOBAL DEFAULT 18 _ZTCN7android23BnMediaExt
1338:   FUNC WEAK DEFAULT 14 _ZNK7android6VectorIfE12d
1339:   OBJECT GLOBAL DEFAULT 23 _ZN7android14IRemoteDispl
1340:   FUNC WEAK DEFAULT 14 _ZNK7android6VectorINS_19
1341:   OBJECT GLOBAL DEFAULT 18 _ZTTN7android24BnMediaMet
1342:   FUNC WEAK DEFAULT 14 _ZNSt3__16__treeINS_12__v
1343:   FUNC GLOBAL DEFAULT 14 _ZN7android19IMediaDeathN
1344:   FUNC GLOBAL DEFAULT 14 _ZN7android10VisualizerD2
1345:   FUNC WEAK DEFAULT 14 _ZNK7android6VectorIhE8do
1346:   FUNC WEAK DEFAULT 14 _ZNSt3__16__treeINS_12__v
1347:   FUNC GLOBAL DEFAULT 14 _ZN7android22MediaMetadat
1348:   FUNC GLOBAL DEFAULT 14 _ZN7android13MediaProfile
1349:   FUNC GLOBAL DEFAULT 14 _ZThn8_N7android23BnMedia
1350:   OBJECT GLOBAL DEFAULT 18 _ZN7android5media4midi14M
1351:   FUNC GLOBAL DEFAULT 14 _ZN7android25CharacterEnc
1352:   FUNC GLOBAL DEFAULT 14 _ZN7android13MediaProfile
1353:   FUNC GLOBAL DEFAULT 14 _ZN7android22AMediaFormat
1354:   FUNC GLOBAL DEFAULT 14 _ZN7android25CharacterEnc
1355:   FUNC GLOBAL DEFAULT 14 _ZNK7android13MediaProfil
1356:   FUNC GLOBAL DEFAULT 14 _ZN7android11MediaPlayer1
1357:   OBJECT WEAK DEFAULT 18 _ZTVN7android23BpMediaExt
1358:   FUNC GLOBAL DEFAULT 14 _ZN7android22IResourceMan
1359:   FUNC GLOBAL DEFAULT 14 _ZN7android9JetPlayer5pau
1360:   FUNC WEAK DEFAULT 14 _ZNK7android6VectorIPNS_1
1361:   FUNC GLOBAL DEFAULT 14 _ZN7android11MediaPlayer5
1362:   OBJECT GLOBAL DEFAULT 23 _ZN7android18IMediaPlayer
1363:   OBJECT WEAK DEFAULT 18 _ZTVN7android5media12Volu
1364:   FUNC WEAK DEFAULT 14 _ZNK7android6VectorINS0_I
1365:   FUNC GLOBAL DEFAULT 14 _ZN7android14IRemoteDispl
1366:   FUNC GLOBAL DEFAULT 14 _ZN7android23IMediaMetada
1367:   FUNC WEAK DEFAULT 14 _ZNSt3__16__treeINS_12__v
1368:   FUNC GLOBAL DEFAULT 14 _ZN7android11StringArray8
1369:   FUNC GLOBAL DEFAULT 14 _ZN7android13MediaProfile
1370:   FUNC GLOBAL DEFAULT 14 _ZN7android13MediaProfile
1371:   FUNC GLOBAL DEFAULT 14 _ZN7android20IMediaRecord
1372:   FUNC GLOBAL DEFAULT 14 _ZN7android20IMediaRecord
1373:   OBJECT WEAK DEFAULT 18 _ZTCN7android15BpMediaRec
1374:   FUNC GLOBAL DEFAULT 14 _ZN7android23IMediaMetada
1375:   FUNC GLOBAL DEFAULT 14 _ZN7android13MediaAlbumAr
1376:   FUNC GLOBAL DEFAULT 14 _ZN7android15IMediaExtrac
1377:   FUNC GLOBAL DEFAULT 14 _ZN7android19IMediaPlayer
1378:   FUNC GLOBAL DEFAULT 14 _ZN7android20IMediaRecord
1379:   OBJECT GLOBAL DEFAULT 18 _ZTVN7android24BnMediaMet
1380:   FUNC GLOBAL DEFAULT 14 _ZN7android11MediaPlayer1
1381:   FUNC GLOBAL DEFAULT 14 _ZN7android15IMediaExtrac
1382:   OBJECT GLOBAL DEFAULT 23 _ZN7android20IMediaRecord
1383:   FUNC WEAK DEFAULT 14 _ZN7android11BnInterfaceI
1384:   FUNC WEAK DEFAULT 14 _ZNK7android6VectorINS_13
1385:   FUNC WEAK DEFAULT 14 _ZNK7android6VectorINS_13
1386:   OBJECT WEAK DEFAULT 18 _ZTVN7android12SortedVect
1387:   OBJECT WEAK DEFAULT 18 _ZTCN7android18BpMediaHTT
1388:   OBJECT GLOBAL DEFAULT 23 _ZN7android12IMediaSource
1389:   OBJECT GLOBAL DEFAULT 18 _ZTCN7android24BnResource
1390:   FUNC GLOBAL DEFAULT 14 _ZN7android22MediaMetadat
1391:   OBJECT GLOBAL DEFAULT 18 _ZTVN7android23BnMediaExt
1392:   FUNC GLOBAL DEFAULT 14 _ZNK7android19IMediaPlaye
1393:   FUNC WEAK DEFAULT 14 _ZNK7android6VectorINS_13
1394:   FUNC GLOBAL DEFAULT 14 _ZN7android22MediaMetadat
1395:   FUNC GLOBAL DEFAULT 14 _ZN7android20IMediaHTTPCo
1396:   OBJECT WEAK DEFAULT 18 _ZTCN7android18BpMediaHTT
1397:   OBJECT WEAK DEFAULT 18 _ZTCN7android19BpMediaPla
1398:   OBJECT WEAK DEFAULT 18 _ZTVN7android13BpMediaSou
1399:   FUNC GLOBAL DEFAULT 14 _ZN7android22MediaMetadat
1400:   FUNC WEAK DEFAULT 14 _ZNK7android12SortedVecto
1401:   FUNC GLOBAL DEFAULT 14 _ZN7android11MediaPlayer8
1402:   FUNC GLOBAL DEFAULT 14 _ZTv0_n24_N7android18IMed
1403:   FUNC GLOBAL DEFAULT 14 _ZTv0_n24_N7android20IMed
1404:   OBJECT GLOBAL DEFAULT 18 _ZTCN7android21BnRemoteDi
1405:   FUNC GLOBAL DEFAULT 14 _ZN7android5media8Metadat
1406:   OBJECT WEAK DEFAULT 18 _ZTCN7android24BpResource
1407:   OBJECT WEAK DEFAULT 18 _ZTCN7android16BpStreamLi
1408:   OBJECT GLOBAL DEFAULT 23 _ZN7android22MediaMetadat
1409:   FUNC GLOBAL DEFAULT 14 _ZN7android9JetPlayer11se
1410:   OBJECT GLOBAL DEFAULT 23 _ZN7android13MediaProfile
1411:   OBJECT WEAK DEFAULT 18 _ZTTN7android18BpMediaHTT
1412:   FUNC WEAK DEFAULT 14 _ZNK7android6VectorINS_2w
1413:   OBJECT GLOBAL DEFAULT 18 _ZTCN7android15BnMediaRec
1414:   FUNC WEAK DEFAULT 14 _ZNK7android6VectorIPNS_1
1415:   FUNC WEAK DEFAULT 14 _ZN7android11BnInterfaceI
1416:   OBJECT WEAK DEFAULT 18 _ZTCN7android21BpMediaHTT
1417:   OBJECT GLOBAL DEFAULT 18 _ZTCN7android20BnMediaPla
1418:   OBJECT GLOBAL DEFAULT 18 _ZTVN7android12IMediaSour
1419:   OBJECT GLOBAL DEFAULT 18 _ZTCN7android23BnResource
1420:   FUNC GLOBAL DEFAULT 14 _ZN7android13MediaRecorde
1421:   FUNC WEAK DEFAULT 14 _ZNK7android12SortedVecto
1422:   FUNC WEAK DEFAULT 14 _ZNK7android6VectorINS_8S
1423:   FUNC GLOBAL DEFAULT 14 _ZN7android13MediaProfile
1424:   OBJECT GLOBAL DEFAULT 18 _ZTVN7android23IResourceM
1425:   FUNC GLOBAL DEFAULT 14 _ZN7android15IStreamListe
1426:   OBJECT GLOBAL DEFAULT 18 _ZTCN7android13MediaRecor
1427:   FUNC WEAK DEFAULT 14 _ZNSt3__16vectorIN7androi
1428:   FUNC GLOBAL DEFAULT 14 _ZN7android13MediaProfile
1429:   OBJECT WEAK DEFAULT 18 _ZTVN7android23BpResource
1430:   OBJECT GLOBAL DEFAULT 18 _ZTTN7android24BnResource
1431:   FUNC GLOBAL DEFAULT 14 _ZN7android25CharacterEnc
1432:   FUNC GLOBAL DEFAULT 14 _ZN7android10Visualizer13
1433:   FUNC WEAK DEFAULT 14 _ZNK7android6VectorINS_17
1434:   FUNC WEAK DEFAULT 14 _ZN7android11BnInterfaceI
1435:   FUNC GLOBAL DEFAULT 14 _ZN7android25CharacterEnc
1436:   OBJECT GLOBAL DEFAULT 18 _ZN7android5media4midi14M
1437:   FUNC WEAK DEFAULT 14 _ZNK7android6VectorIPK13U
1438:   FUNC GLOBAL DEFAULT 14 _ZN7android11MediaPlayer1
1439:   FUNC GLOBAL DEFAULT 14 _ZN7android11MediaPlayer1
1440:   OBJECT WEAK DEFAULT 18 _ZTCN7android16BpStreamLi
1441:   FUNC WEAK DEFAULT 14 _ZNK7android6VectorINS_8S
1442:   OBJECT GLOBAL DEFAULT 18 _ZN7android13MediaProfile
1443:   OBJECT WEAK DEFAULT 18 _ZTVN7android6VectorINS_1
1444:   OBJECT GLOBAL DEFAULT 18 _ZTTN7android21BnRemoteDi
1445:   FUNC GLOBAL DEFAULT 14 _ZN7android10Visualizer13
1446:   OBJECT GLOBAL DEFAULT 18 _ZTCN7android13BnMediaPla
1447:   FUNC GLOBAL DEFAULT 14 _ZTv0_n32_N7android13Medi
1448:   FUNC GLOBAL DEFAULT 14 _ZN7android11MediaPlayer5
1449:   OBJECT GLOBAL DEFAULT 23 _ZN7android14IMediaRecord
1450:   OBJECT GLOBAL DEFAULT 18 _ZTVN7android21BnRemoteDi
1451:   OBJECT WEAK DEFAULT 18 _ZTVN7android6VectorINS_1
1452:   OBJECT GLOBAL DEFAULT 18 _ZTCN7android14BnStreamSo
1453:   FUNC GLOBAL DEFAULT 14 _ZNK7android13MediaProfil
1454:   FUNC WEAK DEFAULT 14 _ZNK7android6VectorINS_7S
1455:   FUNC GLOBAL DEFAULT 14 _ZN7android24BnMediaMetad
1456:   FUNC GLOBAL DEFAULT 14 _ZN7android9JetPlayer12se
1457:   FUNC GLOBAL DEFAULT 14 _ZN7android10Visualizer13
1458:   FUNC GLOBAL DEFAULT 14 _ZTv0_n24_N7android17IMed
1459:   FUNC GLOBAL DEFAULT 14 _ZN7android19IMediaPlayer
1460:   OBJECT GLOBAL DEFAULT 18 _ZTTN7android20BnMediaPla
1461:   FUNC WEAK DEFAULT 14 _ZNK7android6VectorIfE10d
1462:   FUNC WEAK DEFAULT 14 _ZNK7android12SortedVecto
1463:   OBJECT WEAK DEFAULT 18 _ZTTN7android21BpMediaHTT
1464:   OBJECT WEAK DEFAULT 18 _ZTCN7android23BpResource
1465:   OBJECT GLOBAL DEFAULT 18 _ZTVN7android23BnResource
1466:   OBJECT WEAK DEFAULT 18 _ZTTN7android24BpMediaMet
1467:   FUNC GLOBAL DEFAULT 14 _ZN7android18MediaScanner
1468:   FUNC WEAK DEFAULT 14 _ZNK7android6VectorIPNS_1
1469:   FUNC GLOBAL DEFAULT 14 _ZN7android11MediaPlayer1
1470:   OBJECT WEAK DEFAULT 18 _ZTCN7android21BpMediaRec
1471:   OBJECT WEAK DEFAULT 18 _ZTVN7android15BpRemoteDi
1472:   FUNC GLOBAL DEFAULT 14 _ZN7android22MediaMetadat
1473:   FUNC GLOBAL DEFAULT 14 _ZN7android13MediaProfile
1474:   FUNC GLOBAL DEFAULT 14 _ZNK7android13MediaProfil
1475:   OBJECT GLOBAL DEFAULT 23 _ZN7android17IMediaHTTPSe
1476:   FUNC WEAK DEFAULT 14 _ZNK7android6VectorINS_7S
1477:   FUNC GLOBAL DEFAULT 14 _ZN7android22IMediaExtrac
1478:   FUNC GLOBAL DEFAULT 14 _ZTv0_n24_N7android19IMed
1479:   OBJECT GLOBAL DEFAULT 18 _ZTCN7android13BnMediaSou
1480:   OBJECT GLOBAL DEFAULT 18 _ZTCN7android13MediaRecor
1481:   FUNC WEAK DEFAULT 14 _ZNK7android12SortedVecto
1482:   FUNC GLOBAL DEFAULT 14 _ZN7android11MediaPlayer7
1483:   FUNC WEAK DEFAULT 14 _ZNK7android6VectorINS_19
1484:   OBJECT GLOBAL DEFAULT 18 _ZTVN7android24BnResource
1485:   FUNC GLOBAL DEFAULT 14 _ZN7android9JetPlayer13du
1486:   FUNC WEAK DEFAULT 14 _ZNK7android6VectorIPNS_1
1487:   FUNC GLOBAL DEFAULT 14 _ZN7android11MediaPlayer1
1488:   OBJECT GLOBAL DEFAULT 18 _ZTCN7android24BnResource
1489:   FUNC WEAK DEFAULT 14 _ZNK7android12SortedVecto
1490:   FUNC GLOBAL DEFAULT 14 _ZN7android21BnMediaRecor
1491:   FUNC GLOBAL DEFAULT 14 _ZN7android9JetPlayer11tr
1492:   FUNC GLOBAL DEFAULT 14 _ZN7android11MediaPlayerD
1493:   OBJECT WEAK DEFAULT 18 _ZTVN7android21BpMediaHTT
1494:   OBJECT WEAK DEFAULT 18 _ZTCN7android13BpMediaPla
1495:   FUNC WEAK DEFAULT 14 _ZN7android11BnInterfaceI
1496:   OBJECT WEAK DEFAULT 18 _ZTCN7android16BpStreamLi
1497:   FUNC GLOBAL DEFAULT 14 _ZN7android13MediaProfile
1498:   FUNC GLOBAL DEFAULT 14 _ZN7android11MediaPlayerC
1499:   FUNC WEAK DEFAULT 14 _ZNK7android6VectorIhE16d
1500:   OBJECT GLOBAL DEFAULT 23 _ZN7android14IRemoteDispl
1501:   FUNC WEAK DEFAULT 14 _ZNK7android6VectorIPNS_1
1502:   OBJECT WEAK DEFAULT 18 _ZTVN7android5media12Volu
1503:   FUNC WEAK DEFAULT 14 _ZN7android11BnInterfaceI
1504:   FUNC GLOBAL DEFAULT 14 _ZN7android13MediaRecorde
1505:   FUNC GLOBAL DEFAULT 14 _ZN7android13MediaProfile
1506:   OBJECT WEAK DEFAULT 18 _ZTCN7android12BpDataSour
1507:   OBJECT GLOBAL DEFAULT 18 _ZTVN7android20IMediaReco
1508:   OBJECT GLOBAL DEFAULT 23 _ZN7android23IResourceMan
1509:   OBJECT GLOBAL DEFAULT 23 _ZN7android15IStreamListe
1510:   FUNC GLOBAL DEFAULT 14 _ZN7android11StringArray9
1511:   FUNC GLOBAL DEFAULT 14 _ZN7android19BnMediaPlaye
1512:   FUNC GLOBAL DEFAULT 14 _ZN7android23IResourceMan
1513:   FUNC GLOBAL DEFAULT 14 _ZN7android12MediaScanner
1514:   FUNC GLOBAL DEFAULT 14 _ZN7android13MediaProfile
1515:   FUNC WEAK DEFAULT 14 _ZNK7android6VectorINS_13
1516:   FUNC GLOBAL DEFAULT 14 _ZN7android11MediaPlayer1
1517:   FUNC GLOBAL DEFAULT 14 _ZThn8_N7android17IMediaH
1518:   FUNC GLOBAL DEFAULT 14 _ZN7android13BnMediaPlaye
1519:   OBJECT GLOBAL DEFAULT 18 _ZTCN7android13BnMediaSou
1520:   OBJECT GLOBAL DEFAULT 18 _ZTCN7android15BnRemoteDi
1521:   OBJECT WEAK DEFAULT 18 _ZTVN7android24BpMediaMet
1522:   FUNC GLOBAL DEFAULT 14 _ZN7android22MediaMetadat
1523:   OBJECT GLOBAL DEFAULT 18 _ZTCN7android11MediaPlaye
1524:   FUNC WEAK DEFAULT 14 _ZNK7android6VectorINS_8S
1525:   FUNC GLOBAL DEFAULT 14 _ZNK7android13MediaProfil
1526:   FUNC GLOBAL DEFAULT 14 _ZN7android23IResourceMan
1527:   FUNC WEAK DEFAULT 14 _ZNSt3__16__treeINS_12__v
1528:   FUNC WEAK DEFAULT 14 _ZN7android11BnInterfaceI
1529:   FUNC GLOBAL DEFAULT 14 _ZTv0_n24_N7android22Medi
1530:   FUNC GLOBAL DEFAULT 14 _ZN7android13MediaProfile
1531:   FUNC WEAK DEFAULT 14 _ZNK7android12SortedVecto
1532:   FUNC GLOBAL DEFAULT 14 _ZN7android11MediaPlayer2
1533:   OBJECT GLOBAL DEFAULT 18 _ZTCN7android12IMediaPlay
1534:   FUNC WEAK DEFAULT 14 _ZNK7android6VectorINS0_I
1535:   FUNC WEAK DEFAULT 14 _ZNK7android6VectorINS_13
1536:   OBJECT WEAK DEFAULT 18 _ZTTN7android9JetPlayer15
1537:   FUNC GLOBAL DEFAULT 14 _ZN7android13MediaProfile
1538:   FUNC GLOBAL DEFAULT 14 _ZN7android13MediaProfile
1539:   FUNC GLOBAL DEFAULT 14 _ZN7android13MediaRecorde
1540:   OBJECT WEAK DEFAULT 18 _ZTVN7android6VectorIPK13
1541:   OBJECT GLOBAL DEFAULT 18 _ZN7android13MediaProfile
1542:   FUNC GLOBAL DEFAULT 14 _ZNK7android13MediaProfil
1543:   FUNC WEAK DEFAULT 14 _ZNK7android12SortedVecto
1544:   OBJECT WEAK DEFAULT 18 _ZTCN7android12BpDataSour
1545:   OBJECT WEAK DEFAULT 18 _ZTTN7android13BpMediaPla
1546:   FUNC GLOBAL DEFAULT 14 _ZN7android23IResourceMan
1547:   FUNC WEAK DEFAULT 14 _ZN7android2spINS_19IMedi
1548:   FUNC GLOBAL DEFAULT 14 _ZN7android11MediaPlayer9
1549:   FUNC GLOBAL DEFAULT 14 _ZTv0_n24_N7android13BnMe
1550:   OBJECT GLOBAL DEFAULT 18 _ZTCN7android24BnResource
1551:   OBJECT WEAK DEFAULT 18 _ZTTN7android24BpResource
1552:   FUNC GLOBAL DEFAULT 14 _ZN7android10Visualizer7r
1553:   FUNC GLOBAL DEFAULT 14 _ZN7android17IMediaHTTPSe
1554:   OBJECT GLOBAL DEFAULT 18 _ZTCN7android23BnMediaExt
