 0x000000000000000e (SONAME)             Library soname: [libandroidfw.so]
  
Symbol   contains 1030 entries:
Num:   Type Bind Vis Ndx Name
0:   NOTYPE LOCAL DEFAULT UND
1:   FUNC GLOBAL DEFAULT UND __cxa_finalize@LIBC (2)
2:   FUNC GLOBAL DEFAULT UND __cxa_atexit@LIBC (2)
3:   FUNC GLOBAL DEFAULT UND _Z11OpenArchivePKcPP10Zip
4:   FUNC GLOBAL DEFAULT UND _Z12CloseArchiveP10ZipArc
5:   FUNC GLOBAL DEFAULT UND _Z12EndIterationPv
6:   FUNC GLOBAL DEFAULT UND _Z13OpenArchiveFdiPKcPP10
7:   FUNC GLOBAL DEFAULT UND _Z14StartIterationP10ZipA
8:   FUNC GLOBAL DEFAULT UND _Z15ErrorCodeStringi
9:   FUNC GLOBAL DEFAULT UND _Z17GetFileDescriptorP10Z
10:   FUNC GLOBAL DEFAULT UND _Z4NextPvP8ZipEntryP9ZipS
11:   FUNC GLOBAL DEFAULT UND _Z9FindEntryP10ZipArchive
12:   FUNC GLOBAL DEFAULT UND _ZN7android4base10LogMess
13:   FUNC GLOBAL DEFAULT UND _ZN7android4base10LogMess
14:   FUNC GLOBAL DEFAULT UND _ZN7android4base10LogMess
15:   FUNC GLOBAL DEFAULT UND _ZN7android4base21GetMini
16:   FUNC GLOBAL DEFAULT UND _ZN7android4base23SystemE
17:   FUNC GLOBAL DEFAULT UND _ZN7android7FileMap6creat
18:   FUNC GLOBAL DEFAULT UND _ZN7android7FileMapC1Ev
19:   FUNC GLOBAL DEFAULT UND _ZN7android7FileMapD1Ev
20:   FUNC GLOBAL DEFAULT UND _ZN9ZipStringC1EPKc
21:   FUNC GLOBAL DEFAULT UND _ZNKSt3__121__basic_strin
22:   FUNC GLOBAL DEFAULT UND _ZNKSt3__16locale9use_fac
23:   FUNC GLOBAL DEFAULT UND _ZNKSt3__18ios_base6getlo
24:   FUNC GLOBAL DEFAULT UND _ZNSt3__112basic_stringIc
25:   FUNC GLOBAL DEFAULT UND _ZNSt3__112basic_stringIc
26:   FUNC GLOBAL DEFAULT UND _ZNSt3__112basic_stringIc
27:   FUNC GLOBAL DEFAULT UND _ZNSt3__113basic_ostreamI
28:   FUNC GLOBAL DEFAULT UND _ZNSt3__113basic_ostreamI
29:   OBJECT GLOBAL DEFAULT UND _ZNSt3__15ctypeIcE2idE
30:   FUNC GLOBAL DEFAULT UND _ZNSt3__16localeD1Ev
31:   FUNC GLOBAL DEFAULT UND _ZNSt3__18ios_base5clearE
32:   FUNC GLOBAL DEFAULT UND _ZdlPv
33:   FUNC GLOBAL DEFAULT UND _Znwm
34:   FUNC GLOBAL DEFAULT UND __errno@LIBC (2)
35:   FUNC GLOBAL DEFAULT UND __open_2@LIBC (2)
36:   FUNC GLOBAL DEFAULT UND __stack_chk_fail@LIBC (2)
37:   FUNC GLOBAL DEFAULT UND abort@LIBC (2)
38:   FUNC WEAK DEFAULT UND android_fdsan_close_with_@LIBC_Q (3)
39:   FUNC WEAK DEFAULT UND android_fdsan_create_owne@LIBC_Q (3)
40:   FUNC WEAK DEFAULT UND android_fdsan_exchange_ow@LIBC_Q (3)
41:   FUNC GLOBAL DEFAULT UND close@LIBC (2)
42:   FUNC GLOBAL DEFAULT UND lseek64@LIBC (2)
43:   FUNC GLOBAL DEFAULT UND memcmp@LIBC (2)
44:   FUNC GLOBAL DEFAULT UND memcpy@LIBC (2)
45:   FUNC GLOBAL DEFAULT UND memset@LIBC (2)
46:   FUNC GLOBAL DEFAULT UND strlen@LIBC (2)
47:   FUNC GLOBAL DEFAULT UND _ZN7android7String86appen
48:   FUNC GLOBAL DEFAULT UND _ZN7android7String8C1Ev
49:   FUNC GLOBAL DEFAULT UND _ZN7android7String8D1Ev
50:   FUNC GLOBAL DEFAULT UND _ZdaPv
51:   FUNC GLOBAL DEFAULT UND _Znam
52:   FUNC GLOBAL DEFAULT UND __android_log_print@LIBLOG (4)
53:   FUNC GLOBAL DEFAULT UND __cxa_pure_virtual
54:   FUNC GLOBAL DEFAULT UND __vsnprintf_chk@LIBC (2)
55:   FUNC GLOBAL DEFAULT UND dup@LIBC (2)
56:   FUNC GLOBAL DEFAULT UND fclose@LIBC (2)
57:   FUNC GLOBAL DEFAULT UND fdopen@LIBC (2)
58:   FUNC GLOBAL DEFAULT UND fileno@LIBC (2)
59:   FUNC GLOBAL DEFAULT UND fread@LIBC (2)
60:   FUNC GLOBAL DEFAULT UND free@LIBC (2)
61:   FUNC GLOBAL DEFAULT UND fseek@LIBC (2)
62:   FUNC GLOBAL DEFAULT UND ftell@LIBC (2)
63:   FUNC GLOBAL DEFAULT UND lseek@LIBC (2)
64:   FUNC GLOBAL DEFAULT UND pthread_mutex_destroy@LIBC (2)
65:   FUNC GLOBAL DEFAULT UND pthread_mutex_init@LIBC (2)
66:   FUNC GLOBAL DEFAULT UND pthread_mutex_lock@LIBC (2)
67:   FUNC GLOBAL DEFAULT UND pthread_mutex_unlock@LIBC (2)
68:   FUNC GLOBAL DEFAULT UND strdup@LIBC (2)
69:   FUNC GLOBAL DEFAULT UND _ZN7android7String85setTo
70:   FUNC GLOBAL DEFAULT UND _ZNK7android16SortedVecto
71:   FUNC GLOBAL DEFAULT UND _ZN7android10VectorImpl13
72:   FUNC GLOBAL DEFAULT UND _ZN7android10VectorImpl13
73:   FUNC GLOBAL DEFAULT UND _ZN7android10VectorImpl16
74:   FUNC GLOBAL DEFAULT UND _ZN7android10VectorImpl3a
75:   FUNC GLOBAL DEFAULT UND _ZN7android10VectorImplC2
76:   FUNC GLOBAL DEFAULT UND _ZN7android10VectorImplD2
77:   FUNC GLOBAL DEFAULT UND _ZN7android14sp_report_ra
78:   FUNC GLOBAL DEFAULT UND _ZN7android16SortedVector
79:   FUNC GLOBAL DEFAULT UND _ZN7android16SortedVector
80:   FUNC GLOBAL DEFAULT UND _ZN7android16SortedVector
81:   FUNC GLOBAL DEFAULT UND _ZN7android16SortedVector
82:   FUNC GLOBAL DEFAULT UND _ZN7android7RefBase10onFi
83:   FUNC GLOBAL DEFAULT UND _ZN7android7RefBase10rena
84:   FUNC GLOBAL DEFAULT UND _ZN7android7RefBase11rena
85:   FUNC GLOBAL DEFAULT UND _ZN7android7RefBase12weak
86:   FUNC GLOBAL DEFAULT UND _ZN7android7RefBase12weak
87:   FUNC GLOBAL DEFAULT UND _ZN7android7RefBase12weak
88:   FUNC GLOBAL DEFAULT UND _ZN7android7RefBase13onLa
89:   FUNC GLOBAL DEFAULT UND _ZN7android7RefBase15onLa
90:   FUNC GLOBAL DEFAULT UND _ZN7android7RefBase20onIn
91:   FUNC GLOBAL DEFAULT UND _ZN7android7RefBaseC2Ev
92:   FUNC GLOBAL DEFAULT UND _ZN7android7RefBaseD2Ev
93:   FUNC GLOBAL DEFAULT UND _ZN7android7String810appe
94:   FUNC GLOBAL DEFAULT UND _ZN7android7String85setTo
95:   FUNC GLOBAL DEFAULT UND _ZN7android7String86appen
96:   FUNC GLOBAL DEFAULT UND _ZN7android7String8C1EPKc
97:   FUNC GLOBAL DEFAULT UND _ZN7android7String8C1EPKc
98:   FUNC GLOBAL DEFAULT UND _ZN7android7String8C1ERKS
99:   FUNC GLOBAL DEFAULT UND _ZNK7android7RefBase10cre
100:   FUNC GLOBAL DEFAULT UND _ZNK7android7RefBase9decS
101:   FUNC GLOBAL DEFAULT UND _ZNK7android7RefBase9incS
102:   FUNC GLOBAL DEFAULT UND _ZNK7android7String811get
103:   FUNC GLOBAL DEFAULT UND _ZNK7android7String811get
104:   FUNC GLOBAL DEFAULT UND _ZNK7android7String816get
105:   FUNC GLOBAL DEFAULT UND _ZNK7android7String86leng
106:   FUNC GLOBAL DEFAULT UND __android_log_assert@LIBLOG (4)
107:   FUNC GLOBAL DEFAULT UND __fgets_chk@LIBC (2)
108:   FUNC GLOBAL DEFAULT UND __strchr_chk@LIBC (2)
109:   FUNC GLOBAL DEFAULT UND __strlen_chk@LIBC (2)
110:   FUNC GLOBAL DEFAULT UND access@LIBC (2)
111:   FUNC GLOBAL DEFAULT UND atrace_begin_body
112:   OBJECT GLOBAL DEFAULT UND atrace_enabled_tags
113:   FUNC GLOBAL DEFAULT UND atrace_end_body
114:   OBJECT GLOBAL DEFAULT UND atrace_is_ready
115:   FUNC GLOBAL DEFAULT UND atrace_setup
116:   FUNC GLOBAL DEFAULT UND closedir@LIBC (2)
117:   FUNC GLOBAL DEFAULT UND flock@LIBC (2)
118:   FUNC GLOBAL DEFAULT UND fopen@LIBC (2)
119:   FUNC GLOBAL DEFAULT UND getenv@LIBC (2)
120:   FUNC GLOBAL DEFAULT UND memmove@LIBC (2)
121:   FUNC GLOBAL DEFAULT UND opendir@LIBC (2)
122:   FUNC GLOBAL DEFAULT UND readdir@LIBC (2)
123:   FUNC GLOBAL DEFAULT UND strcasecmp@LIBC (2)
124:   FUNC GLOBAL DEFAULT UND strchr@LIBC (2)
125:   FUNC GLOBAL DEFAULT UND strcmp@LIBC (2)
126:   FUNC GLOBAL DEFAULT UND strerror@LIBC (2)
127:   FUNC GLOBAL DEFAULT UND strncpy@LIBC (2)
128:   FUNC GLOBAL DEFAULT UND _ZN7android10VectorImplC2
129:   FUNC GLOBAL DEFAULT UND _ZN7android16SortedVector
130:   FUNC GLOBAL DEFAULT UND _ZN7android4base12StringP
131:   FUNC GLOBAL DEFAULT UND _ZN7android4base13StringA
132:   FUNC GLOBAL DEFAULT UND _ZN7android4base17ScopedL
133:   FUNC GLOBAL DEFAULT UND _ZN7android4base17ScopedL
134:   FUNC GLOBAL DEFAULT UND _ZN7android8String16C1EPK
135:   FUNC GLOBAL DEFAULT UND _ZN7android8String16C1ERK
136:   FUNC GLOBAL DEFAULT UND _ZN7android8String16C1Ev
137:   FUNC GLOBAL DEFAULT UND _ZN7android8String16D1Ev
138:   FUNC GLOBAL DEFAULT UND _ZNK7android8String164siz
139:   FUNC GLOBAL DEFAULT UND _ZNKSt3__120__vector_base
140:   FUNC GLOBAL DEFAULT UND _ZNSt3__112__next_primeEm
141:   FUNC GLOBAL DEFAULT UND _ZNSt3__112basic_stringIc
142:   FUNC GLOBAL DEFAULT UND _ZNSt3__112basic_stringIc
143:   FUNC GLOBAL DEFAULT UND _ZNSt3__113basic_istreamI
144:   FUNC GLOBAL DEFAULT UND _ZNSt3__113basic_istreamI
145:   FUNC GLOBAL DEFAULT UND _ZNSt3__113basic_ostreamI
146:   FUNC GLOBAL DEFAULT UND _ZNSt3__113basic_ostreamI
147:   FUNC GLOBAL DEFAULT UND _ZNSt3__113basic_ostreamI
148:   FUNC GLOBAL DEFAULT UND _ZNSt3__114basic_iostream
149:   FUNC GLOBAL DEFAULT UND _ZNSt3__114basic_iostream
150:   FUNC GLOBAL DEFAULT UND _ZNSt3__114basic_iostream
151:   FUNC GLOBAL DEFAULT UND _ZNSt3__115basic_streambu
152:   FUNC GLOBAL DEFAULT UND _ZNSt3__115basic_streambu
153:   FUNC GLOBAL DEFAULT UND _ZNSt3__115basic_streambu
154:   FUNC GLOBAL DEFAULT UND _ZNSt3__115basic_streambu
155:   FUNC GLOBAL DEFAULT UND _ZNSt3__115basic_streambu
156:   FUNC GLOBAL DEFAULT UND _ZNSt3__115basic_streambu
157:   FUNC GLOBAL DEFAULT UND _ZNSt3__115basic_streambu
158:   FUNC GLOBAL DEFAULT UND _ZNSt3__115basic_streambu
159:   FUNC GLOBAL DEFAULT UND _ZNSt3__115basic_streambu
160:   FUNC GLOBAL DEFAULT UND _ZNSt3__18ios_base4initEP
161:   FUNC GLOBAL DEFAULT UND _ZNSt3__19basic_iosIcNS_1
162:   FUNC GLOBAL DEFAULT UND _ZNSt3__1plIcNS_11char_tr
163:   FUNC GLOBAL DEFAULT UND _ZThn16_NSt3__114basic_io
164:   FUNC GLOBAL DEFAULT UND _ZThn16_NSt3__114basic_io
165:   FUNC GLOBAL DEFAULT UND _ZTv0_n24_NSt3__113basic_
166:   FUNC GLOBAL DEFAULT UND _ZTv0_n24_NSt3__113basic_
167:   FUNC GLOBAL DEFAULT UND _ZTv0_n24_NSt3__113basic_
168:   FUNC GLOBAL DEFAULT UND _ZTv0_n24_NSt3__113basic_
169:   FUNC GLOBAL DEFAULT UND _ZTv0_n24_NSt3__114basic_
170:   FUNC GLOBAL DEFAULT UND _ZTv0_n24_NSt3__114basic_
171:   FUNC GLOBAL DEFAULT UND __cxa_guard_acquire
172:   FUNC GLOBAL DEFAULT UND __cxa_guard_release
173:   FUNC GLOBAL DEFAULT UND calloc@LIBC (2)
174:   FUNC GLOBAL DEFAULT UND malloc@LIBC (2)
175:   FUNC GLOBAL DEFAULT UND realloc@LIBC (2)
176:   FUNC GLOBAL DEFAULT UND strlen16
177:   FUNC GLOBAL DEFAULT UND strzcmp16
178:   FUNC GLOBAL DEFAULT UND utf8_to_utf16
179:   FUNC GLOBAL DEFAULT UND utf8_to_utf16_length
180:   FUNC GLOBAL DEFAULT UND atoi@LIBC (2)
181:   FUNC GLOBAL DEFAULT UND tolower@LIBC (2)
182:   FUNC GLOBAL DEFAULT UND toupper@LIBC (2)
183:   FUNC GLOBAL DEFAULT UND _ZNSt3__112basic_stringIc
184:   FUNC GLOBAL DEFAULT UND _ZNSt3__113basic_ostreamI
185:   FUNC GLOBAL DEFAULT UND strnlen@LIBC (2)
186:   FUNC GLOBAL DEFAULT UND _ZNKSt3__121__basic_strin
187:   FUNC GLOBAL DEFAULT UND _ZNSt3__112basic_stringIc
188:   FUNC GLOBAL DEFAULT UND _ZNSt3__113basic_ostreamI
189:   FUNC GLOBAL DEFAULT UND strncmp@LIBC (2)
190:   FUNC GLOBAL DEFAULT UND _ZNKSt3__112basic_stringI
191:   FUNC GLOBAL DEFAULT UND isalpha@LIBC (2)
192:   FUNC GLOBAL DEFAULT UND fprintf@LIBC (2)
193:   FUNC GLOBAL DEFAULT UND stat@LIBC (2)
194:   OBJECT GLOBAL DEFAULT UND stderr@LIBC (2)
195:   FUNC GLOBAL DEFAULT UND __read_chk@LIBC (2)
196:   FUNC GLOBAL DEFAULT UND __write_chk@LIBC_N (5)
197:   FUNC GLOBAL DEFAULT UND ftruncate@LIBC (2)
198:   FUNC GLOBAL DEFAULT UND read@LIBC (2)
199:   FUNC GLOBAL DEFAULT UND write@LIBC (2)
200:   FUNC GLOBAL DEFAULT UND _ZNSt3__112basic_stringIc
201:   FUNC GLOBAL DEFAULT UND dup2@LIBC (2)
202:   FUNC GLOBAL DEFAULT UND execvp@LIBC (2)
203:   FUNC GLOBAL DEFAULT UND exit@LIBC (2)
204:   FUNC GLOBAL DEFAULT UND fork@LIBC (2)
205:   FUNC GLOBAL DEFAULT UND getgid@LIBC (2)
206:   FUNC GLOBAL DEFAULT UND getuid@LIBC (2)
207:   FUNC GLOBAL DEFAULT UND pipe@LIBC (2)
208:   FUNC GLOBAL DEFAULT UND setgid@LIBC (2)
209:   FUNC GLOBAL DEFAULT UND setuid@LIBC (2)
210:   FUNC GLOBAL DEFAULT UND wait@LIBC (2)
211:   FUNC GLOBAL DEFAULT UND _ZN7android10VectorImpl12
212:   FUNC GLOBAL DEFAULT UND _ZN7android10VectorImpl13
213:   FUNC GLOBAL DEFAULT UND _ZN7android10VectorImpl5c
214:   FUNC GLOBAL DEFAULT UND _ZN7android10VectorImpl8i
215:   FUNC GLOBAL DEFAULT UND _ZN7android7String812appe
216:   FUNC GLOBAL DEFAULT UND _ZN7android7String86appen
217:   FUNC GLOBAL DEFAULT UND _ZN7android7String8C1EPKD
218:   FUNC GLOBAL DEFAULT UND _ZN7android7String8C1EPKD
219:   FUNC GLOBAL DEFAULT UND _ZN7android7String8C1ERKN
220:   FUNC GLOBAL DEFAULT UND _ZN7android8String165setT
221:   FUNC GLOBAL DEFAULT UND _ZN7android8String165setT
222:   FUNC GLOBAL DEFAULT UND _ZN7android8String166appe
223:   FUNC GLOBAL DEFAULT UND _ZN7android8String16C1EPK
224:   FUNC GLOBAL DEFAULT UND _ZN7android8String16C1EPK
225:   FUNC GLOBAL DEFAULT UND _ZN7android8String16C1EPK
226:   FUNC GLOBAL DEFAULT UND _ZNKSt3__119__shared_weak
227:   FUNC GLOBAL DEFAULT UND _ZNSt3__119__shared_weak_
228:   FUNC GLOBAL DEFAULT UND _ZNSt3__119__shared_weak_
229:   FUNC GLOBAL DEFAULT UND __memcpy_chk@LIBC (2)
230:   FUNC GLOBAL DEFAULT UND isspace@LIBC (2)
231:   FUNC GLOBAL DEFAULT UND printf@LIBC (2)
232:   FUNC GLOBAL DEFAULT UND putchar@LIBC (2)
233:   FUNC GLOBAL DEFAULT UND puts@LIBC (2)
234:   FUNC GLOBAL DEFAULT UND strtof@LIBC (2)
235:   FUNC GLOBAL DEFAULT UND _ZNSt3__112basic_stringIc
236:   FUNC GLOBAL DEFAULT UND inflate
237:   FUNC GLOBAL DEFAULT UND inflateEnd
238:   FUNC GLOBAL DEFAULT UND inflateInit2_
239:   FUNC GLOBAL DEFAULT UND utf16_to_utf8
240:   FUNC GLOBAL DEFAULT UND utf16_to_utf8_length
241:   FUNC GLOBAL DEFAULT UND _Z15ExtractToMemoryP10Zip
242:   FUNC GLOBAL DEFAULT UND _Z18ExtractEntryToFileP10
243:   FUNC GLOBAL DEFAULT UND _ZN11zip_archive6ReaderD2
244:   FUNC GLOBAL DEFAULT UND _ZN11zip_archive6WriterD2
245:   FUNC GLOBAL DEFAULT UND _ZN11zip_archive7InflateE
246:   FUNC GLOBAL DEFAULT UND _ZN7android4base17ReadFul
247:   FUNC GLOBAL DEFAULT UND __fread_chk@LIBC_N (5)
248:   FUNC GLOBAL DEFAULT UND feof@LIBC (2)
249:   FUNC GLOBAL DEFAULT UND ferror@LIBC (2)
250:   FUNC GLOBAL DEFAULT UND getc@LIBC (2)
251:   FUNC GLOBAL DEFAULT UND _ZN7android7String810lock
252:   FUNC GLOBAL DEFAULT UND _ZN7android7String812unlo
253:   FUNC GLOBAL DEFAULT UND __strcat_chk@LIBC (2)
254:   FUNC GLOBAL DEFAULT UND crc32
255:   FUNC GLOBAL DEFAULT UND lstat64@LIBC (2)
256:   FUNC GLOBAL DEFAULT UND open@LIBC (2)
257:   FUNC GLOBAL DEFAULT UND _ZN7android6Parcel12write
258:   FUNC GLOBAL DEFAULT UND _ZN7android6Parcel22write
259:   FUNC GLOBAL DEFAULT UND _ZNK7android6Parcel11read
260:   FUNC GLOBAL DEFAULT UND _ZNK7android6Parcel18read
261:   FUNC GLOBAL DEFAULT UND ashmem_create_region
262:   FUNC GLOBAL DEFAULT UND ashmem_get_size_region
263:   FUNC GLOBAL DEFAULT UND ashmem_set_prot_region
264:   FUNC GLOBAL DEFAULT UND fcntl@LIBC (2)
265:   FUNC GLOBAL DEFAULT UND mmap@LIBC (2)
266:   FUNC GLOBAL DEFAULT UND munmap@LIBC (2)
267:   FUNC GLOBAL DEFAULT UND _ZN7android14LooperCallba
268:   FUNC GLOBAL DEFAULT UND _ZN7android14LooperCallba
269:   FUNC GLOBAL DEFAULT UND _ZN7android20DisplayEvent
270:   FUNC GLOBAL DEFAULT UND _ZN7android20DisplayEvent
271:   FUNC GLOBAL DEFAULT UND _ZN7android20DisplayEvent
272:   FUNC GLOBAL DEFAULT UND _ZN7android6Looper5addFdE
273:   FUNC GLOBAL DEFAULT UND _ZN7android6Looper8remove
274:   FUNC GLOBAL DEFAULT UND _ZNK7android20DisplayEven
275:   FUNC GLOBAL DEFAULT UND _ZNK7android20DisplayEven
276:   FUNC GLOBAL DEFAULT UND _ZTv0_n24_N7android14Loop
277:   FUNC GLOBAL DEFAULT UND _ZTv0_n24_N7android14Loop
278:   FUNC GLOBAL DEFAULT 14 _ZN7android11LocaleValue1
279:   FUNC GLOBAL DEFAULT 14 _ZN7android10ResXMLTree6u
280:   OBJECT WEAK DEFAULT 19 _ZTVN7android6VectorIPNS_
281:   FUNC WEAK DEFAULT 14 _ZNK7android6VectorINS_12
282:   FUNC GLOBAL DEFAULT 14 _ZNK7android15ResTable_co
283:   FUNC GLOBAL DEFAULT 14 _ZNK7android8ResTable17ge
284:   FUNC GLOBAL DEFAULT 14 _ZN7android12CursorWindow
285:   FUNC GLOBAL DEFAULT 14 _ZN7android15DynamicRefTa
286:   FUNC GLOBAL DEFAULT 14 _ZNK7android8ResTable8get
287:   FUNC GLOBAL DEFAULT 14 _ZN7android10_FileAssetC1
288:   FUNC WEAK DEFAULT 14 _ZNSt3__16vectorINS_10uni
289:   FUNC GLOBAL DEFAULT 14 _ZNK7android15ResTable_co
290:   OBJECT WEAK DEFAULT 19 _ZTTNSt3__118basic_string
291:   FUNC GLOBAL DEFAULT 14 _ZN7android15ResTable_con
292:   FUNC WEAK DEFAULT 14 _ZNSt3__110__function6__f
293:   FUNC WEAK DEFAULT 14 _ZNK7android12SortedVecto
294:   FUNC GLOBAL DEFAULT 14 _ZN7android8ZipUtils15inf
295:   FUNC GLOBAL DEFAULT 14 _ZN7android7ObbFileD1Ev
296:   FUNC GLOBAL DEFAULT 14 _ZN7android16BackupDataRe
297:   FUNC GLOBAL DEFAULT 14 _ZNK7android12AssetManage
298:   FUNC GLOBAL DEFAULT 14 _ZN7android15DynamicRefTa
299:   FUNC WEAK DEFAULT 14 _ZNK7android12SortedVecto
300:   FUNC GLOBAL DEFAULT 14 _ZN7android8ResTableD2Ev
301:   FUNC GLOBAL DEFAULT 14 _ZN7android12AssetManager
302:   FUNC GLOBAL DEFAULT 14 _ZN7android13AssetManager
303:   FUNC GLOBAL DEFAULT 14 _ZNK7android12ResXMLParse
304:   FUNC GLOBAL DEFAULT 14 _ZNK7android13ResStringPo
305:   FUNC GLOBAL DEFAULT 14 _ZNK7android15DynamicRefT
306:   FUNC GLOBAL DEFAULT 14 _ZN7android12CursorWindow
307:   FUNC GLOBAL DEFAULT 14 _ZN7android12CursorWindow
308:   FUNC GLOBAL DEFAULT 14 _ZN7android22DisplayEvent
309:   FUNC GLOBAL DEFAULT 14 _ZN7android12AssetManager
310:   FUNC GLOBAL DEFAULT 14 _ZNK7android15DynamicRefT
311:   FUNC WEAK DEFAULT 14 _ZNK7android12SortedVecto
312:   FUNC GLOBAL DEFAULT 14 _ZN7android24localeDataCo
313:   FUNC GLOBAL DEFAULT 14 _ZNK7android8ResTable17is
314:   FUNC WEAK DEFAULT 14 _ZNSt3__112__hash_tableIN
315:   FUNC GLOBAL DEFAULT 14 _ZN7android8ResTable5Them
316:   FUNC WEAK DEFAULT 14 _ZNK7android12SortedVecto
317:   FUNC GLOBAL DEFAULT 14 _ZNK7android8ResTable16ge
318:   FUNC GLOBAL DEFAULT 14 _ZNK7android8ResTable6unl
319:   FUNC GLOBAL DEFAULT 14 _ZN7android9ZipFileROD2Ev
320:   FUNC GLOBAL DEFAULT 14 _ZN7android10LoadedArsc4L
321:   FUNC WEAK DEFAULT 14 _ZNSt3__16vectorIPKN7andr
322:   FUNC GLOBAL DEFAULT 14 _ZNK7android12ResXMLParse
323:   FUNC GLOBAL DEFAULT 14 _ZNK7android12ResXMLParse
324:   FUNC GLOBAL DEFAULT 14 _ZN7android16_CompressedA
325:   FUNC GLOBAL DEFAULT 14 _ZN7android8AssetDir8File
326:   FUNC GLOBAL DEFAULT 14 _ZN7android13LoadedPackag
327:   FUNC GLOBAL DEFAULT 14 _ZN7android12AssetManager
328:   FUNC GLOBAL DEFAULT 14 _ZN7android9ZipFileRO12en
329:   FUNC GLOBAL DEFAULT 14 _ZNK7android12ResXMLParse
330:   FUNC GLOBAL DEFAULT 14 _ZN7android7ObbFile8readF
331:   FUNC GLOBAL DEFAULT 14 _ZN7android8ResTable11add
332:   FUNC GLOBAL DEFAULT 14 _ZN7android8ResTableC2EPK
333:   FUNC GLOBAL DEFAULT 14 _ZNK7android13StringPoolR
334:   FUNC GLOBAL DEFAULT 14 _ZN7android9ZipFileRO4ope
335:   FUNC GLOBAL DEFAULT 14 _ZNK7android12ResXMLParse
336:   FUNC GLOBAL DEFAULT 14 _ZN7android16BackupDataWr
337:   FUNC WEAK DEFAULT 14 _ZNKSt3__115basic_stringb
338:   FUNC WEAK DEFAULT 14 _ZNSt3__16__treeINS_12__v
339:   FUNC GLOBAL DEFAULT 14 _ZN7android8ZipUtils11exa
340:   FUNC GLOBAL DEFAULT 14 _ZN7android13AssetManager
341:   FUNC GLOBAL DEFAULT 14 _ZN7android13LoadedPackag
342:   FUNC WEAK DEFAULT 14 _ZNSt3__16vectorIKNS_4pai
343:   OBJECT WEAK DEFAULT 19 _ZTV12BufferReader
344:   FUNC GLOBAL DEFAULT 14 _ZN7android8ResTableC1Ev
345:   FUNC WEAK DEFAULT 14 _ZNK7android12SortedVecto
346:   OBJECT WEAK DEFAULT 19 _ZTVN7android6VectorIPKNS
347:   FUNC GLOBAL DEFAULT 14 _ZN7android16BackupDataWr
348:   FUNC WEAK DEFAULT 14 _ZNSt3__16__treeINS_12__v
349:   FUNC GLOBAL DEFAULT 14 _ZN7android8ResTable17exp
350:   FUNC WEAK DEFAULT 14 _ZNSt3__110__function6__f
351:   OBJECT WEAK DEFAULT 19 _ZTV12BufferWriter
352:   OBJECT GLOBAL DEFAULT 16 _ZN7android12AssetManager
353:   FUNC GLOBAL DEFAULT 14 _ZNK7android12AssetManage
354:   FUNC WEAK DEFAULT 14 _ZNK7android12SortedVecto
355:   FUNC GLOBAL DEFAULT 14 _ZN7android12ResolveAttrs
356:   FUNC GLOBAL DEFAULT 14 _ZN7android8ResTable8addE
357:   FUNC GLOBAL DEFAULT 14 _ZNK7android9ZipFileRO18c
358:   FUNC GLOBAL DEFAULT 14 _ZN7android13AssetManager
359:   FUNC WEAK DEFAULT 14 _ZNK7android6VectorIPNS_8
360:   FUNC WEAK DEFAULT 14 _ZNK7android12SortedVecto
361:   FUNC GLOBAL DEFAULT 14 _ZNK7android15ResTable_co
362:   FUNC GLOBAL DEFAULT 14 _ZN7android4util25ReadUtf
363:   FUNC GLOBAL DEFAULT 14 _ZN7android9ApkAssetsC1EP
364:   FUNC GLOBAL DEFAULT 14 _ZN7android16_CompressedA
365:   FUNC GLOBAL DEFAULT 14 _ZNK7android13LoadedPacka
366:   FUNC GLOBAL DEFAULT 14 _ZNK7android17ConfigDescr
367:   FUNC WEAK DEFAULT 14 _ZNK7android6VectorIPKNS_
368:   FUNC GLOBAL DEFAULT 14 _ZN7android18send_tarfile
369:   FUNC WEAK DEFAULT 14 _ZNSt3__16vectorIjNS_9all
370:   FUNC WEAK DEFAULT 14 _ZNK7android12SortedVecto
371:   FUNC GLOBAL DEFAULT 14 _ZNK7android15ResTable_co
372:   OBJECT WEAK DEFAULT 19 _ZTVN7android12SortedVect
373:   FUNC GLOBAL DEFAULT 14 _ZN7android9Res_value13co
374:   FUNC GLOBAL DEFAULT 14 _ZN7android16BackupDataRe
375:   FUNC GLOBAL DEFAULT 14 _ZN7android17RestoreHelpe
376:   FUNC GLOBAL DEFAULT 14 _ZN7android16_CompressedA
377:   FUNC GLOBAL DEFAULT 14 _ZN7android12AssetManager
378:   FUNC GLOBAL DEFAULT 14 _ZNK7android8ResTable13st
379:   FUNC GLOBAL DEFAULT 14 _ZN7android5Asset15unregi
380:   FUNC GLOBAL DEFAULT 14 _ZN7android15ResTable_con
381:   FUNC GLOBAL DEFAULT 14 _ZN7android9ZipFileRO14st
382:   FUNC GLOBAL DEFAULT 14 _ZNK7android12AssetManage
383:   FUNC WEAK DEFAULT 14 _ZNK7android12SortedVecto
384:   FUNC GLOBAL DEFAULT 14 _ZNK7android13AssetManage
385:   FUNC WEAK DEFAULT 14 _ZNSt3__16__treeINS_12__v
386:   FUNC WEAK DEFAULT 14 _ZNSt3__112__hash_tableIN
387:   FUNC GLOBAL DEFAULT 14 _ZN7android7ObbFile10remo
388:   FUNC GLOBAL DEFAULT 14 _ZNK7android12ResXMLParse
389:   FUNC GLOBAL DEFAULT 14 _ZNK7android9ZipFileRO15f
390:   FUNC GLOBAL DEFAULT 14 _ZNK7android13AssetManage
391:   FUNC GLOBAL DEFAULT 14 _ZNK7android13LoadedPacka
392:   FUNC GLOBAL DEFAULT 14 _ZN7android12AssetManager
393:   FUNC GLOBAL DEFAULT 14 _ZNK7android8ResTable5The
394:   FUNC GLOBAL DEFAULT 14 _ZN7android9ApkAssets11Lo
395:   FUNC GLOBAL DEFAULT 14 _ZNK7android12ResXMLParse
396:   OBJECT WEAK DEFAULT 19 _ZTVN7android12SortedVect
397:   FUNC GLOBAL DEFAULT 14 _ZN7android12AssetManager
398:   FUNC GLOBAL DEFAULT 14 _ZN7android10_FileAssetD1
399:   FUNC GLOBAL DEFAULT 14 _ZN7android12AssetManager
400:   OBJECT WEAK DEFAULT 19 _ZTVN7android12SortedVect
401:   FUNC WEAK DEFAULT 14 _ZNK7android12SortedVecto
402:   FUNC WEAK DEFAULT 14 _ZNK7android6VectorINSt3_
403:   FUNC GLOBAL DEFAULT 14 _ZN7android12AssetManager
404:   FUNC GLOBAL DEFAULT 14 _ZN7android13ChunkIterato
405:   FUNC GLOBAL DEFAULT 14 _ZNK7android13ResStringPo
406:   FUNC GLOBAL DEFAULT 14 _ZN7android17ConfigDescri
407:   FUNC GLOBAL DEFAULT 14 _ZN7android11TypeVariant8
408:   FUNC GLOBAL DEFAULT 14 _ZNK7android13ResStringPo
409:   FUNC WEAK DEFAULT 14 _ZNK7android6VectorIPNS_8
410:   FUNC GLOBAL DEFAULT 14 _ZN7android12AssetManager
411:   FUNC GLOBAL DEFAULT 14 _ZN7android12AssetManager
412:   FUNC WEAK DEFAULT 14 _ZNSt3__16vectorIN7androi
413:   FUNC WEAK DEFAULT 14 _ZNK7android6VectorINSt3_
414:   FUNC WEAK DEFAULT 14 _ZNK7android6VectorIPNS_8
415:   FUNC WEAK DEFAULT 14 _ZNSt3__110__function6__f
416:   FUNC GLOBAL DEFAULT 14 _ZN7android16BackupDataRe
417:   FUNC GLOBAL DEFAULT 14 _ZN7android9ApkAssets19Lo
418:   FUNC GLOBAL DEFAULT 14 _ZNK7android12ResXMLParse
419:   FUNC GLOBAL DEFAULT 14 _ZN7android16BackupDataRe
420:   FUNC GLOBAL DEFAULT 14 _ZN7android5AssetC2Ev
421:   FUNC GLOBAL DEFAULT 14 _ZNK7android9ZipFileRO12g
422:   FUNC GLOBAL DEFAULT 14 _ZN7android13AssetManager
423:   FUNC GLOBAL DEFAULT 14 _ZN7android13LoadedPackag
424:   FUNC GLOBAL DEFAULT 14 _ZNK7android14Res_png_9pa
425:   OBJECT GLOBAL DEFAULT 19 _ZTVN7android16_Compresse
426:   FUNC GLOBAL DEFAULT 14 _ZN7android12AssetManager
427:   FUNC GLOBAL DEFAULT 14 _ZNK7android12AssetManage
428:   FUNC GLOBAL DEFAULT 14 _ZN7android10ApplyStyleEP
429:   FUNC WEAK DEFAULT 14 _ZN7android27BackTracking
430:   FUNC GLOBAL DEFAULT 14 _ZNK7android8ResTable5pri
431:   FUNC GLOBAL DEFAULT 14 _ZNK7android9ZipFileRO15u
432:   FUNC GLOBAL DEFAULT 14 _ZN7android12CursorWindow
433:   FUNC GLOBAL DEFAULT 14 _ZN7android12AssetManager
434:   FUNC GLOBAL DEFAULT 14 _ZN7android8ResTable3addE
435:   FUNC GLOBAL DEFAULT 14 _ZNK7android12AssetManage
436:   FUNC WEAK DEFAULT 14 _ZNK7android6VectorINS_7S
437:   FUNC GLOBAL DEFAULT 14 _ZN7android23localeDataCo
438:   FUNC GLOBAL DEFAULT 14 _ZN7android13ResStringPoo
439:   FUNC GLOBAL DEFAULT 14 _ZNK7android12ResXMLParse
440:   FUNC GLOBAL DEFAULT 14 _ZNK7android8ResTable19ge
441:   FUNC GLOBAL DEFAULT 14 _ZNK7android12AssetManage
442:   FUNC WEAK DEFAULT 14 _ZNSt3__112__hash_tableIN
443:   FUNC GLOBAL DEFAULT 14 _ZN7android11LocaleValue1
444:   FUNC GLOBAL DEFAULT 14 _ZN7android7ObbFile10remo
445:   FUNC GLOBAL DEFAULT 14 _ZNK7android10ResXMLTree8
446:   FUNC WEAK DEFAULT 14 _ZNSt3__16__treeINS_12__v
447:   FUNC GLOBAL DEFAULT 14 _ZN7android12AssetManager
448:   OBJECT GLOBAL DEFAULT 16 _ZN7android12AssetManager
449:   FUNC GLOBAL DEFAULT 14 _ZN7android12AssetManager
450:   FUNC GLOBAL DEFAULT 14 _ZNK7android12AssetManage
451:   FUNC GLOBAL DEFAULT 14 _ZN7android13ResStringPoo
452:   FUNC GLOBAL DEFAULT 14 _ZN7android22DisplayEvent
453:   FUNC WEAK DEFAULT 14 _ZNK7android6VectorINS_2s
454:   FUNC WEAK DEFAULT 14 _ZNSt3__16vectorIN7androi
455:   FUNC GLOBAL DEFAULT 14 _ZNK7android12ResXMLParse
456:   FUNC WEAK DEFAULT 14 _ZNK7android12SortedVecto
457:   FUNC GLOBAL DEFAULT 14 _ZN7android12ResXMLParser
458:   FUNC GLOBAL DEFAULT 14 _ZNK7android15ResTable_co
459:   FUNC WEAK DEFAULT 14 _ZNK7android12SortedVecto
460:   FUNC GLOBAL DEFAULT 14 _ZNK7android13AssetManage
461:   FUNC WEAK DEFAULT 14 _ZNSt3__112__hash_tableIm
462:   FUNC WEAK DEFAULT 14 _ZNSt3__16vectorIKNS_4pai
463:   FUNC GLOBAL DEFAULT 14 _ZNK7android12ResXMLParse
464:   OBJECT WEAK DEFAULT 19 _ZTVN7android6VectorINS_7
465:   FUNC GLOBAL DEFAULT 14 _ZN7android7ObbFileD0Ev
466:   FUNC GLOBAL DEFAULT 14 _ZN7android13ResStringPoo
467:   FUNC GLOBAL DEFAULT 14 _ZN7android20StreamingZip
468:   FUNC GLOBAL DEFAULT 14 _ZN7android12AssetManager
469:   FUNC GLOBAL DEFAULT 14 _ZN7android8ResTableD1Ev
470:   FUNC GLOBAL DEFAULT 14 _ZNK7android13AssetManage
471:   OBJECT WEAK DEFAULT 19 _ZTCNSt3__118basic_string
472:   FUNC GLOBAL DEFAULT 14 _ZN7android4util11Utf8ToU
473:   OBJECT GLOBAL DEFAULT 16 _ZN7android12AssetManager
474:   FUNC GLOBAL DEFAULT 14 _ZN7android5ThemeC1EPNS_1
475:   FUNC WEAK DEFAULT 14 _ZNSt3__115basic_stringbu
476:   FUNC GLOBAL DEFAULT 14 _ZN7android12ResXMLParser
477:   FUNC GLOBAL DEFAULT 14 _ZN7android14Res_png_9pat
478:   FUNC GLOBAL DEFAULT 14 _ZN7android8ResTable3addE
479:   FUNC GLOBAL DEFAULT 14 _ZN7android20StreamingZip
480:   FUNC WEAK DEFAULT 14 _ZNSt3__112__hash_tableIN
481:   FUNC GLOBAL DEFAULT 14 _ZNK7android12ResXMLParse
482:   FUNC GLOBAL DEFAULT 14 _ZNK7android8ResTable11ge
483:   OBJECT GLOBAL DEFAULT 16 _ZN7android12AssetManager
484:   FUNC GLOBAL DEFAULT 14 _ZN7android9ZipFileROD1Ev
485:   FUNC GLOBAL DEFAULT 14 _ZN7android13AssetManager
486:   FUNC WEAK DEFAULT 14 _ZNSt3__112__hash_tableIN
487:   FUNC WEAK DEFAULT 14 _ZNSt3__120__shared_ptr_e
488:   FUNC GLOBAL DEFAULT 14 _ZN7android12CursorWindow
489:   FUNC GLOBAL DEFAULT 14 _ZN7android10_FileAsset9g
490:   FUNC GLOBAL DEFAULT 14 _ZNK7android15ResTable_co
491:   FUNC GLOBAL DEFAULT 14 _ZNK7android17ConfigDescr
492:   FUNC WEAK DEFAULT 14 _ZNK7android6VectorINSt3_
493:   FUNC GLOBAL DEFAULT 14 _ZN7android16_CompressedA
494:   FUNC GLOBAL DEFAULT 14 _ZN7android13ResStringPoo
495:   FUNC WEAK DEFAULT 14 _ZNK7android6VectorIPNS_8
496:   FUNC GLOBAL DEFAULT 14 _ZN7android16_CompressedA
497:   FUNC GLOBAL DEFAULT 14 _ZN7android20StreamingZip
498:   FUNC GLOBAL DEFAULT 14 _ZN7android12AssetManager
499:   OBJECT WEAK DEFAULT 19 _ZTVN7android12SortedVect
500:   FUNC WEAK DEFAULT 14 _ZNK7android12SortedVecto
501:   FUNC GLOBAL DEFAULT 14 _ZN7android12AssetManager
502:   FUNC GLOBAL DEFAULT 14 _ZNK7android12ResXMLParse
503:   FUNC GLOBAL DEFAULT 14 _ZNK7android8ResTable13va
504:   FUNC WEAK DEFAULT 14 _ZNK7android12SortedVecto
505:   FUNC GLOBAL DEFAULT 14 _ZN7android11LocaleValue1
506:   FUNC GLOBAL DEFAULT 14 _ZN7android8ResTable5Them
507:   FUNC GLOBAL DEFAULT 14 _ZN7android12CursorWindow
508:   FUNC WEAK DEFAULT 14 _ZNSt3__112basic_stringID
509:   FUNC WEAK DEFAULT 14 _ZNSt3__112__hash_tableIN
510:   FUNC GLOBAL DEFAULT 14 _ZN7android8ResTable12par
511:   FUNC GLOBAL DEFAULT 14 _ZN7android16BackupDataWr
512:   FUNC GLOBAL DEFAULT 14 _ZN7android12AssetManager
513:   FUNC GLOBAL DEFAULT 14 _ZNK7android12AssetManage
514:   FUNC GLOBAL DEFAULT 14 _ZNK7android12ResXMLParse
515:   OBJECT WEAK DEFAULT 19 _ZTCNSt3__118basic_string
516:   FUNC GLOBAL DEFAULT 14 _ZNK7android13AssetManage
517:   FUNC WEAK DEFAULT 14 _ZNSt3__112__hash_tableIN
518:   OBJECT WEAK DEFAULT 19 _ZTVN7android6VectorINSt3
519:   FUNC GLOBAL DEFAULT 14 _ZN7android12AssetManager
520:   FUNC WEAK DEFAULT 14 _ZNK7android12SortedVecto
521:   FUNC GLOBAL DEFAULT 14 _ZN7android12AssetManager
522:   FUNC GLOBAL DEFAULT 14 _ZN7android9ZipFileRO6ope
523:   FUNC GLOBAL DEFAULT 14 _ZN7android5ThemeD2Ev
524:   FUNC WEAK DEFAULT 14 _ZNK7android6VectorIPNS_8
525:   FUNC WEAK DEFAULT 14 _ZNSt3__16vectorIN7androi
526:   FUNC GLOBAL DEFAULT 14 _ZNK7android17ConfigDescr
527:   FUNC GLOBAL DEFAULT 14 _ZN7android15ResTable_con
528:   FUNC GLOBAL DEFAULT 14 _ZN7android8ResTable13str
529:   FUNC GLOBAL DEFAULT 14 _ZNK7android13ResStringPo
530:   FUNC WEAK DEFAULT 14 _ZNSt3__16__treeINS_12__v
531:   OBJECT GLOBAL DEFAULT 19 _ZTVN7android22DisplayEve
532:   OBJECT GLOBAL DEFAULT 19 _ZTVN7android10_FileAsset
533:   OBJECT GLOBAL DEFAULT 23 _ZN7android12AssetManager
534:   FUNC GLOBAL DEFAULT 14 _ZNK7android15ResTable_co
535:   FUNC WEAK DEFAULT 14 _ZNK7android6VectorINS_2s
536:   FUNC GLOBAL DEFAULT 14 _ZNK7android13AssetManage
537:   OBJECT WEAK DEFAULT 19 _ZTVN7android5AssetE
538:   FUNC GLOBAL DEFAULT 14 _ZN7android12AssetManager
539:   OBJECT WEAK DEFAULT 19 _ZTVN7android6VectorINS_2
540:   FUNC GLOBAL DEFAULT 14 _ZN7android8ResTable13col
541:   FUNC GLOBAL DEFAULT 14 _ZNK7android8ResTable18ge
542:   FUNC GLOBAL DEFAULT 14 _ZN7android12AssetManager
543:   FUNC WEAK DEFAULT 14 _ZNK7android12SortedVecto
544:   FUNC WEAK DEFAULT 14 _ZNSt3__112__hash_tableIN
545:   FUNC GLOBAL DEFAULT 14 _ZN7android10ResXMLTreeC1
546:   FUNC WEAK DEFAULT 14 _ZNK7android12SortedVecto
547:   FUNC GLOBAL DEFAULT 14 _ZNK7android12AssetManage
548:   OBJECT WEAK DEFAULT 19 _ZTVN7android12SortedVect
549:   FUNC GLOBAL DEFAULT 14 _ZNK7android17ConfigDescr
550:   FUNC GLOBAL DEFAULT 14 _ZN7android13LoadedPackag
551:   FUNC GLOBAL DEFAULT 14 _ZN7android8ResTable6unin
552:   FUNC GLOBAL DEFAULT 14 _ZN7android12AssetManager
553:   FUNC GLOBAL DEFAULT 14 _ZN7android11LoadedIdmap6
554:   FUNC GLOBAL DEFAULT 14 _ZN7android17ConfigDescri
555:   FUNC WEAK DEFAULT 14 _ZNK7android6VectorIPNS_8
556:   FUNC WEAK DEFAULT 14 _ZNSt3__16__treeINS_12__v
557:   FUNC GLOBAL DEFAULT 14 _ZN7android16BackupDataRe
558:   FUNC GLOBAL DEFAULT 14 _ZN7android10_FileAsset9o
559:   FUNC GLOBAL DEFAULT 14 _ZNK7android8ResTable13ge
560:   FUNC GLOBAL DEFAULT 14 _ZN7android13AssetManager
561:   FUNC GLOBAL DEFAULT 14 _ZN7android7ObbFile12pars
562:   FUNC GLOBAL DEFAULT 14 _ZNK7android10ResXMLTree1
563:   FUNC GLOBAL DEFAULT 14 _ZNK7android13ResStringPo
564:   FUNC WEAK DEFAULT 14 _ZNK7android12SortedVecto
565:   FUNC WEAK DEFAULT 14 _ZNK7android6VectorIPNS_8
566:   FUNC GLOBAL DEFAULT 14 _ZN7android10_FileAssetD0
567:   FUNC GLOBAL DEFAULT 14 _ZN7android20StreamingZip
568:   FUNC WEAK DEFAULT 14 _ZNK7android12SortedVecto
569:   FUNC GLOBAL DEFAULT 14 _ZN7android8ResTable5Them
570:   FUNC WEAK DEFAULT 14 _ZNSt3__16__treeINS_12bas
571:   FUNC GLOBAL DEFAULT 14 _ZNK7android13ResStringPo
572:   FUNC WEAK DEFAULT 14 _ZNSt3__124__put_characte
573:   FUNC GLOBAL DEFAULT 14 _ZN7android12AssetManager
574:   FUNC WEAK DEFAULT 14 _ZNSt3__115basic_stringbu
575:   FUNC GLOBAL DEFAULT 14 _ZN7android11LocaleValue1
576:   FUNC WEAK DEFAULT 14 _ZNK7android6VectorINS_12
577:   FUNC WEAK DEFAULT 14 _ZNK7android12SortedVecto
578:   FUNC GLOBAL DEFAULT 14 _ZN7android13LoadedPackag
579:   FUNC GLOBAL DEFAULT 14 _ZNK7android12ResXMLParse
580:   FUNC GLOBAL DEFAULT 14 _ZN7android12AssetManager
581:   FUNC GLOBAL DEFAULT 14 _ZN7android14ToResourceNa
582:   FUNC WEAK DEFAULT 14 _ZNSt3__112__hash_tableIN
583:   FUNC GLOBAL DEFAULT 14 _ZN7android12CursorWindow
584:   FUNC GLOBAL DEFAULT 14 _ZN7android14getFileModDa
585:   FUNC GLOBAL DEFAULT 14 _ZN7android8ZipUtils15inf
586:   FUNC GLOBAL DEFAULT 14 _ZN7android12AssetManager
587:   FUNC WEAK DEFAULT 14 _ZNSt3__16__treeINS_12__v
588:   FUNC WEAK DEFAULT 14 _ZNK7android6VectorIPNS_8
589:   FUNC GLOBAL DEFAULT 14 _ZN7android20StreamingZip
590:   FUNC GLOBAL DEFAULT 14 _ZN7android16_CompressedA
591:   FUNC GLOBAL DEFAULT 14 _ZN7android17RestoreHelpe
592:   OBJECT WEAK DEFAULT 19 _ZTVN7android12SortedVect
593:   FUNC GLOBAL DEFAULT 14 _ZN7android13ResStringPoo
594:   FUNC WEAK DEFAULT 14 _ZNK7android6VectorINSt3_
595:   FUNC WEAK DEFAULT 14 _ZNK7android6VectorIPKNS_
596:   FUNC GLOBAL DEFAULT 14 _ZNK7android8ResTable13ge
597:   FUNC WEAK DEFAULT 14 _ZNKSt3__110__function6__
598:   FUNC GLOBAL DEFAULT 14 _ZN7android13back_up_file
599:   FUNC GLOBAL DEFAULT 14 _ZNK7android13AssetManage
600:   FUNC GLOBAL DEFAULT 14 _ZNK7android12ResXMLParse
601:   FUNC GLOBAL DEFAULT 14 _ZNK7android12ResXMLParse
602:   OBJECT WEAK DEFAULT 19 _ZTVN7android8AssetDirE
603:   FUNC GLOBAL DEFAULT 14 _ZNK7android11LoadedIdmap
604:   FUNC GLOBAL DEFAULT 14 _ZN7android28localeDataIs
605:   FUNC GLOBAL DEFAULT 14 _ZNK7android11TypeVariant
606:   FUNC GLOBAL DEFAULT 14 _ZNK7android12ResXMLParse
607:   FUNC GLOBAL DEFAULT 14 _ZN7android17RestoreHelpe
608:   FUNC GLOBAL DEFAULT 14 _ZN7android11LocaleValue2
609:   FUNC GLOBAL DEFAULT 14 _ZN7android12AssetManager
610:   FUNC WEAK DEFAULT 14 _ZNSt3__112__hash_tableIN
611:   FUNC WEAK DEFAULT 14 _ZNK7android12SortedVecto
612:   FUNC WEAK DEFAULT 14 _ZNSt3__112__hash_tableIm
613:   FUNC WEAK DEFAULT 14 _ZNK7android6VectorIPNS_8
614:   FUNC WEAK DEFAULT 14 _ZNK7android12SortedVecto
615:   FUNC GLOBAL DEFAULT 14 _ZN7android12CursorWindow
616:   FUNC GLOBAL DEFAULT 14 _ZN7android13AssetManager
617:   FUNC WEAK DEFAULT 14 _ZNSt3__120__shared_ptr_e
618:   FUNC GLOBAL DEFAULT 14 _ZN7android22DisplayEvent
619:   FUNC GLOBAL DEFAULT 14 _ZNK7android13ResStringPo
620:   FUNC GLOBAL DEFAULT 14 _ZN7android8ResTable18nor
621:   FUNC WEAK DEFAULT 14 _ZNK7android6VectorIPNS_8
622:   FUNC GLOBAL DEFAULT 14 _ZN7android12AssetManager
623:   OBJECT GLOBAL DEFAULT 16 _ZN7android12AssetManager
624:   FUNC GLOBAL DEFAULT 14 _ZNK7android12AssetManage
625:   FUNC WEAK DEFAULT 14 _ZNK7android6VectorINS_2s
626:   FUNC GLOBAL DEFAULT 14 _ZNK7android17ConfigDescr
627:   FUNC GLOBAL DEFAULT 14 _ZN7android12CursorWindow
628:   FUNC WEAK DEFAULT 14 _ZNK7android12SortedVecto
629:   FUNC GLOBAL DEFAULT 14 _ZN7android11TypeVariantC
630:   FUNC WEAK DEFAULT 14 _ZNK7android6VectorIPKNS_
631:   FUNC WEAK DEFAULT 14 _ZNSt3__16vectorINS_12bas
632:   FUNC GLOBAL DEFAULT 14 _ZN7android16_CompressedA
633:   FUNC GLOBAL DEFAULT 14 _ZN7android5Asset14create
634:   FUNC GLOBAL DEFAULT 14 _ZN7android25ToFormattedR
635:   FUNC GLOBAL DEFAULT 14 _ZNK7android17ConfigDescr
636:   FUNC GLOBAL DEFAULT 14 _ZN7android13ResStringPoo
637:   FUNC GLOBAL DEFAULT 14 _ZN7android16_CompressedA
638:   OBJECT GLOBAL DEFAULT 16 _ZN7android12AssetManager
639:   FUNC WEAK DEFAULT 14 _ZNSt3__16vectorIN7androi
640:   FUNC WEAK DEFAULT 14 _ZNK7android12SortedVecto
641:   FUNC GLOBAL DEFAULT 14 _ZNK7android13ResStringPo
642:   FUNC GLOBAL DEFAULT 14 _ZN7android16BackupDataRe
643:   FUNC WEAK DEFAULT 14 _ZNSt3__127__tree_balance
644:   FUNC WEAK DEFAULT 14 _ZNK7android6VectorINS_7S
645:   OBJECT WEAK DEFAULT 19 _ZTVN7android6VectorINS_1
646:   FUNC GLOBAL DEFAULT 14 _ZNK7android17ConfigDescr
647:   FUNC WEAK DEFAULT 14 _ZNK7android6VectorIPNS_8
648:   FUNC WEAK DEFAULT 14 _ZNK7android12SortedVecto
649:   FUNC GLOBAL DEFAULT 14 _ZN7android12AssetManager
650:   FUNC GLOBAL DEFAULT 14 _ZN7android12AssetManager
651:   FUNC WEAK DEFAULT 14 _ZNK7android12SortedVecto
652:   FUNC GLOBAL DEFAULT 14 _ZN7android4util17SplitAn
653:   FUNC GLOBAL DEFAULT 14 _ZN7android8ResTable3addE
654:   FUNC WEAK DEFAULT 14 _ZNSt3__16vectorIPKN7andr
655:   FUNC GLOBAL DEFAULT 14 _ZN7android11LocaleValue1
656:   FUNC GLOBAL DEFAULT 14 _ZN7android10ResXMLTreeC2
657:   FUNC GLOBAL DEFAULT 14 _ZNK7android12ResXMLParse
658:   FUNC GLOBAL DEFAULT 14 _ZNK7android12ResXMLParse
659:   FUNC GLOBAL DEFAULT 14 _ZNK7android9ApkAssets11F
660:   FUNC GLOBAL DEFAULT 14 _ZN7android5Theme10ApplyS
661:   FUNC GLOBAL DEFAULT 14 _ZN7android12ResXMLParser
662:   FUNC GLOBAL DEFAULT 14 _ZN7android16BackupDataRe
663:   FUNC GLOBAL DEFAULT 14 _ZN7android12AssetManager
664:   FUNC GLOBAL DEFAULT 14 _ZNK7android13ResStringPo
665:   FUNC GLOBAL DEFAULT 14 _ZN7android12ResXMLParser
666:   FUNC WEAK DEFAULT 14 _ZNK7android6VectorIPNS_8
667:   FUNC GLOBAL DEFAULT 14 _ZNK7android8ResTable16is
668:   OBJECT GLOBAL DEFAULT 19 _ZTCN7android22DisplayEve
669:   FUNC GLOBAL DEFAULT 14 _ZN7android12AssetManager
670:   FUNC GLOBAL DEFAULT 14 _ZN7android15DynamicRefTa
671:   FUNC GLOBAL DEFAULT 14 _ZN7android8ResTable5Them
672:   FUNC WEAK DEFAULT 14 _ZNSt3__16__treeINS_12__v
673:   FUNC GLOBAL DEFAULT 14 _ZN7android13AssetManager
674:   FUNC GLOBAL DEFAULT 14 _ZN7android5ThemeD1Ev
675:   FUNC GLOBAL DEFAULT 14 _ZNK7android12ResXMLParse
676:   FUNC GLOBAL DEFAULT 14 _ZNK7android9ZipFileRO12r
677:   FUNC WEAK DEFAULT 14 _ZNSt3__112__hash_tableIN
678:   FUNC GLOBAL DEFAULT 14 _ZN7android9ApkAssets4Loa
679:   FUNC GLOBAL DEFAULT 14 _ZNK7android13ResStringPo
680:   FUNC WEAK DEFAULT 14 _ZNK7android6VectorIPKNS_
681:   FUNC GLOBAL DEFAULT 14 _ZN7android12AssetManager
682:   FUNC GLOBAL DEFAULT 14 _ZN7android13ChunkIterato
683:   FUNC GLOBAL DEFAULT 14 _ZNK7android8ResTable9fin
684:   FUNC GLOBAL DEFAULT 14 _ZN7android5ThemeC2EPNS_1
685:   FUNC WEAK DEFAULT 14 _ZNK7android6VectorIPKNS_
686:   OBJECT WEAK DEFAULT 19 _ZTV10FileReader
687:   FUNC GLOBAL DEFAULT 14 _ZN7android12CursorWindow
688:   FUNC GLOBAL DEFAULT 14 _ZN7android13LoadedPackag
689:   FUNC GLOBAL DEFAULT 14 _ZN7android8ResTable12get
690:   OBJECT GLOBAL DEFAULT 19 _ZTVN7android7ObbFileE
691:   FUNC GLOBAL DEFAULT 14 _ZN7android20StreamingZip
692:   FUNC GLOBAL DEFAULT 14 _ZN7android5Asset25create
693:   FUNC GLOBAL DEFAULT 14 _ZN7android12AssetManager
694:   OBJECT WEAK DEFAULT 19 _ZTVNSt3__118basic_string
695:   FUNC WEAK DEFAULT 14 _ZNK7android6VectorINS_12
696:   FUNC GLOBAL DEFAULT 14 _ZNK7android13AssetManage
697:   FUNC GLOBAL DEFAULT 14 _ZNK7android15ResTable_co
698:   FUNC GLOBAL DEFAULT 14 _ZN7android12AssetManager
699:   FUNC GLOBAL DEFAULT 14 _ZN7android12AssetManager
700:   FUNC GLOBAL DEFAULT 14 _ZNK7android8ResTable17id
701:   FUNC WEAK DEFAULT 14 _ZNK7android12SortedVecto
702:   FUNC GLOBAL DEFAULT 14 _ZN7android22DisplayEvent
703:   FUNC GLOBAL DEFAULT 14 _ZN7android8ResTable5Them
704:   FUNC GLOBAL DEFAULT 14 _ZN7android22DisplayEvent
705:   FUNC GLOBAL DEFAULT 14 _ZN7android7ObbFile7write
706:   FUNC GLOBAL DEFAULT 14 _ZN7android8ResTable5Them
707:   FUNC GLOBAL DEFAULT 14 _ZNK7android8ResTable16ge
708:   FUNC GLOBAL DEFAULT 14 _ZNK7android13AssetManage
709:   FUNC GLOBAL DEFAULT 14 _ZN7android12AssetManager
710:   OBJECT GLOBAL DEFAULT 19 _ZTVN7android12AssetManag
711:   FUNC GLOBAL DEFAULT 14 _ZN7android13StringPoolRe
712:   FUNC GLOBAL DEFAULT 14 _ZN7android11LocaleValue2
713:   FUNC GLOBAL DEFAULT 14 _ZN7android7ObbFile8readF
714:   FUNC GLOBAL DEFAULT 14 _ZNK7android12ResXMLParse
715:   FUNC GLOBAL DEFAULT 14 _ZN7android17RestoreHelpe
716:   FUNC WEAK DEFAULT 14 _ZNK7android12SortedVecto
717:   FUNC GLOBAL DEFAULT 14 _ZN7android10findParentEj
718:   FUNC WEAK DEFAULT 14 _ZNK7android6VectorIPNS_8
719:   FUNC WEAK DEFAULT 14 _ZNK7android6VectorIPNS_8
720:   FUNC GLOBAL DEFAULT 14 _ZN7android12CursorWindow
721:   FUNC WEAK DEFAULT 14 _ZNK7android12SortedVecto
722:   FUNC WEAK DEFAULT 14 _ZNK7android12SortedVecto
723:   FUNC GLOBAL DEFAULT 14 _ZN7android12CursorWindow
724:   FUNC GLOBAL DEFAULT 14 _ZNK7android15ResTable_co
725:   FUNC GLOBAL DEFAULT 14 _ZN7android20StreamingZip
726:   FUNC WEAK DEFAULT 14 _ZNK7android6VectorINS_7S
727:   FUNC GLOBAL DEFAULT 14 _ZNK7android8ResTable5The
728:   FUNC GLOBAL DEFAULT 14 _ZN7android5Asset13regist
729:   FUNC GLOBAL DEFAULT 14 _ZNK7android13AssetManage
730:   FUNC GLOBAL DEFAULT 14 _ZN7android13ChunkIterato
731:   FUNC GLOBAL DEFAULT 14 _ZNK7android12ResXMLParse
732:   FUNC GLOBAL DEFAULT 14 _ZNK7android8ResTable5The
733:   FUNC GLOBAL DEFAULT 14 _ZN7android10_FileAsset15
734:   FUNC GLOBAL DEFAULT 14 _ZN7android15ResTable_con
735:   FUNC GLOBAL DEFAULT 14 _ZN7android12findDistance
736:   FUNC GLOBAL DEFAULT 14 _ZNK7android8ResTable19ge
737:   FUNC GLOBAL DEFAULT 14 _ZN7android11TypeVariantC
738:   FUNC GLOBAL DEFAULT 14 _ZN7android13ResStringPoo
739:   FUNC WEAK DEFAULT 14 _ZNSt3__16vectorIN7androi
740:   OBJECT WEAK DEFAULT 19 _ZTCNSt3__118basic_string
741:   FUNC GLOBAL DEFAULT 14 _ZN7android15DynamicRefTa
742:   OBJECT WEAK DEFAULT 19 _ZTVNSt3__120__shared_ptr
743:   FUNC GLOBAL DEFAULT 14 _ZN7android12CursorWindow
744:   FUNC GLOBAL DEFAULT 14 _ZN7android8ResTable3addE
745:   FUNC GLOBAL DEFAULT 14 _ZNK7android13AssetManage
746:   FUNC GLOBAL DEFAULT 14 _ZNK7android11LoadedIdmap
747:   OBJECT GLOBAL DEFAULT 19 _ZTTN7android22DisplayEve
748:   FUNC WEAK DEFAULT 14 _ZNSt3__16__treeINS_12bas
749:   FUNC WEAK DEFAULT 14 _ZNK7android12SortedVecto
750:   FUNC GLOBAL DEFAULT 14 _ZN7android11LoadedIdmapC
751:   FUNC GLOBAL DEFAULT 14 _ZN7android14Res_png_9pat
752:   FUNC GLOBAL DEFAULT 14 _ZN7android20StreamingZip
753:   FUNC GLOBAL DEFAULT 14 _ZN7android9ZipFileRO9nex
754:   FUNC GLOBAL DEFAULT 14 _ZN7android13AssetManager
755:   FUNC GLOBAL DEFAULT 14 _ZN7android17RestoreHelpe
756:   FUNC GLOBAL DEFAULT 14 _ZN7android12AssetManager
757:   FUNC WEAK DEFAULT 14 _ZNK7android12SortedVecto
758:   FUNC WEAK DEFAULT 14 _ZNSt3__112__hash_tableIj
759:   FUNC GLOBAL DEFAULT 14 _ZN7android12ResXMLParser
760:   FUNC GLOBAL DEFAULT 14 _ZN7android13write_tarfil
761:   FUNC WEAK DEFAULT 14 _ZNK7android12SortedVecto
762:   FUNC GLOBAL DEFAULT 14 _ZN7android12CursorWindow
763:   FUNC GLOBAL DEFAULT 14 _ZN7android12CursorWindow
764:   FUNC GLOBAL DEFAULT 14 _ZN7android10_FileAsset4r
765:   FUNC GLOBAL DEFAULT 14 _ZN7android5Asset10handle
766:   FUNC GLOBAL DEFAULT 14 _ZN7android5Asset24create
767:   FUNC WEAK DEFAULT 14 _ZNSt3__112__hash_tableIN
768:   FUNC GLOBAL DEFAULT 14 _ZN7android17ConfigDescri
769:   FUNC GLOBAL DEFAULT 14 _ZN7android12AssetManager
770:   FUNC GLOBAL DEFAULT 14 _ZNK7android13LoadedPacka
771:   FUNC WEAK DEFAULT 14 _ZNSt3__112__hash_tableIN
772:   FUNC GLOBAL DEFAULT 14 _ZN7android10ResXMLTreeD2
773:   FUNC GLOBAL DEFAULT 14 _ZN7android5Asset23create
774:   FUNC GLOBAL DEFAULT 14 _ZN7android7ObbFileC2Ev
775:   FUNC WEAK DEFAULT 14 _ZNSt3__112__hash_tableIm
776:   FUNC GLOBAL DEFAULT 14 _ZNK7android13AssetManage
777:   FUNC GLOBAL DEFAULT 14 _ZN7android14Res_png_9pat
778:   FUNC GLOBAL DEFAULT 14 _ZN7android8ResTableC1EPK
779:   FUNC GLOBAL DEFAULT 14 _ZNK7android12ResXMLParse
780:   FUNC WEAK DEFAULT 14 _ZNK7android6VectorIPNS_8
781:   FUNC GLOBAL DEFAULT 14 _ZNK7android9ApkAssets10I
782:   FUNC GLOBAL DEFAULT 14 _ZN7android12AssetManager
783:   FUNC WEAK DEFAULT 14 _ZNK7android6VectorINS_7S
784:   FUNC WEAK DEFAULT 14 _ZNSt3__115basic_stringbu
785:   FUNC WEAK DEFAULT 14 _ZNSt3__112__hash_tableIN
786:   FUNC GLOBAL DEFAULT 14 _ZNK7android8ResTable15ge
787:   FUNC WEAK DEFAULT 14 _ZN7android27BackTracking
788:   FUNC WEAK DEFAULT 14 _ZNK7android6VectorINS_7S
789:   OBJECT WEAK DEFAULT 19 _ZTVNSt3__115basic_string
790:   OBJECT GLOBAL DEFAULT 23 _ZN7android22REPRESENTATI
791:   FUNC GLOBAL DEFAULT 14 _ZNK7android15ResTable_co
792:   FUNC GLOBAL DEFAULT 14 _ZN7android5Asset23create
793:   FUNC GLOBAL DEFAULT 14 _ZN7android10_FileAsset4s
794:   FUNC GLOBAL DEFAULT 14 _ZN7android12AssetManager
795:   FUNC GLOBAL DEFAULT 14 _ZNK7android13AssetManage
796:   FUNC GLOBAL DEFAULT 14 _ZNK7android15ResTable_co
797:   FUNC WEAK DEFAULT 14 _ZNK7android6VectorIPNS_8
798:   FUNC GLOBAL DEFAULT 14 _ZNK7android8ResTable14ge
799:   FUNC GLOBAL DEFAULT 14 _ZN7android10_FileAsset9o
800:   FUNC WEAK DEFAULT 14 _ZNK7android12SortedVecto
801:   FUNC GLOBAL DEFAULT 14 _ZN7android10ResXMLTreeC1
802:   FUNC GLOBAL DEFAULT 14 _ZN7android15DynamicRefTa
803:   FUNC WEAK DEFAULT 14 _ZNK7android12SortedVecto
804:   FUNC WEAK DEFAULT 14 _ZNK7android12SortedVecto
805:   FUNC GLOBAL DEFAULT 14 _ZNK7android15DynamicRefT
806:   FUNC WEAK DEFAULT 14 _ZNK7android12SortedVecto
807:   FUNC GLOBAL DEFAULT 14 _ZN7android16BackupDataRe
808:   FUNC GLOBAL DEFAULT 14 _ZN7android9ApkAssets8Loa
809:   OBJECT GLOBAL DEFAULT 16 _ZN7android12AssetManager
810:   FUNC GLOBAL DEFAULT 14 _ZN7android15ResTable_con
811:   FUNC GLOBAL DEFAULT 14 _ZNK7android9ZipFileRO16g
812:   FUNC GLOBAL DEFAULT 14 _ZN7android13LoadedPackag
813:   FUNC GLOBAL DEFAULT 14 _ZNK7android15ResTable_co
814:   FUNC WEAK DEFAULT 14 _ZNK7android6VectorIPNS_8
815:   FUNC GLOBAL DEFAULT 14 _ZNK7android8ResTable9unl
816:   FUNC GLOBAL DEFAULT 14 _ZN7android13LoadedPackag
817:   FUNC WEAK DEFAULT 14 _ZNK7android12SortedVecto
818:   FUNC GLOBAL DEFAULT 14 _ZNK7android13AssetManage
819:   FUNC GLOBAL DEFAULT 14 _ZNK7android5Theme12GetAt
820:   FUNC WEAK DEFAULT 14 _ZNSt3__16vectorINS_10uni
821:   OBJECT WEAK DEFAULT 19 _ZTVN7android6VectorIPNS_
822:   FUNC GLOBAL DEFAULT 14 _ZN7android16BackupDataRe
823:   FUNC WEAK DEFAULT 14 _ZNSt3__16vectorIiNS_9all
824:   FUNC WEAK DEFAULT 14 _ZNSt3__16vectorIjNS_9all
825:   FUNC WEAK DEFAULT 14 _ZNSt3__16__treeIN7androi
826:   FUNC GLOBAL DEFAULT 14 _ZN7android13ResStringPoo
827:   FUNC GLOBAL DEFAULT 14 _ZNK7android12ResXMLParse
828:   FUNC WEAK DEFAULT 14 _ZNK7android6VectorINS_2s
829:   FUNC GLOBAL DEFAULT 14 _ZN7android13StringPoolRe
830:   FUNC WEAK DEFAULT 14 _ZNSt3__16__treeINS_4pair
831:   FUNC GLOBAL DEFAULT 14 _ZN7android10_FileAsset5c
832:   OBJECT WEAK DEFAULT 19 _ZTVN7android12SortedVect
833:   FUNC GLOBAL DEFAULT 14 _ZNK7android8ResTable5The
834:   FUNC GLOBAL DEFAULT 14 _ZN7android12AssetManager
835:   FUNC WEAK DEFAULT 14 _ZNK7android6VectorINS_2s
836:   FUNC GLOBAL DEFAULT 14 _ZN7android5Theme5ClearEv
837:   FUNC WEAK DEFAULT 14 _ZNK7android6VectorIPNS_8
838:   FUNC GLOBAL DEFAULT 14 _ZN7android12AssetManager
839:   FUNC GLOBAL DEFAULT 14 _ZN7android11LocaleValue1
840:   FUNC WEAK DEFAULT 14 _ZNK7android12SortedVecto
841:   OBJECT GLOBAL DEFAULT 16 _ZN7android12AssetManager
842:   FUNC GLOBAL DEFAULT 14 _ZN7android12AssetManager
843:   FUNC WEAK DEFAULT 14 _ZNSt3__112__hash_tableIN
844:   FUNC GLOBAL DEFAULT 14 _ZNK7android8ResTable12ge
845:   OBJECT WEAK DEFAULT 19 _ZTVN7android6VectorIPNS_
846:   FUNC GLOBAL DEFAULT 14 _ZN7android12AssetManager
847:   FUNC GLOBAL DEFAULT 14 _ZN7android10ResXMLTreeC2
848:   FUNC GLOBAL DEFAULT 14 _ZNK7android12ResXMLParse
849:   FUNC GLOBAL DEFAULT 14 _ZNK7android8ResTable7loc
850:   OBJECT WEAK DEFAULT 19 _ZTVN7android12SortedVect
851:   FUNC GLOBAL DEFAULT 14 _ZNK7android9ApkAssets4Op
852:   FUNC GLOBAL DEFAULT 14 _ZNK7android12AssetManage
853:   FUNC GLOBAL DEFAULT 14 _ZNK7android13AssetManage
854:   FUNC WEAK DEFAULT 14 _ZNSt3__115basic_stringbu
855:   FUNC WEAK DEFAULT 14 _ZNK7android12SortedVecto
856:   FUNC GLOBAL DEFAULT 14 _ZN7android12CursorWindow
857:   OBJECT GLOBAL DEFAULT 16 _ZN7android12AssetManager
858:   FUNC GLOBAL DEFAULT 14 _ZNK7android5Theme4DumpEv
859:   FUNC GLOBAL DEFAULT 14 _ZN7android8ResTable3addE
860:   FUNC GLOBAL DEFAULT 14 _ZN7android12AssetManager
861:   FUNC GLOBAL DEFAULT 14 _ZN7android12AssetManager
862:   FUNC GLOBAL DEFAULT 14 _ZNK7android8ResTable10ge
863:   FUNC GLOBAL DEFAULT 14 _ZN7android14Res_png_9pat
864:   FUNC WEAK DEFAULT 14 _ZNK7android12SortedVecto
865:   FUNC GLOBAL DEFAULT 14 _ZNK7android13ResStringPo
866:   FUNC GLOBAL DEFAULT 14 _ZN7android9ZipFileRO14st
867:   FUNC WEAK DEFAULT 14 _ZNK7android6VectorINS_12
868:   FUNC GLOBAL DEFAULT 14 _ZNK7android13AssetManage
869:   FUNC GLOBAL DEFAULT 14 _ZN7android12ResXMLParser
870:   FUNC GLOBAL DEFAULT 14 _ZN7android12AssetManager
871:   FUNC GLOBAL DEFAULT 14 _ZN7android12AssetManager
872:   FUNC GLOBAL DEFAULT 14 _ZN7android20packLanguage
873:   FUNC GLOBAL DEFAULT 14 _ZNK7android8ResTable27ge
874:   FUNC GLOBAL DEFAULT 14 _ZN7android17RestoreHelpe
875:   FUNC GLOBAL DEFAULT 14 _ZN7android12CursorWindow
876:   FUNC GLOBAL DEFAULT 14 _ZN7android10_FileAssetC2
877:   FUNC GLOBAL DEFAULT 14 _ZN7android12AssetManager
878:   FUNC GLOBAL DEFAULT 14 _ZN7android18RetrieveAttr
879:   FUNC GLOBAL DEFAULT 14 _ZN7android16_CompressedA
880:   FUNC GLOBAL DEFAULT 14 _ZNK7android10_FileAsset1
881:   FUNC GLOBAL DEFAULT 14 _ZN7android12AssetManager
882:   FUNC GLOBAL DEFAULT 14 _ZN7android9ApkAssets19Cr
883:   FUNC WEAK DEFAULT 14 _ZNSt3__16vectorIN7androi
884:   FUNC GLOBAL DEFAULT 14 _ZN7android4util13Execute
885:   FUNC GLOBAL DEFAULT 14 _ZN7android12ResXMLParser
886:   FUNC GLOBAL DEFAULT 14 _ZNK7android8ResTable23ge
887:   FUNC GLOBAL DEFAULT 14 _ZN7android22DisplayEvent
888:   FUNC GLOBAL DEFAULT 14 _ZN7android12AssetManager
889:   FUNC GLOBAL DEFAULT 14 _ZN7android12AssetManager
890:   FUNC WEAK DEFAULT 14 _ZNK7android12SortedVecto
891:   FUNC GLOBAL DEFAULT 14 _ZN7android13LoadedPackag
892:   FUNC WEAK DEFAULT 14 _ZNSt3__112__hash_tableIj
893:   FUNC GLOBAL DEFAULT 14 _ZN7android7ObbFileD2Ev
894:   FUNC GLOBAL DEFAULT 14 _ZN7android15DynamicRefTa
895:   FUNC WEAK DEFAULT 14 _ZNK7android6VectorIPNS_8
896:   FUNC GLOBAL DEFAULT 14 _ZN7android11LocaleValue1
897:   FUNC GLOBAL DEFAULT 14 _ZN7android15DynamicRefTa
898:   FUNC WEAK DEFAULT 14 _ZNK7android6VectorIPNS_8
899:   FUNC GLOBAL DEFAULT 14 _ZNK7android15ResTable_co
900:   FUNC GLOBAL DEFAULT 14 _ZN7android10ResXMLTree5s
901:   FUNC GLOBAL DEFAULT 14 _ZNK7android8ResTable16re
902:   FUNC GLOBAL DEFAULT 14 _ZN7android5Asset25create
903:   FUNC WEAK DEFAULT 14 _ZNSt3__16__treeINS_12__v
904:   FUNC GLOBAL DEFAULT 14 _ZN7android4util11Utf16To
905:   FUNC GLOBAL DEFAULT 14 _ZN7android11getFileTypeE
906:   FUNC GLOBAL DEFAULT 14 _ZN7android13AssetManager
907:   FUNC GLOBAL DEFAULT 14 _ZN7android19ExtractResou
908:   FUNC WEAK DEFAULT 14 _ZNK7android12SortedVecto
909:   FUNC GLOBAL DEFAULT 14 _ZN7android8ResTable5Them
910:   FUNC GLOBAL DEFAULT 14 _ZNK7android12ResXMLParse
911:   FUNC GLOBAL DEFAULT 14 _ZN7android20StreamingZip
912:   FUNC WEAK DEFAULT 14 _ZNK7android12SortedVecto
913:   FUNC GLOBAL DEFAULT 14 _ZN7android13ResStringPoo
914:   FUNC GLOBAL DEFAULT 14 _ZNK7android12ResXMLParse
915:   FUNC GLOBAL DEFAULT 14 _ZN7android12CursorWindow
916:   FUNC GLOBAL DEFAULT 14 _ZN7android12AssetManager
917:   FUNC WEAK DEFAULT 14 _ZNSt3__112__hash_tableIN
918:   FUNC GLOBAL DEFAULT 14 _ZN7android10parseIdmapEP
919:   FUNC WEAK DEFAULT 14 _ZNK7android6VectorIPNS_8
920:   FUNC GLOBAL DEFAULT 14 _ZNK7android8ResTable4loc
921:   FUNC GLOBAL DEFAULT 14 _ZN7android16BackupDataWr
922:   FUNC GLOBAL DEFAULT 14 _ZN7android8ZipUtils15inf
923:   FUNC GLOBAL DEFAULT 14 _ZN7android12AssetManager
924:   FUNC WEAK DEFAULT 14 _ZNK7android12SortedVecto
925:   FUNC GLOBAL DEFAULT 14 _ZNK7android13ResStringPo
926:   FUNC WEAK DEFAULT 14 _ZNK7android6VectorINS_12
927:   FUNC GLOBAL DEFAULT 14 _ZN7android8ResTable5Them
928:   FUNC WEAK DEFAULT 14 _ZNK7android6VectorIPKNS_
929:   FUNC WEAK DEFAULT 14 _ZNK7android6VectorIPNS_8
930:   FUNC GLOBAL DEFAULT 14 _ZN7android16BackupDataWr
931:   FUNC GLOBAL DEFAULT 14 _ZN7android11LoadedIdmap4
932:   OBJECT GLOBAL DEFAULT 23 _ZN7android12AssetManager
933:   FUNC WEAK DEFAULT 14 _ZNK7android12SortedVecto
934:   FUNC WEAK DEFAULT 14 _ZNK7android12SortedVecto
935:   FUNC GLOBAL DEFAULT 14 _ZN7android10ResXMLTreeD1
936:   FUNC GLOBAL DEFAULT 14 _ZN7android14Res_png_9pat
937:   FUNC GLOBAL DEFAULT 14 _ZN7android15DynamicRefTa
938:   OBJECT WEAK DEFAULT 19 _ZTVN7android6VectorIPNS_
939:   FUNC GLOBAL DEFAULT 14 _ZN7android12AssetManager
940:   FUNC WEAK DEFAULT 14 _ZNK7android6VectorINS_12
941:   FUNC GLOBAL DEFAULT 14 _ZNK7android8ResTable11cr
942:   FUNC GLOBAL DEFAULT 14 _ZN7android13AssetManager
943:   FUNC GLOBAL DEFAULT 14 _ZN7android7ObbFile7write
944:   FUNC GLOBAL DEFAULT 14 _ZN7android7ObbFileC1Ev
945:   FUNC GLOBAL DEFAULT 14 _ZNK7android12ResXMLParse
946:   FUNC WEAK DEFAULT 14 _ZNK7android6VectorINSt3_
947:   FUNC GLOBAL DEFAULT 14 _ZNK7android12ResXMLParse
948:   FUNC GLOBAL DEFAULT 14 _ZN7android8ResTableC2Ev
949:   FUNC GLOBAL DEFAULT 14 _ZNK7android12AssetManage
950:   FUNC WEAK DEFAULT 14 _ZNK7android12SortedVecto
951:   FUNC GLOBAL DEFAULT 14 _ZN7android13LoadedPackag
952:   FUNC WEAK DEFAULT 14 _ZNK7android12SortedVecto
953:   FUNC GLOBAL DEFAULT 14 _ZN7android16BackupDataWr
954:   FUNC GLOBAL DEFAULT 14 _ZN7android8ResTable13set
955:   FUNC GLOBAL DEFAULT 14 _ZNK7android10LoadedArsc1
956:   FUNC GLOBAL DEFAULT 14 _ZN7android22unpackLangua
957:   FUNC WEAK DEFAULT 14 _ZNK7android12SortedVecto
958:   FUNC GLOBAL DEFAULT 14 _ZNK7android13ResStringPo
959:   FUNC WEAK DEFAULT 14 _ZNSt3__16__treeINS_4pair
960:   FUNC GLOBAL DEFAULT 14 _ZN7android12CursorWindow
961:   FUNC WEAK DEFAULT 14 _ZNK7android6VectorINSt3_
962:   FUNC GLOBAL DEFAULT 14 _ZN7android16_CompressedA
963:   FUNC GLOBAL DEFAULT 14 _ZNK7android12ResXMLParse
964:   FUNC GLOBAL DEFAULT 14 _ZN7android13LoadedPackag
965:   FUNC GLOBAL DEFAULT 14 _ZNK7android12ResXMLParse
966:   OBJECT WEAK DEFAULT 19 _ZTVNSt3__110__function6_
967:   FUNC GLOBAL DEFAULT 14 _ZN7android16BackupDataRe
968:   FUNC GLOBAL DEFAULT 14 _ZN7android16BackupDataWr
969:   FUNC WEAK DEFAULT 14 _ZNK7android12SortedVecto
970:   FUNC WEAK DEFAULT 14 _ZNSt3__112__hash_tableIj
971:   FUNC GLOBAL DEFAULT 14 _ZNK7android13StringPoolR
972:   FUNC WEAK DEFAULT 14 _ZNSt3__112__hash_tableIN
973:   FUNC GLOBAL DEFAULT 14 _ZN7android15ResTable_con
974:   FUNC GLOBAL DEFAULT 14 _ZN7android10LoadedArsc11
975:   FUNC GLOBAL DEFAULT 14 _ZN7android9ApkAssetsC2EP
976:   FUNC GLOBAL DEFAULT 14 _ZN7android5Asset19getAss
977:   FUNC GLOBAL DEFAULT 14 _ZNK7android8ResTable8get
978:   FUNC WEAK DEFAULT 14 _ZNSt3__16__treeINS_12__v
979:   FUNC GLOBAL DEFAULT 14 _ZN7android5Theme5SetToER
980:   FUNC GLOBAL DEFAULT 14 _ZNK7android12ResXMLParse
981:   FUNC WEAK DEFAULT 14 _ZNKSt3__110__function6__
982:   FUNC GLOBAL DEFAULT 14 _ZN7android16_CompressedA
983:   FUNC WEAK DEFAULT 14 _ZNK7android6VectorINS_2s
984:   OBJECT GLOBAL DEFAULT 19 _ZTVN7android12AssetManag
985:   FUNC WEAK DEFAULT 14 _ZNK7android12SortedVecto
986:   FUNC GLOBAL DEFAULT 14 _ZN7android9ApkAssets10Lo
987:   FUNC GLOBAL DEFAULT 14 _ZN7android11LoadedIdmapC
988:   FUNC GLOBAL DEFAULT 14 _ZNK7android13LoadedPacka
989:   FUNC GLOBAL DEFAULT 14 _ZN7android16BackupDataRe
990:   FUNC WEAK DEFAULT 14 _ZNK7android12SortedVecto
991:   FUNC WEAK DEFAULT 14 _ZNSt3__112__hash_tableIN
992:   FUNC WEAK DEFAULT 14 _ZNSt3__16vectorIN7androi
993:   FUNC GLOBAL DEFAULT 14 _ZN7android16BackupDataWr
994:   FUNC GLOBAL DEFAULT 14 _ZN7android20StreamingZip
995:   FUNC GLOBAL DEFAULT 14 _ZNK7android13AssetManage
996:   FUNC GLOBAL DEFAULT 14 _ZN7android13findAncestor
997:   FUNC GLOBAL DEFAULT 14 _ZN7android8ResTable5Them
998:   FUNC GLOBAL DEFAULT 14 _ZNK7android12ResXMLParse
999:   FUNC WEAK DEFAULT 14 _ZNK7android6VectorIPNS_8
1000:   FUNC GLOBAL DEFAULT 14 _ZN7android10_FileAssetD2
1001:   FUNC GLOBAL DEFAULT 14 _ZN7android12AssetManager
1002:   FUNC WEAK DEFAULT 14 _ZNK7android12SortedVecto
1003:   FUNC GLOBAL DEFAULT 14 _ZNK7android13AssetManage
1004:   FUNC GLOBAL DEFAULT 14 _ZN7android8ResTable11str
1005:   FUNC GLOBAL DEFAULT 14 _ZNK7android8ResTable11pr
1006:   FUNC WEAK DEFAULT 14 _ZNK7android6VectorINS_7S
1007:   FUNC GLOBAL DEFAULT 14 _ZNK7android11LocaleValue
1008:   FUNC GLOBAL DEFAULT 14 _ZN7android12CursorWindow
1009:   FUNC GLOBAL DEFAULT 14 _ZN7android5Asset14getGlo
1010:   FUNC GLOBAL DEFAULT 14 _ZNK7android12AssetManage
1011:   FUNC WEAK DEFAULT 14 _ZNK7android12SortedVecto
1012:   FUNC GLOBAL DEFAULT 14 _ZNK7android13AssetManage
1013:   FUNC GLOBAL DEFAULT 14 _ZNK7android12ResXMLParse
1014:   FUNC GLOBAL DEFAULT 14 _ZNK7android9ZipFileRO15u
1015:   FUNC GLOBAL DEFAULT 14 _ZN7android12CursorWindow
1016:   FUNC GLOBAL DEFAULT 14 _ZN7android13AssetManager
1017:   FUNC WEAK DEFAULT 14 _ZNSt3__112__hash_tableIN
1018:   FUNC WEAK DEFAULT 14 _ZNK7android6VectorIPNS_8
1019:   OBJECT GLOBAL DEFAULT 16 _ZN7android12AssetManager
1020:   FUNC GLOBAL DEFAULT 14 _ZN7android12AssetManager
1021:   FUNC WEAK DEFAULT 14 _ZNK7android12SortedVecto
1022:   FUNC GLOBAL DEFAULT 14 _ZN7android10LoadedArsc9L
1023:   OBJECT WEAK DEFAULT 19 _ZTV8FdReader
1024:   FUNC GLOBAL DEFAULT 14 _ZNK7android5Theme25Resol
1025:   FUNC WEAK DEFAULT 14 _ZNSt3__112__hash_tableIN
1026:   FUNC GLOBAL DEFAULT 14 _ZN7android14U16StringToI
1027:   FUNC GLOBAL DEFAULT 14 _ZNK7android12ResXMLParse
1028:   OBJECT GLOBAL DEFAULT 16 _ZN7android12AssetManager
1029:   FUNC GLOBAL DEFAULT 14 _ZN7android13AssetManager
