 0x000000000000000e (SONAME)             Library soname: [libmediautils.so]
  
Symbol   contains 325 entries:
Num:   Type Bind Vis Ndx Name
0:   NOTYPE LOCAL DEFAULT UND
1:   FUNC GLOBAL DEFAULT UND __cxa_finalize@LIBC (2)
2:   FUNC GLOBAL DEFAULT UND __cxa_atexit@LIBC (2)
3:   FUNC GLOBAL DEFAULT UND _ZN7android20retrieveHalI
4:   FUNC GLOBAL DEFAULT UND _ZN7android8hardware7deta
5:   FUNC GLOBAL DEFAULT UND _ZN7android8hardware7deta
6:   FUNC GLOBAL DEFAULT UND _ZN7android8hardware8grap
7:   FUNC GLOBAL DEFAULT UND _ZNK7android7RefBase9decS
8:   FUNC GLOBAL DEFAULT UND _ZNK7android7RefBase9incS
9:   FUNC GLOBAL DEFAULT UND _ZNK7android8hardware7det
10:   FUNC GLOBAL DEFAULT UND _ZdaPv
11:   FUNC GLOBAL DEFAULT UND __stack_chk_fail@LIBC (2)
12:   FUNC GLOBAL DEFAULT UND _ZN7android10IInterface8a
13:   FUNC GLOBAL DEFAULT UND _ZN7android13IBatteryStat
14:   FUNC GLOBAL DEFAULT UND _ZN7android14sp_report_ra
15:   FUNC GLOBAL DEFAULT UND _ZN7android21defaultServi
16:   FUNC GLOBAL DEFAULT UND _ZN7android7RefBase10onFi
17:   FUNC GLOBAL DEFAULT UND _ZN7android7RefBase12weak
18:   FUNC GLOBAL DEFAULT UND _ZN7android7RefBase13onLa
19:   FUNC GLOBAL DEFAULT UND _ZN7android7RefBase15onLa
20:   FUNC GLOBAL DEFAULT UND _ZN7android7RefBase20onIn
21:   FUNC GLOBAL DEFAULT UND _ZN7android7RefBaseC2Ev
22:   FUNC GLOBAL DEFAULT UND _ZN7android7RefBaseD2Ev
23:   FUNC GLOBAL DEFAULT UND _ZN7android7String8C1ERKS
24:   FUNC GLOBAL DEFAULT UND _ZN7android7String8D1Ev
25:   FUNC GLOBAL DEFAULT UND _ZN7android8String16C1EPK
26:   FUNC GLOBAL DEFAULT UND _ZN7android8String16D1Ev
27:   FUNC GLOBAL DEFAULT UND _ZNK7android7RefBase10cre
28:   FUNC GLOBAL DEFAULT UND _ZdlPv
29:   FUNC GLOBAL DEFAULT UND _Znwm
30:   FUNC GLOBAL DEFAULT UND __android_log_print@LIBLOG (3)
31:   FUNC GLOBAL DEFAULT UND __cxa_pure_virtual
32:   FUNC GLOBAL DEFAULT UND pthread_mutex_destroy@LIBC (2)
33:   FUNC GLOBAL DEFAULT UND pthread_mutex_init@LIBC (2)
34:   FUNC GLOBAL DEFAULT UND pthread_mutex_lock@LIBC (2)
35:   FUNC GLOBAL DEFAULT UND pthread_mutex_unlock@LIBC (2)
36:   FUNC GLOBAL DEFAULT UND strcmp@LIBC (2)
37:   FUNC GLOBAL DEFAULT UND _ZN7android10IInterfaceC2
38:   FUNC GLOBAL DEFAULT UND _ZN7android10IInterfaceD0
39:   FUNC GLOBAL DEFAULT UND _ZN7android10IInterfaceD1
40:   FUNC GLOBAL DEFAULT UND _ZN7android10IInterfaceD2
41:   FUNC GLOBAL DEFAULT UND _ZN7android6Parcel10write
42:   FUNC GLOBAL DEFAULT UND _ZN7android6Parcel17write
43:   FUNC GLOBAL DEFAULT UND _ZN7android6Parcel19write
44:   FUNC GLOBAL DEFAULT UND _ZN7android6Parcel9writeB
45:   FUNC GLOBAL DEFAULT UND _ZN7android6ParcelC1Ev
46:   FUNC GLOBAL DEFAULT UND _ZN7android6ParcelD1Ev
47:   FUNC GLOBAL DEFAULT UND _ZN7android7BBinder10onTr
48:   FUNC GLOBAL DEFAULT UND _ZN7android7BBinder10ping
49:   FUNC GLOBAL DEFAULT UND _ZN7android7BBinder11link
50:   FUNC GLOBAL DEFAULT UND _ZN7android7BBinder11loca
51:   FUNC GLOBAL DEFAULT UND _ZN7android7BBinder12atta
52:   FUNC GLOBAL DEFAULT UND _ZN7android7BBinder12deta
53:   FUNC GLOBAL DEFAULT UND _ZN7android7BBinder13unli
54:   FUNC GLOBAL DEFAULT UND _ZN7android7BBinder4dumpE
55:   FUNC GLOBAL DEFAULT UND _ZN7android7BBinder8trans
56:   FUNC GLOBAL DEFAULT UND _ZN7android7BBinderD0Ev
57:   FUNC GLOBAL DEFAULT UND _ZN7android7BBinderD1Ev
58:   FUNC GLOBAL DEFAULT UND _ZN7android7IBinder11loca
59:   FUNC GLOBAL DEFAULT UND _ZN7android7IBinder12remo
60:   FUNC GLOBAL DEFAULT UND _ZN7android7IBinder19quer
61:   FUNC GLOBAL DEFAULT UND _ZN7android7IBinderD0Ev
62:   FUNC GLOBAL DEFAULT UND _ZN7android7IBinderD1Ev
63:   FUNC GLOBAL DEFAULT UND _ZN7android9BpRefBase10on
64:   FUNC GLOBAL DEFAULT UND _ZN7android9BpRefBase15on
65:   FUNC GLOBAL DEFAULT UND _ZN7android9BpRefBase20on
66:   FUNC GLOBAL DEFAULT UND _ZN7android9BpRefBaseC2ER
67:   FUNC GLOBAL DEFAULT UND _ZN7android9BpRefBaseD0Ev
68:   FUNC GLOBAL DEFAULT UND _ZN7android9BpRefBaseD1Ev
69:   FUNC GLOBAL DEFAULT UND _ZN7android9BpRefBaseD2Ev
70:   FUNC GLOBAL DEFAULT UND _ZNK7android6Parcel17read
71:   FUNC GLOBAL DEFAULT UND _ZNK7android6Parcel9readI
72:   FUNC GLOBAL DEFAULT UND _ZNK7android7BBinder10fin
73:   FUNC GLOBAL DEFAULT UND _ZNK7android7BBinder13isB
74:   FUNC GLOBAL DEFAULT UND _ZNK7android7BBinder22get
75:   FUNC GLOBAL DEFAULT UND _ZNK7android7IBinder13che
76:   FUNC GLOBAL DEFAULT UND _ZNK7android8String164siz
77:   FUNC GLOBAL DEFAULT UND _ZTv0_n24_N7android10IInt
78:   FUNC GLOBAL DEFAULT UND _ZTv0_n24_N7android10IInt
79:   FUNC GLOBAL DEFAULT UND _ZTv0_n24_N7android7BBind
80:   FUNC GLOBAL DEFAULT UND _ZTv0_n24_N7android7BBind
81:   FUNC GLOBAL DEFAULT UND _ZTv0_n24_N7android7IBind
82:   FUNC GLOBAL DEFAULT UND _ZTv0_n24_N7android7IBind
83:   FUNC GLOBAL DEFAULT UND _ZTv0_n24_N7android9BpRef
84:   FUNC GLOBAL DEFAULT UND _ZTv0_n24_N7android9BpRef
85:   FUNC GLOBAL DEFAULT UND _ZTv0_n32_N7android9BpRef
86:   FUNC GLOBAL DEFAULT UND _ZTv0_n40_N7android9BpRef
87:   FUNC GLOBAL DEFAULT UND _ZTv0_n48_N7android9BpRef
88:   FUNC GLOBAL DEFAULT UND strzcmp16
89:   FUNC GLOBAL DEFAULT UND _Z16backtrace_stringPKmm
90:   FUNC GLOBAL DEFAULT UND _ZNKSt3__121__basic_strin
91:   FUNC GLOBAL DEFAULT UND _ZNKSt3__16locale9use_fac
92:   FUNC GLOBAL DEFAULT UND _ZNKSt3__18ios_base6getlo
93:   FUNC GLOBAL DEFAULT UND _ZNSt3__112basic_stringIc
94:   FUNC GLOBAL DEFAULT UND _ZNSt3__112basic_stringIc
95:   FUNC GLOBAL DEFAULT UND _ZNSt3__113basic_ostreamI
96:   FUNC GLOBAL DEFAULT UND _ZNSt3__113basic_ostreamI
97:   FUNC GLOBAL DEFAULT UND _ZNSt3__113basic_ostreamI
98:   FUNC GLOBAL DEFAULT UND _ZNSt3__113basic_ostreamI
99:   FUNC GLOBAL DEFAULT UND _ZNSt3__113basic_ostreamI
100:   FUNC GLOBAL DEFAULT UND _ZNSt3__113basic_ostreamI
101:   FUNC GLOBAL DEFAULT UND _ZNSt3__115basic_streambu
102:   FUNC GLOBAL DEFAULT UND _ZNSt3__115basic_streambu
103:   FUNC GLOBAL DEFAULT UND _ZNSt3__115basic_streambu
104:   FUNC GLOBAL DEFAULT UND _ZNSt3__115basic_streambu
105:   FUNC GLOBAL DEFAULT UND _ZNSt3__115basic_streambu
106:   FUNC GLOBAL DEFAULT UND _ZNSt3__115basic_streambu
107:   FUNC GLOBAL DEFAULT UND _ZNSt3__115basic_streambu
108:   FUNC GLOBAL DEFAULT UND _ZNSt3__115basic_streambu
109:   FUNC GLOBAL DEFAULT UND _ZNSt3__115basic_streambu
110:   OBJECT GLOBAL DEFAULT UND _ZNSt3__15ctypeIcE2idE
111:   FUNC GLOBAL DEFAULT UND _ZNSt3__16localeD1Ev
112:   FUNC GLOBAL DEFAULT UND _ZNSt3__18ios_base4initEP
113:   FUNC GLOBAL DEFAULT UND _ZNSt3__18ios_base5clearE
114:   FUNC GLOBAL DEFAULT UND _ZNSt3__19basic_iosIcNS_1
115:   FUNC GLOBAL DEFAULT UND _ZTv0_n24_NSt3__113basic_
116:   FUNC GLOBAL DEFAULT UND _ZTv0_n24_NSt3__113basic_
117:   FUNC GLOBAL DEFAULT UND android_mallopt@LIBC_Q (4)
118:   FUNC GLOBAL DEFAULT UND memset@LIBC (2)
119:   FUNC GLOBAL DEFAULT UND _ZN7android14IPCThreadSta
120:   FUNC GLOBAL DEFAULT UND _ZN7android19IProcessInfo
121:   FUNC GLOBAL DEFAULT UND _ZNK7android14IPCThreadSt
122:   FUNC GLOBAL DEFAULT UND getpid@LIBC (2)
123:   FUNC GLOBAL DEFAULT UND sleep@LIBC (2)
124:   FUNC GLOBAL DEFAULT UND _ZN7android10VectorImpl13
125:   FUNC GLOBAL DEFAULT UND _ZN7android10VectorImplC2
126:   FUNC GLOBAL DEFAULT UND _ZN7android10VectorImplD2
127:   FUNC GLOBAL DEFAULT UND _ZN7android13AppOpsManage
128:   FUNC GLOBAL DEFAULT UND _ZN7android13AppOpsManage
129:   FUNC GLOBAL DEFAULT UND _ZN7android13AppOpsManage
130:   FUNC GLOBAL DEFAULT UND _ZN7android13AppOpsManage
131:   FUNC GLOBAL DEFAULT UND _ZN7android13AppOpsManage
132:   FUNC GLOBAL DEFAULT UND _ZN7android15PermissionCa
133:   FUNC GLOBAL DEFAULT UND _ZN7android15PermissionCa
134:   FUNC GLOBAL DEFAULT UND _ZN7android20PermissionCo
135:   FUNC GLOBAL DEFAULT UND _ZN7android20PermissionCo
136:   FUNC GLOBAL DEFAULT UND _ZN7android20PermissionCo
137:   FUNC GLOBAL DEFAULT UND _ZN7android7String85setTo
138:   FUNC GLOBAL DEFAULT UND _ZN7android7String8C1ERKN
139:   FUNC GLOBAL DEFAULT UND _ZN7android7content2pm21I
140:   FUNC GLOBAL DEFAULT UND _ZN7android8String16C1ERK
141:   FUNC GLOBAL DEFAULT UND _ZN7android8String16C1Ev
142:   FUNC GLOBAL DEFAULT UND _ZNK7android14IPCThreadSt
143:   FUNC GLOBAL DEFAULT UND _ZNK7android6binder6Statu
144:   FUNC GLOBAL DEFAULT UND _ZNK7android7IMemory4size
145:   FUNC GLOBAL DEFAULT UND _ZNK7android7IMemory7poin
146:   FUNC GLOBAL DEFAULT UND _ZNKSt3__120__vector_base
147:   FUNC GLOBAL DEFAULT UND __cxa_guard_acquire
148:   FUNC GLOBAL DEFAULT UND __cxa_guard_release
149:   FUNC GLOBAL DEFAULT UND abort@LIBC (2)
150:   FUNC GLOBAL DEFAULT UND dprintf@LIBC (2)
151:   FUNC GLOBAL DEFAULT UND lseek@LIBC (2)
152:   FUNC GLOBAL DEFAULT UND memmove@LIBC (2)
153:   FUNC GLOBAL DEFAULT UND multiuser_get_app_id
154:   FUNC GLOBAL DEFAULT UND _ZN7android10VectorImpl5c
155:   FUNC GLOBAL DEFAULT UND _ZN7android16SortedVector
156:   FUNC GLOBAL DEFAULT UND _ZN7android16SortedVector
157:   FUNC GLOBAL DEFAULT UND _ZN7android16SortedVector
158:   FUNC GLOBAL DEFAULT UND _ZN7android16SortedVector
159:   FUNC GLOBAL DEFAULT UND _ZN7android6Thread10ready
160:   FUNC GLOBAL DEFAULT UND _ZN7android6Thread11reque
161:   FUNC GLOBAL DEFAULT UND _ZN7android6Thread3runEPK
162:   FUNC GLOBAL DEFAULT UND _ZN7android6ThreadC2Eb
163:   FUNC GLOBAL DEFAULT UND _ZN7android6ThreadD0Ev
164:   FUNC GLOBAL DEFAULT UND _ZN7android6ThreadD1Ev
165:   FUNC GLOBAL DEFAULT UND _ZN7android6ThreadD2Ev
166:   FUNC GLOBAL DEFAULT UND _ZNK7android16SortedVecto
167:   FUNC GLOBAL DEFAULT UND _ZNK7android6Thread11exit
168:   FUNC GLOBAL DEFAULT UND _ZTv0_n24_N7android6Threa
169:   FUNC GLOBAL DEFAULT UND _ZTv0_n24_N7android6Threa
170:   FUNC GLOBAL DEFAULT UND __android_log_assert@LIBLOG (3)
171:   FUNC GLOBAL DEFAULT UND __android_log_bswrite@LIBLOG_Q (5)
172:   FUNC GLOBAL DEFAULT UND clock_gettime@LIBC (2)
173:   FUNC GLOBAL DEFAULT UND memcpy@LIBC (2)
174:   FUNC GLOBAL DEFAULT UND pthread_cond_destroy@LIBC (2)
175:   FUNC GLOBAL DEFAULT UND pthread_cond_init@LIBC (2)
176:   FUNC GLOBAL DEFAULT UND pthread_cond_signal@LIBC (2)
177:   FUNC GLOBAL DEFAULT UND pthread_cond_timedwait@LIBC (2)
178:   FUNC GLOBAL DEFAULT UND pthread_condattr_destroy@LIBC (2)
179:   FUNC GLOBAL DEFAULT UND pthread_condattr_init@LIBC (2)
180:   FUNC GLOBAL DEFAULT UND pthread_condattr_setclock@LIBC (2)
181:   FUNC GLOBAL DEFAULT UND sigqueue@LIBC (2)
182:   FUNC GLOBAL DEFAULT UND systemTime
183:   FUNC GLOBAL DEFAULT 14 _ZN7android4aimg30AImageR
184:   FUNC GLOBAL DEFAULT 14 _ZN7android15BatteryNotif
185:   OBJECT GLOBAL DEFAULT 23 _ZN7android24ISchedulingP
186:   FUNC GLOBAL DEFAULT 14 _ZNK7android24IScheduling
187:   OBJECT GLOBAL DEFAULT 18 _ZTCN7android25BnScheduli
188:   OBJECT GLOBAL DEFAULT 18 _ZTVN7android24ISchedulin
189:   FUNC GLOBAL DEFAULT 14 _ZN7android19dumpMemoryAd
190:   OBJECT GLOBAL DEFAULT 18 _ZTVN7android11ProcessInf
191:   FUNC GLOBAL DEFAULT 14 _ZTv0_n24_N7android9TimeC
192:   FUNC GLOBAL DEFAULT 14 _ZTv0_n24_N7android24ISch
193:   FUNC GLOBAL DEFAULT 14 _ZN7android9TimeCheck15Ti
194:   FUNC GLOBAL DEFAULT 14 _ZN7android9TimeCheck15se
195:   FUNC WEAK DEFAULT 14 _ZNSt3__127__tree_balance
196:   FUNC GLOBAL DEFAULT 14 _ZN7android24ISchedulingP
197:   FUNC GLOBAL DEFAULT 14 _ZN7android24ISchedulingP
198:   FUNC WEAK DEFAULT 14 _ZNSt3__115basic_stringbu
199:   FUNC GLOBAL DEFAULT 14 _ZN7android11ProcessInfoC
200:   FUNC GLOBAL DEFAULT 14 _ZN7android31bypassInterr
201:   OBJECT GLOBAL DEFAULT 18 _ZTTN7android15BatteryNot
202:   FUNC GLOBAL DEFAULT 14 _ZThn8_N7android25BnSched
203:   FUNC GLOBAL DEFAULT 14 _ZN7android21captureHotwo
204:   OBJECT WEAK DEFAULT 18 _ZTTN7android25BpScheduli
205:   FUNC GLOBAL DEFAULT 14 _ZN7android9TimeCheckD1Ev
206:   FUNC GLOBAL DEFAULT 14 _ZTv0_n24_N7android9TimeC
207:   OBJECT GLOBAL DEFAULT 23 _ZN7android24ISchedulingP
208:   FUNC WEAK DEFAULT 14 _ZNSt3__115basic_stringbu
209:   FUNC GLOBAL DEFAULT 14 _ZN7android11dumpAllowedE
210:   OBJECT GLOBAL DEFAULT 18 _ZTVN7android15BatteryNot
211:   OBJECT WEAK DEFAULT 18 _ZTCN7android25BpScheduli
212:   OBJECT WEAK DEFAULT 18 _ZTVNSt3__119basic_ostrin
213:   FUNC GLOBAL DEFAULT 14 _ZN7android11ProcessInfoC
214:   FUNC GLOBAL DEFAULT 14 _ZN7android19MediaPackage
215:   FUNC GLOBAL DEFAULT 14 _ZN7android25captureMedia
216:   OBJECT GLOBAL DEFAULT 18 _ZTCN7android9TimeCheck15
217:   FUNC GLOBAL DEFAULT 14 _ZNK7android19MediaPackag
218:   FUNC WEAK DEFAULT 14 _ZNK7android6VectorINS_8S
219:   FUNC GLOBAL DEFAULT 14 _ZN7android15BatteryNotif
220:   FUNC GLOBAL DEFAULT 14 _ZN7android9TimeCheckD2Ev
221:   FUNC WEAK DEFAULT 14 _ZN7android9SingletonINS_
222:   FUNC WEAK DEFAULT 14 _ZN7android2spINS_24ISche
223:   FUNC GLOBAL DEFAULT 14 _ZN7android14startRecordi
224:   FUNC GLOBAL DEFAULT 14 _ZN7android15settingsAllo
225:   FUNC GLOBAL DEFAULT 14 _ZN7android9TimeCheck18ge
226:   FUNC WEAK DEFAULT 14 _ZNK7android12SortedVecto
227:   FUNC GLOBAL DEFAULT 14 _ZN7android15BatteryNotif
228:   OBJECT GLOBAL DEFAULT 18 _ZTCN7android15BatteryNot
229:   FUNC GLOBAL DEFAULT 14 _ZN7android25BnScheduling
230:   FUNC WEAK DEFAULT 14 _ZNKSt3__115basic_stringb
231:   OBJECT WEAK DEFAULT 18 _ZTVNSt3__115basic_string
232:   FUNC GLOBAL DEFAULT 14 _ZN7android12checkIMemory
233:   FUNC GLOBAL DEFAULT 14 _ZN7android25captureAudio
234:   FUNC GLOBAL DEFAULT 14 _ZN7android15BatteryNotif
235:   FUNC WEAK DEFAULT 14 _ZNSt3__16__treeINS_12__v
236:   FUNC WEAK DEFAULT 14 _ZN7android11BnInterfaceI
237:   FUNC WEAK DEFAULT 14 _ZNSt3__115basic_stringbu
238:   FUNC GLOBAL DEFAULT 14 _ZN7android15BatteryNotif
239:   FUNC GLOBAL DEFAULT 14 _ZN7android15BatteryNotif
240:   FUNC GLOBAL DEFAULT 14 _ZN7android15BatteryNotif
241:   FUNC WEAK DEFAULT 14 _ZN7android9SingletonINS_
242:   FUNC WEAK DEFAULT 14 _ZNSt3__16__treeINS_12__v
243:   OBJECT WEAK DEFAULT 18 _ZTCN7android25BpScheduli
244:   FUNC GLOBAL DEFAULT 14 _ZN7android32modifyDefaul
245:   FUNC GLOBAL DEFAULT 14 _ZN7android24ISchedulingP
246:   OBJECT GLOBAL DEFAULT 18 _ZTTN7android9TimeCheck15
247:   OBJECT GLOBAL DEFAULT 18 _ZTCN7android25BnScheduli
248:   OBJECT WEAK DEFAULT 18 _ZTCN7android25BpScheduli
249:   OBJECT WEAK DEFAULT 18 _ZTVN7android25BpScheduli
250:   FUNC WEAK DEFAULT 14 _ZNSt3__124__put_characte
251:   FUNC GLOBAL DEFAULT 14 _ZN7android25modifyAudioR
252:   FUNC GLOBAL DEFAULT 14 _ZN7android9TimeCheck18ac
253:   FUNC GLOBAL DEFAULT 14 _ZN7android15BatteryNotif
254:   FUNC WEAK DEFAULT 14 _ZN7android9SingletonINS_
255:   FUNC WEAK DEFAULT 14 _ZNSt3__115basic_stringbu
256:   FUNC GLOBAL DEFAULT 14 _ZN7android18requestCpuse
257:   OBJECT WEAK DEFAULT 18 _ZTVN7android6VectorINS_8
258:   FUNC GLOBAL DEFAULT 14 _ZN7android9TimeCheck15Ti
259:   FUNC GLOBAL DEFAULT 14 _ZN7android15BatteryNotif
260:   FUNC GLOBAL DEFAULT 14 _ZN7android24ISchedulingP
261:   FUNC WEAK DEFAULT 14 _ZNSt3__16vectorIN7androi
262:   FUNC GLOBAL DEFAULT 14 _ZN7android9TimeCheck15Ti
263:   FUNC GLOBAL DEFAULT 14 _ZN7android9TimeCheckC1EP
264:   OBJECT GLOBAL DEFAULT 18 _ZTTN7android24ISchedulin
265:   OBJECT WEAK DEFAULT 18 _ZTCNSt3__119basic_ostrin
266:   FUNC WEAK DEFAULT 14 _ZNK7android6VectorINS_8S
267:   FUNC GLOBAL DEFAULT 14 _ZN7android15BatteryNotif
268:   OBJECT GLOBAL DEFAULT 23 _ZN7android9SingletonINS_
269:   FUNC WEAK DEFAULT 14 _ZN7android9SingletonINS_
270:   FUNC GLOBAL DEFAULT 14 _ZN7android16recordingAll
271:   FUNC GLOBAL DEFAULT 14 _ZN7android9TimeCheckC2EP
272:   FUNC WEAK DEFAULT 14 _ZNK7android12SortedVecto
273:   FUNC WEAK DEFAULT 14 _ZNSt3__16vectorIiNS_9all
274:   FUNC GLOBAL DEFAULT 14 _ZN7android15BatteryNotif
275:   FUNC GLOBAL DEFAULT 14 _ZN7android24ISchedulingP
276:   FUNC WEAK DEFAULT 14 _ZNK7android12SortedVecto
277:   FUNC WEAK DEFAULT 14 _ZNK7android12SortedVecto
278:   FUNC WEAK DEFAULT 14 _ZN7android9SingletonINS_
279:   OBJECT GLOBAL DEFAULT 18 _ZTCN7android25BnScheduli
280:   OBJECT WEAK DEFAULT 18 _ZTVN7android12SortedVect
281:   FUNC GLOBAL DEFAULT 14 _ZN7android11ProcessInfo1
282:   FUNC GLOBAL DEFAULT 14 _ZN7android11ProcessInfoD
283:   FUNC GLOBAL DEFAULT 14 _ZN7android15BatteryNotif
284:   FUNC GLOBAL DEFAULT 14 _ZN7android15BatteryNotif
285:   OBJECT GLOBAL DEFAULT 18 _ZTTN7android25BnScheduli
286:   FUNC WEAK DEFAULT 14 _ZNK7android6VectorINS_8S
287:   FUNC GLOBAL DEFAULT 14 _ZN7android15BatteryNotif
288:   FUNC WEAK DEFAULT 14 _ZN7android9SingletonINS_
289:   FUNC GLOBAL DEFAULT 14 _ZN7android24ISchedulingP
290:   FUNC WEAK DEFAULT 14 _ZNK7android12SortedVecto
291:   FUNC WEAK DEFAULT 14 _ZNK7android12SortedVecto
292:   FUNC GLOBAL DEFAULT 14 _ZN7android15BatteryNotif
293:   OBJECT GLOBAL DEFAULT 23 _ZN7android9SingletonINS_
294:   OBJECT GLOBAL DEFAULT 18 _ZTVN7android25BnScheduli
295:   FUNC GLOBAL DEFAULT 14 _ZN7android9TimeCheck15Ti
296:   FUNC GLOBAL DEFAULT 14 _ZN7android15BatteryNotif
297:   FUNC GLOBAL DEFAULT 14 _ZN7android11ProcessInfoD
298:   OBJECT GLOBAL DEFAULT 18 _ZTVN7android9TimeCheck15
299:   FUNC WEAK DEFAULT 14 _ZNK7android6VectorINS_8S
300:   FUNC WEAK DEFAULT 14 _ZN7android2spINS_9TimeCh
301:   FUNC GLOBAL DEFAULT 14 _ZN7android15BatteryNotif
302:   FUNC GLOBAL DEFAULT 14 _ZN7android15BatteryNotif
303:   FUNC GLOBAL DEFAULT 14 _ZN7android24ISchedulingP
304:   FUNC GLOBAL DEFAULT 14 _ZN7android11ProcessInfo1
305:   FUNC GLOBAL DEFAULT 14 _ZN7android15requestPrior
306:   FUNC GLOBAL DEFAULT 14 _ZN7android19MediaPackage
307:   FUNC GLOBAL DEFAULT 14 _ZN7android9TimeCheck15ge
308:   FUNC WEAK DEFAULT 14 _ZNK7android12SortedVecto
309:   FUNC WEAK DEFAULT 14 _ZNSt3__113__tree_removeI
310:   FUNC WEAK DEFAULT 14 _ZNSt3__16__treeINS_12__v
311:   FUNC GLOBAL DEFAULT 14 _ZTv0_n24_N7android24ISch
312:   OBJECT WEAK DEFAULT 18 _ZTTNSt3__119basic_ostrin
313:   FUNC GLOBAL DEFAULT 14 _ZN7android9TimeCheck15Ti
314:   FUNC GLOBAL DEFAULT 14 _ZN7android9TimeCheck15Ti
315:   FUNC GLOBAL DEFAULT 14 _ZN7android15BatteryNotif
316:   OBJECT GLOBAL DEFAULT 18 _ZTCN7android24ISchedulin
317:   OBJECT GLOBAL DEFAULT 18 _ZTCN7android25BnScheduli
318:   OBJECT WEAK DEFAULT 18 _ZTCN7android25BpScheduli
319:   FUNC GLOBAL DEFAULT 14 _ZN7android11ProcessInfoD
320:   FUNC WEAK DEFAULT 14 _ZNK7android6VectorINS_8S
321:   OBJECT GLOBAL DEFAULT 18 _ZTCN7android25BnScheduli
322:   FUNC GLOBAL DEFAULT 14 _ZN7android15finishRecord
323:   FUNC GLOBAL DEFAULT 14 _ZN7android23modifyPhoneS
324:   FUNC WEAK DEFAULT 14 _ZNK7android6VectorINS_8S
