 0x000000000000000e (SONAME)             Library soname: [android.hardware.drm@1.0.so]
  
Symbol   contains 630 entries:
Num:   Type Bind Vis Ndx Name
0:   NOTYPE LOCAL DEFAULT UND
1:   FUNC GLOBAL DEFAULT UND __cxa_finalize@LIBC (2)
2:   FUNC GLOBAL DEFAULT UND _ZN7android14sp_report_ra
3:   FUNC GLOBAL DEFAULT UND _ZN7android21report_syspr
4:   OBJECT GLOBAL DEFAULT UND _ZN7android4hidl4base4V1_
5:   FUNC GLOBAL DEFAULT UND _ZN7android4hidl4base4V1_
6:   FUNC GLOBAL DEFAULT UND _ZN7android4hidl4base4V1_
7:   FUNC GLOBAL DEFAULT UND _ZN7android4hidl4base4V1_
8:   FUNC GLOBAL DEFAULT UND _ZN7android4hidl4base4V1_
9:   FUNC GLOBAL DEFAULT UND _ZN7android4hidl4base4V1_
10:   FUNC GLOBAL DEFAULT UND _ZN7android4hidl4base4V1_
11:   FUNC GLOBAL DEFAULT UND _ZN7android4hidl4base4V1_
12:   FUNC GLOBAL DEFAULT UND _ZN7android4hidl4base4V1_
13:   FUNC GLOBAL DEFAULT UND _ZN7android4hidl4base4V1_
14:   FUNC GLOBAL DEFAULT UND _ZN7android4hidl4base4V1_
15:   FUNC GLOBAL DEFAULT UND _ZN7android4hidl4base4V1_
16:   FUNC GLOBAL DEFAULT UND _ZN7android4hidl4base4V1_
17:   FUNC GLOBAL DEFAULT UND _ZN7android4hidl4base4V1_
18:   FUNC GLOBAL DEFAULT UND _ZN7android4hidl4base4V1_
19:   FUNC GLOBAL DEFAULT UND _ZN7android4hidl4base4V1_
20:   FUNC GLOBAL DEFAULT UND _ZN7android4hidl4base4V1_
21:   FUNC GLOBAL DEFAULT UND _ZN7android4hidl4base4V1_
22:   FUNC GLOBAL DEFAULT UND _ZN7android4hidl4base4V1_
23:   FUNC GLOBAL DEFAULT UND _ZN7android4hidl4base4V1_
24:   FUNC GLOBAL DEFAULT UND _ZN7android4hidl4base4V1_
25:   FUNC GLOBAL DEFAULT UND _ZN7android4hidl4base4V1_
26:   FUNC GLOBAL DEFAULT UND _ZN7android4hidl4base4V1_
27:   FUNC GLOBAL DEFAULT UND _ZN7android4hidl4base4V1_
28:   FUNC GLOBAL DEFAULT UND _ZN7android7RefBase10onFi
29:   FUNC GLOBAL DEFAULT UND _ZN7android7RefBase12weak
30:   FUNC GLOBAL DEFAULT UND _ZN7android7RefBase13onLa
31:   FUNC GLOBAL DEFAULT UND _ZN7android7RefBase15onLa
32:   FUNC GLOBAL DEFAULT UND _ZN7android7RefBase20onIn
33:   FUNC GLOBAL DEFAULT UND _ZN7android7RefBaseC2Ev
34:   FUNC GLOBAL DEFAULT UND _ZN7android7RefBaseD2Ev
35:   FUNC GLOBAL DEFAULT UND _ZN7android8hardware10IIn
36:   FUNC GLOBAL DEFAULT UND _ZN7android8hardware10IIn
37:   FUNC GLOBAL DEFAULT UND _ZN7android8hardware10IIn
38:   FUNC GLOBAL DEFAULT UND _ZN7android8hardware10IIn
39:   FUNC GLOBAL DEFAULT UND _ZN7android8hardware10IIn
40:   FUNC GLOBAL DEFAULT UND _ZN7android8hardware11BpH
41:   FUNC GLOBAL DEFAULT UND _ZN7android8hardware11BpH
42:   FUNC GLOBAL DEFAULT UND _ZN7android8hardware11BpH
43:   FUNC GLOBAL DEFAULT UND _ZN7android8hardware11BpH
44:   FUNC GLOBAL DEFAULT UND _ZN7android8hardware11BpH
45:   FUNC GLOBAL DEFAULT UND _ZN7android8hardware11BpH
46:   FUNC GLOBAL DEFAULT UND _ZN7android8hardware11BpH
47:   FUNC GLOBAL DEFAULT UND _ZN7android8hardware11hid
48:   FUNC GLOBAL DEFAULT UND _ZN7android8hardware11hid
49:   FUNC GLOBAL DEFAULT UND _ZN7android8hardware11hid
50:   FUNC GLOBAL DEFAULT UND _ZN7android8hardware11hid
51:   FUNC GLOBAL DEFAULT UND _ZN7android8hardware11hid
52:   FUNC GLOBAL DEFAULT UND _ZN7android8hardware12Pro
53:   FUNC GLOBAL DEFAULT UND _ZN7android8hardware12Pro
54:   FUNC GLOBAL DEFAULT UND _ZN7android8hardware13wri
55:   FUNC GLOBAL DEFAULT UND _ZN7android8hardware14rea
56:   FUNC GLOBAL DEFAULT UND _ZN7android8hardware21def
57:   FUNC GLOBAL DEFAULT UND _ZN7android8hardware23get
58:   FUNC GLOBAL DEFAULT UND _ZN7android8hardware27hid
59:   FUNC GLOBAL DEFAULT UND _ZN7android8hardware27hid
60:   FUNC GLOBAL DEFAULT UND _ZN7android8hardware6Parc
61:   FUNC GLOBAL DEFAULT UND _ZN7android8hardware6Parc
62:   FUNC GLOBAL DEFAULT UND _ZN7android8hardware6Parc
63:   FUNC GLOBAL DEFAULT UND _ZN7android8hardware6Parc
64:   FUNC GLOBAL DEFAULT UND _ZN7android8hardware6Parc
65:   FUNC GLOBAL DEFAULT UND _ZN7android8hardware6Parc
66:   FUNC GLOBAL DEFAULT UND _ZN7android8hardware6Parc
67:   FUNC GLOBAL DEFAULT UND _ZN7android8hardware6Parc
68:   FUNC GLOBAL DEFAULT UND _ZN7android8hardware6Stat
69:   FUNC GLOBAL DEFAULT UND _ZN7android8hardware6Stat
70:   FUNC GLOBAL DEFAULT UND _ZN7android8hardware6Stat
71:   FUNC GLOBAL DEFAULT UND _ZN7android8hardware6Stat
72:   FUNC GLOBAL DEFAULT UND _ZN7android8hardware7IBin
73:   FUNC GLOBAL DEFAULT UND _ZN7android8hardware7IBin
74:   FUNC GLOBAL DEFAULT UND _ZN7android8hardware7IBin
75:   FUNC GLOBAL DEFAULT UND _ZN7android8hardware7IBin
76:   FUNC GLOBAL DEFAULT UND _ZN7android8hardware7deta
77:   FUNC GLOBAL DEFAULT UND _ZN7android8hardware7deta
78:   FUNC GLOBAL DEFAULT UND _ZN7android8hardware7deta
79:   FUNC GLOBAL DEFAULT UND _ZN7android8hardware7deta
80:   FUNC GLOBAL DEFAULT UND _ZN7android8hardware7deta
81:   FUNC GLOBAL DEFAULT UND _ZN7android8hardware7deta
82:   FUNC GLOBAL DEFAULT UND _ZN7android8hardware7deta
83:   OBJECT GLOBAL DEFAULT UND _ZN7android8hardware7deta
84:   FUNC GLOBAL DEFAULT UND _ZN7android8hardware7deta
85:   OBJECT GLOBAL DEFAULT UND _ZN7android8hardware7deta
86:   FUNC GLOBAL DEFAULT UND _ZN7android8hardware7deta
87:   FUNC GLOBAL DEFAULT UND _ZN7android8hardware7deta
88:   FUNC GLOBAL DEFAULT UND _ZN7android8hardware7deta
89:   FUNC GLOBAL DEFAULT UND _ZN7android8hardware7deta
90:   FUNC GLOBAL DEFAULT UND _ZN7android8hardware7deta
91:   FUNC GLOBAL DEFAULT UND _ZN7android8hardware7deta
92:   FUNC GLOBAL DEFAULT UND _ZN7android8hardware7deta
93:   FUNC GLOBAL DEFAULT UND _ZN7android8hardware7deta
94:   FUNC GLOBAL DEFAULT UND _ZN7android8hardware7deta
95:   FUNC GLOBAL DEFAULT UND _ZN7android8hardware7deta
96:   OBJECT GLOBAL DEFAULT UND _ZN7android8hardware7deta
97:   FUNC GLOBAL DEFAULT UND _ZN7android8hardware9BHwB
98:   FUNC GLOBAL DEFAULT UND _ZN7android8hardware9BHwB
99:   FUNC GLOBAL DEFAULT UND _ZN7android8hardware9BHwB
100:   FUNC GLOBAL DEFAULT UND _ZN7android8hardware9BHwB
101:   FUNC GLOBAL DEFAULT UND _ZN7android8hardware9BHwB
102:   FUNC GLOBAL DEFAULT UND _ZN7android8hardware9BHwB
103:   FUNC GLOBAL DEFAULT UND _ZN7android8hardware9BHwB
104:   FUNC GLOBAL DEFAULT UND _ZN7android8hardware9BHwB
105:   FUNC GLOBAL DEFAULT UND _ZN7android8hardware9BHwB
106:   FUNC GLOBAL DEFAULT UND _ZN7android8hardware9BHwB
107:   FUNC GLOBAL DEFAULT UND _ZNK7android7RefBase10cre
108:   FUNC GLOBAL DEFAULT UND _ZNK7android7RefBase11get
109:   FUNC GLOBAL DEFAULT UND _ZNK7android7RefBase9decS
110:   FUNC GLOBAL DEFAULT UND _ZNK7android7RefBase9incS
111:   FUNC GLOBAL DEFAULT UND _ZNK7android8hardware6Par
112:   FUNC GLOBAL DEFAULT UND _ZNK7android8hardware6Par
113:   FUNC GLOBAL DEFAULT UND _ZNK7android8hardware6Par
114:   FUNC GLOBAL DEFAULT UND _ZNK7android8hardware6Par
115:   FUNC GLOBAL DEFAULT UND _ZNK7android8hardware6Par
116:   FUNC GLOBAL DEFAULT UND _ZNK7android8hardware6Par
117:   FUNC GLOBAL DEFAULT UND _ZNK7android8hardware7IBi
118:   FUNC GLOBAL DEFAULT UND _ZNK7android8hardware7det
119:   FUNC GLOBAL DEFAULT UND _ZNK7android8hardware9BHw
120:   FUNC GLOBAL DEFAULT UND _ZNKSt3__120__vector_base
121:   FUNC GLOBAL DEFAULT UND _ZNKSt3__121__basic_strin
122:   FUNC GLOBAL DEFAULT UND _ZNSt3__112basic_stringIc
123:   FUNC GLOBAL DEFAULT UND _ZNSt3__112basic_stringIc
124:   FUNC GLOBAL DEFAULT UND _ZNSt3__15mutex4lockEv
125:   FUNC GLOBAL DEFAULT UND _ZNSt3__15mutex6unlockEv
126:   FUNC GLOBAL DEFAULT UND _ZNSt3__15mutexD1Ev
127:   FUNC GLOBAL DEFAULT UND _ZTv0_n24_N7android4hidl4
128:   FUNC GLOBAL DEFAULT UND _ZTv0_n24_N7android4hidl4
129:   FUNC GLOBAL DEFAULT UND _ZTv0_n24_N7android8hardw
130:   FUNC GLOBAL DEFAULT UND _ZTv0_n24_N7android8hardw
131:   FUNC GLOBAL DEFAULT UND _ZTv0_n24_N7android8hardw
132:   FUNC GLOBAL DEFAULT UND _ZTv0_n24_N7android8hardw
133:   FUNC GLOBAL DEFAULT UND _ZTv0_n24_N7android8hardw
134:   FUNC GLOBAL DEFAULT UND _ZTv0_n24_N7android8hardw
135:   FUNC GLOBAL DEFAULT UND _ZTv0_n24_N7android8hardw
136:   FUNC GLOBAL DEFAULT UND _ZTv0_n24_N7android8hardw
137:   FUNC GLOBAL DEFAULT UND _ZTv0_n32_N7android8hardw
138:   FUNC GLOBAL DEFAULT UND _ZTv0_n40_N7android8hardw
139:   FUNC GLOBAL DEFAULT UND _ZTv0_n48_N7android8hardw
140:   FUNC GLOBAL DEFAULT UND _ZdaPv
141:   FUNC GLOBAL DEFAULT UND _ZdlPv
142:   FUNC GLOBAL DEFAULT UND _Znam
143:   FUNC GLOBAL DEFAULT UND _Znwm
144:   FUNC GLOBAL DEFAULT UND __android_log_assert@LIBLOG (3)
145:   FUNC GLOBAL DEFAULT UND __cxa_pure_virtual
146:   FUNC GLOBAL DEFAULT UND __stack_chk_fail@LIBC (2)
147:   FUNC GLOBAL DEFAULT UND abort@LIBC (2)
148:   FUNC GLOBAL DEFAULT UND atrace_begin_body
149:   OBJECT GLOBAL DEFAULT UND atrace_enabled_tags
150:   FUNC GLOBAL DEFAULT UND atrace_end_body
151:   OBJECT GLOBAL DEFAULT UND atrace_is_ready
152:   FUNC GLOBAL DEFAULT UND atrace_setup
153:   FUNC GLOBAL DEFAULT UND memcmp@LIBC (2)
154:   FUNC GLOBAL DEFAULT UND memcpy@LIBC (2)
155:   FUNC GLOBAL DEFAULT UND memset@LIBC (2)
156:   FUNC GLOBAL DEFAULT UND strlen@LIBC (2)
157:   FUNC GLOBAL DEFAULT UND _ZN7android8hardware21wri
158:   FUNC GLOBAL DEFAULT UND _ZN7android8hardware21wri
159:   FUNC GLOBAL DEFAULT UND _ZN7android8hardware22rea
160:   FUNC GLOBAL DEFAULT UND _ZN7android8hardware22rea
161:   FUNC GLOBAL DEFAULT UND _ZN7android8hardware6Parc
162:   FUNC GLOBAL DEFAULT UND _ZNK7android8hardware6Par
163:   FUNC GLOBAL DEFAULT UND _ZN7android8hardware6Parc
164:   FUNC GLOBAL DEFAULT UND _ZNK7android8hardware6Par
165:   FUNC GLOBAL DEFAULT UND _ZN7android8hardware21wri
166:   FUNC GLOBAL DEFAULT UND _ZN7android8hardware22rea
167:   OBJECT GLOBAL DEFAULT 18 _ZTVN7android8hardware3dr
168:   FUNC GLOBAL DEFAULT 14 _ZN7android8hardware3drm4
169:   OBJECT GLOBAL DEFAULT 18 _ZTTN7android8hardware3dr
170:   OBJECT GLOBAL DEFAULT 18 _ZTVN7android8hardware3dr
171:   FUNC GLOBAL DEFAULT 14 _ZN7android8hardware3drm4
172:   OBJECT GLOBAL DEFAULT 18 _ZTTN7android8hardware3dr
173:   FUNC GLOBAL DEFAULT 14 _ZN7android8hardware3drm4
174:   FUNC GLOBAL DEFAULT 14 _ZN7android8hardware3drm4
175:   FUNC GLOBAL DEFAULT 14 _ZN7android8hardware3drm4
176:   FUNC GLOBAL DEFAULT 14 _ZN7android8hardware3drm4
177:   OBJECT GLOBAL DEFAULT 18 _ZTCN7android8hardware3dr
178:   FUNC GLOBAL DEFAULT 14 _ZN7android8hardware3drm4
179:   OBJECT GLOBAL DEFAULT 18 _ZTCN7android8hardware3dr
180:   FUNC GLOBAL DEFAULT 14 _ZN7android8hardware3drm4
181:   FUNC GLOBAL DEFAULT 14 _ZN7android8hardware3drm4
182:   FUNC GLOBAL DEFAULT 14 _ZN7android8hardware3drm4
183:   FUNC GLOBAL DEFAULT 14 _ZN7android8hardware3drm4
184:   FUNC WEAK DEFAULT 14 _ZNSt3__16__treeINS_12__v
185:   OBJECT GLOBAL DEFAULT 18 _ZTCN7android8hardware3dr
186:   FUNC GLOBAL DEFAULT 14 _ZN7android8hardware3drm4
187:   OBJECT GLOBAL DEFAULT 18 _ZTCN7android8hardware3dr
188:   FUNC GLOBAL DEFAULT 14 _ZN7android8hardware3drm4
189:   OBJECT GLOBAL DEFAULT 18 _ZTCN7android8hardware3dr
190:   OBJECT GLOBAL DEFAULT 18 _ZTCN7android8hardware3dr
191:   FUNC GLOBAL DEFAULT 14 _ZN7android8hardware3drm4
192:   FUNC GLOBAL DEFAULT 14 _ZN7android8hardware3drm4
193:   FUNC GLOBAL DEFAULT 14 _ZN7android8hardware3drm4
194:   FUNC GLOBAL DEFAULT 14 _ZN7android8hardware3drm4
195:   FUNC GLOBAL DEFAULT 14 _ZN7android8hardware3drm4
196:   FUNC GLOBAL DEFAULT 14 _ZN7android8hardware3drm4
197:   OBJECT GLOBAL DEFAULT 18 _ZTCN7android8hardware3dr
198:   FUNC GLOBAL DEFAULT 14 _ZN7android8hardware3drm4
199:   FUNC GLOBAL DEFAULT 14 _ZN7android8hardware3drm4
200:   OBJECT GLOBAL DEFAULT 16 _ZN7android8hardware3drm4
201:   FUNC GLOBAL DEFAULT 14 _ZN7android8hardware3drm4
202:   FUNC GLOBAL DEFAULT 14 _ZN7android8hardware3drm4
203:   FUNC GLOBAL DEFAULT 14 _ZN7android8hardware3drm4
204:   FUNC GLOBAL DEFAULT 14 _ZN7android8hardware3drm4
205:   FUNC GLOBAL DEFAULT 14 _ZTv0_n24_N7android8hardw
206:   FUNC GLOBAL DEFAULT 14 _ZN7android8hardware3drm4
207:   FUNC GLOBAL DEFAULT 14 _ZN7android8hardware3drm4
208:   FUNC GLOBAL DEFAULT 14 _ZTv0_n24_N7android8hardw
209:   FUNC WEAK DEFAULT 14 _ZN7android8hardware7deta
210:   FUNC GLOBAL DEFAULT 14 _ZThn32_N7android8hardwar
211:   FUNC GLOBAL DEFAULT 14 _ZN7android8hardware3drm4
212:   FUNC GLOBAL DEFAULT 14 _ZN7android8hardware3drm4
213:   FUNC GLOBAL DEFAULT 14 _ZN7android8hardware3drm4
214:   OBJECT GLOBAL DEFAULT 18 _ZTCN7android8hardware3dr
215:   FUNC GLOBAL DEFAULT 14 _ZN7android8hardware3drm4
216:   OBJECT WEAK DEFAULT 18 _ZTCN7android8hardware3dr
217:   FUNC GLOBAL DEFAULT 14 _ZN7android8hardware3drm4
218:   OBJECT GLOBAL DEFAULT 18 _ZTCN7android8hardware3dr
219:   OBJECT GLOBAL DEFAULT 18 _ZTCN7android8hardware3dr
220:   OBJECT GLOBAL DEFAULT 18 _ZTVN7android8hardware3dr
221:   FUNC GLOBAL DEFAULT 14 _ZN7android8hardware3drm4
222:   FUNC GLOBAL DEFAULT 14 _ZN7android8hardware3drm4
223:   FUNC GLOBAL DEFAULT 14 _ZN7android8hardware3drm4
224:   FUNC GLOBAL DEFAULT 14 _ZThn32_N7android8hardwar
225:   FUNC GLOBAL DEFAULT 14 _ZN7android8hardware3drm4
226:   FUNC GLOBAL DEFAULT 14 _ZN7android8hardware3drm4
227:   FUNC GLOBAL DEFAULT 14 _ZN7android8hardware3drm4
228:   FUNC GLOBAL DEFAULT 14 _ZN7android8hardware3drm4
229:   FUNC GLOBAL DEFAULT 14 _ZN7android8hardware3drm4
230:   FUNC GLOBAL DEFAULT 14 _ZN7android8hardware3drm4
231:   OBJECT GLOBAL DEFAULT 16 _ZN7android8hardware3drm4
232:   FUNC GLOBAL DEFAULT 14 _ZN7android8hardware3drm4
233:   FUNC GLOBAL DEFAULT 14 _ZN7android8hardware3drm4
234:   OBJECT WEAK DEFAULT 18 _ZTVN7android8hardware3dr
235:   FUNC GLOBAL DEFAULT 14 _ZN7android8hardware3drm4
236:   OBJECT GLOBAL DEFAULT 18 _ZTTN7android8hardware3dr
237:   OBJECT GLOBAL DEFAULT 18 _ZTVN7android8hardware3dr
238:   FUNC GLOBAL DEFAULT 14 _ZN7android8hardware3drm4
239:   FUNC GLOBAL DEFAULT 14 _ZN7android8hardware3drm4
240:   FUNC GLOBAL DEFAULT 14 _ZN7android8hardware3drm4
241:   FUNC GLOBAL DEFAULT 14 _ZN7android8hardware3drm4
242:   FUNC GLOBAL DEFAULT 14 _ZTv0_n24_N7android8hardw
243:   OBJECT GLOBAL DEFAULT 18 _ZTVN7android8hardware3dr
244:   FUNC GLOBAL DEFAULT 14 _ZN7android8hardware3drm4
245:   FUNC GLOBAL DEFAULT 14 _ZTv0_n24_N7android8hardw
246:   FUNC GLOBAL DEFAULT 14 _ZN7android8hardware3drm4
247:   FUNC GLOBAL DEFAULT 14 _ZN7android8hardware3drm4
248:   OBJECT GLOBAL DEFAULT 18 _ZTCN7android8hardware3dr
249:   FUNC GLOBAL DEFAULT 14 _ZN7android8hardware3drm4
250:   OBJECT GLOBAL DEFAULT 18 _ZTCN7android8hardware3dr
251:   FUNC GLOBAL DEFAULT 14 _ZN7android8hardware3drm4
252:   FUNC GLOBAL DEFAULT 14 _ZN7android8hardware3drm4
253:   OBJECT GLOBAL DEFAULT 18 _ZTCN7android8hardware3dr
254:   OBJECT WEAK DEFAULT 18 _ZTVN7android8hardware3dr
255:   FUNC GLOBAL DEFAULT 14 _ZN7android8hardware3drm4
256:   FUNC GLOBAL DEFAULT 14 _ZThn32_N7android8hardwar
257:   FUNC GLOBAL DEFAULT 14 _ZN7android8hardware3drm4
258:   FUNC GLOBAL DEFAULT 14 _ZN7android8hardware3drm4
259:   FUNC WEAK DEFAULT 14 _ZNSt3__16vectorINS_8func
260:   OBJECT GLOBAL DEFAULT 18 _ZTCN7android8hardware3dr
261:   OBJECT WEAK DEFAULT 18 _ZTVN7android8hardware3dr
262:   FUNC GLOBAL DEFAULT 14 _ZN7android8hardware3drm4
263:   FUNC WEAK DEFAULT 14 _ZN7android8hardware7deta
264:   FUNC GLOBAL DEFAULT 14 _ZN7android8hardware3drm4
265:   FUNC GLOBAL DEFAULT 14 _ZN7android8hardware3drm4
266:   FUNC GLOBAL DEFAULT 14 _ZN7android8hardware3drm4
267:   OBJECT GLOBAL DEFAULT 18 _ZTCN7android8hardware3dr
268:   OBJECT GLOBAL DEFAULT 18 _ZTCN7android8hardware3dr
269:   FUNC GLOBAL DEFAULT 14 _ZN7android8hardware3drm4
270:   FUNC GLOBAL DEFAULT 14 _ZN7android8hardware3drm4
271:   FUNC GLOBAL DEFAULT 14 _ZN7android8hardware3drm4
272:   FUNC WEAK DEFAULT 14 _ZN7android8hardware7deta
273:   FUNC GLOBAL DEFAULT 14 _ZN7android8hardware3drm4
274:   OBJECT GLOBAL DEFAULT 18 _ZTCN7android8hardware3dr
275:   FUNC GLOBAL DEFAULT 14 _ZN7android8hardware3drm4
276:   FUNC GLOBAL DEFAULT 14 _ZN7android8hardware3drm4
277:   FUNC GLOBAL DEFAULT 14 _ZN7android8hardware3drm4
278:   FUNC WEAK DEFAULT 14 _ZN7android8hardware7deta
279:   FUNC WEAK DEFAULT 14 _ZNSt3__16__treeINS_12__v
280:   OBJECT WEAK DEFAULT 18 _ZTCN7android8hardware3dr
281:   FUNC GLOBAL DEFAULT 14 _ZN7android8hardware3drm4
282:   FUNC GLOBAL DEFAULT 14 _ZN7android8hardware3drm4
283:   FUNC GLOBAL DEFAULT 14 _ZN7android8hardware3drm4
284:   FUNC GLOBAL DEFAULT 14 _ZN7android8hardware3drm4
285:   FUNC GLOBAL DEFAULT 14 _ZN7android8hardware3drm4
286:   OBJECT GLOBAL DEFAULT 18 _ZTCN7android8hardware3dr
287:   FUNC GLOBAL DEFAULT 14 _ZN7android8hardware3drm4
288:   FUNC GLOBAL DEFAULT 14 _ZN7android8hardware3drm4
289:   FUNC GLOBAL DEFAULT 14 _ZN7android8hardware3drm4
290:   FUNC GLOBAL DEFAULT 14 _ZN7android8hardware3drm4
291:   FUNC GLOBAL DEFAULT 14 _ZN7android8hardware3drm4
292:   FUNC GLOBAL DEFAULT 14 _ZN7android8hardware3drm4
293:   FUNC GLOBAL DEFAULT 14 _ZN7android8hardware3drm4
294:   FUNC GLOBAL DEFAULT 14 _ZN7android8hardware3drm4
295:   FUNC GLOBAL DEFAULT 14 _ZN7android8hardware3drm4
296:   FUNC WEAK DEFAULT 14 _ZN7android8hardware7deta
297:   FUNC GLOBAL DEFAULT 14 _ZN7android8hardware3drm4
298:   OBJECT WEAK DEFAULT 18 _ZTCN7android8hardware3dr
299:   FUNC GLOBAL DEFAULT 14 _ZN7android8hardware3drm4
300:   FUNC GLOBAL DEFAULT 14 _ZN7android8hardware3drm4
301:   FUNC GLOBAL DEFAULT 14 _ZN7android8hardware3drm4
302:   FUNC GLOBAL DEFAULT 14 _ZN7android8hardware3drm4
303:   OBJECT GLOBAL DEFAULT 18 _ZTVN7android8hardware3dr
304:   FUNC GLOBAL DEFAULT 14 _ZN7android8hardware3drm4
305:   FUNC GLOBAL DEFAULT 14 _ZN7android8hardware3drm4
306:   FUNC GLOBAL DEFAULT 14 _ZN7android8hardware3drm4
307:   FUNC GLOBAL DEFAULT 14 _ZN7android8hardware3drm4
308:   FUNC GLOBAL DEFAULT 14 _ZN7android8hardware3drm4
309:   FUNC GLOBAL DEFAULT 14 _ZN7android8hardware3drm4
310:   FUNC GLOBAL DEFAULT 14 _ZN7android8hardware3drm4
311:   FUNC GLOBAL DEFAULT 14 _ZN7android8hardware3drm4
312:   FUNC WEAK DEFAULT 14 _ZNSt3__16vectorIPvNS_9al
313:   FUNC GLOBAL DEFAULT 14 _ZN7android8hardware3drm4
314:   OBJECT GLOBAL DEFAULT 18 _ZTCN7android8hardware3dr
315:   OBJECT GLOBAL DEFAULT 18 _ZTVN7android8hardware3dr
316:   OBJECT GLOBAL DEFAULT 18 _ZTCN7android8hardware3dr
317:   FUNC GLOBAL DEFAULT 14 _ZTv0_n24_N7android8hardw
318:   FUNC GLOBAL DEFAULT 14 _ZN7android8hardware3drm4
319:   FUNC GLOBAL DEFAULT 14 _ZN7android8hardware3drm4
320:   OBJECT GLOBAL DEFAULT 18 _ZTCN7android8hardware3dr
321:   OBJECT GLOBAL DEFAULT 18 _ZTTN7android8hardware3dr
322:   FUNC GLOBAL DEFAULT 14 _ZN7android8hardware3drm4
323:   OBJECT GLOBAL DEFAULT 16 _ZN7android8hardware3drm4
324:   FUNC WEAK DEFAULT 14 _ZNSt3__127__tree_balance
325:   FUNC GLOBAL DEFAULT 14 _ZThn32_N7android8hardwar
326:   FUNC GLOBAL DEFAULT 14 _ZN7android8hardware3drm4
327:   FUNC GLOBAL DEFAULT 14 _ZN7android8hardware3drm4
328:   FUNC GLOBAL DEFAULT 14 _ZN7android8hardware3drm4
329:   FUNC GLOBAL DEFAULT 14 _ZN7android8hardware3drm4
330:   OBJECT GLOBAL DEFAULT 18 _ZTCN7android8hardware3dr
331:   FUNC GLOBAL DEFAULT 14 _ZN7android8hardware3drm4
332:   FUNC GLOBAL DEFAULT 14 _ZN7android8hardware3drm4
333:   FUNC GLOBAL DEFAULT 14 _ZN7android8hardware3drm4
334:   FUNC GLOBAL DEFAULT 14 _ZN7android8hardware3drm4
335:   FUNC GLOBAL DEFAULT 14 _ZN7android8hardware3drm4
336:   FUNC GLOBAL DEFAULT 14 _ZN7android8hardware3drm4
337:   FUNC GLOBAL DEFAULT 14 _ZN7android8hardware3drm4
338:   FUNC WEAK DEFAULT 14 _ZN7android8hardware7deta
339:   FUNC GLOBAL DEFAULT 14 _ZN7android8hardware3drm4
340:   OBJECT GLOBAL DEFAULT 18 _ZTTN7android8hardware3dr
341:   FUNC GLOBAL DEFAULT 14 _ZN7android8hardware3drm4
342:   FUNC GLOBAL DEFAULT 14 _ZN7android8hardware3drm4
343:   FUNC GLOBAL DEFAULT 14 _ZN7android8hardware3drm4
344:   FUNC GLOBAL DEFAULT 14 _ZN7android8hardware3drm4
345:   FUNC GLOBAL DEFAULT 14 _ZN7android8hardware3drm4
346:   FUNC GLOBAL DEFAULT 14 _ZN7android8hardware3drm4
347:   OBJECT GLOBAL DEFAULT 18 _ZTVN7android8hardware3dr
348:   FUNC GLOBAL DEFAULT 14 _ZThn32_N7android8hardwar
349:   OBJECT GLOBAL DEFAULT 18 _ZTCN7android8hardware3dr
350:   FUNC GLOBAL DEFAULT 14 _ZN7android8hardware3drm4
351:   FUNC GLOBAL DEFAULT 14 _ZN7android8hardware3drm4
352:   FUNC GLOBAL DEFAULT 14 _ZN7android8hardware3drm4
353:   FUNC GLOBAL DEFAULT 14 _ZN7android8hardware3drm4
354:   FUNC GLOBAL DEFAULT 14 _ZN7android8hardware3drm4
355:   FUNC GLOBAL DEFAULT 14 _ZN7android8hardware3drm4
356:   FUNC GLOBAL DEFAULT 14 _ZN7android8hardware3drm4
357:   FUNC WEAK DEFAULT 14 _ZN7android8hardware7deta
358:   OBJECT GLOBAL DEFAULT 18 _ZTCN7android8hardware3dr
359:   OBJECT GLOBAL DEFAULT 18 _ZTTN7android8hardware3dr
360:   FUNC GLOBAL DEFAULT 14 _ZN7android8hardware3drm4
361:   FUNC GLOBAL DEFAULT 14 _ZN7android8hardware3drm4
362:   OBJECT GLOBAL DEFAULT 18 _ZTCN7android8hardware3dr
363:   FUNC GLOBAL DEFAULT 14 _ZN7android8hardware3drm4
364:   OBJECT GLOBAL DEFAULT 18 _ZTTN7android8hardware3dr
365:   FUNC GLOBAL DEFAULT 14 _ZN7android8hardware3drm4
366:   FUNC GLOBAL DEFAULT 14 _ZN7android8hardware3drm4
367:   FUNC GLOBAL DEFAULT 14 _ZN7android8hardware3drm4
368:   FUNC GLOBAL DEFAULT 14 _ZN7android8hardware3drm4
369:   FUNC GLOBAL DEFAULT 14 _ZN7android8hardware3drm4
370:   FUNC WEAK DEFAULT 14 _ZNSt3__16__treeINS_12__v
371:   OBJECT GLOBAL DEFAULT 18 _ZTCN7android8hardware3dr
372:   FUNC GLOBAL DEFAULT 14 _ZN7android8hardware3drm4
373:   FUNC GLOBAL DEFAULT 14 _ZN7android8hardware3drm4
374:   FUNC GLOBAL DEFAULT 14 _ZN7android8hardware3drm4
375:   FUNC GLOBAL DEFAULT 14 _ZN7android8hardware3drm4
376:   OBJECT GLOBAL DEFAULT 18 _ZTTN7android8hardware3dr
377:   FUNC GLOBAL DEFAULT 14 _ZN7android8hardware3drm4
378:   FUNC GLOBAL DEFAULT 14 _ZN7android8hardware3drm4
379:   OBJECT GLOBAL DEFAULT 18 _ZTCN7android8hardware3dr
380:   FUNC WEAK DEFAULT 14 _ZNSt3__16__treeINS_12__v
381:   FUNC GLOBAL DEFAULT 14 _ZN7android8hardware3drm4
382:   FUNC GLOBAL DEFAULT 14 _ZN7android8hardware3drm4
383:   FUNC GLOBAL DEFAULT 14 _ZN7android8hardware3drm4
384:   FUNC GLOBAL DEFAULT 14 _ZN7android8hardware3drm4
385:   OBJECT WEAK DEFAULT 18 _ZTCN7android8hardware3dr
386:   OBJECT GLOBAL DEFAULT 18 _ZTCN7android8hardware3dr
387:   FUNC GLOBAL DEFAULT 14 _ZN7android8hardware3drm4
388:   FUNC GLOBAL DEFAULT 14 _ZN7android8hardware3drm4
389:   FUNC GLOBAL DEFAULT 14 _ZN7android8hardware3drm4
390:   FUNC GLOBAL DEFAULT 14 _ZN7android8hardware3drm4
391:   OBJECT GLOBAL DEFAULT 18 _ZTVN7android8hardware3dr
392:   FUNC GLOBAL DEFAULT 14 _ZN7android8hardware3drm4
393:   FUNC GLOBAL DEFAULT 14 _ZN7android8hardware3drm4
394:   FUNC GLOBAL DEFAULT 14 _ZN7android8hardware3drm4
395:   OBJECT WEAK DEFAULT 18 _ZTCN7android8hardware3dr
396:   FUNC GLOBAL DEFAULT 14 _ZN7android8hardware3drm4
397:   OBJECT GLOBAL DEFAULT 18 _ZTTN7android8hardware3dr
398:   FUNC GLOBAL DEFAULT 14 _ZN7android8hardware3drm4
399:   FUNC GLOBAL DEFAULT 14 _ZN7android8hardware3drm4
400:   OBJECT GLOBAL DEFAULT 18 _ZTCN7android8hardware3dr
401:   OBJECT GLOBAL DEFAULT 18 _ZTCN7android8hardware3dr
402:   FUNC GLOBAL DEFAULT 14 _ZN7android8hardware3drm4
403:   FUNC GLOBAL DEFAULT 14 _ZN7android8hardware3drm4
404:   OBJECT GLOBAL DEFAULT 18 _ZTTN7android8hardware3dr
405:   FUNC GLOBAL DEFAULT 14 _ZN7android8hardware3drm4
406:   FUNC GLOBAL DEFAULT 14 _ZN7android8hardware3drm4
407:   FUNC GLOBAL DEFAULT 14 _ZN7android8hardware3drm4
408:   FUNC GLOBAL DEFAULT 14 _ZN7android8hardware3drm4
409:   FUNC GLOBAL DEFAULT 14 _ZN7android8hardware3drm4
410:   FUNC GLOBAL DEFAULT 14 _ZN7android8hardware3drm4
411:   FUNC GLOBAL DEFAULT 14 _ZN7android8hardware3drm4
412:   FUNC GLOBAL DEFAULT 14 _ZN7android8hardware3drm4
413:   FUNC GLOBAL DEFAULT 14 _ZN7android8hardware3drm4
414:   FUNC GLOBAL DEFAULT 14 _ZN7android8hardware3drm4
415:   OBJECT GLOBAL DEFAULT 18 _ZTVN7android8hardware3dr
416:   FUNC GLOBAL DEFAULT 14 _ZN7android8hardware3drm4
417:   FUNC GLOBAL DEFAULT 14 _ZN7android8hardware3drm4
418:   FUNC GLOBAL DEFAULT 14 _ZN7android8hardware3drm4
419:   FUNC GLOBAL DEFAULT 14 _ZN7android8hardware3drm4
420:   FUNC GLOBAL DEFAULT 14 _ZN7android8hardware3drm4
421:   FUNC GLOBAL DEFAULT 14 _ZN7android8hardware3drm4
422:   FUNC GLOBAL DEFAULT 14 _ZN7android8hardware3drm4
423:   FUNC GLOBAL DEFAULT 14 _ZN7android8hardware3drm4
424:   FUNC WEAK DEFAULT 14 _ZN7android8hardware7deta
425:   FUNC GLOBAL DEFAULT 14 _ZTv0_n24_N7android8hardw
426:   FUNC GLOBAL DEFAULT 14 _ZN7android8hardware3drm4
427:   FUNC GLOBAL DEFAULT 14 _ZN7android8hardware3drm4
428:   OBJECT GLOBAL DEFAULT 16 _ZN7android8hardware3drm4
429:   FUNC GLOBAL DEFAULT 14 _ZN7android8hardware3drm4
430:   FUNC GLOBAL DEFAULT 14 _ZN7android8hardware3drm4
431:   FUNC GLOBAL DEFAULT 14 _ZN7android8hardware3drm4
432:   OBJECT GLOBAL DEFAULT 18 _ZTCN7android8hardware3dr
433:   FUNC GLOBAL DEFAULT 14 _ZN7android8hardware3drm4
434:   OBJECT WEAK DEFAULT 18 _ZTVN7android8hardware3dr
435:   FUNC GLOBAL DEFAULT 14 _ZN7android8hardware3drm4
436:   FUNC GLOBAL DEFAULT 14 _ZN7android8hardware3drm4
437:   FUNC GLOBAL DEFAULT 14 _ZN7android8hardware3drm4
438:   FUNC GLOBAL DEFAULT 14 _ZN7android8hardware3drm4
439:   FUNC GLOBAL DEFAULT 14 _ZN7android8hardware3drm4
440:   FUNC GLOBAL DEFAULT 14 _ZN7android8hardware3drm4
441:   FUNC GLOBAL DEFAULT 14 _ZN7android8hardware3drm4
442:   FUNC GLOBAL DEFAULT 14 _ZN7android8hardware3drm4
443:   FUNC GLOBAL DEFAULT 14 _ZN7android8hardware3drm4
444:   FUNC GLOBAL DEFAULT 14 _ZThn32_N7android8hardwar
445:   FUNC GLOBAL DEFAULT 14 _ZN7android8hardware3drm4
446:   FUNC GLOBAL DEFAULT 14 _ZN7android8hardware3drm4
447:   FUNC GLOBAL DEFAULT 14 _ZN7android8hardware3drm4
448:   FUNC GLOBAL DEFAULT 14 _ZN7android8hardware3drm4
449:   FUNC GLOBAL DEFAULT 14 _ZN7android8hardware3drm4
450:   OBJECT GLOBAL DEFAULT 18 _ZTVN7android8hardware3dr
451:   FUNC GLOBAL DEFAULT 14 _ZN7android8hardware3drm4
452:   FUNC GLOBAL DEFAULT 14 _ZN7android8hardware3drm4
453:   OBJECT GLOBAL DEFAULT 18 _ZTCN7android8hardware3dr
454:   FUNC GLOBAL DEFAULT 14 _ZN7android8hardware3drm4
455:   FUNC GLOBAL DEFAULT 14 _ZN7android8hardware3drm4
456:   OBJECT GLOBAL DEFAULT 18 _ZTTN7android8hardware3dr
457:   FUNC GLOBAL DEFAULT 14 _ZN7android8hardware3drm4
458:   OBJECT GLOBAL DEFAULT 18 _ZTTN7android8hardware3dr
459:   FUNC GLOBAL DEFAULT 14 _ZN7android8hardware3drm4
460:   FUNC GLOBAL DEFAULT 14 _ZN7android8hardware3drm4
461:   FUNC GLOBAL DEFAULT 14 _ZN7android8hardware3drm4
462:   FUNC GLOBAL DEFAULT 14 _ZN7android8hardware3drm4
463:   FUNC GLOBAL DEFAULT 14 _ZTv0_n24_N7android8hardw
464:   FUNC GLOBAL DEFAULT 14 _ZN7android8hardware3drm4
465:   FUNC GLOBAL DEFAULT 14 _ZN7android8hardware3drm4
466:   OBJECT GLOBAL DEFAULT 18 _ZTCN7android8hardware3dr
467:   FUNC GLOBAL DEFAULT 14 _ZThn32_N7android8hardwar
468:   FUNC GLOBAL DEFAULT 14 _ZN7android8hardware3drm4
469:   FUNC GLOBAL DEFAULT 14 _ZN7android8hardware3drm4
470:   FUNC GLOBAL DEFAULT 14 _ZN7android8hardware3drm4
471:   FUNC GLOBAL DEFAULT 14 _ZN7android8hardware3drm4
472:   FUNC GLOBAL DEFAULT 14 _ZN7android8hardware3drm4
473:   FUNC GLOBAL DEFAULT 14 _ZTv0_n24_N7android8hardw
474:   FUNC GLOBAL DEFAULT 14 _ZN7android8hardware3drm4
475:   FUNC GLOBAL DEFAULT 14 _ZN7android8hardware3drm4
476:   OBJECT GLOBAL DEFAULT 18 _ZTCN7android8hardware3dr
477:   FUNC GLOBAL DEFAULT 14 _ZN7android8hardware3drm4
478:   FUNC GLOBAL DEFAULT 14 _ZN7android8hardware3drm4
479:   FUNC GLOBAL DEFAULT 14 _ZN7android8hardware3drm4
480:   FUNC GLOBAL DEFAULT 14 _ZN7android8hardware3drm4
481:   FUNC GLOBAL DEFAULT 14 _ZN7android8hardware3drm4
482:   FUNC WEAK DEFAULT 14 _ZN7android8hardware7deta
483:   FUNC GLOBAL DEFAULT 14 _ZN7android8hardware3drm4
484:   FUNC GLOBAL DEFAULT 14 _ZN7android8hardware3drm4
485:   FUNC GLOBAL DEFAULT 14 _ZN7android8hardware3drm4
486:   FUNC GLOBAL DEFAULT 14 _ZN7android8hardware3drm4
487:   FUNC WEAK DEFAULT 14 _ZN7android8hardware7deta
488:   FUNC GLOBAL DEFAULT 14 _ZN7android8hardware3drm4
489:   FUNC GLOBAL DEFAULT 14 _ZN7android8hardware3drm4
490:   FUNC GLOBAL DEFAULT 14 _ZN7android8hardware3drm4
491:   FUNC GLOBAL DEFAULT 14 _ZN7android8hardware3drm4
492:   FUNC GLOBAL DEFAULT 14 _ZN7android8hardware3drm4
493:   FUNC GLOBAL DEFAULT 14 _ZN7android8hardware3drm4
494:   FUNC GLOBAL DEFAULT 14 _ZN7android8hardware3drm4
495:   FUNC GLOBAL DEFAULT 14 _ZN7android8hardware3drm4
496:   OBJECT GLOBAL DEFAULT 18 _ZTCN7android8hardware3dr
497:   FUNC GLOBAL DEFAULT 14 _ZN7android8hardware3drm4
498:   FUNC GLOBAL DEFAULT 14 _ZN7android8hardware3drm4
499:   FUNC GLOBAL DEFAULT 14 _ZN7android8hardware3drm4
500:   FUNC GLOBAL DEFAULT 14 _ZN7android8hardware3drm4
501:   FUNC GLOBAL DEFAULT 14 _ZN7android8hardware3drm4
502:   FUNC GLOBAL DEFAULT 14 _ZN7android8hardware3drm4
503:   FUNC GLOBAL DEFAULT 14 _ZN7android8hardware3drm4
504:   FUNC GLOBAL DEFAULT 14 _ZN7android8hardware3drm4
505:   FUNC WEAK DEFAULT 14 _ZNSt3__16__treeINS_12__v
506:   FUNC GLOBAL DEFAULT 14 _ZN7android8hardware3drm4
507:   FUNC GLOBAL DEFAULT 14 _ZN7android8hardware3drm4
508:   FUNC GLOBAL DEFAULT 14 _ZTv0_n24_N7android8hardw
509:   FUNC GLOBAL DEFAULT 14 _ZN7android8hardware3drm4
510:   FUNC GLOBAL DEFAULT 14 _ZN7android8hardware3drm4
511:   FUNC GLOBAL DEFAULT 14 _ZN7android8hardware3drm4
512:   FUNC GLOBAL DEFAULT 14 _ZN7android8hardware3drm4
513:   FUNC GLOBAL DEFAULT 14 _ZN7android8hardware3drm4
514:   FUNC GLOBAL DEFAULT 14 _ZN7android8hardware3drm4
515:   FUNC GLOBAL DEFAULT 14 _ZN7android8hardware3drm4
516:   OBJECT GLOBAL DEFAULT 18 _ZTCN7android8hardware3dr
517:   FUNC GLOBAL DEFAULT 14 _ZN7android8hardware3drm4
518:   FUNC GLOBAL DEFAULT 14 _ZN7android8hardware3drm4
519:   FUNC GLOBAL DEFAULT 14 _ZN7android8hardware3drm4
520:   OBJECT GLOBAL DEFAULT 18 _ZTCN7android8hardware3dr
521:   FUNC GLOBAL DEFAULT 14 _ZN7android8hardware3drm4
522:   FUNC GLOBAL DEFAULT 14 _ZN7android8hardware3drm4
523:   FUNC WEAK DEFAULT 14 _ZN7android8hardware7deta
524:   OBJECT GLOBAL DEFAULT 18 _ZTCN7android8hardware3dr
525:   FUNC GLOBAL DEFAULT 14 _ZN7android8hardware3drm4
526:   FUNC GLOBAL DEFAULT 14 _ZN7android8hardware3drm4
527:   FUNC GLOBAL DEFAULT 14 _ZN7android8hardware3drm4
528:   FUNC GLOBAL DEFAULT 14 _ZN7android8hardware3drm4
529:   FUNC GLOBAL DEFAULT 14 _ZN7android8hardware3drm4
530:   OBJECT GLOBAL DEFAULT 16 _ZN7android8hardware3drm4
531:   FUNC WEAK DEFAULT 14 _ZNSt3__113__tree_removeI
532:   FUNC GLOBAL DEFAULT 14 _ZThn32_N7android8hardwar
533:   FUNC GLOBAL DEFAULT 14 _ZN7android8hardware3drm4
534:   FUNC GLOBAL DEFAULT 14 _ZN7android8hardware3drm4
535:   FUNC GLOBAL DEFAULT 14 _ZN7android8hardware3drm4
536:   FUNC GLOBAL DEFAULT 14 _ZN7android8hardware3drm4
537:   FUNC GLOBAL DEFAULT 14 _ZN7android8hardware3drm4
538:   FUNC GLOBAL DEFAULT 14 _ZN7android8hardware3drm4
539:   FUNC WEAK DEFAULT 14 _ZNSt3__16vectorIN7androi
540:   FUNC GLOBAL DEFAULT 14 _ZN7android8hardware3drm4
541:   FUNC GLOBAL DEFAULT 14 _ZN7android8hardware3drm4
542:   FUNC GLOBAL DEFAULT 14 _ZN7android8hardware3drm4
543:   FUNC GLOBAL DEFAULT 14 _ZN7android8hardware3drm4
544:   FUNC GLOBAL DEFAULT 14 _ZN7android8hardware3drm4
545:   FUNC GLOBAL DEFAULT 14 _ZN7android8hardware3drm4
546:   FUNC GLOBAL DEFAULT 14 _ZN7android8hardware3drm4
547:   FUNC WEAK DEFAULT 14 _ZN7android8hardware10fro
548:   FUNC GLOBAL DEFAULT 14 _ZN7android8hardware3drm4
549:   FUNC GLOBAL DEFAULT 14 _ZN7android8hardware3drm4
550:   FUNC GLOBAL DEFAULT 14 _ZN7android8hardware3drm4
551:   FUNC GLOBAL DEFAULT 14 _ZN7android8hardware3drm4
552:   FUNC GLOBAL DEFAULT 14 _ZTv0_n24_N7android8hardw
553:   FUNC GLOBAL DEFAULT 14 _ZN7android8hardware3drm4
554:   FUNC GLOBAL DEFAULT 14 _ZN7android8hardware3drm4
555:   OBJECT GLOBAL DEFAULT 18 _ZTVN7android8hardware3dr
556:   FUNC GLOBAL DEFAULT 14 _ZN7android8hardware3drm4
557:   FUNC GLOBAL DEFAULT 14 _ZN7android8hardware3drm4
558:   FUNC WEAK DEFAULT 14 _ZNSt3__16__treeINS_12__v
559:   FUNC GLOBAL DEFAULT 14 _ZN7android8hardware3drm4
560:   OBJECT GLOBAL DEFAULT 18 _ZTCN7android8hardware3dr
561:   FUNC GLOBAL DEFAULT 14 _ZN7android8hardware3drm4
562:   FUNC GLOBAL DEFAULT 14 _ZN7android8hardware3drm4
563:   FUNC GLOBAL DEFAULT 14 _ZN7android8hardware3drm4
564:   FUNC GLOBAL DEFAULT 14 _ZN7android8hardware3drm4
565:   FUNC GLOBAL DEFAULT 14 _ZN7android8hardware3drm4
566:   FUNC GLOBAL DEFAULT 14 _ZN7android8hardware3drm4
567:   OBJECT GLOBAL DEFAULT 18 _ZTTN7android8hardware3dr
568:   FUNC GLOBAL DEFAULT 14 _ZN7android8hardware3drm4
569:   FUNC GLOBAL DEFAULT 14 _ZN7android8hardware3drm4
570:   FUNC GLOBAL DEFAULT 14 _ZN7android8hardware3drm4
571:   FUNC GLOBAL DEFAULT 14 _ZN7android8hardware3drm4
572:   OBJECT GLOBAL DEFAULT 18 _ZTVN7android8hardware3dr
573:   FUNC GLOBAL DEFAULT 14 _ZN7android8hardware3drm4
574:   FUNC GLOBAL DEFAULT 14 _ZN7android8hardware3drm4
575:   FUNC GLOBAL DEFAULT 14 _ZN7android8hardware3drm4
576:   FUNC GLOBAL DEFAULT 14 _ZN7android8hardware3drm4
577:   FUNC GLOBAL DEFAULT 14 _ZN7android8hardware3drm4
578:   FUNC GLOBAL DEFAULT 14 _ZN7android8hardware3drm4
579:   FUNC GLOBAL DEFAULT 14 _ZN7android8hardware3drm4
580:   FUNC GLOBAL DEFAULT 14 _ZN7android8hardware3drm4
581:   OBJECT GLOBAL DEFAULT 18 _ZTTN7android8hardware3dr
582:   FUNC GLOBAL DEFAULT 14 _ZN7android8hardware3drm4
583:   FUNC GLOBAL DEFAULT 14 _ZThn32_N7android8hardwar
584:   FUNC GLOBAL DEFAULT 14 _ZN7android8hardware3drm4
585:   FUNC GLOBAL DEFAULT 14 _ZN7android8hardware3drm4
586:   FUNC GLOBAL DEFAULT 14 _ZN7android8hardware3drm4
587:   FUNC GLOBAL DEFAULT 14 _ZN7android8hardware3drm4
588:   FUNC GLOBAL DEFAULT 14 _ZN7android8hardware3drm4
589:   FUNC GLOBAL DEFAULT 14 _ZN7android8hardware3drm4
590:   FUNC GLOBAL DEFAULT 14 _ZN7android8hardware3drm4
591:   FUNC GLOBAL DEFAULT 14 _ZN7android8hardware3drm4
592:   FUNC GLOBAL DEFAULT 14 _ZN7android8hardware3drm4
593:   OBJECT GLOBAL DEFAULT 18 _ZTCN7android8hardware3dr
594:   FUNC GLOBAL DEFAULT 14 _ZN7android8hardware3drm4
595:   FUNC GLOBAL DEFAULT 14 _ZN7android8hardware3drm4
596:   FUNC GLOBAL DEFAULT 14 _ZN7android8hardware3drm4
597:   OBJECT GLOBAL DEFAULT 18 _ZTTN7android8hardware3dr
598:   OBJECT GLOBAL DEFAULT 18 _ZTVN7android8hardware3dr
599:   FUNC GLOBAL DEFAULT 14 _ZN7android8hardware3drm4
600:   FUNC GLOBAL DEFAULT 14 _ZN7android8hardware3drm4
601:   FUNC GLOBAL DEFAULT 14 _ZN7android8hardware3drm4
602:   OBJECT GLOBAL DEFAULT 18 _ZTCN7android8hardware3dr
603:   FUNC GLOBAL DEFAULT 14 _ZN7android8hardware3drm4
604:   FUNC GLOBAL DEFAULT 14 _ZN7android8hardware3drm4
605:   FUNC GLOBAL DEFAULT 14 _ZN7android8hardware3drm4
606:   FUNC GLOBAL DEFAULT 14 _ZN7android8hardware3drm4
607:   FUNC WEAK DEFAULT 14 _ZN7android8hardware7deta
608:   OBJECT GLOBAL DEFAULT 18 _ZTCN7android8hardware3dr
609:   FUNC GLOBAL DEFAULT 14 _ZN7android8hardware3drm4
610:   FUNC GLOBAL DEFAULT 14 _ZN7android8hardware3drm4
611:   FUNC GLOBAL DEFAULT 14 _ZThn32_N7android8hardwar
612:   OBJECT WEAK DEFAULT 18 _ZTVN7android8hardware3dr
613:   FUNC WEAK DEFAULT 14 _ZN7android8hardware10fro
614:   FUNC GLOBAL DEFAULT 14 _ZN7android8hardware3drm4
615:   FUNC GLOBAL DEFAULT 14 _ZN7android8hardware3drm4
616:   FUNC GLOBAL DEFAULT 14 _ZN7android8hardware3drm4
617:   OBJECT GLOBAL DEFAULT 18 _ZTCN7android8hardware3dr
618:   FUNC GLOBAL DEFAULT 14 _ZN7android8hardware3drm4
619:   OBJECT GLOBAL DEFAULT 18 _ZTVN7android8hardware3dr
620:   OBJECT GLOBAL DEFAULT 18 _ZTCN7android8hardware3dr
621:   FUNC GLOBAL DEFAULT 14 _ZN7android8hardware3drm4
622:   FUNC GLOBAL DEFAULT 14 _ZN7android8hardware3drm4
623:   FUNC WEAK DEFAULT 14 _ZN7android8hardware7deta
624:   FUNC GLOBAL DEFAULT 14 _ZN7android8hardware3drm4
625:   OBJECT GLOBAL DEFAULT 18 _ZTCN7android8hardware3dr
626:   FUNC GLOBAL DEFAULT 14 _ZN7android8hardware3drm4
627:   FUNC GLOBAL DEFAULT 14 _ZN7android8hardware3drm4
628:   FUNC GLOBAL DEFAULT 14 _ZN7android8hardware3drm4
629:   FUNC WEAK DEFAULT 14 _ZN7android8hardware10fro
