 0x000000000000000e (SONAME)             Library soname: [libaudioflinger.so]
  
Symbol   contains 516 entries:
Num:   Type Bind Vis Ndx Name
0:   NOTYPE LOCAL DEFAULT UND
1:   FUNC GLOBAL DEFAULT UND __cxa_finalize@LIBC (2)
2:   FUNC GLOBAL DEFAULT UND __cxa_atexit@LIBC (2)
3:   FUNC GLOBAL DEFAULT UND _Znwm
4:   FUNC GLOBAL DEFAULT UND property_get_bool
5:   FUNC GLOBAL DEFAULT UND _ZN7android12MemoryDealer
6:   FUNC GLOBAL DEFAULT UND pthread_once@LIBC (2)
7:   FUNC GLOBAL DEFAULT UND _ZN7android15BatteryNotif
8:   FUNC GLOBAL DEFAULT UND _ZN7android26DevicesFacto
9:   FUNC GLOBAL DEFAULT UND _ZN7android26EffectsFacto
10:   FUNC GLOBAL DEFAULT UND __cfi_slowpath@LIBC_OMR1 (3)
11:   FUNC GLOBAL DEFAULT UND _ZN7android9TimeCheck15se
12:   FUNC GLOBAL DEFAULT UND _ZN7android7RefBaseC2Ev
13:   FUNC GLOBAL DEFAULT UND property_get
14:   FUNC GLOBAL DEFAULT UND sscanf@LIBC (2)
15:   FUNC GLOBAL DEFAULT UND __android_log_print@LIBLOG (4)
16:   FUNC GLOBAL DEFAULT UND _ZdlPv
17:   FUNC GLOBAL DEFAULT UND _ZN7android11AudioSystem1
18:   FUNC GLOBAL DEFAULT UND _ZN7android11AudioSystem1
19:   FUNC GLOBAL DEFAULT UND _ZN7android11AudioSystem1
20:   FUNC GLOBAL DEFAULT UND _ZN7android11AudioSystem1
21:   FUNC GLOBAL DEFAULT UND _ZN7android7String8C1Ev
22:   FUNC GLOBAL DEFAULT UND _ZN7android7String86appen
23:   FUNC GLOBAL DEFAULT UND _ZN7android7String8D1Ev
24:   FUNC GLOBAL DEFAULT UND _ZN7android14IPCThreadSta
25:   FUNC GLOBAL DEFAULT UND _ZNK7android14IPCThreadSt
26:   FUNC GLOBAL DEFAULT UND _ZNK7android14IPCThreadSt
27:   FUNC GLOBAL DEFAULT UND _ZN7android11dumpAllowedE
28:   FUNC GLOBAL DEFAULT UND _ZN7android7String8C1EPKc
29:   FUNC GLOBAL DEFAULT UND dprintf@LIBC (2)
30:   FUNC GLOBAL DEFAULT UND _ZN7android8String16C1EPK
31:   FUNC GLOBAL DEFAULT UND _ZN7android8String16D1Ev
32:   FUNC GLOBAL DEFAULT UND _ZN7android19dumpMemoryAd
33:   FUNC GLOBAL DEFAULT UND _ZN7android26GetUnreachab
34:   FUNC GLOBAL DEFAULT UND _ZN7android5NBLog8Timelin
35:   FUNC GLOBAL DEFAULT UND _ZNK7android7IMemory7poin
36:   FUNC GLOBAL DEFAULT UND _ZN7android5NBLog6WriterC
37:   FUNC GLOBAL DEFAULT UND __android_log_assert@LIBLOG (4)
38:   FUNC GLOBAL DEFAULT UND _ZN7android11AudioSystem2
39:   FUNC GLOBAL DEFAULT UND _ZN7android11AudioSystem1
40:   FUNC GLOBAL DEFAULT UND _ZN7android15settingsAllo
41:   FUNC GLOBAL DEFAULT UND __cxa_guard_acquire
42:   FUNC GLOBAL DEFAULT UND __cxa_guard_release
43:   FUNC GLOBAL DEFAULT UND _ZN7android14AudioParamet
44:   FUNC GLOBAL DEFAULT UND _ZNK7android14AudioParame
45:   FUNC GLOBAL DEFAULT UND _ZN7android14AudioParamet
46:   FUNC GLOBAL DEFAULT UND _ZN7android14AudioParamet
47:   FUNC GLOBAL DEFAULT UND _ZN7android14AudioParamet
48:   FUNC GLOBAL DEFAULT UND _ZN7android7String86forma
49:   FUNC GLOBAL DEFAULT UND _ZN7android7String8C1ERKS
50:   FUNC GLOBAL DEFAULT UND _ZNK7android14AudioParame
51:   FUNC GLOBAL DEFAULT UND _ZN7android10IInterface8a
52:   FUNC GLOBAL DEFAULT UND _ZNSt3__19to_stringEi
53:   FUNC GLOBAL DEFAULT UND _ZN7android6ThreadC2Eb
54:   FUNC GLOBAL DEFAULT UND usleep@LIBC (2)
55:   FUNC GLOBAL DEFAULT UND strncmp@LIBC (2)
56:   FUNC GLOBAL DEFAULT UND strcmp@LIBC (2)
57:   FUNC GLOBAL DEFAULT UND property_get_int32
58:   FUNC GLOBAL DEFAULT UND _ZN7android14AudioParamet
59:   FUNC GLOBAL DEFAULT UND _ZN7android26EffectsFacto
60:   FUNC GLOBAL DEFAULT UND memcmp@LIBC (2)
61:   FUNC GLOBAL DEFAULT UND _ZN7android16recordingAll
62:   FUNC GLOBAL DEFAULT UND _ZN7android11AudioSystem1
63:   FUNC GLOBAL DEFAULT UND __android_log_error_write@LIBLOG_M (5)
64:   FUNC GLOBAL DEFAULT UND systemTime
65:   FUNC GLOBAL DEFAULT UND _ZN7android14BnAudioFling
66:   FUNC GLOBAL DEFAULT UND __cxa_pure_virtual
67:   FUNC GLOBAL DEFAULT UND _ZNK7android7BBinder13isB
68:   FUNC GLOBAL DEFAULT UND _ZN7android7BBinder10ping
69:   FUNC GLOBAL DEFAULT UND _ZN7android7BBinder4dumpE
70:   FUNC GLOBAL DEFAULT UND _ZN7android7BBinder8trans
71:   FUNC GLOBAL DEFAULT UND _ZN7android7BBinder11link
72:   FUNC GLOBAL DEFAULT UND _ZN7android7BBinder13unli
73:   FUNC GLOBAL DEFAULT UND _ZNK7android7IBinder13che
74:   FUNC GLOBAL DEFAULT UND _ZN7android7BBinder12atta
75:   FUNC GLOBAL DEFAULT UND _ZNK7android7BBinder10fin
76:   FUNC GLOBAL DEFAULT UND _ZN7android7BBinder12deta
77:   FUNC GLOBAL DEFAULT UND _ZN7android7BBinder11loca
78:   FUNC GLOBAL DEFAULT UND _ZN7android7IBinder12remo
79:   FUNC GLOBAL DEFAULT UND _ZThn8_N7android14BnAudio
80:   FUNC GLOBAL DEFAULT UND _ZN7android7RefBase10onFi
81:   FUNC GLOBAL DEFAULT UND _ZN7android7RefBase15onLa
82:   FUNC GLOBAL DEFAULT UND _ZN7android7RefBase20onIn
83:   FUNC GLOBAL DEFAULT UND _ZN7android7RefBase13onLa
84:   FUNC GLOBAL DEFAULT UND _ZN7android7BBinder10onTr
85:   FUNC GLOBAL DEFAULT UND _ZN7android13IAudioFlinge
86:   FUNC GLOBAL DEFAULT UND _ZN7android13IAudioFlinge
87:   FUNC GLOBAL DEFAULT UND _ZNK7android13IAudioFling
88:   FUNC GLOBAL DEFAULT UND _ZTv0_n24_N7android13IAud
89:   FUNC GLOBAL DEFAULT UND _ZTv0_n24_N7android13IAud
90:   FUNC GLOBAL DEFAULT UND _ZN7android10IInterfaceD1
91:   FUNC GLOBAL DEFAULT UND _ZN7android10IInterfaceD0
92:   FUNC GLOBAL DEFAULT UND _ZTv0_n24_N7android10IInt
93:   FUNC GLOBAL DEFAULT UND _ZTv0_n24_N7android10IInt
94:   FUNC GLOBAL DEFAULT UND _ZN7android7IBinder19quer
95:   FUNC GLOBAL DEFAULT UND _ZNK7android7BBinder22get
96:   FUNC GLOBAL DEFAULT UND _ZN7android7BBinderD1Ev
97:   FUNC GLOBAL DEFAULT UND _ZN7android7BBinderD0Ev
98:   FUNC GLOBAL DEFAULT UND _ZTv0_n24_N7android7BBind
99:   FUNC GLOBAL DEFAULT UND _ZTv0_n24_N7android7BBind
100:   FUNC GLOBAL DEFAULT UND _ZN7android7IBinder11loca
101:   FUNC GLOBAL DEFAULT UND _ZN7android7IBinderD1Ev
102:   FUNC GLOBAL DEFAULT UND _ZN7android7IBinderD0Ev
103:   FUNC GLOBAL DEFAULT UND _ZTv0_n24_N7android7IBind
104:   FUNC GLOBAL DEFAULT UND _ZTv0_n24_N7android7IBind
105:   FUNC GLOBAL DEFAULT UND _ZN7android6ThreadD1Ev
106:   FUNC GLOBAL DEFAULT UND _ZN7android6ThreadD0Ev
107:   FUNC GLOBAL DEFAULT UND _ZN7android6Thread3runEPK
108:   FUNC GLOBAL DEFAULT UND _ZN7android6Thread11reque
109:   FUNC GLOBAL DEFAULT UND _ZN7android6Thread10ready
110:   FUNC GLOBAL DEFAULT UND _ZTv0_n24_N7android6Threa
111:   FUNC GLOBAL DEFAULT UND _ZTv0_n24_N7android6Threa
112:   FUNC GLOBAL DEFAULT UND pthread_mutex_init@LIBC (2)
113:   FUNC GLOBAL DEFAULT UND pthread_mutex_destroy@LIBC (2)
114:   FUNC GLOBAL DEFAULT UND _ZN7android13IAudioFlinge
115:   FUNC GLOBAL DEFAULT UND _ZN7android7BBinderC2Ev
116:   FUNC GLOBAL DEFAULT UND _ZN7android21defaultServi
117:   FUNC GLOBAL DEFAULT UND _ZNK7android7RefBase9decS
118:   FUNC GLOBAL DEFAULT UND _ZN7android14sp_report_ra
119:   FUNC GLOBAL DEFAULT UND _ZN7android16IMediaLogSer
120:   FUNC GLOBAL DEFAULT UND pthread_mutex_lock@LIBC (2)
121:   FUNC GLOBAL DEFAULT UND _ZNK7android7RefBase9incS
122:   FUNC GLOBAL DEFAULT UND _ZNSt3__15mutexD1Ev
123:   FUNC GLOBAL DEFAULT UND _ZN7android10VectorImpl13
124:   FUNC GLOBAL DEFAULT UND _ZN7android16SortedVector
125:   FUNC GLOBAL DEFAULT UND _ZN7android7RefBase12weak
126:   FUNC GLOBAL DEFAULT UND _ZN7android7BBinderD2Ev
127:   FUNC GLOBAL DEFAULT UND _ZN7android13IAudioFlinge
128:   FUNC GLOBAL DEFAULT UND _ZN7android2os24IExternal
129:   FUNC GLOBAL DEFAULT UND __vsnprintf_chk@LIBC (2)
130:   FUNC GLOBAL DEFAULT UND write@LIBC (2)
131:   FUNC GLOBAL DEFAULT UND __write_chk@LIBC_N (6)
132:   FUNC GLOBAL DEFAULT UND _ZNK7android7String86leng
133:   FUNC GLOBAL DEFAULT UND pthread_mutex_timedlock@LIBC (2)
134:   FUNC GLOBAL DEFAULT UND pthread_mutex_unlock@LIBC (2)
135:   FUNC GLOBAL DEFAULT UND strlen@LIBC (2)
136:   FUNC GLOBAL DEFAULT UND __errno@LIBC (2)
137:   FUNC GLOBAL DEFAULT UND _ZNSt3__114basic_iostream
138:   FUNC GLOBAL DEFAULT UND _ZNSt3__114basic_iostream
139:   FUNC GLOBAL DEFAULT UND _ZThn16_NSt3__114basic_io
140:   FUNC GLOBAL DEFAULT UND _ZThn16_NSt3__114basic_io
141:   FUNC GLOBAL DEFAULT UND _ZTv0_n24_NSt3__114basic_
142:   FUNC GLOBAL DEFAULT UND _ZTv0_n24_NSt3__114basic_
143:   FUNC GLOBAL DEFAULT UND _ZNSt3__113basic_istreamI
144:   FUNC GLOBAL DEFAULT UND _ZNSt3__113basic_istreamI
145:   FUNC GLOBAL DEFAULT UND _ZTv0_n24_NSt3__113basic_
146:   FUNC GLOBAL DEFAULT UND _ZTv0_n24_NSt3__113basic_
147:   FUNC GLOBAL DEFAULT UND _ZNSt3__113basic_ostreamI
148:   FUNC GLOBAL DEFAULT UND _ZNSt3__113basic_ostreamI
149:   FUNC GLOBAL DEFAULT UND _ZTv0_n24_NSt3__113basic_
150:   FUNC GLOBAL DEFAULT UND _ZTv0_n24_NSt3__113basic_
151:   FUNC GLOBAL DEFAULT UND _ZNSt3__18ios_base4initEP
152:   FUNC GLOBAL DEFAULT UND _ZNSt3__115basic_streambu
153:   FUNC GLOBAL DEFAULT UND _ZNSt3__115basic_streambu
154:   FUNC GLOBAL DEFAULT UND _ZNSt3__115basic_streambu
155:   FUNC GLOBAL DEFAULT UND _ZNSt3__115basic_streambu
156:   FUNC GLOBAL DEFAULT UND _ZNSt3__115basic_streambu
157:   FUNC GLOBAL DEFAULT UND _ZNSt3__115basic_streambu
158:   FUNC GLOBAL DEFAULT UND _ZNSt3__115basic_streambu
159:   FUNC GLOBAL DEFAULT UND _ZNSt3__115basic_streambu
160:   FUNC GLOBAL DEFAULT UND _ZNSt3__115basic_streambu
161:   FUNC GLOBAL DEFAULT UND _ZNSt3__112basic_stringIc
162:   FUNC GLOBAL DEFAULT UND _ZNSt3__112basic_stringIc
163:   FUNC GLOBAL DEFAULT UND _ZNSt3__15mutex4lockEv
164:   FUNC GLOBAL DEFAULT UND _ZNSt3__113basic_ostreamI
165:   FUNC GLOBAL DEFAULT UND _ZNSt3__113basic_ostreamI
166:   FUNC GLOBAL DEFAULT UND _ZNKSt3__121__basic_strin
167:   FUNC GLOBAL DEFAULT UND abort@LIBC (2)
168:   FUNC GLOBAL DEFAULT UND _ZNKSt3__18ios_base6getlo
169:   FUNC GLOBAL DEFAULT UND _ZNSt3__16localeD1Ev
170:   FUNC GLOBAL DEFAULT UND _ZNKSt3__16locale9use_fac
171:   FUNC GLOBAL DEFAULT UND _ZNSt3__18ios_base5clearE
172:   FUNC GLOBAL DEFAULT UND localtime_r@LIBC (2)
173:   FUNC GLOBAL DEFAULT UND _ZNSt3__15mutex6unlockEv
174:   FUNC GLOBAL DEFAULT UND _ZNSt3__19basic_iosIcNS_1
175:   FUNC GLOBAL DEFAULT UND _ZNSt3__114basic_iostream
176:   FUNC GLOBAL DEFAULT UND clock_gettime@LIBC (2)
177:   FUNC GLOBAL DEFAULT UND strzcmp16
178:   FUNC GLOBAL DEFAULT UND _ZNK7android8String164siz
179:   FUNC GLOBAL DEFAULT UND _ZN7android16SortedVector
180:   FUNC GLOBAL DEFAULT UND _ZNK7android14AudioParame
181:   FUNC GLOBAL DEFAULT UND _ZN7android7String85setTo
182:   FUNC GLOBAL DEFAULT UND multiuser_get_app_id
183:   FUNC GLOBAL DEFAULT UND _ZN7android7String86appen
184:   FUNC GLOBAL DEFAULT UND pthread_condattr_init@LIBC (2)
185:   FUNC GLOBAL DEFAULT UND pthread_condattr_setclock@LIBC (2)
186:   FUNC GLOBAL DEFAULT UND pthread_cond_init@LIBC (2)
187:   FUNC GLOBAL DEFAULT UND pthread_condattr_destroy@LIBC (2)
188:   FUNC GLOBAL DEFAULT UND pthread_cond_signal@LIBC (2)
189:   FUNC GLOBAL DEFAULT UND pthread_cond_wait@LIBC (2)
190:   FUNC GLOBAL DEFAULT UND __strlen_chk@LIBC (2)
191:   FUNC GLOBAL DEFAULT UND strdup@LIBC (2)
192:   FUNC GLOBAL DEFAULT UND free@LIBC (2)
193:   FUNC GLOBAL DEFAULT UND _ZN7android16SortedVector
194:   FUNC GLOBAL DEFAULT UND _ZN7android10VectorImplC2
195:   FUNC GLOBAL DEFAULT UND _ZN7android7RefBase10rena
196:   FUNC GLOBAL DEFAULT UND _ZN7android7RefBase11rena
197:   FUNC GLOBAL DEFAULT UND _ZN7android7RefBaseD2Ev
198:   FUNC GLOBAL DEFAULT UND _ZNSt3__112basic_stringIc
199:   FUNC GLOBAL DEFAULT UND pipe2@LIBC (2)
200:   FUNC GLOBAL DEFAULT UND _ZNSt3__16thread6detachEv
201:   FUNC GLOBAL DEFAULT UND _ZNSt3__16threadD1Ev
202:   FUNC GLOBAL DEFAULT UND _ZNSt3__118condition_vari
203:   FUNC GLOBAL DEFAULT UND _ZNSt13exception_ptrD1Ev
204:   FUNC GLOBAL DEFAULT UND _ZNSt3__114__shared_count
205:   FUNC GLOBAL DEFAULT UND _ZNSt3__117__assoc_sub_st
206:   FUNC GLOBAL DEFAULT UND _ZNSt3__118condition_vari
207:   FUNC GLOBAL DEFAULT UND _ZNSt3__115__thread_struc
208:   FUNC GLOBAL DEFAULT UND _ZNSt3__120__throw_system
209:   FUNC GLOBAL DEFAULT UND pthread_create@LIBC (2)
210:   FUNC GLOBAL DEFAULT UND _ZNSt3__119__thread_local
211:   FUNC GLOBAL DEFAULT UND pthread_setspecific@LIBC (2)
212:   FUNC GLOBAL DEFAULT UND _ZNSt3__115__thread_struc
213:   FUNC GLOBAL DEFAULT UND toMillisecondTimeoutDelay
214:   FUNC GLOBAL DEFAULT UND _ZNSt3__113basic_ostreamI
215:   FUNC GLOBAL DEFAULT UND __poll_chk@LIBC (2)
216:   FUNC GLOBAL DEFAULT UND __read_chk@LIBC (2)
217:   FUNC GLOBAL DEFAULT UND memchr@LIBC (2)
218:   FUNC GLOBAL DEFAULT UND close@LIBC (2)
219:   FUNC GLOBAL DEFAULT UND _ZNSt3__16chrono12steady_
220:   FUNC GLOBAL DEFAULT UND _ZNSt3__16chrono12system_
221:   FUNC GLOBAL DEFAULT UND _ZNSt3__118condition_vari
222:   FUNC GLOBAL DEFAULT UND _ZNSt3__117__assoc_sub_st
223:   FUNC GLOBAL DEFAULT UND _ZSt17rethrow_exceptionSt
224:   FUNC GLOBAL DEFAULT UND _ZNSt13exception_ptrC1ERK
225:   FUNC GLOBAL DEFAULT UND _ZN7android6ThreadD2Ev
226:   FUNC GLOBAL DEFAULT UND pthread_cond_destroy@LIBC (2)
227:   FUNC GLOBAL DEFAULT UND _ZNSt3__112basic_stringIc
228:   FUNC GLOBAL DEFAULT UND _ZN7android7RefBase12weak
229:   FUNC GLOBAL DEFAULT UND _ZN7android7RefBase12weak
230:   FUNC GLOBAL DEFAULT UND _ZN7android10VectorImplC2
231:   FUNC GLOBAL DEFAULT UND _ZN7android10VectorImplD2
232:   FUNC GLOBAL DEFAULT UND _ZN7android15BatteryNotif
233:   FUNC GLOBAL DEFAULT UND _ZNK7android7RefBase10cre
234:   FUNC GLOBAL DEFAULT UND _ZN7android10VectorImpl3p
235:   FUNC GLOBAL DEFAULT UND _ZNK7android16SortedVecto
236:   FUNC GLOBAL DEFAULT UND _ZN7android8String16C1Ev
237:   FUNC GLOBAL DEFAULT UND _ZN7android8String16C1ERK
238:   FUNC GLOBAL DEFAULT UND _ZN7android16SortedVector
239:   FUNC GLOBAL DEFAULT UND _ZN7android10VectorImpl13
240:   FUNC GLOBAL DEFAULT UND _ZN7android10VectorImpl4p
241:   FUNC GLOBAL DEFAULT UND _ZNKSt3__120__vector_base
242:   FUNC GLOBAL DEFAULT UND _ZN7android16SortedVector
243:   FUNC GLOBAL DEFAULT UND _ZNSt3__112basic_stringIc
244:   FUNC GLOBAL DEFAULT UND _ZNSt3__112basic_stringIc
245:   FUNC GLOBAL DEFAULT UND _ZN7android10VectorImpl16
246:   FUNC GLOBAL DEFAULT UND _ZN7android10VectorImpl3a
247:   OBJECT GLOBAL DEFAULT UND _ZN7android14AudioParamet
248:   OBJECT GLOBAL DEFAULT UND _ZN7android14AudioParamet
249:   OBJECT GLOBAL DEFAULT UND _ZN7android14AudioParamet
250:   OBJECT GLOBAL DEFAULT UND _ZN7android14AudioParamet
251:   OBJECT GLOBAL DEFAULT UND _ZN7android14AudioParamet
252:   OBJECT GLOBAL DEFAULT UND _ZN7android14AudioParamet
253:   OBJECT GLOBAL DEFAULT UND _ZN7android14AudioParamet
254:   OBJECT GLOBAL DEFAULT UND _ZN7android14AudioParamet
255:   OBJECT GLOBAL DEFAULT UND _ZN7android14AudioParamet
256:   OBJECT GLOBAL DEFAULT UND _ZN7android14AudioParamet
257:   OBJECT GLOBAL DEFAULT UND _ZN7android14AudioParamet
258:   OBJECT GLOBAL DEFAULT UND _ZN7android14AudioParamet
259:   OBJECT GLOBAL DEFAULT UND _ZN7android14AudioParamet
260:   OBJECT GLOBAL DEFAULT UND _ZN7android14AudioParamet
261:   OBJECT GLOBAL DEFAULT UND _ZN7android14AudioParamet
262:   OBJECT GLOBAL DEFAULT UND _ZN7android14AudioParamet
263:   OBJECT GLOBAL DEFAULT UND _ZN7android14AudioParamet
264:   OBJECT GLOBAL DEFAULT UND _ZNSt3__15ctypeIcE2idE
265:   OBJECT GLOBAL DEFAULT UND _ZTVN7android5NBLog6Write
266:   OBJECT GLOBAL DEFAULT UND _ZTVN7android14AudioParam
267:   OBJECT GLOBAL DEFAULT UND _ZTVNSt3__117__assoc_sub_
268:   OBJECT GLOBAL DEFAULT UND _ZN7android13TypeConverte
269:   OBJECT GLOBAL DEFAULT UND _ZN7android9SingletonINS_
270:   OBJECT GLOBAL DEFAULT UND _ZN7android9SingletonINS_
271:   OBJECT GLOBAL DEFAULT UND _ZN7android13IAudioFlinge
272:   FUNC GLOBAL DEFAULT UND _ZN7android12SPDIFEncoder
273:   FUNC GLOBAL DEFAULT UND strerror@LIBC (2)
274:   FUNC GLOBAL DEFAULT UND fclose@LIBC (2)
275:   FUNC GLOBAL DEFAULT UND strlcpy@LIBC (2)
276:   FUNC GLOBAL DEFAULT UND __strlcpy_chk@LIBC (2)
277:   FUNC GLOBAL DEFAULT UND _ZN7android11AudioEffect1
278:   FUNC GLOBAL DEFAULT UND _ZN7android11AudioSystem1
279:   FUNC GLOBAL DEFAULT UND _ZN7android11AudioSystem1
280:   FUNC GLOBAL DEFAULT UND _ZN7android11AudioSystem1
281:   FUNC GLOBAL DEFAULT UND memcpy_to_i16_from_float
282:   FUNC GLOBAL DEFAULT UND adjust_channels
283:   FUNC GLOBAL DEFAULT UND adjust_selected_channels
284:   FUNC GLOBAL DEFAULT UND memcpy_to_float_from_i16
285:   FUNC GLOBAL DEFAULT UND gettid@LIBC (2)
286:   FUNC GLOBAL DEFAULT UND _ZN7android7String810lock
287:   FUNC GLOBAL DEFAULT UND _ZN7android7String812unlo
288:   FUNC GLOBAL DEFAULT UND _ZN7android7String812appe
289:   FUNC GLOBAL DEFAULT UND realloc@LIBC (2)
290:   FUNC GLOBAL DEFAULT UND _ZN7android8BnEffect10onT
291:   FUNC GLOBAL DEFAULT UND getpid@LIBC (2)
292:   FUNC GLOBAL DEFAULT UND _ZN7android11AudioSystem2
293:   FUNC GLOBAL DEFAULT UND _ZThn8_N7android8BnEffect
294:   FUNC GLOBAL DEFAULT UND _ZN7android7IEffectD1Ev
295:   FUNC GLOBAL DEFAULT UND _ZN7android7IEffectD0Ev
296:   FUNC GLOBAL DEFAULT UND _ZNK7android7IEffect22get
297:   FUNC GLOBAL DEFAULT UND _ZTv0_n24_N7android7IEffe
298:   FUNC GLOBAL DEFAULT UND _ZTv0_n24_N7android7IEffe
299:   FUNC GLOBAL DEFAULT UND accumulate_float
300:   FUNC GLOBAL DEFAULT UND _ZNSt3__113basic_ostreamI
301:   FUNC GLOBAL DEFAULT UND _ZN7android7IEffectC2Ev
302:   FUNC GLOBAL DEFAULT UND pthread_mutexattr_init@LIBC (2)
303:   FUNC GLOBAL DEFAULT UND pthread_mutexattr_setpsha@LIBC (2)
304:   FUNC GLOBAL DEFAULT UND pthread_mutexattr_destroy@LIBC (2)
305:   FUNC GLOBAL DEFAULT UND _ZN7android7IEffectD2Ev
306:   FUNC GLOBAL DEFAULT UND _ZN7android10VectorImpl8i
307:   FUNC GLOBAL DEFAULT UND _ZN7android10VectorImpl5c
308:   OBJECT GLOBAL DEFAULT UND _ZN7android7IEffect10desc
309:   FUNC GLOBAL DEFAULT UND _ZN7android17Format_sampl
310:   FUNC GLOBAL DEFAULT UND _ZN7android14Format_isEqu
311:   FUNC GLOBAL DEFAULT UND _ZN7android16Format_frame
312:   FUNC GLOBAL DEFAULT UND posix_memalign@LIBC (2)
313:   FUNC GLOBAL DEFAULT UND memcpy_by_audio_format
314:   FUNC GLOBAL DEFAULT UND syscall@LIBC (2)
315:   FUNC GLOBAL DEFAULT UND atrace_begin_body
316:   FUNC GLOBAL DEFAULT UND atrace_setup
317:   FUNC GLOBAL DEFAULT UND atrace_end_body
318:   OBJECT GLOBAL DEFAULT UND _ZN7android14Format_Inval
319:   OBJECT GLOBAL DEFAULT UND atrace_enabled_tags
320:   OBJECT GLOBAL DEFAULT UND atrace_is_ready
321:   FUNC GLOBAL DEFAULT UND _ZN7android10AudioMixer7d
322:   FUNC GLOBAL DEFAULT UND _ZN7android10AudioMixer6c
323:   FUNC GLOBAL DEFAULT UND _ZN7android10AudioMixer17
324:   FUNC GLOBAL DEFAULT UND float_from_gain
325:   FUNC GLOBAL DEFAULT UND _ZN7android10AudioMixer12
326:   FUNC GLOBAL DEFAULT UND _ZN7android10AudioMixer6e
327:   FUNC GLOBAL DEFAULT UND _ZN7android11audio_utils7
328:   FUNC GLOBAL DEFAULT UND _ZN7android19Format_chann
329:   FUNC GLOBAL DEFAULT UND _ZN7android10AudioMixer7d
330:   FUNC GLOBAL DEFAULT UND mono_blend
331:   FUNC GLOBAL DEFAULT UND _ZN7android11audio_utils7
332:   FUNC GLOBAL DEFAULT UND _ZN7android11audio_utils7
333:   FUNC GLOBAL DEFAULT UND adjust_channels_non_destr
334:   FUNC GLOBAL DEFAULT UND _ZNSt3__119__shared_weak_
335:   FUNC GLOBAL DEFAULT UND _ZdaPv
336:   FUNC GLOBAL DEFAULT UND _ZN7android10AudioMixer12
337:   FUNC GLOBAL DEFAULT UND _ZN7android10AudioMixer12
338:   FUNC GLOBAL DEFAULT UND atrace_int_body
339:   FUNC GLOBAL DEFAULT UND _ZN7android10AudioMixer5T
340:   FUNC GLOBAL DEFAULT UND _ZN7android10AudioMixer17
341:   FUNC GLOBAL DEFAULT UND _ZN7android5NBLog6Writer3
342:   NOTYPE WEAK DEFAULT UND _ZTH13tlNBLogWriter
343:   OBJECT GLOBAL DEFAULT UND _ZN7android10AudioMixer12
344:   FUNC GLOBAL DEFAULT UND _Znam
345:   FUNC GLOBAL DEFAULT UND qsort@LIBC (2)
346:   FUNC GLOBAL DEFAULT UND _ZNSt3__113basic_ostreamI
347:   FUNC GLOBAL DEFAULT UND _ZNSt3__113basic_ostreamI
348:   FUNC GLOBAL DEFAULT UND strtoul@LIBC (2)
349:   FUNC GLOBAL DEFAULT UND nanosleep@LIBC (2)
350:   FUNC GLOBAL DEFAULT UND sched_yield@LIBC (2)
351:   FUNC GLOBAL DEFAULT UND sched_getscheduler@LIBC (2)
352:   FUNC GLOBAL DEFAULT UND roundup
353:   FUNC GLOBAL DEFAULT UND _ZnwmRKSt9nothrow_t
354:   OBJECT GLOBAL DEFAULT UND _ZSt7nothrow
355:   FUNC GLOBAL DEFAULT UND _ZN7android12SPDIFEncoder
356:   FUNC GLOBAL DEFAULT UND _ZN7android12SPDIFEncoder
357:   FUNC GLOBAL DEFAULT UND _ZN7android12SPDIFEncoder
358:   FUNC GLOBAL DEFAULT UND _ZN7android12SPDIFEncoder
359:   FUNC GLOBAL DEFAULT UND _ZNK7android6Thread6getTi
360:   FUNC GLOBAL DEFAULT UND _ZN7android6Thread18reque
361:   FUNC GLOBAL DEFAULT UND _ZN7android15requestPrior
362:   FUNC GLOBAL DEFAULT UND _ZN7android7BBinderC1Ev
363:   FUNC GLOBAL DEFAULT UND _ZN7android18MediaAnalyti
364:   FUNC GLOBAL DEFAULT UND _ZN7android18MediaAnalyti
365:   FUNC GLOBAL DEFAULT UND _ZN7android18MediaAnalyti
366:   FUNC GLOBAL DEFAULT UND _ZN7android18MediaAnalyti
367:   FUNC GLOBAL DEFAULT UND _ZN7android18MediaAnalyti
368:   FUNC GLOBAL DEFAULT UND _ZN7android18MediaAnalyti
369:   FUNC GLOBAL DEFAULT UND property_get_int64
370:   FUNC GLOBAL DEFAULT UND _ZN7android7String85clear
371:   FUNC GLOBAL DEFAULT UND _ZN7android12checkIMemory
372:   FUNC GLOBAL DEFAULT UND _ZNK7android7IMemory4size
373:   FUNC GLOBAL DEFAULT UND _ZN7android11AudioSystem1
374:   FUNC GLOBAL DEFAULT UND _ZN7android11AudioSystem1
375:   FUNC GLOBAL DEFAULT UND _ZN7android5NBLog6Writer1
376:   FUNC GLOBAL DEFAULT UND _ZN7android8MonoPipe12set
377:   FUNC GLOBAL DEFAULT UND _ZNK7android6Thread11exit
378:   FUNC GLOBAL DEFAULT UND _ZN7android14IPCThreadSta
379:   FUNC GLOBAL DEFAULT UND calloc@LIBC (2)
380:   FUNC GLOBAL DEFAULT UND _ZN7android18AudioStreamO
381:   FUNC GLOBAL DEFAULT UND _ZN7android16Format_from_
382:   FUNC GLOBAL DEFAULT UND _ZN7android8MonoPipeC1EmR
383:   FUNC GLOBAL DEFAULT UND _ZN7android14MonoPipeRead
384:   FUNC GLOBAL DEFAULT UND _ZN7android25SourceAudioB
385:   FUNC GLOBAL DEFAULT UND _ZN7android6Thread4joinEv
386:   FUNC GLOBAL DEFAULT UND _ZN7android21AudioTrackSe
387:   FUNC GLOBAL DEFAULT UND _ZNK7android10AudioMixer1
388:   FUNC GLOBAL DEFAULT UND _ZNSt3__19to_stringEf
389:   FUNC GLOBAL DEFAULT UND _ZNK7android11audio_utils
390:   FUNC GLOBAL DEFAULT UND _ZNK7android11audio_utils
391:   FUNC GLOBAL DEFAULT UND _ZNSt3__113basic_ostreamI
392:   FUNC GLOBAL DEFAULT UND _ZNSt3__113basic_ostreamI
393:   FUNC GLOBAL DEFAULT UND _ZN7android19AudioStreamI
394:   FUNC GLOBAL DEFAULT UND _ZN7android4PipeC1EmRKNS_
395:   FUNC GLOBAL DEFAULT UND _ZN7android10PipeReaderC1
396:   FUNC GLOBAL DEFAULT UND _ZN7android21RecordBuffer
397:   FUNC GLOBAL DEFAULT UND _ZN7android11AudioSystem1
398:   FUNC GLOBAL DEFAULT UND _ZN7android21RecordBuffer
399:   FUNC GLOBAL DEFAULT UND _ZN7android11AudioSystem9
400:   FUNC GLOBAL DEFAULT UND pthread_cond_broadcast@LIBC (2)
401:   FUNC GLOBAL DEFAULT UND pthread_cond_timedwait@LIBC (2)
402:   FUNC GLOBAL DEFAULT UND pthread_mutex_trylock@LIBC (2)
403:   FUNC GLOBAL DEFAULT UND _ZNSt3__112__next_primeEm
404:   FUNC GLOBAL DEFAULT UND _ZN7android18MediaAnalyti
405:   FUNC GLOBAL DEFAULT UND _ZN7android15BatteryNotif
406:   FUNC GLOBAL DEFAULT UND _ZN7android15BatteryNotif
407:   FUNC GLOBAL DEFAULT UND _ZN7android10VectorImpl13
408:   FUNC GLOBAL DEFAULT UND _ZN7android13IPowerManage
409:   FUNC GLOBAL DEFAULT UND _ZN7android10VectorImplaS
410:   OBJECT GLOBAL DEFAULT UND _ZN7android14AudioParamet
411:   OBJECT GLOBAL DEFAULT UND _ZN7android13TypeConverte
412:   OBJECT GLOBAL DEFAULT UND _ZN7android13TypeConverte
413:   OBJECT GLOBAL DEFAULT UND _ZN7android13TypeConverte
414:   OBJECT GLOBAL DEFAULT UND _ZN7android13TypeConverte
415:   OBJECT GLOBAL DEFAULT UND _ZN7android13TypeConverte
416:   FUNC GLOBAL DEFAULT UND malloc@LIBC (2)
417:   FUNC GLOBAL DEFAULT UND _ZN7android18audio_track_
418:   FUNC GLOBAL DEFAULT UND _ZN7android12BnAudioTrack
419:   FUNC GLOBAL DEFAULT UND _ZN7android13AppOpsManage
420:   FUNC GLOBAL DEFAULT UND _ZN7android13AppOpsManage
421:   FUNC GLOBAL DEFAULT UND _ZN7android13AppOpsManage
422:   FUNC GLOBAL DEFAULT UND _ZN7android13AppOpsManage
423:   FUNC GLOBAL DEFAULT UND _ZN7android20PermissionCo
424:   FUNC GLOBAL DEFAULT UND _ZN7android20PermissionCo
425:   FUNC GLOBAL DEFAULT UND _ZN7android27StaticAudioT
426:   FUNC GLOBAL DEFAULT UND _ZN7android2os17ExternalV
427:   FUNC GLOBAL DEFAULT UND _ZN7android21AudioTrackSe
428:   FUNC GLOBAL DEFAULT UND gain_from_float
429:   FUNC GLOBAL DEFAULT UND _ZN7android6binder6Status
430:   FUNC GLOBAL DEFAULT UND _ZN7android11ClientProxy1
431:   FUNC GLOBAL DEFAULT UND _ZN7android11ClientProxy1
432:   FUNC GLOBAL DEFAULT UND _ZN7android11ClientProxyC
433:   FUNC GLOBAL DEFAULT UND _ZN7android13AppOpsManage
434:   FUNC GLOBAL DEFAULT UND _ZN7android7String8C1ERKN
435:   FUNC GLOBAL DEFAULT UND _ZN7android6binder6Status
436:   FUNC GLOBAL DEFAULT UND _ZN7android21RecordBuffer
437:   FUNC GLOBAL DEFAULT UND _ZN7android21RecordBuffer
438:   FUNC GLOBAL DEFAULT UND _ZN7android2os29BnExterna
439:   FUNC GLOBAL DEFAULT UND _ZThn8_N7android2os29BnEx
440:   FUNC GLOBAL DEFAULT UND _ZN7android2os28IExternal
441:   FUNC GLOBAL DEFAULT UND _ZN7android2os28IExternal
442:   FUNC GLOBAL DEFAULT UND _ZNK7android2os28IExterna
443:   FUNC GLOBAL DEFAULT UND _ZTv0_n24_N7android2os28I
444:   FUNC GLOBAL DEFAULT UND _ZTv0_n24_N7android2os28I
445:   FUNC GLOBAL DEFAULT UND _ZThn8_N7android12BnAudio
446:   FUNC GLOBAL DEFAULT UND _ZN7android11IAudioTrackD
447:   FUNC GLOBAL DEFAULT UND _ZN7android11IAudioTrackD
448:   FUNC GLOBAL DEFAULT UND _ZNK7android11IAudioTrack
449:   FUNC GLOBAL DEFAULT UND _ZTv0_n24_N7android11IAud
450:   FUNC GLOBAL DEFAULT UND _ZTv0_n24_N7android11IAud
451:   FUNC GLOBAL DEFAULT UND _ZN7android16BnAppOpsCall
452:   FUNC GLOBAL DEFAULT UND _ZThn8_N7android16BnAppOp
453:   FUNC GLOBAL DEFAULT UND _ZN7android15IAppOpsCallb
454:   FUNC GLOBAL DEFAULT UND _ZN7android15IAppOpsCallb
455:   FUNC GLOBAL DEFAULT UND _ZNK7android15IAppOpsCall
456:   FUNC GLOBAL DEFAULT UND _ZTv0_n24_N7android15IApp
457:   FUNC GLOBAL DEFAULT UND _ZTv0_n24_N7android15IApp
458:   FUNC GLOBAL DEFAULT UND _ZN7android5media13BnAudi
459:   FUNC GLOBAL DEFAULT UND _ZThn8_N7android5media13B
460:   FUNC GLOBAL DEFAULT UND _ZN7android5media12IAudio
461:   FUNC GLOBAL DEFAULT UND _ZN7android5media12IAudio
462:   FUNC GLOBAL DEFAULT UND _ZNK7android5media12IAudi
463:   FUNC GLOBAL DEFAULT UND _ZTv0_n24_N7android5media
464:   FUNC GLOBAL DEFAULT UND _ZTv0_n24_N7android5media
465:   FUNC GLOBAL DEFAULT UND _ZN7android11IAudioTrackC
466:   FUNC GLOBAL DEFAULT UND _ZN7android11IAudioTrackD
467:   FUNC GLOBAL DEFAULT UND _ZN7android15IAppOpsCallb
468:   FUNC GLOBAL DEFAULT UND _ZN7android11ServerProxyC
469:   FUNC GLOBAL DEFAULT UND _ZN7android2os28IExternal
470:   FUNC GLOBAL DEFAULT UND _ZN7android6Parcel10write
471:   FUNC GLOBAL DEFAULT UND _ZN7android6Parcel11write
472:   FUNC GLOBAL DEFAULT UND _ZN7android6Parcel10write
473:   FUNC GLOBAL DEFAULT UND _ZN7android6Parcel11write
474:   FUNC GLOBAL DEFAULT UND _ZNK7android6Parcel9readI
475:   FUNC GLOBAL DEFAULT UND _ZNK7android6Parcel10read
476:   FUNC GLOBAL DEFAULT UND _ZNK7android6Parcel9readF
477:   FUNC GLOBAL DEFAULT UND _ZNK7android6Parcel10read
478:   FUNC GLOBAL DEFAULT UND _ZNSt3__113basic_ostreamI
479:   FUNC GLOBAL DEFAULT UND _ZN7android11ClientProxyC
480:   FUNC GLOBAL DEFAULT UND _ZN7android5media12IAudio
481:   FUNC GLOBAL DEFAULT UND _ZN7android5media12IAudio
482:   FUNC GLOBAL DEFAULT UND _ZN7android2os28IExternal
483:   FUNC GLOBAL DEFAULT UND _ZN7android15IAppOpsCallb
484:   OBJECT GLOBAL DEFAULT UND _ZTVN7android21AudioTrack
485:   OBJECT GLOBAL DEFAULT UND _ZTVN7android21AudioTrack
486:   OBJECT GLOBAL DEFAULT UND _ZTVN7android22AudioRecor
487:   OBJECT GLOBAL DEFAULT UND _ZN7android2os28IExternal
488:   OBJECT GLOBAL DEFAULT UND _ZN7android11IAudioTrack1
489:   OBJECT GLOBAL DEFAULT UND _ZN7android15IAppOpsCallb
490:   OBJECT GLOBAL DEFAULT UND _ZN7android5media12IAudio
491:   FUNC WEAK DEFAULT UND android_set_abort_message@LIBC (2)
492:   FUNC GLOBAL DEFAULT UND __lttf2
493:   FUNC GLOBAL DEFAULT UND __floatditf
494:   FUNC GLOBAL DEFAULT UND __multf3
495:   FUNC GLOBAL DEFAULT UND __subtf3
496:   FUNC GLOBAL DEFAULT UND memset@LIBC (2)
497:   FUNC GLOBAL DEFAULT UND pthread_getspecific@LIBC (2)
498:   FUNC GLOBAL DEFAULT UND memcpy@LIBC (2)
499:   FUNC GLOBAL DEFAULT UND pthread_key_create@LIBC (2)
500:   FUNC GLOBAL DEFAULT UND memmove@LIBC (2)
501:   FUNC GLOBAL DEFAULT UND pthread_key_delete@LIBC (2)
502:   FUNC GLOBAL DEFAULT UND __stack_chk_fail@LIBC (2)
503:   FUNC GLOBAL DEFAULT UND log10f@LIBC (7)
504:   FUNC GLOBAL DEFAULT UND powf@LIBC (7)
505:   FUNC GLOBAL DEFAULT 14 _ZN7android12AudioFlinger
506:   FUNC GLOBAL DEFAULT 14 __cfi_check
507:   OBJECT WEAK DEFAULT 19 _ZTVNSt3__118basic_string
508:   OBJECT WEAK DEFAULT 19 _ZTTNSt3__118basic_string
509:   OBJECT WEAK DEFAULT 19 _ZTCNSt3__118basic_string
510:   OBJECT WEAK DEFAULT 19 _ZTCNSt3__118basic_string
511:   OBJECT WEAK DEFAULT 19 _ZTVNSt3__115basic_string
512:   FUNC GLOBAL DEFAULT 14 _ZN7android12AudioFlinger
513:   FUNC GLOBAL DEFAULT 14 _ZN7android19MmapStreamIn
514:   OBJECT WEAK DEFAULT 19 _ZTCNSt3__118basic_string
515:   FUNC GLOBAL DEFAULT 14 __emutls_get_address
