 0x000000000000000e (SONAME)             Library soname: [libhidlmemory.so]
  
Symbol   contains 74 entries:
Num:   Type Bind Vis Ndx Name
0:   NOTYPE LOCAL DEFAULT UND
1:   FUNC GLOBAL DEFAULT UND __cxa_finalize@LIBC (2)
2:   FUNC GLOBAL DEFAULT UND __cxa_atexit@LIBC (2)
3:   FUNC GLOBAL DEFAULT UND _ZN7android4hidl4base4V1_
4:   FUNC GLOBAL DEFAULT UND _ZN7android4hidl4base4V1_
5:   FUNC GLOBAL DEFAULT UND _ZN7android4hidl4base4V1_
6:   FUNC GLOBAL DEFAULT UND _ZN7android4hidl4base4V1_
7:   FUNC GLOBAL DEFAULT UND _ZN7android4hidl4base4V1_
8:   FUNC GLOBAL DEFAULT UND _ZN7android4hidl4base4V1_
9:   FUNC GLOBAL DEFAULT UND _ZN7android4hidl4base4V1_
10:   FUNC GLOBAL DEFAULT UND _ZN7android4hidl4base4V1_
11:   FUNC GLOBAL DEFAULT UND _ZN7android4hidl4base4V1_
12:   FUNC GLOBAL DEFAULT UND _ZN7android4hidl4base4V1_
13:   FUNC GLOBAL DEFAULT UND _ZN7android4hidl6memory5t
14:   FUNC GLOBAL DEFAULT UND _ZN7android4hidl6memory5t
15:   FUNC GLOBAL DEFAULT UND _ZN7android4hidl6memory5t
16:   FUNC GLOBAL DEFAULT UND _ZN7android4hidl6memory5t
17:   FUNC GLOBAL DEFAULT UND _ZN7android4hidl6memory5t
18:   FUNC GLOBAL DEFAULT UND _ZN7android4hidl6memory5t
19:   FUNC GLOBAL DEFAULT UND _ZN7android4hidl6memory5t
20:   FUNC GLOBAL DEFAULT UND _ZN7android4hidl6memory5t
21:   FUNC GLOBAL DEFAULT UND _ZN7android4hidl6memory5t
22:   FUNC GLOBAL DEFAULT UND _ZN7android4hidl6memory5t
23:   FUNC GLOBAL DEFAULT UND _ZN7android7RefBase10onFi
24:   FUNC GLOBAL DEFAULT UND _ZN7android7RefBase13onLa
25:   FUNC GLOBAL DEFAULT UND _ZN7android7RefBase15onLa
26:   FUNC GLOBAL DEFAULT UND _ZN7android7RefBase20onIn
27:   FUNC GLOBAL DEFAULT UND _ZN7android7RefBaseC2Ev
28:   FUNC GLOBAL DEFAULT UND _ZN7android7RefBaseD2Ev
29:   FUNC GLOBAL DEFAULT UND _ZNK7android7RefBase9decS
30:   FUNC GLOBAL DEFAULT UND _ZNK7android7RefBase9incS
31:   FUNC GLOBAL DEFAULT UND _ZdlPv
32:   FUNC GLOBAL DEFAULT UND __cxa_pure_virtual
33:   FUNC GLOBAL DEFAULT UND abort@LIBC (2)
34:   FUNC GLOBAL DEFAULT UND _ZN7android14sp_report_ra
35:   FUNC GLOBAL DEFAULT UND _ZN7android4base10LogMess
36:   FUNC GLOBAL DEFAULT UND _ZN7android4base10LogMess
37:   FUNC GLOBAL DEFAULT UND _ZN7android4base10LogMess
38:   FUNC GLOBAL DEFAULT UND _ZN7android4base21GetMini
39:   FUNC GLOBAL DEFAULT UND _ZN7android4hidl6memory4V
40:   FUNC GLOBAL DEFAULT UND _ZN7android8hardware7deta
41:   FUNC GLOBAL DEFAULT UND _ZN7android8hardwarelsERN
42:   FUNC GLOBAL DEFAULT UND _ZNK7android8hardware11hi
43:   FUNC GLOBAL DEFAULT UND _ZNK7android8hardware7det
44:   FUNC GLOBAL DEFAULT UND _ZNKSt3__16locale9use_fac
45:   FUNC GLOBAL DEFAULT UND _ZNKSt3__18ios_base6getlo
46:   FUNC GLOBAL DEFAULT UND _ZNSt3__112basic_stringIc
47:   FUNC GLOBAL DEFAULT UND _ZNSt3__113basic_ostreamI
48:   FUNC GLOBAL DEFAULT UND _ZNSt3__113basic_ostreamI
49:   OBJECT GLOBAL DEFAULT UND _ZNSt3__15ctypeIcE2idE
50:   FUNC GLOBAL DEFAULT UND _ZNSt3__15mutex4lockEv
51:   FUNC GLOBAL DEFAULT UND _ZNSt3__15mutex6unlockEv
52:   FUNC GLOBAL DEFAULT UND _ZNSt3__15mutexD1Ev
53:   FUNC GLOBAL DEFAULT UND _ZNSt3__16localeD1Ev
54:   FUNC GLOBAL DEFAULT UND _ZNSt3__18ios_base5clearE
55:   FUNC GLOBAL DEFAULT UND _Znwm
56:   FUNC GLOBAL DEFAULT UND __errno@LIBC (2)
57:   FUNC GLOBAL DEFAULT UND __stack_chk_fail@LIBC (2)
58:   FUNC GLOBAL DEFAULT UND memcmp@LIBC (2)
59:   FUNC GLOBAL DEFAULT UND memset@LIBC (2)
60:   FUNC GLOBAL DEFAULT 14 _ZN7android8hardware15Hid
61:   OBJECT GLOBAL DEFAULT 18 _ZTTN7android8hardware15H
62:   FUNC GLOBAL DEFAULT 14 _ZTv0_n128_N7android8hard
63:   FUNC GLOBAL DEFAULT 14 _ZN7android8hardware9mapM
64:   FUNC WEAK DEFAULT 14 _ZNSt3__124__put_characte
65:   FUNC GLOBAL DEFAULT 14 _ZN7android8hardware15Hid
66:   OBJECT GLOBAL DEFAULT 18 _ZTCN7android8hardware15H
67:   OBJECT GLOBAL DEFAULT 18 _ZTCN7android8hardware15H
68:   FUNC WEAK DEFAULT 14 _ZNSt3__127__tree_balance
69:   FUNC GLOBAL DEFAULT 14 _ZN7android8hardware15Hid
70:   OBJECT GLOBAL DEFAULT 18 _ZTVN7android8hardware15H
71:   FUNC WEAK DEFAULT 14 _ZNSt3__16__treeINS_12__v
72:   FUNC WEAK DEFAULT 14 _ZNSt3__16__treeINS_12__v
73:   FUNC WEAK DEFAULT 14 _ZNSt3__16__treeINS_12__v
