 0x0000000e (SONAME)                     Library soname: [libwilhelm.so]
  
Symbol   contains 271 entries:
Num:   Type Bind Vis Ndx Name
0:   NOTYPE LOCAL DEFAULT UND
1:   FUNC GLOBAL DEFAULT UND __cxa_atexit@LIBC (2)
2:   FUNC GLOBAL DEFAULT UND __cxa_finalize@LIBC (2)
3:   FUNC GLOBAL DEFAULT UND __android_log_assert@LIBLOG (3)
4:   FUNC GLOBAL DEFAULT UND __android_log_print@LIBLOG (3)
5:   FUNC GLOBAL DEFAULT UND __assert2@LIBC (2)
6:   FUNC GLOBAL DEFAULT UND free@LIBC (2)
7:   FUNC GLOBAL DEFAULT UND malloc@LIBC (2)
8:   FUNC GLOBAL DEFAULT UND strlen@LIBC (2)
9:   FUNC GLOBAL DEFAULT UND _ZN7android12ProcessState
10:   FUNC GLOBAL DEFAULT UND _ZN7android12ProcessState
11:   FUNC GLOBAL DEFAULT UND _ZNK7android7RefBase9decS
12:   FUNC GLOBAL DEFAULT UND __stack_chk_fail@LIBC (2)
13:   OBJECT GLOBAL DEFAULT UND __stack_chk_guard@LIBC (2)
14:   FUNC GLOBAL DEFAULT UND pthread_mutex_lock@LIBC (2)
15:   FUNC GLOBAL DEFAULT UND pthread_mutex_unlock@LIBC (2)
16:   FUNC GLOBAL DEFAULT UND _ZNK7android7RefBase9incS
17:   FUNC GLOBAL DEFAULT UND _ZN7android10AudioTrack5s
18:   FUNC GLOBAL DEFAULT UND _ZN7android14sp_report_ra
19:   FUNC GLOBAL DEFAULT UND clock_gettime@LIBC (2)
20:   FUNC GLOBAL DEFAULT UND gettid@LIBC (2)
21:   FUNC GLOBAL DEFAULT UND pthread_cond_broadcast@LIBC (2)
22:   FUNC GLOBAL DEFAULT UND pthread_cond_signal@LIBC (2)
23:   FUNC GLOBAL DEFAULT UND pthread_cond_wait@LIBC (2)
24:   FUNC GLOBAL DEFAULT UND pthread_equal@LIBC (2)
25:   FUNC GLOBAL DEFAULT UND pthread_gettid_np@LIBC (2)
26:   FUNC GLOBAL DEFAULT UND pthread_mutex_timedlock@LIBC (2)
27:   FUNC GLOBAL DEFAULT UND pthread_mutex_trylock@LIBC (2)
28:   FUNC GLOBAL DEFAULT UND pthread_self@LIBC (2)
29:   FUNC GLOBAL DEFAULT UND calloc@LIBC (2)
30:   FUNC GLOBAL DEFAULT UND pthread_cond_destroy@LIBC (2)
31:   FUNC GLOBAL DEFAULT UND pthread_cond_init@LIBC (2)
32:   FUNC GLOBAL DEFAULT UND pthread_create@LIBC (2)
33:   FUNC GLOBAL DEFAULT UND pthread_join@LIBC (2)
34:   FUNC GLOBAL DEFAULT UND pthread_mutex_destroy@LIBC (2)
35:   FUNC GLOBAL DEFAULT UND pthread_mutex_init@LIBC (2)
36:   FUNC GLOBAL DEFAULT UND _ZN7android10AudioTrack11
37:   FUNC GLOBAL DEFAULT UND _ZN7android10AudioTrack13
38:   FUNC GLOBAL DEFAULT UND _ZN7android10AudioTrack17
39:   FUNC GLOBAL DEFAULT UND _ZN7android10AudioTrack23
40:   FUNC GLOBAL DEFAULT UND _ZN7android10AudioTrack4s
41:   FUNC GLOBAL DEFAULT UND _ZN7android10AudioTrack5f
42:   FUNC GLOBAL DEFAULT UND _ZN7android10AudioTrackC1
43:   FUNC GLOBAL DEFAULT UND _ZN7android10PlayerBase11
44:   FUNC GLOBAL DEFAULT UND _ZN7android10VectorImpl13
45:   FUNC GLOBAL DEFAULT UND _ZN7android10VectorImpl13
46:   FUNC GLOBAL DEFAULT UND _ZN7android10VectorImpl16
47:   FUNC GLOBAL DEFAULT UND _ZN7android10VectorImpl5c
48:   FUNC GLOBAL DEFAULT UND _ZN7android11AudioSystem1
49:   FUNC GLOBAL DEFAULT UND _ZN7android14AndroidRunti
50:   FUNC GLOBAL DEFAULT UND _ZN7android15TrackPlayerB
51:   FUNC GLOBAL DEFAULT UND _ZN7android15TrackPlayerB
52:   FUNC GLOBAL DEFAULT UND _ZN7android15TrackPlayerB
53:   FUNC GLOBAL DEFAULT UND _ZN7android16SortedVector
54:   FUNC GLOBAL DEFAULT UND _ZN7android16SortedVector
55:   FUNC GLOBAL DEFAULT UND _ZN7android16SortedVector
56:   FUNC GLOBAL DEFAULT UND _ZN7android16SortedVector
57:   FUNC GLOBAL DEFAULT UND _ZN7android7String8D1Ev
58:   FUNC GLOBAL DEFAULT UND _ZNK7android16SortedVecto
59:   FUNC GLOBAL DEFAULT UND _ZdlPv
60:   FUNC GLOBAL DEFAULT UND _Znwj
61:   FUNC GLOBAL DEFAULT UND __open_2@LIBC (2)
62:   FUNC GLOBAL DEFAULT UND close@LIBC (2)
63:   FUNC GLOBAL DEFAULT UND cos@LIBC (4)
64:   FUNC GLOBAL DEFAULT UND fstat@LIBC (2)
65:   FUNC GLOBAL DEFAULT UND memcmp@LIBC (2)
66:   FUNC GLOBAL DEFAULT UND pow@LIBC (4)
67:   FUNC GLOBAL DEFAULT UND sin@LIBC (4)
68:   FUNC GLOBAL DEFAULT UND strcasecmp@LIBC (2)
69:   FUNC GLOBAL DEFAULT UND strcmp@LIBC (2)
70:   FUNC GLOBAL DEFAULT UND strncasecmp@LIBC (2)
71:   FUNC GLOBAL DEFAULT UND _ZN7android11AudioRecord1
72:   FUNC GLOBAL DEFAULT UND _ZN7android11AudioRecord2
73:   FUNC GLOBAL DEFAULT UND _ZN7android11AudioRecord4
74:   FUNC GLOBAL DEFAULT UND _ZN7android11AudioRecord5
75:   FUNC GLOBAL DEFAULT UND _ZN7android11AudioRecordC
76:   FUNC GLOBAL DEFAULT UND _ZN7android8String16C1Ev
77:   FUNC GLOBAL DEFAULT UND _ZN7android8String16D1Ev
78:   FUNC GLOBAL DEFAULT UND _ZNK7android11AudioRecord
79:   FUNC GLOBAL DEFAULT UND _ZN7android10VectorImpl3a
80:   FUNC GLOBAL DEFAULT UND _ZNK7android7Surface25get
81:   FUNC GLOBAL DEFAULT UND _ZN7android10VectorImplC2
82:   FUNC GLOBAL DEFAULT UND _ZN7android10VectorImplD2
83:   FUNC GLOBAL DEFAULT UND _ZN7android14MediaCodecLi
84:   FUNC GLOBAL DEFAULT UND _ZN7android14MediaCodecLi
85:   OBJECT GLOBAL DEFAULT UND _ZN7android24MEDIA_MIMETY
86:   OBJECT GLOBAL DEFAULT UND _ZN7android24MEDIA_MIMETY
87:   OBJECT GLOBAL DEFAULT UND _ZN7android24MEDIA_MIMETY
88:   OBJECT GLOBAL DEFAULT UND _ZN7android25MEDIA_MIMETY
89:   OBJECT GLOBAL DEFAULT UND _ZN7android26MEDIA_MIMETY
90:   OBJECT GLOBAL DEFAULT UND _ZN7android26MEDIA_MIMETY
91:   FUNC GLOBAL DEFAULT UND _ZN7android7AStringC1EPKc
92:   FUNC GLOBAL DEFAULT UND _ZN7android7AStringD1Ev
93:   FUNC GLOBAL DEFAULT UND _ZNK7android14MediaCodecI
94:   FUNC GLOBAL DEFAULT UND _ZNK7android14MediaCodecI
95:   FUNC GLOBAL DEFAULT UND _ZNK7android14MediaCodecI
96:   FUNC GLOBAL DEFAULT UND _ZN7android7AString6appen
97:   FUNC GLOBAL DEFAULT UND _ZN7android7AString6appen
98:   FUNC GLOBAL DEFAULT UND _ZN7android7RefBase10onFi
99:   FUNC GLOBAL DEFAULT UND _ZN7android7RefBase13onLa
100:   FUNC GLOBAL DEFAULT UND _ZN7android7RefBase15onLa
101:   FUNC GLOBAL DEFAULT UND _ZN7android7RefBase20onIn
102:   FUNC GLOBAL DEFAULT UND _ZN7android7RefBaseC2Ev
103:   FUNC GLOBAL DEFAULT UND _ZN7android7RefBaseD2Ev
104:   FUNC GLOBAL DEFAULT UND _ZN7android7String8C1EPKc
105:   FUNC GLOBAL DEFAULT UND _ZN7android7String8C1Ev
106:   FUNC GLOBAL DEFAULT UND _ZNK7android7AString5c_st
107:   FUNC GLOBAL DEFAULT UND __cxa_pure_virtual
108:   FUNC GLOBAL DEFAULT UND __vsnprintf_chk@LIBC (2)
109:   FUNC GLOBAL DEFAULT UND pthread_condattr_destroy@LIBC (2)
110:   FUNC GLOBAL DEFAULT UND pthread_condattr_init@LIBC (2)
111:   FUNC GLOBAL DEFAULT UND pthread_condattr_setclock@LIBC (2)
112:   FUNC GLOBAL DEFAULT UND _ZN7android20SimpleDecodi
113:   FUNC GLOBAL DEFAULT UND _ZNK7android12MetaDataBas
114:   FUNC GLOBAL DEFAULT UND _ZN7android10FileSourceC1
115:   FUNC GLOBAL DEFAULT UND _ZN7android10MediaTrack11
116:   FUNC GLOBAL DEFAULT UND _ZN7android17DataSourceFa
117:   FUNC GLOBAL DEFAULT UND _ZN7android21MediaExtract
118:   FUNC GLOBAL DEFAULT UND _ZN7android22checkCalling
119:   OBJECT GLOBAL DEFAULT UND _ZN7android24MEDIA_MIMETY
120:   OBJECT GLOBAL DEFAULT UND _ZN7android27MEDIA_MIMETY
121:   OBJECT GLOBAL DEFAULT UND _ZN7android27MEDIA_MIMETY
122:   FUNC GLOBAL DEFAULT UND _ZN7android33CreateMediaS
123:   FUNC GLOBAL DEFAULT UND _ZN7android7AString6appen
124:   FUNC GLOBAL DEFAULT UND _ZN7android8AMessage4post
125:   FUNC GLOBAL DEFAULT UND _ZN7android8AMessageC1EjR
126:   FUNC GLOBAL DEFAULT UND _ZN7android8String16C1EPK
127:   FUNC GLOBAL DEFAULT UND _ZNK7android12MetaDataBas
128:   FUNC GLOBAL DEFAULT UND _ZNK7android12MetaDataBas
129:   FUNC GLOBAL DEFAULT UND _ZNK7android15NuCachedSou
130:   FUNC GLOBAL DEFAULT UND _ZNK7android8AMessage4wha
131:   FUNC GLOBAL DEFAULT UND _ZNK7android8AMessage9fin
132:   FUNC GLOBAL DEFAULT UND _ZNK7android8AMessage9fin
133:   FUNC GLOBAL DEFAULT UND dup@LIBC (2)
134:   FUNC GLOBAL DEFAULT UND strncpy@LIBC (2)
135:   FUNC GLOBAL DEFAULT UND _ZN7android10IInterfaceD0
136:   FUNC GLOBAL DEFAULT UND _ZN7android10IInterfaceD1
137:   OBJECT GLOBAL DEFAULT UND _ZN7android18IMediaPlayer
138:   FUNC GLOBAL DEFAULT UND _ZN7android18IMediaPlayer
139:   FUNC GLOBAL DEFAULT UND _ZN7android18IMediaPlayer
140:   FUNC GLOBAL DEFAULT UND _ZN7android18IMediaPlayer
141:   FUNC GLOBAL DEFAULT UND _ZN7android18IMediaPlayer
142:   FUNC GLOBAL DEFAULT UND _ZN7android19BnMediaPlaye
143:   FUNC GLOBAL DEFAULT UND _ZN7android19IMediaDeathN
144:   FUNC GLOBAL DEFAULT UND _ZN7android19IMediaDeathN
145:   FUNC GLOBAL DEFAULT UND _ZN7android6Parcel10write
146:   FUNC GLOBAL DEFAULT UND _ZN7android6ParcelC1Ev
147:   FUNC GLOBAL DEFAULT UND _ZN7android6ParcelD1Ev
148:   FUNC GLOBAL DEFAULT UND _ZN7android7BBinder10onTr
149:   FUNC GLOBAL DEFAULT UND _ZN7android7BBinder10ping
150:   FUNC GLOBAL DEFAULT UND _ZN7android7BBinder11link
151:   FUNC GLOBAL DEFAULT UND _ZN7android7BBinder11loca
152:   FUNC GLOBAL DEFAULT UND _ZN7android7BBinder12atta
153:   FUNC GLOBAL DEFAULT UND _ZN7android7BBinder12deta
154:   FUNC GLOBAL DEFAULT UND _ZN7android7BBinder13unli
155:   FUNC GLOBAL DEFAULT UND _ZN7android7BBinder4dumpE
156:   FUNC GLOBAL DEFAULT UND _ZN7android7BBinder8trans
157:   FUNC GLOBAL DEFAULT UND _ZN7android7BBinderC2Ev
158:   FUNC GLOBAL DEFAULT UND _ZN7android7BBinderD0Ev
159:   FUNC GLOBAL DEFAULT UND _ZN7android7BBinderD1Ev
160:   FUNC GLOBAL DEFAULT UND _ZN7android7BBinderD2Ev
161:   FUNC GLOBAL DEFAULT UND _ZN7android7IBinder11loca
162:   FUNC GLOBAL DEFAULT UND _ZN7android7IBinder12remo
163:   FUNC GLOBAL DEFAULT UND _ZN7android7IBinder19quer
164:   FUNC GLOBAL DEFAULT UND _ZN7android7IBinderD0Ev
165:   FUNC GLOBAL DEFAULT UND _ZN7android7IBinderD1Ev
166:   FUNC GLOBAL DEFAULT UND _ZN7android7RefBase12weak
167:   FUNC GLOBAL DEFAULT UND _ZN7android7RefBase12weak
168:   FUNC GLOBAL DEFAULT UND _ZNK7android18IMediaPlaye
169:   FUNC GLOBAL DEFAULT UND _ZNK7android6Parcel9readI
170:   FUNC GLOBAL DEFAULT UND _ZNK7android7BBinder10fin
171:   FUNC GLOBAL DEFAULT UND _ZNK7android7BBinder13isB
172:   FUNC GLOBAL DEFAULT UND _ZNK7android7BBinder22get
173:   FUNC GLOBAL DEFAULT UND _ZNK7android7IBinder13che
174:   FUNC GLOBAL DEFAULT UND _ZNK7android7RefBase10cre
175:   FUNC GLOBAL DEFAULT UND _ZNK7android8AMessage9fin
176:   FUNC GLOBAL DEFAULT UND _ZNK7android8String164siz
177:   FUNC GLOBAL DEFAULT UND _ZThn4_N7android19BnMedia
178:   FUNC GLOBAL DEFAULT UND _ZTv0_n12_N7android10IInt
179:   FUNC GLOBAL DEFAULT UND _ZTv0_n12_N7android10IInt
180:   FUNC GLOBAL DEFAULT UND _ZTv0_n12_N7android18IMed
181:   FUNC GLOBAL DEFAULT UND _ZTv0_n12_N7android18IMed
182:   FUNC GLOBAL DEFAULT UND _ZTv0_n12_N7android7BBind
183:   FUNC GLOBAL DEFAULT UND _ZTv0_n12_N7android7BBind
184:   FUNC GLOBAL DEFAULT UND _ZTv0_n12_N7android7IBind
185:   FUNC GLOBAL DEFAULT UND _ZTv0_n12_N7android7IBind
186:   FUNC GLOBAL DEFAULT UND __strlen_chk@LIBC (2)
187:   FUNC GLOBAL DEFAULT UND strzcmp16
188:   FUNC GLOBAL DEFAULT UND _ZN7android7ALooper15regi
189:   FUNC GLOBAL DEFAULT UND _ZN7android7ALooper17unre
190:   FUNC GLOBAL DEFAULT UND _ZN7android7ALooper4stopE
191:   FUNC GLOBAL DEFAULT UND _ZN7android7ALooper5start
192:   FUNC GLOBAL DEFAULT UND _ZN7android7ALooperC1Ev
193:   FUNC GLOBAL DEFAULT UND _ZN7android8AMessage7setR
194:   FUNC GLOBAL DEFAULT UND _ZN7android8AMessage8setF
195:   FUNC GLOBAL DEFAULT UND _ZN7android8AMessage8setI
196:   FUNC GLOBAL DEFAULT UND _ZN7android8AMessage8setI
197:   FUNC GLOBAL DEFAULT UND _ZNK7android8AMessage8fin
198:   FUNC GLOBAL DEFAULT UND __errno@LIBC (2)
199:   FUNC GLOBAL DEFAULT UND strerror@LIBC (2)
200:   FUNC GLOBAL DEFAULT UND _ZN7android19IMediaDeathN
201:   FUNC GLOBAL DEFAULT UND _ZN7android37CreateHTTPSe
202:   FUNC GLOBAL DEFAULT UND _ZN7android10VectorImplaS
203:   OBJECT GLOBAL DEFAULT UND _ZN7android13IStreamSourc
204:   FUNC GLOBAL DEFAULT UND _ZN7android13IStreamSourc
205:   FUNC GLOBAL DEFAULT UND _ZN7android13IStreamSourc
206:   FUNC GLOBAL DEFAULT UND _ZN7android13IStreamSourc
207:   FUNC GLOBAL DEFAULT UND _ZN7android13IStreamSourc
208:   FUNC GLOBAL DEFAULT UND _ZN7android14BnStreamSour
209:   FUNC GLOBAL DEFAULT UND _ZN7android14IPCThreadSta
210:   FUNC GLOBAL DEFAULT UND _ZN7android14IPCThreadSta
211:   OBJECT GLOBAL DEFAULT UND _ZN7android24kATSParserKe
212:   OBJECT GLOBAL DEFAULT UND _ZN7android36kIStreamList
213:   FUNC GLOBAL DEFAULT UND _ZN7android7AString6appen
214:   FUNC GLOBAL DEFAULT UND _ZN7android7RefBase10rena
215:   FUNC GLOBAL DEFAULT UND _ZN7android7RefBase11rena
216:   FUNC GLOBAL DEFAULT UND _ZN7android8AMessageC1Ev
217:   FUNC GLOBAL DEFAULT UND _ZNK7android13IStreamSour
218:   FUNC GLOBAL DEFAULT UND _ZNK7android7IMemory4size
219:   FUNC GLOBAL DEFAULT UND _ZNK7android7IMemory7poin
220:   FUNC GLOBAL DEFAULT UND _ZThn4_N7android14BnStrea
221:   FUNC GLOBAL DEFAULT UND _ZTv0_n12_N7android13IStr
222:   FUNC GLOBAL DEFAULT UND _ZTv0_n12_N7android13IStr
223:   FUNC GLOBAL DEFAULT UND _ZdaPv
224:   FUNC GLOBAL DEFAULT UND _Znaj
225:   FUNC GLOBAL DEFAULT UND _ZN7android10AudioTrack15
226:   FUNC GLOBAL DEFAULT UND _ZN7android10AudioTrack21
227:   FUNC GLOBAL DEFAULT UND _ZN7android11AudioEffect1
228:   FUNC GLOBAL DEFAULT UND _ZN7android11AudioEffect1
229:   FUNC GLOBAL DEFAULT UND _ZN7android11AudioEffectC
230:   FUNC GLOBAL DEFAULT UND _ZNK7android11AudioEffect
231:   FUNC GLOBAL DEFAULT UND _ZNK7android11AudioEffect
232:   FUNC GLOBAL DEFAULT UND __memcpy_chk@LIBC (2)
233:   FUNC GLOBAL DEFAULT UND strcpy@LIBC (2)
234:   FUNC GLOBAL DEFAULT UND _ZN7android11MediaBufferC
235:   FUNC GLOBAL DEFAULT UND _ZN7android11MediaSourceC
236:   FUNC GLOBAL DEFAULT UND _ZN7android11MediaSourceD
237:   FUNC GLOBAL DEFAULT UND _ZN7android11MediaSourceD
238:   FUNC GLOBAL DEFAULT UND _ZN7android11MediaSourceD
239:   FUNC GLOBAL DEFAULT UND _ZN7android12MetaDataBase
240:   FUNC GLOBAL DEFAULT UND _ZN7android12MetaDataBase
241:   FUNC GLOBAL DEFAULT UND _ZN7android16MediaBufferG
242:   FUNC GLOBAL DEFAULT UND _ZN7android16MediaBufferG
243:   FUNC GLOBAL DEFAULT UND _ZN7android16MediaBufferG
244:   FUNC GLOBAL DEFAULT UND _ZN7android8MetaDataC1Ev
245:   FUNC GLOBAL DEFAULT UND _ZNK7android10MediaTrack1
246:   FUNC GLOBAL DEFAULT UND _ZTv0_n12_N7android11Medi
247:   FUNC GLOBAL DEFAULT UND _ZTv0_n12_N7android11Medi
248:   FUNC GLOBAL DEFAULT UND _ZN7android13IAudioManage
249:   FUNC GLOBAL DEFAULT UND _ZN7android21defaultServi
250:   OBJECT GLOBAL DEFAULT UND gClsAudioRecordRoutingPro
251:   OBJECT GLOBAL DEFAULT UND gClsAudioTrackRoutingProx
252:   OBJECT GLOBAL DEFAULT UND gMidAudioRecordRoutingPro
253:   OBJECT GLOBAL DEFAULT UND gMidAudioRecordRoutingPro
254:   OBJECT GLOBAL DEFAULT UND gMidAudioTrackRoutingProx
255:   OBJECT GLOBAL DEFAULT UND gMidAudioTrackRoutingProx
256:   FUNC GLOBAL DEFAULT UND __strncpy_chk2@LIBC (2)
257:   FUNC GLOBAL DEFAULT UND usleep@LIBC (2)
258:   FUNC GLOBAL DEFAULT UND _ZN7android12MetaDataBase
259:   FUNC GLOBAL DEFAULT UND _ZN7android12MetaDataBase
260:   OBJECT GLOBAL DEFAULT UND _ZN7android24MEDIA_MIMETY
261:   FUNC GLOBAL DEFAULT UND memcpy@LIBC (2)
262:   FUNC GLOBAL DEFAULT UND memmove@LIBC (2)
263:   FUNC GLOBAL DEFAULT UND memset@LIBC (2)
264:   OBJECT GLOBAL DEFAULT 12 SL_IID_array
265:   FUNC GLOBAL DEFAULT 14 _Z8__assertPKciS0_
266:   FUNC GLOBAL DEFAULT 14 _Z9__assert2PKciS0_S0_
267:   FUNC GLOBAL DEFAULT 14 _Z15objectIDtoClassj
268:   FUNC GLOBAL DEFAULT 14 _Z14liCreateEnginePPKPK12
269:   FUNC GLOBAL DEFAULT 14 _Z26liQuerySupportedInter
270:   FUNC GLOBAL DEFAULT 14 _Z29liQueryNumSupportedIn
