 0x000000000000000e (SONAME)             Library soname: [libnblog.so]
  
Symbol   contains 603 entries:
Num:   Type Bind Vis Ndx Name
0:   NOTYPE LOCAL DEFAULT UND
1:   FUNC GLOBAL DEFAULT UND __cxa_finalize@LIBC (2)
2:   FUNC GLOBAL DEFAULT UND __cxa_atexit@LIBC (2)
3:   FUNC GLOBAL DEFAULT UND _ZN23audio_utils_fifo_wri
4:   FUNC GLOBAL DEFAULT UND _ZdlPv
5:   FUNC GLOBAL DEFAULT UND _Znwm
6:   FUNC GLOBAL DEFAULT UND __android_log_print@LIBLOG (3)
7:   FUNC GLOBAL DEFAULT UND __stack_chk_fail@LIBC (2)
8:   FUNC GLOBAL DEFAULT UND memcpy@LIBC (2)
9:   FUNC GLOBAL DEFAULT UND _ZN16audio_utils_fifoC1Ej
10:   FUNC GLOBAL DEFAULT UND _ZN16audio_utils_fifoD1Ev
11:   FUNC GLOBAL DEFAULT UND _ZN23audio_utils_fifo_wri
12:   FUNC GLOBAL DEFAULT UND _ZN7android6Thread10ready
13:   FUNC GLOBAL DEFAULT UND _ZN7android6Thread11reque
14:   FUNC GLOBAL DEFAULT UND _ZN7android6Thread3runEPK
15:   FUNC GLOBAL DEFAULT UND _ZN7android6Thread4joinEv
16:   FUNC GLOBAL DEFAULT UND _ZN7android6ThreadC2Eb
17:   FUNC GLOBAL DEFAULT UND _ZN7android6ThreadD0Ev
18:   FUNC GLOBAL DEFAULT UND _ZN7android6ThreadD1Ev
19:   FUNC GLOBAL DEFAULT UND _ZN7android6ThreadD2Ev
20:   FUNC GLOBAL DEFAULT UND _ZN7android7RefBase10onFi
21:   FUNC GLOBAL DEFAULT UND _ZN7android7RefBase13onLa
22:   FUNC GLOBAL DEFAULT UND _ZN7android7RefBase15onLa
23:   FUNC GLOBAL DEFAULT UND _ZN7android7RefBase20onIn
24:   FUNC GLOBAL DEFAULT UND _ZN7android7RefBaseC2Ev
25:   FUNC GLOBAL DEFAULT UND _ZN7android7RefBaseD2Ev
26:   FUNC GLOBAL DEFAULT UND _ZN7android7String812appe
27:   FUNC GLOBAL DEFAULT UND _ZN7android8String16C1EPK
28:   FUNC GLOBAL DEFAULT UND _ZN7android8String16D1Ev
29:   FUNC GLOBAL DEFAULT UND _ZNK7android7RefBase9decS
30:   FUNC GLOBAL DEFAULT UND _ZNK7android7RefBase9incS
31:   FUNC GLOBAL DEFAULT UND _ZNK7android8String164siz
32:   FUNC GLOBAL DEFAULT UND _ZNKSt3__120__vector_base
33:   FUNC GLOBAL DEFAULT UND _ZTv0_n24_N7android6Threa
34:   FUNC GLOBAL DEFAULT UND _ZTv0_n24_N7android6Threa
35:   FUNC GLOBAL DEFAULT UND _ZdaPv
36:   FUNC GLOBAL DEFAULT UND __cxa_pure_virtual
37:   FUNC GLOBAL DEFAULT UND abort@LIBC (2)
38:   FUNC GLOBAL DEFAULT UND memmove@LIBC (2)
39:   FUNC GLOBAL DEFAULT UND pthread_cond_destroy@LIBC (2)
40:   FUNC GLOBAL DEFAULT UND pthread_cond_init@LIBC (2)
41:   FUNC GLOBAL DEFAULT UND pthread_cond_signal@LIBC (2)
42:   FUNC GLOBAL DEFAULT UND pthread_cond_wait@LIBC (2)
43:   FUNC GLOBAL DEFAULT UND pthread_condattr_destroy@LIBC (2)
44:   FUNC GLOBAL DEFAULT UND pthread_condattr_init@LIBC (2)
45:   FUNC GLOBAL DEFAULT UND pthread_condattr_setclock@LIBC (2)
46:   FUNC GLOBAL DEFAULT UND pthread_mutex_destroy@LIBC (2)
47:   FUNC GLOBAL DEFAULT UND pthread_mutex_init@LIBC (2)
48:   FUNC GLOBAL DEFAULT UND pthread_mutex_lock@LIBC (2)
49:   FUNC GLOBAL DEFAULT UND pthread_mutex_unlock@LIBC (2)
50:   FUNC GLOBAL DEFAULT UND strzcmp16
51:   FUNC GLOBAL DEFAULT UND systemTime
52:   FUNC GLOBAL DEFAULT UND _ZN7android7String85clear
53:   FUNC GLOBAL DEFAULT UND _ZN7android7String8C1Ev
54:   FUNC GLOBAL DEFAULT UND _ZN7android7String8D1Ev
55:   FUNC GLOBAL DEFAULT UND _ZNK7android7String86leng
56:   FUNC GLOBAL DEFAULT UND _ZNKSt3__121__basic_strin
57:   FUNC GLOBAL DEFAULT UND _ZNKSt3__16locale9use_fac
58:   FUNC GLOBAL DEFAULT UND _ZNKSt3__18ios_base6getlo
59:   FUNC GLOBAL DEFAULT UND _ZNSt3__112basic_stringIc
60:   FUNC GLOBAL DEFAULT UND _ZNSt3__112basic_stringIc
61:   FUNC GLOBAL DEFAULT UND _ZNSt3__112basic_stringIc
62:   FUNC GLOBAL DEFAULT UND _ZNSt3__113basic_istreamI
63:   FUNC GLOBAL DEFAULT UND _ZNSt3__113basic_istreamI
64:   FUNC GLOBAL DEFAULT UND _ZNSt3__113basic_ostreamI
65:   FUNC GLOBAL DEFAULT UND _ZNSt3__113basic_ostreamI
66:   FUNC GLOBAL DEFAULT UND _ZNSt3__113basic_ostreamI
67:   FUNC GLOBAL DEFAULT UND _ZNSt3__113basic_ostreamI
68:   FUNC GLOBAL DEFAULT UND _ZNSt3__113basic_ostreamI
69:   FUNC GLOBAL DEFAULT UND _ZNSt3__113basic_ostreamI
70:   FUNC GLOBAL DEFAULT UND _ZNSt3__113basic_ostreamI
71:   FUNC GLOBAL DEFAULT UND _ZNSt3__114basic_iostream
72:   FUNC GLOBAL DEFAULT UND _ZNSt3__114basic_iostream
73:   FUNC GLOBAL DEFAULT UND _ZNSt3__114basic_iostream
74:   FUNC GLOBAL DEFAULT UND _ZNSt3__115basic_streambu
75:   FUNC GLOBAL DEFAULT UND _ZNSt3__115basic_streambu
76:   FUNC GLOBAL DEFAULT UND _ZNSt3__115basic_streambu
77:   FUNC GLOBAL DEFAULT UND _ZNSt3__115basic_streambu
78:   FUNC GLOBAL DEFAULT UND _ZNSt3__115basic_streambu
79:   FUNC GLOBAL DEFAULT UND _ZNSt3__115basic_streambu
80:   FUNC GLOBAL DEFAULT UND _ZNSt3__115basic_streambu
81:   FUNC GLOBAL DEFAULT UND _ZNSt3__115basic_streambu
82:   FUNC GLOBAL DEFAULT UND _ZNSt3__115basic_streambu
83:   OBJECT GLOBAL DEFAULT UND _ZNSt3__15ctypeIcE2idE
84:   FUNC GLOBAL DEFAULT UND _ZNSt3__16localeD1Ev
85:   FUNC GLOBAL DEFAULT UND _ZNSt3__18ios_base4initEP
86:   FUNC GLOBAL DEFAULT UND _ZNSt3__18ios_base5clearE
87:   FUNC GLOBAL DEFAULT UND _ZNSt3__19basic_iosIcNS_1
88:   FUNC GLOBAL DEFAULT UND _ZThn16_NSt3__114basic_io
89:   FUNC GLOBAL DEFAULT UND _ZThn16_NSt3__114basic_io
90:   FUNC GLOBAL DEFAULT UND _ZTv0_n24_NSt3__113basic_
91:   FUNC GLOBAL DEFAULT UND _ZTv0_n24_NSt3__113basic_
92:   FUNC GLOBAL DEFAULT UND _ZTv0_n24_NSt3__113basic_
93:   FUNC GLOBAL DEFAULT UND _ZTv0_n24_NSt3__113basic_
94:   FUNC GLOBAL DEFAULT UND _ZTv0_n24_NSt3__114basic_
95:   FUNC GLOBAL DEFAULT UND _ZTv0_n24_NSt3__114basic_
96:   FUNC GLOBAL DEFAULT UND __cxa_guard_acquire
97:   FUNC GLOBAL DEFAULT UND __cxa_guard_release
98:   FUNC GLOBAL DEFAULT UND __vsnprintf_chk@LIBC (2)
99:   FUNC GLOBAL DEFAULT UND dprintf@LIBC (2)
100:   FUNC GLOBAL DEFAULT UND log@LIBC (4)
101:   FUNC GLOBAL DEFAULT UND log2@LIBC (4)
102:   FUNC GLOBAL DEFAULT UND lround@LIBC (4)
103:   FUNC GLOBAL DEFAULT UND memset@LIBC (2)
104:   FUNC GLOBAL DEFAULT UND strlen@LIBC (2)
105:   FUNC GLOBAL DEFAULT UND _ZN23audio_utils_fifo_rea
106:   FUNC GLOBAL DEFAULT UND _ZN23audio_utils_fifo_rea
107:   FUNC GLOBAL DEFAULT UND _ZN7android14sp_report_ra
108:   FUNC GLOBAL DEFAULT UND _ZN7android7String86appen
109:   FUNC GLOBAL DEFAULT UND _ZN7android7String86appen
110:   FUNC GLOBAL DEFAULT UND _ZNK7android7IMemory7poin
111:   FUNC GLOBAL DEFAULT UND _ZNSt3__112__next_primeEm
112:   FUNC GLOBAL DEFAULT UND _ZNSt3__112basic_stringIc
113:   FUNC GLOBAL DEFAULT UND _Znam
114:   FUNC GLOBAL DEFAULT UND _ZN7android18MediaAnalyti
115:   FUNC GLOBAL DEFAULT UND _ZN7android18MediaAnalyti
116:   FUNC GLOBAL DEFAULT UND _ZN7android18MediaAnalyti
117:   FUNC GLOBAL DEFAULT UND _ZN7android18MediaAnalyti
118:   FUNC GLOBAL DEFAULT UND _ZN7android18MediaAnalyti
119:   FUNC GLOBAL DEFAULT UND _ZN7android18MediaAnalyti
120:   FUNC GLOBAL DEFAULT UND _ZNK7android18MediaAnalyt
121:   FUNC GLOBAL DEFAULT UND _ZNKSt3__16locale9has_fac
122:   FUNC GLOBAL DEFAULT UND _ZNSt3__113basic_ostreamI
123:   FUNC GLOBAL DEFAULT UND _ZNSt3__113basic_ostreamI
124:   FUNC GLOBAL DEFAULT UND _ZNSt3__113basic_ostreamI
125:   FUNC GLOBAL DEFAULT UND _ZNSt3__16localeC1ERKS0_
126:   OBJECT GLOBAL DEFAULT UND _ZNSt3__17codecvtIcc9mbst
127:   FUNC GLOBAL DEFAULT UND __write_chk@LIBC_N (5)
128:   FUNC GLOBAL DEFAULT UND fclose@LIBC (2)
129:   FUNC GLOBAL DEFAULT UND fflush@LIBC (2)
130:   FUNC GLOBAL DEFAULT UND fopen@LIBC (2)
131:   FUNC GLOBAL DEFAULT UND fread@LIBC (2)
132:   FUNC GLOBAL DEFAULT UND fseek@LIBC (2)
133:   FUNC GLOBAL DEFAULT UND fseeko@LIBC (2)
134:   FUNC GLOBAL DEFAULT UND ftello@LIBC (2)
135:   FUNC GLOBAL DEFAULT UND fwrite@LIBC (2)
136:   FUNC GLOBAL DEFAULT UND gettimeofday@LIBC (2)
137:   FUNC GLOBAL DEFAULT UND localtime_r@LIBC (2)
138:   FUNC GLOBAL DEFAULT UND strftime@LIBC (2)
139:   FUNC GLOBAL DEFAULT UND write@LIBC (2)
140:   FUNC GLOBAL DEFAULT UND roundup
141:   FUNC GLOBAL DEFAULT UND __android_log_assert@LIBLOG (3)
142:   FUNC GLOBAL DEFAULT UND __strlen_chk@LIBC (2)
143:   FUNC GLOBAL DEFAULT UND clock_gettime@LIBC (2)
144:   FUNC GLOBAL DEFAULT UND getpid@LIBC (2)
145:   FUNC GLOBAL DEFAULT UND prctl@LIBC (2)
146:   FUNC GLOBAL DEFAULT UND _ZNKSt3__112basic_stringI
147:   FUNC GLOBAL DEFAULT UND __strchr_chk@LIBC (2)
148:   FUNC GLOBAL DEFAULT UND exit@LIBC (2)
149:   FUNC GLOBAL DEFAULT UND free@LIBC (2)
150:   FUNC GLOBAL DEFAULT UND malloc@LIBC (2)
151:   FUNC GLOBAL DEFAULT UND modf@LIBC (4)
152:   FUNC GLOBAL DEFAULT UND strcmp@LIBC (2)
153:   FUNC GLOBAL DEFAULT UND _ZNSt3__112basic_stringIc
154:   FUNC GLOBAL DEFAULT UND _ZNSt3__112basic_stringIc
155:   FUNC GLOBAL DEFAULT UND _ZNSt3__112basic_stringIc
156:   FUNC GLOBAL DEFAULT UND _ZNSt3__112basic_stringIc
157:   FUNC GLOBAL DEFAULT UND _ZNSt3__112basic_stringIc
158:   FUNC GLOBAL DEFAULT UND __memcpy_chk@LIBC (2)
159:   FUNC GLOBAL DEFAULT UND strpbrk@LIBC (2)
160:   FUNC GLOBAL DEFAULT 14 _ZN7android17ReportPerfor
161:   FUNC WEAK DEFAULT 14 _ZNSt3__16__treeINS_12__v
162:   FUNC GLOBAL DEFAULT 14 _ZN7android5NBLog12Locked
163:   FUNC GLOBAL DEFAULT 14 _ZN7android5NBLog6Writer1
164:   FUNC GLOBAL DEFAULT 14 _ZNK4Json5Value12asLarges
165:   FUNC WEAK DEFAULT 14 _ZNSt3__15dequeINS_4pairI
166:   FUNC WEAK DEFAULT 14 _ZNSt3__15dequeIlNS_9allo
167:   FUNC WEAK DEFAULT 14 _ZNSt3__113basic_filebufI
168:   OBJECT GLOBAL DEFAULT 18 _ZTVN7android5NBLog6Write
169:   FUNC GLOBAL DEFAULT 14 _ZN4Json12StyledWriter11w
170:   FUNC GLOBAL DEFAULT 14 _ZNK7android5NBLog14Histo
171:   FUNC GLOBAL DEFAULT 14 _ZN7android5NBLoggtERKNS0
172:   FUNC GLOBAL DEFAULT 14 _ZNK7android5NBLog13Entry
173:   FUNC GLOBAL DEFAULT 14 _ZN7android5NBLog11MergeT
174:   FUNC WEAK DEFAULT 14 _ZNSt3__113basic_filebufI
175:   FUNC GLOBAL DEFAULT 14 _ZNK4Json5Value9asCString
176:   FUNC GLOBAL DEFAULT 14 _ZN7android5NBLog6Reader1
177:   FUNC GLOBAL DEFAULT 14 _ZN4Json12StyledWriter18h
178:   FUNC GLOBAL DEFAULT 14 _ZNK7android17ReportPerfo
179:   FUNC WEAK DEFAULT 14 _ZNSt3__114__split_buffer
180:   FUNC GLOBAL DEFAULT 14 _ZN4Json5Value8CZStringC1
181:   FUNC GLOBAL DEFAULT 14 _ZN4Json6WriterD2Ev
182:   FUNC GLOBAL DEFAULT 14 _ZN7android5NBLog13EntryI
183:   OBJECT GLOBAL DEFAULT 18 _ZTVN7android5NBLog14Hist
184:   FUNC GLOBAL DEFAULT 14 _ZN7android5NBLog11MergeT
185:   FUNC GLOBAL DEFAULT 14 _ZN4Json5Value6resizeEj
186:   FUNC GLOBAL DEFAULT 14 _ZN4Json10FastWriterC1Ev
187:   FUNC GLOBAL DEFAULT 14 _ZN4Json18StyledStreamWri
188:   FUNC WEAK DEFAULT 14 _ZNSt3__15dequeINS_4pairI
189:   FUNC GLOBAL DEFAULT 14 _ZN4Json5Value11CommentIn
190:   FUNC GLOBAL DEFAULT 14 _ZNK4Json5Value8isMemberE
191:   OBJECT GLOBAL DEFAULT 18 _ZTVN7android5NBLog6Reade
192:   FUNC GLOBAL DEFAULT 14 _ZN4Json4Path12addPathInA
193:   FUNC GLOBAL DEFAULT 14 _ZN4Json5ValueC1EPKcS2_
194:   FUNC GLOBAL DEFAULT 14 _ZN4Json12StyledWriter12n
195:   FUNC GLOBAL DEFAULT 14 _ZN7android5NBLog11MergeR
196:   FUNC GLOBAL DEFAULT 14 _ZN7android17ReportPerfor
197:   FUNC GLOBAL DEFAULT 14 _ZN7android5NBLog6Reader1
198:   FUNC WEAK DEFAULT 14 _ZNKSt3__115basic_stringb
199:   FUNC GLOBAL DEFAULT 14 _ZN4Json5Value5beginEv
200:   FUNC GLOBAL DEFAULT 14 _ZN7android5NBLog13Abstra
201:   OBJECT WEAK DEFAULT 23 _ZZ26audio_utils_plot_his
202:   FUNC WEAK DEFAULT 14 _ZNSt3__16__treeINS_12__v
203:   FUNC WEAK DEFAULT 14 _ZNSt3__114__split_buffer
204:   OBJECT GLOBAL DEFAULT 18 _ZTVN7android5NBLog12Lock
205:   FUNC GLOBAL DEFAULT 14 _ZN4Json5ValueC2ERKNS_12S
206:   FUNC WEAK DEFAULT 14 _ZNSt3__113basic_filebufI
207:   FUNC GLOBAL DEFAULT 14 _ZN4Json5Value12removeMem
208:   OBJECT GLOBAL DEFAULT 18 _ZTVN4Json10FastWriterE
209:   FUNC GLOBAL DEFAULT 14 _ZN7android5NBLog13EntryI
210:   FUNC GLOBAL DEFAULT 14 _ZNK7android5NBLog11Forma
211:   FUNC GLOBAL DEFAULT 14 _ZNK7android5NBLog5Entry1
212:   FUNC GLOBAL DEFAULT 14 _ZN4Json13ValueIteratorC1
213:   FUNC GLOBAL DEFAULT 14 _ZN4Json5ValueD2Ev
214:   FUNC GLOBAL DEFAULT 14 _ZN4Json6WriterD1Ev
215:   FUNC GLOBAL DEFAULT 14 _ZN7android5NBLog13EntryI
216:   OBJECT GLOBAL DEFAULT 18 _ZN4Json8kNullRefE
217:   OBJECT WEAK DEFAULT 23 _ZGVZ26audio_utils_plot_h
218:   FUNC WEAK DEFAULT 14 _ZNSt3__15dequeINS_4pairI
219:   FUNC WEAK DEFAULT 14 _ZNSt3__15dequeIlNS_9allo
220:   FUNC GLOBAL DEFAULT 14 _ZN4Json17ValueIteratorBa
221:   FUNC GLOBAL DEFAULT 14 _ZN4Json5Value11CommentIn
222:   FUNC GLOBAL DEFAULT 14 _ZNK4Json5Value10isIntegr
223:   FUNC GLOBAL DEFAULT 14 _ZNK7android5NBLog14Histo
224:   FUNC WEAK DEFAULT 14 _ZNSt3__112__deque_baseIN
225:   FUNC GLOBAL DEFAULT 14 _ZN7android17ReportPerfor
226:   FUNC WEAK DEFAULT 14 _ZNSt3__113basic_filebufI
227:   FUNC GLOBAL DEFAULT 14 _ZN7android5NBLog11MergeT
228:   FUNC GLOBAL DEFAULT 14 _ZN7android5NBLog10DumpRe
229:   FUNC GLOBAL DEFAULT 14 _ZN4Json5Value14setOffset
230:   FUNC GLOBAL DEFAULT 14 _ZN4Json5ValueC2ERKNSt3__
231:   FUNC GLOBAL DEFAULT 14 _ZNK4Json5Value8asDoubleE
232:   FUNC GLOBAL DEFAULT 14 _ZN7android17ReportPerfor
233:   OBJECT GLOBAL DEFAULT 18 _ZTTN7android5NBLog11Merg
234:   OBJECT GLOBAL DEFAULT 18 _ZTVN7android5NBLog11Merg
235:   FUNC GLOBAL DEFAULT 14 _ZN7android17ReportPerfor
236:   FUNC GLOBAL DEFAULT 14 _ZN7android5NBLog6Writer9
237:   OBJECT GLOBAL DEFAULT 11 _ZN4Json5Value8maxInt64E
238:   FUNC GLOBAL DEFAULT 14 _ZNK4Json5Value5isIntEv
239:   FUNC GLOBAL DEFAULT 14 _ZNK4Json5Value6asBoolEv
240:   FUNC WEAK DEFAULT 14 _ZNSt3__115basic_stringbu
241:   FUNC GLOBAL DEFAULT 14 _ZN4Json5Value9initBasicE
242:   FUNC GLOBAL DEFAULT 14 _ZN4Json12StyledWriter10w
243:   FUNC GLOBAL DEFAULT 14 _ZN4Json12StyledWriter32w
244:   FUNC GLOBAL DEFAULT 14 _ZN7android5NBLog12Locked
245:   FUNC GLOBAL DEFAULT 14 _ZN7android5NBLog6Merger5
246:   FUNC GLOBAL DEFAULT 14 _ZNK7android17ReportPerfo
247:   FUNC WEAK DEFAULT 14 _ZNSt3__114__split_buffer
248:   FUNC WEAK DEFAULT 14 _ZNSt3__113basic_filebufI
249:   FUNC GLOBAL DEFAULT 14 _ZNK4Json5ValueltERKS0_
250:   FUNC GLOBAL DEFAULT 14 _ZNK7android5NBLog13Entry
251:   OBJECT WEAK DEFAULT 23 _ZZ26audio_utils_plot_his
252:   FUNC GLOBAL DEFAULT 14 _ZN7android5NBLog6Writer3
253:   FUNC GLOBAL DEFAULT 14 _ZNK4Json5Value8CZStringe
254:   OBJECT WEAK DEFAULT 18 _ZTVNSt3__119basic_ostrin
255:   FUNC GLOBAL DEFAULT 14 _ZN7android5NBLog11MergeT
256:   FUNC WEAK DEFAULT 14 _ZNSt3__115basic_stringbu
257:   FUNC GLOBAL DEFAULT 14 _ZNK4Json5Value12isValidI
258:   FUNC GLOBAL DEFAULT 14 _ZNK4Json5Value15isConver
259:   FUNC GLOBAL DEFAULT 14 _ZN7android5NBLog13EntryI
260:   FUNC GLOBAL DEFAULT 14 _ZN7android5NBLog11MergeR
261:   FUNC GLOBAL DEFAULT 14 _ZN7android5NBLog11MergeT
262:   FUNC GLOBAL DEFAULT 14 _ZN4Json5ValueD1Ev
263:   FUNC GLOBAL DEFAULT 14 _ZN4Json5Value4swapERS0_
264:   FUNC GLOBAL DEFAULT 14 _ZNK4Json5Value7isInt64Ev
265:   FUNC GLOBAL DEFAULT 14 _ZN4Json6WriterD0Ev
266:   FUNC GLOBAL DEFAULT 14 _ZNK7android5NBLog13Entry
267:   FUNC GLOBAL DEFAULT 14 _ZN7android5NBLog10DumpRe
268:   FUNC GLOBAL DEFAULT 14 _ZNK4Json17ValueIteratorB
269:   FUNC GLOBAL DEFAULT 14 _ZN4Json12StyledWriter15w
270:   FUNC GLOBAL DEFAULT 14 _ZN4Json5ValueC2Eb
271:   FUNC GLOBAL DEFAULT 14 _ZNK4Json5Value14toStyled
272:   FUNC GLOBAL DEFAULT 14 _ZNK4Json5Value5beginEv
273:   FUNC GLOBAL DEFAULT 14 _ZN4Json13valueToStringEb
274:   OBJECT WEAK DEFAULT 18 _ZTCNSt3__119basic_ostrin
275:   FUNC GLOBAL DEFAULT 14 _ZNK7android5NBLog14Histo
276:   FUNC GLOBAL DEFAULT 14 _ZN7android5NBLog6ReaderD
277:   FUNC GLOBAL DEFAULT 14 _ZN4Json12PathArgumentC2E
278:   FUNC GLOBAL DEFAULT 14 _ZN4Json5Value3endEv
279:   FUNC GLOBAL DEFAULT 14 _ZN7android5NBLog6WriterC
280:   FUNC GLOBAL DEFAULT 14 _ZN4Json13valueToStringEd
281:   FUNC GLOBAL DEFAULT 14 _ZN4Json5ValueC2Ed
282:   FUNC GLOBAL DEFAULT 14 _ZNK4Json5Value6isUIntEv
283:   FUNC GLOBAL DEFAULT 14 _ZNK4Json5Value8CZStringl
284:   FUNC GLOBAL DEFAULT 14 _ZNK4Json5ValueixERKNSt3_
285:   FUNC GLOBAL DEFAULT 14 _ZNK7android5NBLog13Entry
286:   FUNC GLOBAL DEFAULT 14 _ZN7android5NBLog6WriterD
287:   FUNC GLOBAL DEFAULT 14 _ZN4Json13ValueIteratorC2
288:   FUNC GLOBAL DEFAULT 14 _ZN4Json5Value10setCommen
289:   FUNC GLOBAL DEFAULT 14 _ZN4Json5Value8CZStringD2
290:   FUNC WEAK DEFAULT 14 _ZNSt3__16vectorIN7androi
291:   FUNC GLOBAL DEFAULT 14 _ZN4Json5ValueixEPKc
292:   FUNC GLOBAL DEFAULT 14 _ZNK4Json5Value7compareER
293:   FUNC GLOBAL DEFAULT 14 _ZN7android5NBLog11MergeR
294:   FUNC WEAK DEFAULT 14 _ZNSt3__114__split_buffer
295:   FUNC WEAK DEFAULT 14 _ZNSt3__16__treeINS_12__v
296:   FUNC WEAK DEFAULT 14 _ZNSt3__113basic_filebufI
297:   FUNC GLOBAL DEFAULT 14 _ZN7android5NBLog12Locked
298:   FUNC GLOBAL DEFAULT 14 _ZN7android5NBLog6Writer1
299:   FUNC WEAK DEFAULT 14 _ZNSt3__15dequeINS_4pairI
300:   FUNC GLOBAL DEFAULT 14 _ZN4Json5Value16resolveRe
301:   FUNC GLOBAL DEFAULT 14 _ZN4Json5ValueC2Ei
302:   FUNC GLOBAL DEFAULT 14 _ZN4Json13valueToStringEi
303:   FUNC GLOBAL DEFAULT 14 _ZN7android5NBLog11MergeR
304:   FUNC GLOBAL DEFAULT 14 _ZN4Json5ValueC2Ej
305:   FUNC GLOBAL DEFAULT 14 _ZN4Json13valueToStringEj
306:   FUNC GLOBAL DEFAULT 14 _ZN7android17ReportPerfor
307:   FUNC GLOBAL DEFAULT 14 _ZN7android5NBLog13EntryI
308:   FUNC GLOBAL DEFAULT 14 _ZN4Json5Value8CZStringC2
309:   FUNC GLOBAL DEFAULT 14 _ZNK4Json5Value6asUIntEv
310:   FUNC GLOBAL DEFAULT 14 _ZN4Json18StyledStreamWri
311:   FUNC GLOBAL DEFAULT 14 _ZN4Json5Value11CommentIn
312:   FUNC GLOBAL DEFAULT 14 _ZN4Json5ValueC1Eb
313:   OBJECT WEAK DEFAULT 18 _ZTTNSt3__118basic_string
314:   FUNC GLOBAL DEFAULT 14 _ZN7android5NBLog6ReaderD
315:   FUNC GLOBAL DEFAULT 14 _ZN4Json12PathArgumentC1E
316:   FUNC GLOBAL DEFAULT 14 _ZN4Json17ValueIteratorBa
317:   OBJECT GLOBAL DEFAULT 11 _ZN4Json5Value6maxIntE
318:   FUNC WEAK DEFAULT 14 _ZNSt3__113__tree_removeI
319:   FUNC GLOBAL DEFAULT 14 _ZN4Json12StyledWriter6in
320:   FUNC GLOBAL DEFAULT 14 _ZN4Json18StyledStreamWri
321:   FUNC GLOBAL DEFAULT 14 _ZN7android5NBLog6WriterC
322:   FUNC GLOBAL DEFAULT 14 _ZN4Json12PathArgumentC1E
323:   FUNC GLOBAL DEFAULT 14 _ZN4Json12PathArgumentC2E
324:   FUNC GLOBAL DEFAULT 14 _ZN4Json5ValueC1Ed
325:   FUNC GLOBAL DEFAULT 14 _ZN4JsonlsERNSt3__113basi
326:   FUNC WEAK DEFAULT 14 _ZNSt3__114__split_buffer
327:   FUNC WEAK DEFAULT 14 _ZNSt3__113basic_filebufI
328:   FUNC GLOBAL DEFAULT 14 _ZN7android5NBLog6WriterD
329:   FUNC GLOBAL DEFAULT 14 _ZN4Json13ValueIteratorC1
330:   FUNC GLOBAL DEFAULT 14 _ZN4Json5Value8CZStringD1
331:   FUNC GLOBAL DEFAULT 14 _ZNK4Json5Value8CZString5
332:   FUNC WEAK DEFAULT 14 _ZNSt3__15dequeINS_4pairI
333:   FUNC GLOBAL DEFAULT 14 _ZN4Json17ValueIteratorBa
334:   FUNC GLOBAL DEFAULT 14 _ZNK4Json5ValueeqERKS0_
335:   FUNC WEAK DEFAULT 14 _ZNSt3__16__treeINS_12__v
336:   FUNC GLOBAL DEFAULT 14 _ZNK7android5NBLog11Forma
337:   FUNC WEAK DEFAULT 14 _ZNSt3__114__split_buffer
338:   FUNC WEAK DEFAULT 14 _ZNSt3__114__split_buffer
339:   FUNC GLOBAL DEFAULT 14 _ZN4Json5Value14setOffset
340:   FUNC GLOBAL DEFAULT 14 _ZN4Json5ValueC2EPKcS2_
341:   FUNC GLOBAL DEFAULT 14 _ZNK4Json5Value8isDoubleE
342:   FUNC WEAK DEFAULT 14 _ZNSt3__125__lexicographi
343:   FUNC GLOBAL DEFAULT 14 _ZN4Json12StyledWriter5wr
344:   FUNC GLOBAL DEFAULT 14 _ZN4Json5ValueC1Ei
345:   OBJECT GLOBAL DEFAULT 11 _ZN4Json5Value9maxUInt64E
346:   FUNC GLOBAL DEFAULT 14 _ZN4Json18StyledStreamWri
347:   OBJECT WEAK DEFAULT 18 _ZTVNSt3__113basic_filebu
348:   FUNC GLOBAL DEFAULT 14 _ZN4Json5ValueC1Ej
349:   FUNC GLOBAL DEFAULT 14 _ZNK7android5NBLog11Forma
350:   FUNC GLOBAL DEFAULT 14 _ZN7android5NBLog6MergerC
351:   FUNC WEAK DEFAULT 14 _ZNSt3__114__split_buffer
352:   FUNC WEAK DEFAULT 14 _ZNSt3__15dequeINS_4pairI
353:   FUNC GLOBAL DEFAULT 14 _ZN4Json5Value10setCommen
354:   FUNC GLOBAL DEFAULT 14 _ZN4Json10FastWriter23ena
355:   FUNC GLOBAL DEFAULT 14 _ZN7android5NBLog13EntryI
356:   FUNC GLOBAL DEFAULT 14 _ZNK7android5NBLog11Forma
357:   FUNC GLOBAL DEFAULT 14 _ZNK4Json5Value14getOffse
358:   FUNC GLOBAL DEFAULT 14 _ZNK4Json5Value8CZString5
359:   FUNC GLOBAL DEFAULT 14 _ZN4Json12StyledWriter8un
360:   FUNC GLOBAL DEFAULT 14 _ZNK7android5NBLog13Entry
361:   OBJECT WEAK DEFAULT 18 _ZTVNSt3__118basic_string
362:   FUNC GLOBAL DEFAULT 14 _ZN4Json5Value11CommentIn
363:   FUNC GLOBAL DEFAULT 14 _ZN4Json13valueToStringEx
364:   FUNC GLOBAL DEFAULT 14 _ZN4Json5ValueC2Ex
365:   FUNC GLOBAL DEFAULT 14 _ZNK4Json17ValueIteratorB
366:   FUNC GLOBAL DEFAULT 14 _ZNK4Json5Value5asIntEv
367:   FUNC GLOBAL DEFAULT 14 _ZN7android5NBLog6ReaderD
368:   FUNC GLOBAL DEFAULT 14 _ZN4Json17ValueIteratorBa
369:   FUNC GLOBAL DEFAULT 14 _ZN4Json13valueToStringEy
370:   FUNC GLOBAL DEFAULT 14 _ZN4Json5ValueC2Ey
371:   FUNC GLOBAL DEFAULT 14 _ZN7android5NBLog6ReaderC
372:   FUNC GLOBAL DEFAULT 14 _ZN4Json5Value6appendERKS
373:   FUNC GLOBAL DEFAULT 14 _ZN4Json12PathArgumentC1E
374:   FUNC GLOBAL DEFAULT 14 _ZN4Json5Value8CZStringC2
375:   FUNC GLOBAL DEFAULT 14 _ZNK4Json4Path7resolveERK
376:   FUNC GLOBAL DEFAULT 14 _ZNK4Json5Value4typeEv
377:   FUNC GLOBAL DEFAULT 14 _ZN7android5NBLog6WriterD
378:   FUNC GLOBAL DEFAULT 14 _ZN4Json18ValueConstItera
379:   FUNC GLOBAL DEFAULT 14 _ZN4Json10FastWriter20dro
380:   FUNC GLOBAL DEFAULT 14 _ZN4Json18StyledStreamWri
381:   FUNC GLOBAL DEFAULT 14 _ZNK7android5NBLog11Forma
382:   FUNC WEAK DEFAULT 14 _ZNSt3__114__split_buffer
383:   FUNC GLOBAL DEFAULT 14 _ZNK4Json17ValueIteratorB
384:   FUNC GLOBAL DEFAULT 14 _ZN7android17ReportPerfor
385:   FUNC WEAK DEFAULT 14 _ZNSt3__115basic_stringbu
386:   FUNC WEAK DEFAULT 14 _ZNSt3__15dequeIlNS_9allo
387:   FUNC GLOBAL DEFAULT 14 _ZN4Json4Path11invalidPat
388:   FUNC GLOBAL DEFAULT 14 _ZN4Json12StyledWriter15w
389:   FUNC WEAK DEFAULT 14 _ZNSt3__16vectorINS_12bas
390:   OBJECT WEAK DEFAULT 18 _ZTCNSt3__118basic_string
391:   FUNC WEAK DEFAULT 14 _ZNSt3__114basic_ofstream
392:   FUNC GLOBAL DEFAULT 14 _ZN4Json4PathC1ERKNSt3__1
393:   FUNC GLOBAL DEFAULT 14 _ZNK4Json5Value8CZString1
394:   FUNC GLOBAL DEFAULT 14 _ZNK4Json5ValuegtERKS0_
395:   FUNC GLOBAL DEFAULT 14 _ZN4Json10FastWriter10wri
396:   FUNC GLOBAL DEFAULT 14 _ZNK7android5NBLog14Histo
397:   FUNC GLOBAL DEFAULT 14 _ZN4Json5ValueixERKNSt3__
398:   FUNC GLOBAL DEFAULT 14 _ZN7android5NBLog13EntryI
399:   FUNC GLOBAL DEFAULT 14 _ZN7android17ReportPerfor
400:   FUNC WEAK DEFAULT 14 _ZNSt3__127__tree_balance
401:   FUNC GLOBAL DEFAULT 14 _ZN7android5NBLog6ReaderC
402:   FUNC GLOBAL DEFAULT 14 _ZN4Json5Value11CommentIn
403:   FUNC GLOBAL DEFAULT 14 _ZNK4Json5Value10getComme
404:   FUNC GLOBAL DEFAULT 14 _ZN4Json10FastWriter18omi
405:   FUNC GLOBAL DEFAULT 14 _ZN4Json5ValueC1Ex
406:   FUNC GLOBAL DEFAULT 14 _ZN4Json10FastWriter5writ
407:   FUNC GLOBAL DEFAULT 14 _ZN4Json18StyledStreamWri
408:   FUNC GLOBAL DEFAULT 14 _ZN7android17ReportPerfor
409:   FUNC WEAK DEFAULT 14 _ZNSt3__16__treeINS_12__v
410:   FUNC GLOBAL DEFAULT 14 _ZN4Json12PathArgumentC1E
411:   FUNC GLOBAL DEFAULT 14 _ZN4Json5ValueC1Ey
412:   FUNC GLOBAL DEFAULT 14 _ZNK4Json17ValueIteratorB
413:   FUNC GLOBAL DEFAULT 14 _ZNK4Json5Value8asUInt64E
414:   FUNC GLOBAL DEFAULT 14 _ZNK4Json5Value9isNumeric
415:   FUNC GLOBAL DEFAULT 14 _ZNK4Json5ValueneERKS0_
416:   FUNC GLOBAL DEFAULT 14 _ZN4Json18StyledStreamWri
417:   FUNC GLOBAL DEFAULT 14 _ZN7android5NBLog11MergeR
418:   FUNC GLOBAL DEFAULT 14 _ZN4Json17ValueIteratorBa
419:   FUNC GLOBAL DEFAULT 14 _ZN4Json5Value8CZStringC1
420:   FUNC GLOBAL DEFAULT 14 _ZNK4Json5Value4sizeEv
421:   FUNC WEAK DEFAULT 14 _ZNSt3__16vectorIN4Json12
422:   FUNC GLOBAL DEFAULT 14 _ZNK7android5NBLog11Forma
423:   FUNC GLOBAL DEFAULT 14 _ZN4Json5ValueC1ENS_9Valu
424:   OBJECT WEAK DEFAULT 18 _ZTCNSt3__114basic_ofstre
425:   FUNC GLOBAL DEFAULT 14 _ZNK7android5NBLog6Writer
426:   FUNC GLOBAL DEFAULT 14 _ZN4Json18ValueConstItera
427:   OBJECT GLOBAL DEFAULT 11 _ZN4Json5Value8minInt64E
428:   FUNC GLOBAL DEFAULT 14 _ZNK4Json17ValueIteratorB
429:   FUNC WEAK DEFAULT 14 _ZNSt3__114__split_buffer
430:   FUNC WEAK DEFAULT 14 _ZNSt3__112__hash_tableIN
431:   FUNC GLOBAL DEFAULT 14 _ZNK4Json4Path4makeERNS_5
432:   FUNC WEAK DEFAULT 14 _ZNSt3__16__treeINS_12__v
433:   OBJECT GLOBAL DEFAULT 18 _ZTCN7android5NBLog11Merg
434:   FUNC GLOBAL DEFAULT 14 _ZTv0_n24_N7android5NBLog
435:   FUNC GLOBAL DEFAULT 14 _ZN7android5NBLog6Writer4
436:   FUNC GLOBAL DEFAULT 14 _ZN4Json5ValueC1ERKNS_12S
437:   FUNC GLOBAL DEFAULT 14 _ZNK4Json4Path7resolveERK
438:   FUNC GLOBAL DEFAULT 14 _ZN7android5NBLog6Writer3
439:   FUNC GLOBAL DEFAULT 14 _ZNK4Json5Value5emptyEv
440:   FUNC WEAK DEFAULT 14 _ZNSt3__16vectorIN4Json12
441:   FUNC WEAK DEFAULT 14 _ZNSt3__16vectorIPKN4Json
442:   FUNC GLOBAL DEFAULT 14 _ZN7android17ReportPerfor
443:   FUNC GLOBAL DEFAULT 14 _ZN7android5NBLog6WriterC
444:   FUNC WEAK DEFAULT 14 _ZNSt3__16__treeINS_12__v
445:   FUNC WEAK DEFAULT 14 _ZNSt3__114__split_buffer
446:   OBJECT WEAK DEFAULT 18 _ZTTNSt3__114basic_ofstre
447:   FUNC GLOBAL DEFAULT 14 _ZNK7android5NBLog13Entry
448:   FUNC GLOBAL DEFAULT 14 _ZN7android5NBLog6ReaderC
449:   FUNC GLOBAL DEFAULT 14 _ZN7android17ReportPerfor
450:   FUNC WEAK DEFAULT 14 _ZNSt3__16__treeINS_12__v
451:   FUNC GLOBAL DEFAULT 14 _ZN4Json18StyledStreamWri
452:   FUNC GLOBAL DEFAULT 14 _ZNK7android5NBLog11Forma
453:   FUNC GLOBAL DEFAULT 14 _ZN4Json12PathArgumentC2E
454:   FUNC GLOBAL DEFAULT 14 _ZN4Json12StyledWriter23w
455:   FUNC GLOBAL DEFAULT 14 _ZN4Json18StyledStreamWri
456:   OBJECT WEAK DEFAULT 18 _ZTVNSt3__115basic_string
457:   OBJECT GLOBAL DEFAULT 18 _ZTVN4Json12StyledWriterE
458:   OBJECT GLOBAL DEFAULT 11 _ZN4Json5Value13maxLarges
459:   FUNC GLOBAL DEFAULT 14 _ZN4Json5Value8CZStringaS
460:   FUNC GLOBAL DEFAULT 14 _ZNK4Json5Value14getOffse
461:   FUNC GLOBAL DEFAULT 14 _ZN4Json19valueToQuotedSt
462:   FUNC GLOBAL DEFAULT 14 _ZN7android17ReportPerfor
463:   FUNC GLOBAL DEFAULT 14 _ZN4Json12StyledWriter9pu
464:   FUNC GLOBAL DEFAULT 14 _ZNK7android17ReportPerfo
465:   OBJECT WEAK DEFAULT 18 _ZTVNSt3__114basic_ofstre
466:   OBJECT WEAK DEFAULT 23 _ZGVZ26audio_utils_plot_h
467:   FUNC WEAK DEFAULT 14 _ZNSt3__113basic_filebufI
468:   FUNC GLOBAL DEFAULT 14 _ZN7android5NBLog6Writer1
469:   FUNC GLOBAL DEFAULT 14 _ZN4Json12StyledWriterC2E
470:   FUNC GLOBAL DEFAULT 14 _ZN4Json18StyledStreamWri
471:   FUNC GLOBAL DEFAULT 14 _ZTv0_n24_N7android5NBLog
472:   FUNC GLOBAL DEFAULT 14 _ZN7android5NBLog10DumpRe
473:   FUNC WEAK DEFAULT 14 _ZNSt3__113basic_filebufI
474:   FUNC GLOBAL DEFAULT 14 _ZNK4Json5Value7asInt64Ev
475:   FUNC GLOBAL DEFAULT 14 _ZN7android5NBLog6ReaderC
476:   FUNC GLOBAL DEFAULT 14 _ZN4Json4Path8makePathERK
477:   FUNC GLOBAL DEFAULT 14 _ZNK4Json17ValueIteratorB
478:   FUNC GLOBAL DEFAULT 14 _ZNK4Json5Value8asStringE
479:   FUNC GLOBAL DEFAULT 14 _ZNK4Json5Value8isStringE
480:   FUNC GLOBAL DEFAULT 14 _ZN4Json18StyledStreamWri
481:   OBJECT WEAK DEFAULT 18 _ZTCNSt3__118basic_string
482:   FUNC GLOBAL DEFAULT 14 _ZNK7android5NBLog6Reader
483:   FUNC WEAK DEFAULT 14 _ZNSt3__113basic_filebufI
484:   FUNC GLOBAL DEFAULT 14 _ZN4Json12StyledWriter14i
485:   OBJECT WEAK DEFAULT 18 _ZTTNSt3__119basic_ostrin
486:   FUNC GLOBAL DEFAULT 14 _ZN7android5NBLog6MergerC
487:   FUNC GLOBAL DEFAULT 14 _ZN4Json13ValueIteratorC1
488:   FUNC GLOBAL DEFAULT 14 _ZN4Json13ValueIteratorC1
489:   FUNC GLOBAL DEFAULT 14 _ZNK4Json5ValueixEPKc
490:   FUNC GLOBAL DEFAULT 14 _ZN4Json18StyledStreamWri
491:   FUNC GLOBAL DEFAULT 14 _ZNK7android5NBLog13Entry
492:   FUNC GLOBAL DEFAULT 14 _ZN7android5NBLog11MergeT
493:   FUNC GLOBAL DEFAULT 14 _ZN4Json5ValueC1ERKNSt3__
494:   FUNC GLOBAL DEFAULT 14 _ZN7android5NBLog6Writer1
495:   OBJECT GLOBAL DEFAULT 18 _ZTVN4Json6WriterE
496:   FUNC GLOBAL DEFAULT 14 _ZN4Json5ValueaSES0_
497:   OBJECT GLOBAL DEFAULT 23 _ZN7android5NBLog6Reader1
498:   OBJECT GLOBAL DEFAULT 11 _ZN4Json5Value6minIntE
499:   FUNC GLOBAL DEFAULT 14 _ZNK7android5NBLog11Forma
500:   FUNC WEAK DEFAULT 14 _ZNSt3__112__hash_tableIN
501:   FUNC GLOBAL DEFAULT 14 _ZN7android5NBLog8Timelin
502:   FUNC GLOBAL DEFAULT 14 _ZN7android5NBLog6Writer1
503:   FUNC GLOBAL DEFAULT 14 _ZN4Json18StyledStreamWri
504:   FUNC GLOBAL DEFAULT 14 _ZN7android5NBLog13EntryI
505:   FUNC GLOBAL DEFAULT 14 _ZN7android17ReportPerfor
506:   FUNC GLOBAL DEFAULT 14 _ZNK7android5NBLog6Merger
507:   FUNC GLOBAL DEFAULT 14 _ZN4Json5Value12removeMem
508:   FUNC WEAK DEFAULT 14 _ZNSt3__16__treeINS_12__v
509:   FUNC WEAK DEFAULT 14 _ZNSt3__16vectorINS_12bas
510:   FUNC GLOBAL DEFAULT 14 _ZN4Json5ValueC1EPKc
511:   FUNC GLOBAL DEFAULT 14 _ZN7android5NBLog6Writer8
512:   FUNC GLOBAL DEFAULT 14 _ZN4Json4PathC2ERKNSt3__1
513:   FUNC GLOBAL DEFAULT 14 _ZNK4Json5Value14getMembe
514:   FUNC GLOBAL DEFAULT 14 _ZNK4Json5Value8isObjectE
515:   FUNC GLOBAL DEFAULT 14 _ZN7android5NBLog11MergeR
516:   FUNC GLOBAL DEFAULT 14 _ZN7android5NBLog6Merger9
517:   FUNC GLOBAL DEFAULT 14 _ZN7android5NBLog10DumpRe
518:   FUNC GLOBAL DEFAULT 14 _ZN4Json12StyledWriterC1E
519:   FUNC GLOBAL DEFAULT 14 _ZN4Json12PathArgumentC2E
520:   FUNC GLOBAL DEFAULT 14 _ZN4Json13ValueIteratorC2
521:   FUNC GLOBAL DEFAULT 14 _ZN4Json18ValueConstItera
522:   OBJECT GLOBAL DEFAULT 11 _ZN4Json5Value14maxLarges
523:   FUNC GLOBAL DEFAULT 14 _ZNK4Json5Value8isUInt64E
524:   FUNC WEAK DEFAULT 14 _ZNSt3__114__split_buffer
525:   FUNC GLOBAL DEFAULT 14 _ZN4Json18StyledStreamWri
526:   FUNC GLOBAL DEFAULT 14 _ZN7android5NBLog11MergeR
527:   FUNC WEAK DEFAULT 14 _ZNSt3__124__put_characte
528:   OBJECT GLOBAL DEFAULT 18 _ZN4Json5Value4nullE
529:   FUNC GLOBAL DEFAULT 14 _ZNK4Json5Value10hasComme
530:   FUNC GLOBAL DEFAULT 14 _ZNK4Json5Value3getEjRKS0
531:   FUNC WEAK DEFAULT 14 _ZNSt3__114__split_buffer
532:   FUNC GLOBAL DEFAULT 14 _ZN4Json18ValueConstItera
533:   OBJECT WEAK DEFAULT 18 _ZTVN7android5NBLog6Merge
534:   FUNC WEAK DEFAULT 14 _ZNSt3__114__split_buffer
535:   FUNC GLOBAL DEFAULT 14 _ZN7android5NBLog10DumpRe
536:   FUNC WEAK DEFAULT 14 _ZNSt3__113basic_filebufI
537:   FUNC GLOBAL DEFAULT 14 _ZN4Json13ValueIteratorC2
538:   FUNC GLOBAL DEFAULT 14 _ZN4Json17ValueIteratorBa
539:   FUNC GLOBAL DEFAULT 14 _ZN4Json5Value8CZStringC2
540:   FUNC GLOBAL DEFAULT 14 _ZN7android5NBLog11MergeT
541:   FUNC WEAK DEFAULT 14 _ZNSt3__115basic_stringbu
542:   FUNC GLOBAL DEFAULT 14 _ZNK4Json5Value7asFloatEv
543:   FUNC WEAK DEFAULT 14 _ZNSt3__16vectorINS_12bas
544:   FUNC GLOBAL DEFAULT 14 _ZNK7android5NBLog13Entry
545:   FUNC WEAK DEFAULT 14 _ZNSt3__114__split_buffer
546:   FUNC GLOBAL DEFAULT 14 _ZN7android5NBLog10DumpRe
547:   FUNC GLOBAL DEFAULT 14 _ZN4Json5ValueC2ERKS0_
548:   FUNC GLOBAL DEFAULT 14 _ZNK4Json5Value8isMemberE
549:   FUNC WEAK DEFAULT 14 _ZNSt3__15dequeINS_4pairI
550:   OBJECT GLOBAL DEFAULT 11 _ZN4Json5Value7maxUIntE
551:   FUNC GLOBAL DEFAULT 14 _ZNK4Json5Value6isBoolEv
552:   OBJECT WEAK DEFAULT 18 _ZTVN7android5NBLog11Merg
553:   FUNC WEAK DEFAULT 14 _ZNSt3__15dequeINS_4pairI
554:   FUNC GLOBAL DEFAULT 14 _ZN7android5NBLog12Locked
555:   FUNC GLOBAL DEFAULT 14 _ZN4Json5Value5clearEv
556:   FUNC GLOBAL DEFAULT 14 _ZN4Json18StyledStreamWri
557:   FUNC WEAK DEFAULT 14 _ZNSt3__114__split_buffer
558:   FUNC WEAK DEFAULT 14 _ZNSt3__15dequeINS_4pairI
559:   FUNC GLOBAL DEFAULT 14 _ZN4Json5ValueC2EPKc
560:   FUNC GLOBAL DEFAULT 14 _ZN4Json5ValueixERKNS_12S
561:   FUNC GLOBAL DEFAULT 14 _ZNK4Json5ValueleERKS0_
562:   OBJECT WEAK DEFAULT 18 _ZTCNSt3__118basic_string
563:   FUNC GLOBAL DEFAULT 14 _ZNK4Json5Value3getERKNSt
564:   OBJECT GLOBAL DEFAULT 11 _ZN4Json5Value13minLarges
565:   FUNC GLOBAL DEFAULT 14 _ZNK4Json5Value13asLarges
566:   FUNC WEAK DEFAULT 14 _ZNSt3__112__hash_tableIN
567:   FUNC GLOBAL DEFAULT 14 _ZN4Json5Value8CZString4s
568:   FUNC GLOBAL DEFAULT 14 _ZN4Json5ValueC2ENS_9Valu
569:   FUNC GLOBAL DEFAULT 14 _ZN4Json5ValueixEi
570:   FUNC WEAK DEFAULT 14 _ZNSt3__16__treeINS_12__v
571:   OBJECT GLOBAL DEFAULT 23 _ZN7android5NBLog6Reader1
572:   FUNC GLOBAL DEFAULT 14 _ZN7android5NBLog6WriterC
573:   FUNC GLOBAL DEFAULT 14 _ZN4Json13ValueIteratorC2
574:   FUNC GLOBAL DEFAULT 14 _ZN4Json18ValueConstItera
575:   FUNC GLOBAL DEFAULT 14 _ZN4Json5ValueixEj
576:   FUNC GLOBAL DEFAULT 14 _ZNK4Json5ValueixEi
577:   OBJECT GLOBAL DEFAULT 18 _ZTVN7android5NBLog11Form
578:   FUNC GLOBAL DEFAULT 14 _ZN4Json13ValueIteratoraS
579:   FUNC GLOBAL DEFAULT 14 _ZN4Json17ValueIteratorBa
580:   FUNC GLOBAL DEFAULT 14 _ZN4Json5Value8CZStringC1
581:   FUNC GLOBAL DEFAULT 14 _ZNK4Json5ValueixEj
582:   FUNC GLOBAL DEFAULT 14 _ZNK7android5NBLog13Entry
583:   FUNC GLOBAL DEFAULT 14 _ZN7android5NBLog11MergeT
584:   FUNC GLOBAL DEFAULT 14 _ZN7android5NBLog10DumpRe
585:   FUNC GLOBAL DEFAULT 14 _ZN7android5NBLog6Writer5
586:   FUNC GLOBAL DEFAULT 14 _ZNK4Json5Value3endEv
587:   FUNC GLOBAL DEFAULT 14 _ZNK4Json5Value3getEPKcRK
588:   FUNC GLOBAL DEFAULT 14 _ZNK4Json5Value7isArrayEv
589:   FUNC GLOBAL DEFAULT 14 _ZNK4Json5ValuentEv
590:   FUNC GLOBAL DEFAULT 14 _ZN4Json10FastWriterC2Ev
591:   FUNC WEAK DEFAULT 14 _ZNSt3__114__split_buffer
592:   FUNC WEAK DEFAULT 14 _ZNSt3__16__treeINS_12__v
593:   FUNC WEAK DEFAULT 14 _ZNSt3__114__split_buffer
594:   FUNC WEAK DEFAULT 14 _ZNSt3__15dequeIlNS_9allo
595:   FUNC GLOBAL DEFAULT 14 _ZN7android5NBLog10DumpRe
596:   FUNC GLOBAL DEFAULT 14 _ZN4Json5ValueC1ERKS0_
597:   FUNC WEAK DEFAULT 14 _ZNSt3__114__split_buffer
598:   FUNC GLOBAL DEFAULT 14 _ZN7android17ReportPerfor
599:   FUNC GLOBAL DEFAULT 14 _ZN7android5NBLog6Writer3
600:   FUNC GLOBAL DEFAULT 14 _ZNK7android5NBLog12Locke
601:   FUNC GLOBAL DEFAULT 14 _ZNK4Json5Value6isNullEv
602:   FUNC GLOBAL DEFAULT 14 _ZNK4Json5ValuegeERKS0_
