 0x0000000e (SONAME)                     Library soname: [libnativehelper.so]
  
Symbol   contains 29 entries:
Num:   Type Bind Vis Ndx Name
0:   NOTYPE LOCAL DEFAULT UND
1:   FUNC GLOBAL PROTECTED 8 JNI_GetCreatedJavaVMs@@LIBNATIVEHELPER_1
2:   FUNC GLOBAL PROTECTED 8 jniSetFileDescriptorOfFD@@LIBNATIVEHELPER_1
3:   FUNC GLOBAL PROTECTED 8 jniThrowException@@LIBNATIVEHELPER_1
4:   FUNC GLOBAL PROTECTED 8 JNI_GetDefaultJavaVMInitA@@LIBNATIVEHELPER_1
5:   FUNC GLOBAL PROTECTED 8 jniGetFDFromFileDescripto@@LIBNATIVEHELPER_1
6:   FUNC GLOBAL PROTECTED 8 jniRegisterNativeMethods@@LIBNATIVEHELPER_1
7:   FUNC GLOBAL PROTECTED 8 toStringArray@@LIBNATIVEHELPER_1
8:   FUNC GLOBAL PROTECTED 8 JNI_CreateJavaVM@@LIBNATIVEHELPER_1
9:   FUNC GLOBAL PROTECTED 8 jniGetReferent@@LIBNATIVEHELPER_1
10:   FUNC GLOBAL PROTECTED 8 jniThrowNullPointerExcept@@LIBNATIVEHELPER_1
11:   FUNC GLOBAL PROTECTED 8 newStringArray@@LIBNATIVEHELPER_1
12:   FUNC GLOBAL PROTECTED 8 JniInvocationCreate@@LIBNATIVEHELPER_1
13:   FUNC GLOBAL PROTECTED 8 jniGetNioBufferBaseArray@@LIBNATIVEHELPER_1
14:   FUNC GLOBAL PROTECTED 8 jniGetNioBufferFields@@LIBNATIVEHELPER_1
15:   FUNC GLOBAL PROTECTED 8 jniStrError@@LIBNATIVEHELPER_1
16:   FUNC GLOBAL PROTECTED 8 jniThrowRuntimeException@@LIBNATIVEHELPER_1
17:   FUNC GLOBAL PROTECTED 8 jniGetNioBufferPointer@@LIBNATIVEHELPER_1
18:   FUNC GLOBAL PROTECTED 8 jniGetOwnerIdFromFileDesc@@LIBNATIVEHELPER_1
19:   FUNC GLOBAL PROTECTED 8 jniLogException@@LIBNATIVEHELPER_1
20:   FUNC GLOBAL PROTECTED 8 JniInvocationDestroy@@LIBNATIVEHELPER_1
21:   FUNC GLOBAL PROTECTED 8 JniInvocationGetLibrary@@LIBNATIVEHELPER_1
22:   FUNC GLOBAL PROTECTED 8 jniThrowIOException@@LIBNATIVEHELPER_1
23:   FUNC GLOBAL PROTECTED 8 JniInvocationInit@@LIBNATIVEHELPER_1
24:   FUNC GLOBAL PROTECTED 8 jniCreateFileDescriptor@@LIBNATIVEHELPER_1
25:   FUNC GLOBAL PROTECTED 8 jniCreateString@@LIBNATIVEHELPER_1
26:   FUNC GLOBAL PROTECTED 8 jniGetNioBufferBaseArrayO@@LIBNATIVEHELPER_1
27:   FUNC GLOBAL PROTECTED 8 jniThrowExceptionFmt@@LIBNATIVEHELPER_1
28:   FUNC GLOBAL PROTECTED 8 jniUninitializeConstants@@LIBNATIVEHELPER_1
