 0x000000000000000e (SONAME)             Library soname: [libaudiopolicy.so]
  
Symbol   contains 55 entries:
Num:   Type Bind Vis Ndx Name
0:   NOTYPE LOCAL DEFAULT UND
1:   FUNC GLOBAL DEFAULT UND __cxa_finalize@LIBC (2)
2:   FUNC GLOBAL DEFAULT UND _ZN7android6Parcel10write
3:   FUNC GLOBAL DEFAULT UND _ZN7android6Parcel11write
4:   FUNC GLOBAL DEFAULT UND _ZN7android6Parcel16write
5:   FUNC GLOBAL DEFAULT UND _ZNK7android6Parcel10read
6:   FUNC GLOBAL DEFAULT UND _ZNK7android6Parcel17read
7:   FUNC GLOBAL DEFAULT UND _ZNK7android6Parcel9readI
8:   FUNC GLOBAL DEFAULT UND _ZNKSt3__121__basic_strin
9:   FUNC GLOBAL DEFAULT UND _ZdlPv
10:   FUNC GLOBAL DEFAULT UND _Znwm
11:   FUNC GLOBAL DEFAULT UND __stack_chk_fail@LIBC (2)
12:   FUNC GLOBAL DEFAULT UND memcpy@LIBC (2)
13:   FUNC GLOBAL DEFAULT UND strlen@LIBC (2)
14:   FUNC GLOBAL DEFAULT UND strncpy@LIBC (2)
15:   FUNC GLOBAL DEFAULT UND _ZN7android10VectorImpl3a
16:   FUNC GLOBAL DEFAULT UND _ZN7android6Parcel12write
17:   FUNC GLOBAL DEFAULT UND _ZN7android6Parcel9writeB
18:   FUNC GLOBAL DEFAULT UND _ZN7android7String85setTo
19:   FUNC GLOBAL DEFAULT UND _ZN7android7String8D1Ev
20:   FUNC GLOBAL DEFAULT UND _ZNK7android6Parcel11read
21:   FUNC GLOBAL DEFAULT UND _ZNK7android6Parcel12data
22:   FUNC GLOBAL DEFAULT UND _ZNK7android6Parcel8readB
23:   FUNC GLOBAL DEFAULT UND __android_log_print@LIBLOG (3)
24:   FUNC GLOBAL DEFAULT UND _ZNK7android6Parcel15setD
25:   FUNC GLOBAL DEFAULT UND _ZNKSt3__120__vector_base
26:   FUNC GLOBAL DEFAULT UND __strlen_chk@LIBC (2)
27:   FUNC GLOBAL DEFAULT UND strcmp@LIBC (2)
28:   FUNC GLOBAL DEFAULT UND abort@LIBC (2)
29:   OBJECT GLOBAL DEFAULT 18 _ZTVN7android15AudioAttri
30:   FUNC GLOBAL DEFAULT 14 _ZN7android19AudioDeviceT
31:   FUNC GLOBAL DEFAULT 14 _ZNK7android19AudioDevice
32:   FUNC GLOBAL DEFAULT 14 _ZNK7android8AudioMix13se
33:   FUNC GLOBAL DEFAULT 14 _ZN7android16AudioVolumeG
34:   FUNC GLOBAL DEFAULT 14 _ZN7android22AudioMixMatc
35:   FUNC GLOBAL DEFAULT 14 _ZNK7android8AudioMix13wr
36:   FUNC GLOBAL DEFAULT 14 _ZNK7android16AudioVolume
37:   FUNC GLOBAL DEFAULT 14 _ZNK7android15AudioAttrib
38:   FUNC GLOBAL DEFAULT 14 _ZN7android20AudioProduct
39:   FUNC GLOBAL DEFAULT 14 _ZN7android15AudioAttribu
40:   FUNC GLOBAL DEFAULT 14 _ZNK7android22AudioMixMat
41:   FUNC GLOBAL DEFAULT 14 _ZNK7android8AudioMix10ha
42:   FUNC GLOBAL DEFAULT 14 _ZNK7android8AudioMix11se
43:   FUNC GLOBAL DEFAULT 14 _ZNK7android20AudioProduc
44:   FUNC GLOBAL DEFAULT 14 _ZN7android22AudioMixMatc
45:   FUNC GLOBAL DEFAULT 14 _ZNK7android8AudioMix26is
46:   FUNC GLOBAL DEFAULT 14 _ZN7android20AudioProduct
47:   FUNC WEAK DEFAULT 14 _ZNSt3__16vectorIN7androi
48:   FUNC GLOBAL DEFAULT 14 _ZN7android22AudioMixMatc
49:   FUNC GLOBAL DEFAULT 14 _ZN7android8AudioMix14rea
50:   FUNC GLOBAL DEFAULT 14 _ZNK7android8AudioMix15ha
51:   OBJECT GLOBAL DEFAULT 18 _ZTVN7android20AudioProdu
52:   FUNC WEAK DEFAULT 14 _ZNSt3__16vectorI18audio_
53:   FUNC WEAK DEFAULT 14 _ZNSt3__16vectorI19audio_
54:   OBJECT GLOBAL DEFAULT 18 _ZTVN7android16AudioVolum
