 0x000000000000000e (SONAME)             Library soname: [libRS.so]
  
Symbol   contains 158 entries:
Num:   Type Bind Vis Ndx Name
0:   NOTYPE LOCAL DEFAULT UND
1:   FUNC GLOBAL DEFAULT UND __cxa_finalize@LIBC (3)
2:   FUNC GLOBAL DEFAULT UND __cxa_atexit@LIBC (3)
3:   FUNC GLOBAL DEFAULT UND _ZNKSt3__121__basic_strin
4:   FUNC GLOBAL DEFAULT UND _ZNSt3__112basic_stringIc
5:   FUNC GLOBAL DEFAULT UND _ZNSt3__15mutex4lockEv
6:   FUNC GLOBAL DEFAULT UND _ZNSt3__15mutex6unlockEv
7:   FUNC GLOBAL DEFAULT UND _ZNSt3__15mutexD1Ev
8:   FUNC GLOBAL DEFAULT UND _ZdlPv
9:   FUNC GLOBAL DEFAULT UND _Znwm
10:   FUNC GLOBAL DEFAULT UND __android_log_print@LIBLOG (4)
11:   FUNC GLOBAL DEFAULT UND __cxa_guard_acquire
12:   FUNC GLOBAL DEFAULT UND __cxa_guard_release
13:   FUNC GLOBAL DEFAULT UND __readlink_chk@LIBC (3)
14:   FUNC GLOBAL DEFAULT UND __stack_chk_fail@LIBC (3)
15:   FUNC GLOBAL DEFAULT UND dlerror@LIBC (5)
16:   FUNC GLOBAL DEFAULT UND dlopen@LIBC (5)
17:   FUNC GLOBAL DEFAULT UND dlsym@LIBC (5)
18:   FUNC GLOBAL DEFAULT UND memcpy@LIBC (3)
19:   FUNC GLOBAL DEFAULT UND sleep@LIBC (3)
20:   FUNC GLOBAL DEFAULT UND strlen@LIBC (3)
21:   FUNC GLOBAL DEFAULT UND _ZN7android14sp_report_ra
22:   FUNC GLOBAL DEFAULT UND _ZN7android8hardware11hid
23:   FUNC GLOBAL DEFAULT UND _ZN7android8hardware11hid
24:   FUNC GLOBAL DEFAULT UND _ZN7android8hardware11hid
25:   FUNC GLOBAL DEFAULT UND _ZN7android8hardware11hid
26:   FUNC GLOBAL DEFAULT UND _ZN7android8hardware11hid
27:   FUNC GLOBAL DEFAULT UND _ZN7android8hardware11hid
28:   FUNC GLOBAL DEFAULT UND _ZN7android8hardware12ren
29:   FUNC GLOBAL DEFAULT UND _ZN7android8hardware7deta
30:   FUNC GLOBAL DEFAULT UND _ZN7android8hardware7deta
31:   FUNC GLOBAL DEFAULT UND _ZNK7android7RefBase9decS
32:   FUNC GLOBAL DEFAULT UND _ZNK7android7RefBase9incS
33:   FUNC GLOBAL DEFAULT UND _ZNK7android8hardware11hi
34:   FUNC GLOBAL DEFAULT UND _ZNK7android8hardware7det
35:   FUNC GLOBAL DEFAULT UND _ZNKSt3__120__vector_base
36:   FUNC GLOBAL DEFAULT UND _ZdaPv
37:   FUNC GLOBAL DEFAULT UND _Znam
38:   FUNC GLOBAL DEFAULT UND atoi@LIBC (3)
39:   FUNC GLOBAL DEFAULT UND memset@LIBC (3)
40:   FUNC GLOBAL DEFAULT UND property_get
41:   FUNC GLOBAL DEFAULT UND dlclose@LIBC (5)
42:   FUNC GLOBAL DEFAULT 15 rsAllocationCreateTyped@@libRS
43:   FUNC GLOBAL DEFAULT 15 rsAllocationElementData@@libRS
44:   FUNC GLOBAL DEFAULT 15 rsScriptReduce@@libRS
45:   FUNC GLOBAL DEFAULT 15 rsaFileA3DCreateFromAsset@@libRS
46:   FUNC GLOBAL DEFAULT 15 rsAllocationGetPointer@@libRS
47:   FUNC GLOBAL DEFAULT 15 rsProgramFragmentCreate@@libRS
48:   FUNC GLOBAL DEFAULT 15 rsProgramStoreCreate@@libRS
49:   FUNC GLOBAL DEFAULT 15 rsaContextSetNativeLibDir@@libRS
50:   FUNC GLOBAL DEFAULT 15 rsContextSendMessage@@libRS
51:   FUNC GLOBAL DEFAULT 15 rsContextSetPriority@@libRS
52:   FUNC GLOBAL DEFAULT 15 rsScriptForEach@@libRS
53:   FUNC GLOBAL DEFAULT 15 rsScriptSetVarI@@libRS
54:   FUNC GLOBAL DEFAULT 15 rsaMeshGetVertexBufferCou@@libRS
55:   FUNC GLOBAL DEFAULT 15 rsAllocation2DRead@@libRS
56:   FUNC GLOBAL DEFAULT 15 rsAllocationAdapterOffset@@libRS
57:   FUNC GLOBAL DEFAULT 15 rsContextBindProgramStore@@libRS
58:   FUNC GLOBAL DEFAULT 15 rsObjDestroy@@libRS
59:   FUNC GLOBAL DEFAULT 15 rsProgramRasterCreate@@libRS
60:   FUNC GLOBAL DEFAULT 15 rsScriptCCreate@@libRS
61:   FUNC GLOBAL DEFAULT 15 rsScriptGroupCreate@@libRS
62:   FUNC GLOBAL DEFAULT 15 rsScriptInvokeV@@libRS
63:   FUNC GLOBAL DEFAULT 15 rsScriptSetVarJ@@libRS
64:   FUNC GLOBAL DEFAULT 15 rsaMeshGetIndices@@libRS
65:   FUNC GLOBAL DEFAULT 15 rsAllocationRead@@libRS
66:   FUNC GLOBAL DEFAULT 15 rsContextInitToClient@@libRS
67:   FUNC GLOBAL DEFAULT 15 rsContextSetSurface@@libRS
68:   FUNC GLOBAL DEFAULT 15 rsElementCreate@@libRS
69:   FUNC GLOBAL DEFAULT 15 rsProgramVertexCreate@@libRS
70:   FUNC GLOBAL DEFAULT 15 rsAllocationCopy3DRange@@libRS
71:   FUNC GLOBAL DEFAULT 15 rsProgramBindSampler@@libRS
72:   FUNC GLOBAL DEFAULT 15 rsScriptInvoke@@libRS
73:   FUNC GLOBAL DEFAULT 15 rsScriptKernelIDCreate@@libRS
74:   FUNC GLOBAL DEFAULT 15 rsaElementGetSubElements@@libRS
75:   FUNC GLOBAL DEFAULT 15 rsAllocation1DData@@libRS
76:   FUNC GLOBAL DEFAULT 15 rsAllocationSetupBufferQu@@libRS
77:   FUNC GLOBAL DEFAULT 15 rsContextBindRootScript@@libRS
78:   FUNC GLOBAL DEFAULT 15 rsMeshCreate@@libRS
79:   FUNC GLOBAL DEFAULT 15 rsaElementGetNativeData@@libRS
80:   FUNC GLOBAL DEFAULT 15 rsaGetName@@libRS
81:   FUNC GLOBAL DEFAULT 15 rsAllocationGenerateMipma@@libRS
82:   FUNC GLOBAL DEFAULT 15 rsContextBindProgramRaste@@libRS
83:   FUNC GLOBAL DEFAULT 15 rsDeviceCreate@@libRS
84:   FUNC GLOBAL DEFAULT 15 rsaMeshGetIndexCount@@libRS
85:   FUNC GLOBAL DEFAULT 15 rsAllocationIoSend@@libRS
86:   FUNC GLOBAL DEFAULT 15 rsContextDestroyWorker@@libRS
87:   FUNC GLOBAL DEFAULT 15 rsContextPeekMessage@@libRS
88:   FUNC GLOBAL DEFAULT 15 rsDebugGetHighLevelContex@@libRS
89:   FUNC GLOBAL DEFAULT 15 rsaFileA3DCreateFromFile@@libRS
90:   OBJECT GLOBAL DEFAULT 24 gDebuggerPresent@@libRS
91:   FUNC GLOBAL DEFAULT 15 rsClosureSetArg@@libRS
92:   FUNC GLOBAL DEFAULT 15 rsContextBindProgramFragm@@libRS
93:   FUNC GLOBAL DEFAULT 15 rsElementCreate2@@libRS
94:   FUNC GLOBAL DEFAULT 15 rsTypeCreate@@libRS
95:   FUNC GLOBAL DEFAULT 15 rsaMeshGetVertices@@libRS
96:   FUNC GLOBAL DEFAULT 15 rsAllocationSyncAll@@libRS
97:   FUNC GLOBAL DEFAULT 15 rsSamplerCreate@@libRS
98:   FUNC GLOBAL DEFAULT 15 rsContextDestroy@@libRS
99:   FUNC GLOBAL DEFAULT 15 rsContextDump@@libRS
100:   FUNC GLOBAL DEFAULT 15 rsAllocation3DRead@@libRS
101:   FUNC GLOBAL DEFAULT 15 rsAllocationCubeCreateFro@@libRS
102:   FUNC GLOBAL DEFAULT 15 rsFontCreateFromFile@@libRS
103:   FUNC GLOBAL DEFAULT 15 rsAllocationResize1D@@libRS
104:   FUNC GLOBAL DEFAULT 15 rsScriptFieldIDCreate@@libRS
105:   FUNC GLOBAL DEFAULT 15 rsScriptGroupExecute@@libRS
106:   FUNC GLOBAL DEFAULT 15 rsScriptSetVarObj@@libRS
107:   FUNC GLOBAL DEFAULT 15 rsAllocation2DData@@libRS
108:   FUNC GLOBAL DEFAULT 15 rsContextFinish@@libRS
109:   FUNC GLOBAL DEFAULT 15 rsScriptSetVarV@@libRS
110:   FUNC GLOBAL DEFAULT 15 rsScriptSetVarVE@@libRS
111:   FUNC GLOBAL DEFAULT 15 rsaFileA3DGetNumIndexEntr@@libRS
112:   FUNC GLOBAL DEFAULT 15 rsDeviceSetConfig@@libRS
113:   FUNC GLOBAL DEFAULT 15 rsScriptIntrinsicCreate@@libRS
114:   FUNC GLOBAL DEFAULT 15 rsScriptInvokeIDCreate@@libRS
115:   FUNC GLOBAL DEFAULT 15 rsAllocationElementRead@@libRS
116:   FUNC GLOBAL DEFAULT 15 rsAllocationShareBufferQu@@libRS
117:   FUNC GLOBAL DEFAULT 15 rsContextDeinitToClient@@libRS
118:   FUNC GLOBAL DEFAULT 15 rsaTypeGetNativeData@@libRS
119:   FUNC GLOBAL DEFAULT 15 rsContextCreateGL@@libRS
120:   FUNC GLOBAL DEFAULT 15 rsContextPause@@libRS
121:   FUNC GLOBAL DEFAULT 15 rsTypeCreate2@@libRS
122:   FUNC GLOBAL DEFAULT 15 rsAllocationGetSurface@@libRS
123:   FUNC GLOBAL DEFAULT 15 rsContextResume@@libRS
124:   FUNC GLOBAL DEFAULT 15 rsProgramBindConstants@@libRS
125:   FUNC GLOBAL DEFAULT 15 rsScriptGroupSetOutput@@libRS
126:   FUNC GLOBAL DEFAULT 15 rsaFileA3DCreateFromMemor@@libRS
127:   FUNC GLOBAL DEFAULT 15 rsClosureSetGlobal@@libRS
128:   FUNC GLOBAL DEFAULT 15 rsContextGetMessage@@libRS
129:   FUNC GLOBAL DEFAULT 15 rsAllocationAdapterCreate@@libRS
130:   FUNC GLOBAL DEFAULT 15 rsScriptForEachMulti@@libRS
131:   FUNC GLOBAL DEFAULT 15 rsaFileA3DGetEntryByIndex@@libRS
132:   FUNC GLOBAL DEFAULT 15 rsAllocation1DElementData@@libRS
133:   FUNC GLOBAL DEFAULT 15 rsAllocation1DRead@@libRS
134:   FUNC GLOBAL DEFAULT 15 rsAllocationCreateFromBit@@libRS
135:   FUNC GLOBAL DEFAULT 15 rsAllocationIoReceive@@libRS
136:   FUNC GLOBAL DEFAULT 15 rsAssignName@@libRS
137:   FUNC GLOBAL DEFAULT 15 rsContextBindProgramVerte@@libRS
138:   FUNC GLOBAL DEFAULT 15 rsContextCreate@@libRS
139:   FUNC GLOBAL DEFAULT 15 rsInvokeClosureCreate@@libRS
140:   FUNC GLOBAL DEFAULT 15 rsAllocation3DData@@libRS
141:   FUNC GLOBAL DEFAULT 15 rsContextSetCacheDir@@libRS
142:   FUNC GLOBAL DEFAULT 15 rsScriptGetVarV@@libRS
143:   FUNC GLOBAL DEFAULT 15 rsAllocationSetSurface@@libRS
144:   FUNC GLOBAL DEFAULT 15 rsClosureCreate@@libRS
145:   FUNC GLOBAL DEFAULT 15 rsaFileA3DGetIndexEntries@@libRS
146:   FUNC GLOBAL DEFAULT 15 rsDeviceDestroy@@libRS
147:   FUNC GLOBAL DEFAULT 15 rsProgramBindTexture@@libRS
148:   FUNC GLOBAL DEFAULT 15 rsScriptGroup2Create@@libRS
149:   FUNC GLOBAL DEFAULT 15 rsScriptGroupSetInput@@libRS
150:   FUNC GLOBAL DEFAULT 15 rsScriptSetTimeZone@@libRS
151:   FUNC GLOBAL DEFAULT 15 rsScriptSetVarD@@libRS
152:   FUNC GLOBAL DEFAULT 15 rsAllocationCopy2DRange@@libRS
153:   FUNC GLOBAL DEFAULT 15 rsaAllocationGetType@@libRS
154:   FUNC GLOBAL DEFAULT 15 rsAllocationCopyToBitmap@@libRS
155:   FUNC GLOBAL DEFAULT 15 rsFontCreateFromMemory@@libRS
156:   FUNC GLOBAL DEFAULT 15 rsScriptBindAllocation@@libRS
157:   FUNC GLOBAL DEFAULT 15 rsScriptSetVarF@@libRS
