 0x000000000000000e (SONAME)             Library soname: [libaudiopolicyenginedefault.so]
  
Symbol   contains 582 entries:
Num:   Type Bind Vis Ndx Name
0:   NOTYPE LOCAL DEFAULT UND
1:   FUNC GLOBAL DEFAULT UND __cxa_finalize@LIBC (2)
2:   FUNC GLOBAL DEFAULT UND __cxa_atexit@LIBC (2)
3:   FUNC GLOBAL DEFAULT UND __cfi_slowpath@LIBC_OMR1 (3)
4:   FUNC GLOBAL DEFAULT UND __android_log_print@LIBLOG (4)
5:   FUNC GLOBAL DEFAULT UND _ZN7android7String8C1EPKc
6:   FUNC GLOBAL DEFAULT UND _ZN7android7String8D1Ev
7:   FUNC GLOBAL DEFAULT UND _ZdlPv
8:   FUNC GLOBAL DEFAULT UND _ZN7android10VectorImplC2
9:   FUNC GLOBAL DEFAULT UND _ZN7android10VectorImpl13
10:   FUNC GLOBAL DEFAULT UND _ZN7android16SortedVector
11:   FUNC GLOBAL DEFAULT UND _ZNK7android7RefBase9incS
12:   FUNC GLOBAL DEFAULT UND _ZN7android7RefBase10rena
13:   FUNC GLOBAL DEFAULT UND _ZN7android7RefBase11rena
14:   FUNC GLOBAL DEFAULT UND _ZN7android16SortedVector
15:   FUNC GLOBAL DEFAULT UND _ZNSt3__112basic_stringIc
16:   FUNC GLOBAL DEFAULT UND _ZN7android7String8C1ERKS
17:   FUNC GLOBAL DEFAULT UND _ZN7android16SortedVector
18:   FUNC GLOBAL DEFAULT UND strlen@LIBC (2)
19:   FUNC GLOBAL DEFAULT UND _ZNK7android7RefBase9decS
20:   FUNC GLOBAL DEFAULT UND _ZNKSt3__121__basic_strin
21:   FUNC GLOBAL DEFAULT UND _Znwm
22:   FUNC GLOBAL DEFAULT UND _ZN7android14sp_report_ra
23:   FUNC GLOBAL DEFAULT UND _ZNSt3__112basic_stringIc
24:   FUNC GLOBAL DEFAULT UND memchr@LIBC (2)
25:   FUNC GLOBAL DEFAULT UND memcmp@LIBC (2)
26:   FUNC GLOBAL DEFAULT UND _ZNSt3__112basic_stringIc
27:   FUNC GLOBAL DEFAULT UND __cxa_guard_acquire
28:   FUNC GLOBAL DEFAULT UND __cxa_guard_release
29:   FUNC GLOBAL DEFAULT UND __android_log_assert@LIBLOG (4)
30:   FUNC GLOBAL DEFAULT UND __cxa_pure_virtual
31:   FUNC GLOBAL DEFAULT UND _ZNSt3__112basic_stringIc
32:   FUNC GLOBAL DEFAULT UND _ZNKSt3__120__vector_base
33:   FUNC GLOBAL DEFAULT UND abort@LIBC (2)
34:   FUNC GLOBAL DEFAULT UND strcmp@LIBC (2)
35:   FUNC GLOBAL DEFAULT UND _ZN7android7RefBaseC2Ev
36:   FUNC GLOBAL DEFAULT UND _ZN7android7RefBase10onFi
37:   FUNC GLOBAL DEFAULT UND _ZN7android7RefBase15onLa
38:   FUNC GLOBAL DEFAULT UND _ZN7android7RefBase20onIn
39:   FUNC GLOBAL DEFAULT UND _ZN7android7RefBase13onLa
40:   FUNC GLOBAL DEFAULT UND _ZN7android7RefBaseD2Ev
41:   FUNC GLOBAL DEFAULT UND _ZN7android16SortedVector
42:   FUNC GLOBAL DEFAULT UND _ZNSt3__113basic_ostreamI
43:   FUNC GLOBAL DEFAULT UND _ZNSt3__113basic_ostreamI
44:   FUNC GLOBAL DEFAULT UND _ZNSt3__113basic_ostreamI
45:   FUNC GLOBAL DEFAULT UND _ZTv0_n24_NSt3__113basic_
46:   FUNC GLOBAL DEFAULT UND _ZTv0_n24_NSt3__113basic_
47:   FUNC GLOBAL DEFAULT UND _ZNSt3__18ios_base4initEP
48:   FUNC GLOBAL DEFAULT UND _ZNSt3__115basic_streambu
49:   FUNC GLOBAL DEFAULT UND _ZNSt3__115basic_streambu
50:   FUNC GLOBAL DEFAULT UND _ZNSt3__115basic_streambu
51:   FUNC GLOBAL DEFAULT UND _ZNSt3__115basic_streambu
52:   FUNC GLOBAL DEFAULT UND _ZNSt3__115basic_streambu
53:   FUNC GLOBAL DEFAULT UND _ZNSt3__115basic_streambu
54:   FUNC GLOBAL DEFAULT UND _ZNSt3__115basic_streambu
55:   FUNC GLOBAL DEFAULT UND _ZNSt3__115basic_streambu
56:   FUNC GLOBAL DEFAULT UND _ZNSt3__115basic_streambu
57:   FUNC GLOBAL DEFAULT UND _ZNSt3__112basic_stringIc
58:   FUNC GLOBAL DEFAULT UND _ZNSt3__112basic_stringIc
59:   FUNC GLOBAL DEFAULT UND _ZNSt3__113basic_ostreamI
60:   FUNC GLOBAL DEFAULT UND _ZNSt3__113basic_ostreamI
61:   FUNC GLOBAL DEFAULT UND _ZNKSt3__18ios_base6getlo
62:   FUNC GLOBAL DEFAULT UND _ZNSt3__16localeD1Ev
63:   FUNC GLOBAL DEFAULT UND _ZNKSt3__16locale9use_fac
64:   FUNC GLOBAL DEFAULT UND _ZNSt3__18ios_base5clearE
65:   FUNC GLOBAL DEFAULT UND _ZNSt3__19to_stringEi
66:   FUNC GLOBAL DEFAULT UND __vsnprintf_chk@LIBC (2)
67:   FUNC GLOBAL DEFAULT UND _ZNSt3__19basic_iosIcNS_1
68:   FUNC GLOBAL DEFAULT UND _ZNSt3__113basic_ostreamI
69:   FUNC GLOBAL DEFAULT UND _ZN7android16SortedVector
70:   FUNC GLOBAL DEFAULT UND _ZNK7android16SortedVecto
71:   OBJECT GLOBAL DEFAULT UND _ZTVN7android20AudioProdu
72:   OBJECT GLOBAL DEFAULT UND _ZTVN7android15AudioAttri
73:   OBJECT GLOBAL DEFAULT UND _ZNSt3__15ctypeIcE2idE
74:   OBJECT GLOBAL DEFAULT UND _ZN7android13TypeConverte
75:   OBJECT GLOBAL DEFAULT UND _ZN7android13TypeConverte
76:   OBJECT GLOBAL DEFAULT UND _ZN7android13TypeConverte
77:   OBJECT GLOBAL DEFAULT UND _ZTVN7android16AudioVolum
78:   OBJECT GLOBAL DEFAULT UND _ZN7android13TypeConverte
79:   FUNC GLOBAL DEFAULT UND _ZN7android20AudioProduct
80:   FUNC GLOBAL DEFAULT UND _ZN7android7String812appe
81:   OBJECT GLOBAL DEFAULT UND _ZN7android13TypeConverte
82:   FUNC GLOBAL DEFAULT UND _ZN7android7String86appen
83:   FUNC GLOBAL DEFAULT UND _ZNK7android16SortedVecto
84:   FUNC GLOBAL DEFAULT UND _ZNSt3__112basic_stringIc
85:   FUNC GLOBAL DEFAULT UND _ZNSt3__112basic_stringIc
86:   FUNC GLOBAL DEFAULT UND xmlGetProp
87:   FUNC GLOBAL DEFAULT UND xmlDocGetRootElement
88:   FUNC GLOBAL DEFAULT UND xmlStrcmp
89:   FUNC GLOBAL DEFAULT UND xmlNodeListGetString
90:   FUNC GLOBAL DEFAULT UND xmlParseFile
91:   FUNC GLOBAL DEFAULT UND xmlFreeDoc
92:   FUNC GLOBAL DEFAULT UND xmlXIncludeProcess
93:   FUNC GLOBAL DEFAULT UND _ZNSt3__14stofERKNS_12bas
94:   FUNC GLOBAL DEFAULT UND property_get_bool
95:   FUNC GLOBAL DEFAULT UND strdup@LIBC (2)
96:   FUNC GLOBAL DEFAULT UND strtok@LIBC (2)
97:   FUNC GLOBAL DEFAULT UND free@LIBC (2)
98:   FUNC GLOBAL DEFAULT UND _ZNKSt3__112basic_stringI
99:   FUNC GLOBAL DEFAULT UND _ZNKSt3__112basic_stringI
100:   FUNC GLOBAL DEFAULT UND _ZNSt3__113basic_istreamI
101:   FUNC GLOBAL DEFAULT UND _ZNSt3__114basic_iostream
102:   FUNC GLOBAL DEFAULT UND _ZNSt3__114basic_iostream
103:   FUNC GLOBAL DEFAULT UND _ZThn16_NSt3__114basic_io
104:   FUNC GLOBAL DEFAULT UND _ZThn16_NSt3__114basic_io
105:   FUNC GLOBAL DEFAULT UND _ZTv0_n24_NSt3__114basic_
106:   FUNC GLOBAL DEFAULT UND _ZTv0_n24_NSt3__114basic_
107:   FUNC GLOBAL DEFAULT UND _ZNSt3__113basic_istreamI
108:   FUNC GLOBAL DEFAULT UND _ZNSt3__113basic_istreamI
109:   FUNC GLOBAL DEFAULT UND _ZTv0_n24_NSt3__113basic_
110:   FUNC GLOBAL DEFAULT UND _ZTv0_n24_NSt3__113basic_
111:   FUNC GLOBAL DEFAULT UND _ZNSt3__114basic_iostream
112:   FUNC GLOBAL DEFAULT UND _ZNSt3__113basic_istreamI
113:   OBJECT GLOBAL DEFAULT UND xmlFree
114:   OBJECT GLOBAL DEFAULT UND _ZN7android13TypeConverte
115:   FUNC GLOBAL DEFAULT UND _ZN7android7RefBase12weak
116:   FUNC GLOBAL DEFAULT UND _ZN7android10VectorImpl5c
117:   FUNC GLOBAL DEFAULT UND _ZN7android7RefBase12weak
118:   FUNC GLOBAL DEFAULT UND _ZN7android10VectorImplC2
119:   FUNC GLOBAL DEFAULT UND _ZN7android10VectorImplD2
120:   FUNC GLOBAL DEFAULT UND _ZN7android10VectorImpl3a
121:   FUNC GLOBAL DEFAULT UND systemTime
122:   FUNC GLOBAL DEFAULT UND _ZN7android14AudioParamet
123:   FUNC GLOBAL DEFAULT UND _ZN7android14AudioParamet
124:   FUNC GLOBAL DEFAULT UND _ZN7android16SortedVector
125:   FUNC GLOBAL DEFAULT UND _ZN7android7String8C1Ev
126:   FUNC GLOBAL DEFAULT UND _ZNK7android14AudioParame
127:   FUNC GLOBAL DEFAULT UND _ZN7android10VectorImpl13
128:   OBJECT GLOBAL DEFAULT UND _ZTVN7android14AudioParam
129:   FUNC GLOBAL DEFAULT UND _ZNSt3__19to_stringEj
130:   FUNC GLOBAL DEFAULT UND strncmp@LIBC (2)
131:   FUNC GLOBAL DEFAULT UND _ZNK7android8AudioMix26is
132:   FUNC GLOBAL DEFAULT UND _ZNK7android8AudioMix10ha
133:   FUNC GLOBAL DEFAULT UND _ZNK7android8AudioMix15ha
134:   FUNC GLOBAL DEFAULT UND _ZNK7android8AudioMix13se
135:   FUNC GLOBAL DEFAULT UND _ZNK7android7RefBase10cre
136:   FUNC GLOBAL DEFAULT UND _ZN7android10VectorImpl13
137:   OBJECT GLOBAL DEFAULT UND _ZN7android14AudioParamet
138:   OBJECT GLOBAL DEFAULT UND _ZN7android13TypeConverte
139:   FUNC GLOBAL DEFAULT UND __strlcpy_chk@LIBC (2)
140:   FUNC GLOBAL DEFAULT UND _ZNK7android7String86leng
141:   FUNC GLOBAL DEFAULT UND _ZN7android10VectorImpl4s
142:   OBJECT GLOBAL DEFAULT UND _ZN7android13TypeConverte
143:   FUNC GLOBAL DEFAULT UND _ZNSt3__113basic_ostreamI
144:   FUNC GLOBAL DEFAULT UND _ZN7android7String85setTo
145:   FUNC GLOBAL DEFAULT UND strlcpy@LIBC (2)
146:   FUNC GLOBAL DEFAULT UND memset@LIBC (2)
147:   FUNC GLOBAL DEFAULT UND memcpy@LIBC (2)
148:   FUNC GLOBAL DEFAULT UND memmove@LIBC (2)
149:   FUNC GLOBAL DEFAULT UND strncpy@LIBC (2)
150:   FUNC GLOBAL DEFAULT UND __stack_chk_fail@LIBC (2)
151:   FUNC GLOBAL DEFAULT UND expf@LIBC (5)
152:   FUNC GLOBAL DEFAULT 14 _ZNK7android12audio_polic
153:   FUNC GLOBAL DEFAULT 14 _ZN7android20AudioInputDe
154:   FUNC GLOBAL DEFAULT 14 _ZThn176_NK7android23SwAu
155:   FUNC GLOBAL DEFAULT 14 _ZNK7android23SwAudioOutp
156:   FUNC GLOBAL DEFAULT 14 _ZN7android18AudioProfile
157:   FUNC WEAK DEFAULT 14 _ZN7android13TypeConverte
158:   OBJECT WEAK DEFAULT 19 _ZTVNSt3__115basic_string
159:   FUNC GLOBAL DEFAULT 14 _ZN7android12engineConfig
160:   FUNC GLOBAL DEFAULT 14 _ZN7android23SwAudioOutpu
161:   FUNC GLOBAL DEFAULT 14 _ZN7android12engineConfig
162:   FUNC GLOBAL DEFAULT 14 _ZNK7android15ProductStra
163:   FUNC GLOBAL DEFAULT 14 _ZN7android21AudioOutputD
164:   FUNC GLOBAL DEFAULT 14 _ZNK7android23HwAudioOutp
165:   FUNC GLOBAL DEFAULT 14 _ZN7android12DeviceVector
166:   FUNC WEAK DEFAULT 14 _ZNK7android6VectorI14aud
167:   FUNC GLOBAL DEFAULT 14 _ZNK7android16DeviceDescr
168:   FUNC WEAK DEFAULT 14 _ZN7android13TypeConverte
169:   FUNC GLOBAL DEFAULT 14 _ZN7android12audio_policy
170:   FUNC GLOBAL DEFAULT 14 _ZThn168_N7android20Audio
171:   FUNC GLOBAL DEFAULT 14 _ZNK7android23SwAudioOutp
172:   FUNC GLOBAL DEFAULT 14 _ZNK7android23HwAudioOutp
173:   FUNC GLOBAL DEFAULT 14 _ZN7android18AudioProfile
174:   FUNC GLOBAL DEFAULT 14 _ZN7android12audio_policy
175:   FUNC GLOBAL DEFAULT 14 _ZNK7android15ProductStra
176:   FUNC GLOBAL DEFAULT 14 _ZN7android21AudioOutputD
177:   FUNC GLOBAL DEFAULT 14 _ZN7android23SwAudioOutpu
178:   FUNC GLOBAL DEFAULT 14 _ZNK7android23SwAudioOutp
179:   FUNC GLOBAL DEFAULT 14 _ZN7android11VolumeGroup1
180:   FUNC GLOBAL DEFAULT 14 _ZN7android23SwAudioOutpu
181:   FUNC GLOBAL DEFAULT 14 _ZN7android23HwAudioOutpu
182:   FUNC GLOBAL DEFAULT 14 _ZNK7android14AudioPolicy
183:   FUNC GLOBAL DEFAULT 14 _ZN7android12audio_policy
184:   FUNC GLOBAL DEFAULT 14 _ZNK7android20AudioInputD
185:   FUNC GLOBAL DEFAULT 14 _ZN7android20AudioInputDe
186:   FUNC GLOBAL DEFAULT 14 _ZNK7android9AudioPort4du
187:   FUNC GLOBAL DEFAULT 14 _ZN7android12AudioProfile
188:   FUNC GLOBAL DEFAULT 14 _ZN7android26EffectDescri
189:   FUNC GLOBAL DEFAULT 14 _ZNK7android15ProductStra
190:   FUNC GLOBAL DEFAULT 14 _ZN7android26EffectDescri
191:   FUNC WEAK DEFAULT 14 _ZN7android13TypeConverte
192:   FUNC GLOBAL DEFAULT 14 _ZNK7android12audio_polic
193:   FUNC GLOBAL DEFAULT 14 _ZNK7android18ProductStra
194:   FUNC GLOBAL DEFAULT 14 _ZThn168_NK7android20Audi
195:   FUNC GLOBAL DEFAULT 14 _ZNK7android20AudioInputC
196:   FUNC GLOBAL DEFAULT 14 _ZN7android23SwAudioOutpu
197:   OBJECT GLOBAL DEFAULT 19 _ZTCN7android16DeviceDesc
198:   FUNC WEAK DEFAULT 14 _ZN7android13TypeConverte
199:   FUNC WEAK DEFAULT 14 _ZN7android13TypeConverte
200:   FUNC GLOBAL DEFAULT 14 _ZNK7android12audio_polic
201:   FUNC GLOBAL DEFAULT 14 _ZN7android12engineConfig
202:   FUNC GLOBAL DEFAULT 14 _ZNK7android15AudioPortCo
203:   FUNC GLOBAL DEFAULT 14 _ZNK7android23SwAudioOutp
204:   FUNC GLOBAL DEFAULT 14 _ZN7android22SourceClient
205:   OBJECT GLOBAL DEFAULT 19 _ZTVN7android22RecordClie
206:   FUNC GLOBAL DEFAULT 14 _ZNK7android23SwAudioOutp
207:   FUNC GLOBAL DEFAULT 14 _ZNK7android12audio_polic
208:   FUNC GLOBAL DEFAULT 14 _ZNK7android20AudioInputC
209:   FUNC GLOBAL DEFAULT 14 _ZN7android23SwAudioOutpu
210:   FUNC GLOBAL DEFAULT 14 _ZNK7android24AudioPolicy
211:   FUNC GLOBAL DEFAULT 14 _ZNK7android12DeviceVecto
212:   FUNC GLOBAL DEFAULT 14 _ZN7android21AudioOutputD
213:   FUNC WEAK DEFAULT 14 _ZNSt3__16vectorI19audio_
214:   FUNC GLOBAL DEFAULT 14 _ZNK7android9AudioPort11t
215:   FUNC GLOBAL DEFAULT 14 _ZNK7android12AudioProfil
216:   FUNC GLOBAL DEFAULT 14 _ZN7android12audio_policy
217:   FUNC GLOBAL DEFAULT 14 _ZNK7android18ProductStra
218:   FUNC GLOBAL DEFAULT 14 _ZNK7android20AudioInputD
219:   FUNC GLOBAL DEFAULT 14 _ZN7android20AudioInputCo
220:   FUNC GLOBAL DEFAULT 14 _ZN7android24AudioPolicyM
221:   FUNC GLOBAL DEFAULT 14 _ZNK7android24AudioPolicy
222:   FUNC GLOBAL DEFAULT 14 _ZNK7android12AudioProfil
223:   FUNC WEAK DEFAULT 14 _ZNK7android6VectorI14aud
224:   FUNC GLOBAL DEFAULT 14 _ZNK7android12audio_polic
225:   FUNC GLOBAL DEFAULT 14 _ZN7android21AudioOutputD
226:   FUNC GLOBAL DEFAULT 14 _ZN7android12DeviceVector
227:   FUNC GLOBAL DEFAULT 14 _ZN7android12audio_policy
228:   FUNC GLOBAL DEFAULT 14 _ZNK7android16DeviceDescr
229:   FUNC GLOBAL DEFAULT 14 _ZNK7android9AudioPort13g
230:   FUNC WEAK DEFAULT 14 _ZNSt3__16vectorIjNS_9all
231:   OBJECT GLOBAL DEFAULT 19 _ZTVN7android16DeviceDesc
232:   OBJECT GLOBAL DEFAULT 19 _ZTTN7android20AudioInput
233:   FUNC GLOBAL DEFAULT 14 _ZNK7android21AudioOutput
234:   FUNC GLOBAL DEFAULT 14 _ZN7android23SwAudioOutpu
235:   FUNC GLOBAL DEFAULT 14 _ZN7android12AudioProfile
236:   FUNC GLOBAL DEFAULT 14 _ZN7android18AudioProfile
237:   FUNC GLOBAL DEFAULT 14 _ZN7android12DeviceVector
238:   FUNC WEAK DEFAULT 14 _ZN7android13TypeConverte
239:   FUNC GLOBAL DEFAULT 14 _ZNK7android18ProductStra
240:   FUNC GLOBAL DEFAULT 14 _ZNK7android20AudioInputD
241:   OBJECT GLOBAL DEFAULT 19 _ZTVN7android23HwAudioOut
242:   FUNC WEAK DEFAULT 14 _ZNSt3__115basic_stringbu
243:   OBJECT GLOBAL DEFAULT 19 _ZTCN7android23HwAudioOut
244:   FUNC GLOBAL DEFAULT 14 _ZN7android24AudioPolicyM
245:   FUNC WEAK DEFAULT 14 _ZNK7android6VectorI14aud
246:   FUNC GLOBAL DEFAULT 14 _ZN7android20AudioInputDe
247:   OBJECT GLOBAL DEFAULT 19 _ZTCN7android23SwAudioOut
248:   FUNC GLOBAL DEFAULT 14 _ZN7android12audio_policy
249:   FUNC GLOBAL DEFAULT 14 _ZNK7android14VolumeGroup
250:   FUNC WEAK DEFAULT 14 _ZNK7android12SortedVecto
251:   FUNC GLOBAL DEFAULT 14 _ZN7android9AudioPort14fo
252:   FUNC GLOBAL DEFAULT 14 _ZN7android12AudioProfile
253:   FUNC GLOBAL DEFAULT 14 _ZNK7android26EffectDescr
254:   FUNC GLOBAL DEFAULT 14 _ZN7android12audio_policy
255:   FUNC GLOBAL DEFAULT 14 _ZNK7android18ProductStra
256:   OBJECT GLOBAL DEFAULT 19 _ZTVN7android9AudioPortE
257:   FUNC GLOBAL DEFAULT 14 _ZN7android26EffectDescri
258:   FUNC WEAK DEFAULT 14 _ZN7android13TypeConverte
259:   FUNC WEAK DEFAULT 14 _ZN7android13TypeConverte
260:   FUNC GLOBAL DEFAULT 14 _ZNK7android18ProductStra
261:   FUNC GLOBAL DEFAULT 14 _ZNK7android14ChannelsVec
262:   FUNC GLOBAL DEFAULT 14 _ZN7android12audio_policy
263:   FUNC GLOBAL DEFAULT 14 _ZNK7android20AudioInputD
264:   OBJECT GLOBAL DEFAULT 19 _ZTTN7android23HwAudioOut
265:   FUNC GLOBAL DEFAULT 14 _ZNK7android18AudioProfil
266:   FUNC GLOBAL DEFAULT 14 _ZN7android16DeviceDescri
267:   OBJECT GLOBAL DEFAULT 19 _ZTCN7android16DeviceDesc
268:   FUNC GLOBAL DEFAULT 14 _ZNK7android20AudioInputD
269:   OBJECT GLOBAL DEFAULT 19 _ZTVN7android21AudioOutpu
270:   FUNC GLOBAL DEFAULT 14 _ZNK7android20AudioInputD
271:   FUNC GLOBAL DEFAULT 14 _ZN7android24AudioPolicyM
272:   FUNC GLOBAL DEFAULT 14 _ZN7android16DeviceDescri
273:   FUNC GLOBAL DEFAULT 14 _ZN7android26EffectDescri
274:   FUNC WEAK DEFAULT 14 _ZN7android13TypeConverte
275:   FUNC GLOBAL DEFAULT 14 _ZNK7android12audio_polic
276:   FUNC GLOBAL DEFAULT 14 _ZNK7android12audio_polic
277:   FUNC GLOBAL DEFAULT 14 _ZNK7android23SwAudioOutp
278:   FUNC GLOBAL DEFAULT 14 _ZN7android24AudioPolicyM
279:   FUNC GLOBAL DEFAULT 14 _ZN7android16DeviceDescri
280:   FUNC WEAK DEFAULT 14 _ZNSt3__115basic_stringbu
281:   FUNC GLOBAL DEFAULT 14 _ZNK7android15ProductStra
282:   FUNC GLOBAL DEFAULT 14 _ZNK7android9AudioGain4du
283:   FUNC GLOBAL DEFAULT 14 _ZNK7android20AudioInputD
284:   FUNC GLOBAL DEFAULT 14 _ZN7android20AudioInputDe
285:   FUNC GLOBAL DEFAULT 14 _ZNK7android20AudioInputC
286:   FUNC GLOBAL DEFAULT 14 _ZThn168_NK7android21Audi
287:   FUNC GLOBAL DEFAULT 14 _ZNK7android21AudioOutput
288:   FUNC GLOBAL DEFAULT 14 _ZNK7android12audio_polic
289:   FUNC GLOBAL DEFAULT 14 _ZN7android20AudioInputDe
290:   FUNC WEAK DEFAULT 14 _ZNK7android12SortedVecto
291:   FUNC GLOBAL DEFAULT 14 _ZNK7android12audio_polic
292:   OBJECT WEAK DEFAULT 19 _ZTCNSt3__118basic_string
293:   FUNC WEAK DEFAULT 14 _ZNK7android12SortedVecto
294:   OBJECT GLOBAL DEFAULT 19 _ZTTN7android16DeviceDesc
295:   FUNC GLOBAL DEFAULT 14 _ZN7android21AudioOutputD
296:   FUNC WEAK DEFAULT 14 _ZNK7android12SortedVecto
297:   FUNC GLOBAL DEFAULT 14 _ZNK7android12DeviceVecto
298:   FUNC GLOBAL DEFAULT 14 _ZNK7android12VolumeCurve
299:   FUNC GLOBAL DEFAULT 14 _ZN7android12engineConfig
300:   FUNC GLOBAL DEFAULT 14 _ZN7android9AudioPort19is
301:   FUNC GLOBAL DEFAULT 14 _ZN7android18AudioProfile
302:   FUNC GLOBAL DEFAULT 14 _ZNK7android18AudioProfil
303:   FUNC WEAK DEFAULT 14 _ZN7android13TypeConverte
304:   FUNC WEAK DEFAULT 14 _ZN7android13TypeConverte
305:   FUNC GLOBAL DEFAULT 14 _ZN7android12engineConfig
306:   FUNC GLOBAL DEFAULT 14 _ZNK7android23SwAudioOutp
307:   OBJECT WEAK DEFAULT 19 _ZTVN7android12SortedVect
308:   FUNC GLOBAL DEFAULT 14 _ZN7android22RecordClient
309:   FUNC GLOBAL DEFAULT 14 __cfi_check
310:   FUNC GLOBAL DEFAULT 14 _ZNK7android20AudioInputD
311:   FUNC GLOBAL DEFAULT 14 _ZN7android9AudioPort15ge
312:   FUNC GLOBAL DEFAULT 14 _ZN7android20AudioInputCo
313:   FUNC GLOBAL DEFAULT 14 _ZNK7android18AudioProfil
314:   FUNC WEAK DEFAULT 14 _ZN7android13TypeConverte
315:   FUNC GLOBAL DEFAULT 14 _ZNK7android12audio_polic
316:   FUNC GLOBAL DEFAULT 14 _ZN7android12engineConfig
317:   FUNC GLOBAL DEFAULT 14 _ZN7android23SwAudioOutpu
318:   FUNC GLOBAL DEFAULT 14 _ZN7android12AudioProfile
319:   FUNC GLOBAL DEFAULT 14 _ZN7android26EffectDescri
320:   FUNC GLOBAL DEFAULT 14 _ZN7android12audio_policy
321:   FUNC GLOBAL DEFAULT 14 _ZN7android12AudioProfile
322:   FUNC GLOBAL DEFAULT 14 _ZNK7android26EffectDescr
323:   FUNC GLOBAL DEFAULT 14 _ZNK7android21AudioOutput
324:   FUNC GLOBAL DEFAULT 14 _ZNK7android21AudioOutput
325:   FUNC WEAK DEFAULT 14 _ZNK7android12SortedVecto
326:   FUNC GLOBAL DEFAULT 14 _ZNK7android15ProductStra
327:   FUNC GLOBAL DEFAULT 14 _ZNK7android18ProductStra
328:   FUNC GLOBAL DEFAULT 14 _ZN7android24AudioPolicyM
329:   OBJECT GLOBAL DEFAULT 19 _ZTVN7android12audio_poli
330:   FUNC GLOBAL DEFAULT 14 _ZN7android21AudioOutputD
331:   FUNC GLOBAL DEFAULT 14 _ZN7android12audio_policy
332:   FUNC GLOBAL DEFAULT 14 _ZNK7android15ProductStra
333:   FUNC GLOBAL DEFAULT 14 _ZNK7android9AudioPort9ch
334:   FUNC GLOBAL DEFAULT 14 _ZNK7android22RecordClien
335:   OBJECT GLOBAL DEFAULT 19 _ZTVN7android16ClientDesc
336:   FUNC WEAK DEFAULT 14 _ZN7android13TypeConverte
337:   FUNC GLOBAL DEFAULT 14 _ZNK7android12audio_polic
338:   FUNC GLOBAL DEFAULT 14 _ZNK7android9AudioPort21g
339:   FUNC GLOBAL DEFAULT 14 _ZNK7android15ProductStra
340:   FUNC GLOBAL DEFAULT 14 _ZNK7android11VolumeCurve
341:   FUNC GLOBAL DEFAULT 14 _ZN7android20AudioInputDe
342:   FUNC GLOBAL DEFAULT 14 _ZN7android20AudioInputDe
343:   FUNC GLOBAL DEFAULT 14 _ZN7android9AudioPort6det
344:   FUNC GLOBAL DEFAULT 14 _ZNK7android18AudioProfil
345:   FUNC GLOBAL DEFAULT 14 _ZNK7android18AudioProfil
346:   FUNC GLOBAL DEFAULT 14 _ZNK7android20AudioInputD
347:   FUNC GLOBAL DEFAULT 14 _ZThn176_NK7android20Audi
348:   FUNC GLOBAL DEFAULT 14 _ZNK7android23SwAudioOutp
349:   FUNC GLOBAL DEFAULT 14 _ZNK7android21TrackClient
350:   FUNC GLOBAL DEFAULT 14 _ZNK7android26EffectDescr
351:   FUNC WEAK DEFAULT 14 _ZN7android13TypeConverte
352:   FUNC GLOBAL DEFAULT 14 _ZNK7android20AudioInputD
353:   FUNC GLOBAL DEFAULT 14 _ZN7android23SwAudioOutpu
354:   FUNC GLOBAL DEFAULT 14 _ZN7android23HwAudioOutpu
355:   FUNC GLOBAL DEFAULT 14 _ZNK7android18ProductStra
356:   FUNC GLOBAL DEFAULT 14 _ZNK7android23HwAudioOutp
357:   FUNC GLOBAL DEFAULT 14 _ZN7android24AudioPolicyM
358:   OBJECT GLOBAL DEFAULT 19 _ZN7android13TypeConverte
359:   FUNC GLOBAL DEFAULT 14 _ZNK7android18AudioProfil
360:   FUNC GLOBAL DEFAULT 14 _ZN7android11VolumeGroupC
361:   FUNC GLOBAL DEFAULT 14 _ZN7android12engineConfig
362:   FUNC GLOBAL DEFAULT 14 _ZThn168_NK7android20Audi
363:   FUNC WEAK DEFAULT 14 _ZN7android13TypeConverte
364:   FUNC GLOBAL DEFAULT 14 _ZN7android12engineConfig
365:   FUNC GLOBAL DEFAULT 14 _ZNK7android9AudioPort16p
366:   FUNC GLOBAL DEFAULT 14 _ZN7android21AudioOutputD
367:   FUNC GLOBAL DEFAULT 14 _ZN7android23SwAudioOutpu
368:   FUNC GLOBAL DEFAULT 14 _ZN7android26EffectDescri
369:   FUNC GLOBAL DEFAULT 14 _ZNK7android24AudioPolicy
370:   FUNC GLOBAL DEFAULT 14 _ZNK7android20AudioInputD
371:   FUNC GLOBAL DEFAULT 14 _ZN7android20AudioInputCo
372:   FUNC GLOBAL DEFAULT 14 _ZN7androideqERKNS_12Audi
373:   OBJECT WEAK DEFAULT 19 _ZTVN7android12SortedVect
374:   FUNC GLOBAL DEFAULT 14 _ZN7android12audio_policy
375:   FUNC GLOBAL DEFAULT 14 _ZNK7android12audio_polic
376:   OBJECT GLOBAL DEFAULT 19 _ZTVN7android12audio_poli
377:   OBJECT GLOBAL DEFAULT 19 _ZTVN7android12VolumeCurv
378:   FUNC GLOBAL DEFAULT 14 _ZN7android9AudioGainC2Ei
379:   OBJECT GLOBAL DEFAULT 19 _ZTCN7android23HwAudioOut
380:   FUNC GLOBAL DEFAULT 14 _ZNK7android18AudioProfil
381:   FUNC GLOBAL DEFAULT 14 _ZNK7android12DeviceVecto
382:   OBJECT GLOBAL DEFAULT 19 _ZTVN7android20AudioInput
383:   FUNC GLOBAL DEFAULT 14 _ZN7android24AudioPolicyM
384:   FUNC GLOBAL DEFAULT 14 _ZNK7android16ClientDescr
385:   FUNC GLOBAL DEFAULT 14 _ZNK7android20AudioInputD
386:   FUNC WEAK DEFAULT 14 _ZNK7android12SortedVecto
387:   FUNC GLOBAL DEFAULT 14 _ZNK7android20AudioInputD
388:   OBJECT GLOBAL DEFAULT 19 _ZN7android13TypeConverte
389:   FUNC GLOBAL DEFAULT 14 _ZN7android12engineConfig
390:   FUNC GLOBAL DEFAULT 14 _ZNK7android26EffectDescr
391:   FUNC GLOBAL DEFAULT 14 _ZN7android23SwAudioOutpu
392:   FUNC GLOBAL DEFAULT 14 _ZN7android12audio_policy
393:   FUNC GLOBAL DEFAULT 14 _ZThn176_N7android20Audio
394:   FUNC GLOBAL DEFAULT 14 _ZN7android20AudioInputDe
395:   FUNC GLOBAL DEFAULT 14 _ZThn176_NK7android21Audi
396:   FUNC GLOBAL DEFAULT 14 _ZNK7android12DeviceVecto
397:   OBJECT GLOBAL DEFAULT 19 _ZTTN7android9AudioPortE
398:   FUNC WEAK DEFAULT 14 _ZNK7android6VectorI14aud
399:   FUNC GLOBAL DEFAULT 14 _ZN7android16DeviceDescri
400:   FUNC GLOBAL DEFAULT 14 _ZN7android20AudioInputDe
401:   FUNC GLOBAL DEFAULT 14 _ZNK7android21AudioOutput
402:   OBJECT GLOBAL DEFAULT 19 _ZTCN7android21AudioOutpu
403:   FUNC GLOBAL DEFAULT 14 _ZNK7android21TrackClient
404:   FUNC GLOBAL DEFAULT 14 _ZNK7android12audio_polic
405:   OBJECT WEAK DEFAULT 19 _ZTVNSt3__118basic_string
406:   FUNC GLOBAL DEFAULT 14 _ZN7android9AudioGain11ch
407:   FUNC GLOBAL DEFAULT 14 _ZN7android18ProductStrat
408:   FUNC GLOBAL DEFAULT 14 _ZN7android12AudioProfile
409:   FUNC GLOBAL DEFAULT 14 _ZNK7android12audio_polic
410:   FUNC GLOBAL DEFAULT 14 _ZNK7android12audio_polic
411:   FUNC GLOBAL DEFAULT 14 _ZN7android20AudioInputDe
412:   FUNC GLOBAL DEFAULT 14 _ZNK7android12DeviceVecto
413:   FUNC GLOBAL DEFAULT 14 _ZN7android23SwAudioOutpu
414:   FUNC GLOBAL DEFAULT 14 _ZNK7android9AudioPort16p
415:   FUNC GLOBAL DEFAULT 14 _ZN7android9AudioPort14co
416:   FUNC GLOBAL DEFAULT 14 _ZNK7android12DeviceVecto
417:   FUNC GLOBAL DEFAULT 14 _ZNK7android9AudioPort15g
418:   FUNC GLOBAL DEFAULT 14 _ZNK7android21AudioOutput
419:   FUNC GLOBAL DEFAULT 14 _ZNK7android23SwAudioOutp
420:   FUNC GLOBAL DEFAULT 14 _ZN7android22SourceClient
421:   FUNC GLOBAL DEFAULT 14 _ZNK7android12audio_polic
422:   FUNC WEAK DEFAULT 14 _ZNK7android12SortedVecto
423:   FUNC GLOBAL DEFAULT 14 _ZNK7android22SourceClien
424:   FUNC GLOBAL DEFAULT 14 _ZNK7android21AudioOutput
425:   FUNC GLOBAL DEFAULT 14 _ZNK7android23SwAudioOutp
426:   FUNC GLOBAL DEFAULT 14 _ZNK7android9AudioPort22c
427:   FUNC GLOBAL DEFAULT 14 _ZNK7android18ProductStra
428:   FUNC GLOBAL DEFAULT 14 _ZNK7android18ProductStra
429:   OBJECT WEAK DEFAULT 19 _ZTCNSt3__118basic_string
430:   FUNC GLOBAL DEFAULT 14 _ZN7android24AudioPolicyM
431:   FUNC GLOBAL DEFAULT 14 _ZNK7android12audio_polic
432:   FUNC GLOBAL DEFAULT 14 _ZN7android9AudioGainC1Ei
433:   FUNC GLOBAL DEFAULT 14 _ZNK7android9AudioPort3lo
434:   FUNC GLOBAL DEFAULT 14 _ZN7android16DeviceDescri
435:   FUNC GLOBAL DEFAULT 14 _ZNK7android20AudioInputD
436:   FUNC GLOBAL DEFAULT 14 _ZThn168_NK7android21Audi
437:   FUNC WEAK DEFAULT 14 _ZNK7android12SortedVecto
438:   OBJECT GLOBAL DEFAULT 19 _ZTCN7android23SwAudioOut
439:   OBJECT GLOBAL DEFAULT 11 _ZN7android9AudioPort22sP
440:   FUNC GLOBAL DEFAULT 14 _ZNK7android12AudioProfil
441:   FUNC GLOBAL DEFAULT 14 _ZNK7android12DeviceVecto
442:   FUNC GLOBAL DEFAULT 14 _ZN7android23SwAudioOutpu
443:   FUNC GLOBAL DEFAULT 14 _ZNK7android23SwAudioOutp
444:   FUNC GLOBAL DEFAULT 14 _ZN7android12audio_policy
445:   FUNC GLOBAL DEFAULT 14 _ZNK7android18AudioProfil
446:   FUNC GLOBAL DEFAULT 14 _ZThn144_NK7android16Devi
447:   FUNC GLOBAL DEFAULT 14 _ZNK7android12audio_polic
448:   FUNC GLOBAL DEFAULT 14 _ZNK7android12audio_polic
449:   FUNC GLOBAL DEFAULT 14 _ZN7android9AudioPort6att
450:   FUNC WEAK DEFAULT 14 _ZNK7android6VectorI14aud
451:   FUNC GLOBAL DEFAULT 14 _ZNK7android12audio_polic
452:   FUNC GLOBAL DEFAULT 14 _ZN7android11VolumeGroupC
453:   FUNC GLOBAL DEFAULT 14 _ZN7android21AudioOutputD
454:   FUNC GLOBAL DEFAULT 14 _ZN7android23SwAudioOutpu
455:   OBJECT GLOBAL DEFAULT 19 _ZN7android13TypeConverte
456:   FUNC GLOBAL DEFAULT 14 _ZNK7android23SwAudioOutp
457:   FUNC GLOBAL DEFAULT 14 _ZN7android12AudioProfile
458:   FUNC GLOBAL DEFAULT 14 _ZNK7android21AudioOutput
459:   FUNC GLOBAL DEFAULT 14 _ZN7android23SwAudioOutpu
460:   FUNC GLOBAL DEFAULT 14 _ZN7android16DeviceDescri
461:   FUNC GLOBAL DEFAULT 14 _ZNK7android12DeviceVecto
462:   FUNC GLOBAL DEFAULT 14 _ZN7android15ProductStrat
463:   FUNC GLOBAL DEFAULT 14 _ZNK7android11VolumeCurve
464:   FUNC WEAK DEFAULT 14 _ZNK7android12SortedVecto
465:   FUNC GLOBAL DEFAULT 14 _ZN7android22SourceClient
466:   FUNC GLOBAL DEFAULT 14 _ZN7android16DeviceDescri
467:   FUNC GLOBAL DEFAULT 14 _ZNK7android16DeviceDescr
468:   FUNC GLOBAL DEFAULT 14 _ZNK7android12AudioProfil
469:   FUNC GLOBAL DEFAULT 14 _ZNK7android16ClientDescr
470:   FUNC WEAK DEFAULT 14 _ZN7android13TypeConverte
471:   FUNC GLOBAL DEFAULT 14 _ZN7android12audio_policy
472:   FUNC GLOBAL DEFAULT 14 _ZNK7android15ProductStra
473:   FUNC GLOBAL DEFAULT 14 _ZN7android18AudioProfile
474:   FUNC GLOBAL DEFAULT 14 _ZN7android15ProductStrat
475:   OBJECT WEAK DEFAULT 16 _ZZN7android15HandleGener
476:   FUNC GLOBAL DEFAULT 14 _ZNK7android12DeviceVecto
477:   FUNC GLOBAL DEFAULT 14 _ZN7android26EffectDescri
478:   FUNC GLOBAL DEFAULT 14 _ZNK7android12audio_polic
479:   FUNC GLOBAL DEFAULT 14 _ZN7android12audio_policy
480:   FUNC GLOBAL DEFAULT 14 _ZN7android20AudioInputDe
481:   OBJECT GLOBAL DEFAULT 19 _ZTVN7android23SwAudioOut
482:   FUNC GLOBAL DEFAULT 14 _ZN7android12engineConfig
483:   FUNC GLOBAL DEFAULT 14 _ZN7android12engineConfig
484:   FUNC GLOBAL DEFAULT 14 _ZN7android9AudioGain16ge
485:   FUNC WEAK DEFAULT 14 _ZNK7android12SortedVecto
486:   FUNC GLOBAL DEFAULT 14 _ZN7android22SourceClient
487:   FUNC GLOBAL DEFAULT 14 _ZN7android16DeviceDescri
488:   FUNC WEAK DEFAULT 14 _ZNSt3__115basic_stringbu
489:   FUNC GLOBAL DEFAULT 14 _ZN7android24AudioPolicyM
490:   OBJECT WEAK DEFAULT 19 _ZTCNSt3__118basic_string
491:   FUNC GLOBAL DEFAULT 14 _ZNK7android23HwAudioOutp
492:   FUNC GLOBAL DEFAULT 14 _ZN7android9AudioPort15im
493:   FUNC GLOBAL DEFAULT 14 _ZN7android18AudioProfile
494:   FUNC GLOBAL DEFAULT 14 _ZN7android12DeviceVector
495:   FUNC GLOBAL DEFAULT 14 _ZNK7android12DeviceVecto
496:   FUNC GLOBAL DEFAULT 14 _ZNK7android16DeviceDescr
497:   FUNC GLOBAL DEFAULT 14 _ZNK7android23SwAudioOutp
498:   FUNC GLOBAL DEFAULT 14 _ZNK7android15ProductStra
499:   FUNC GLOBAL DEFAULT 14 _ZN7android20AudioInputDe
500:   FUNC GLOBAL DEFAULT 14 _ZN7android23SwAudioOutpu
501:   FUNC GLOBAL DEFAULT 14 _ZN7android23HwAudioOutpu
502:   FUNC GLOBAL DEFAULT 14 _ZNK7android23SwAudioOutp
503:   FUNC GLOBAL DEFAULT 14 _ZN7android12audio_policy
504:   FUNC GLOBAL DEFAULT 14 _ZNK7android18ProductStra
505:   FUNC GLOBAL DEFAULT 14 _ZN7android11VolumeGroup3
506:   FUNC GLOBAL DEFAULT 14 _ZNK7android23SwAudioOutp
507:   OBJECT GLOBAL DEFAULT 19 _ZTVN7android22SourceClie
508:   FUNC GLOBAL DEFAULT 14 _ZNK7android16DeviceDescr
509:   OBJECT WEAK DEFAULT 19 _ZTTNSt3__118basic_string
510:   OBJECT GLOBAL DEFAULT 19 _ZTTN7android21AudioOutpu
511:   OBJECT GLOBAL DEFAULT 19 _ZTTN7android23SwAudioOut
512:   FUNC GLOBAL DEFAULT 14 _ZNK7android14ChannelsVec
513:   FUNC GLOBAL DEFAULT 14 _ZNK7android22SourceClien
514:   FUNC GLOBAL DEFAULT 14 _ZN7android18AudioProfile
515:   FUNC GLOBAL DEFAULT 14 _ZN7android20AudioInputDe
516:   OBJECT GLOBAL DEFAULT 19 _ZTVN7android12audio_poli
517:   FUNC GLOBAL DEFAULT 14 _ZN7android20AudioInputDe
518:   FUNC GLOBAL DEFAULT 14 _ZNK7android26EffectDescr
519:   FUNC GLOBAL DEFAULT 14 _ZNK7android9AudioPort15p
520:   FUNC WEAK DEFAULT 14 _ZNK7android6VectorI14aud
521:   FUNC GLOBAL DEFAULT 14 _ZN7android11VolumeGroup2
522:   FUNC GLOBAL DEFAULT 14 _ZN7android12engineConfig
523:   OBJECT GLOBAL DEFAULT 19 _ZTCN7android20AudioInput
524:   FUNC GLOBAL DEFAULT 14 _ZNK7android23SwAudioOutp
525:   FUNC WEAK DEFAULT 14 _ZNK7android12SortedVecto
526:   FUNC GLOBAL DEFAULT 14 _ZNK7android20AudioInputD
527:   FUNC GLOBAL DEFAULT 14 _ZNK7android20AudioInputD
528:   FUNC GLOBAL DEFAULT 14 _ZNK7android24AudioPolicy
529:   FUNC GLOBAL DEFAULT 14 _ZN7android12AudioProfile
530:   FUNC GLOBAL DEFAULT 14 _ZN7android20AudioInputCo
531:   FUNC GLOBAL DEFAULT 14 _ZNK7android20AudioInputC
532:   FUNC GLOBAL DEFAULT 14 _ZNK7android21AudioOutput
533:   OBJECT GLOBAL DEFAULT 19 _ZTVN7android21TrackClien
534:   FUNC GLOBAL DEFAULT 14 _ZNK7android11VolumeGroup
535:   FUNC GLOBAL DEFAULT 14 _ZNK7android18AudioProfil
536:   FUNC GLOBAL DEFAULT 14 _ZNK7android26EffectDescr
537:   OBJECT GLOBAL DEFAULT 19 _ZN7android13TypeConverte
538:   FUNC GLOBAL DEFAULT 14 _ZNK7android16DeviceDescr
539:   FUNC GLOBAL DEFAULT 14 _ZNK7android18ProductStra
540:   FUNC GLOBAL DEFAULT 14 _ZNK7android15ProductStra
541:   FUNC GLOBAL DEFAULT 14 _ZN7android20AudioInputDe
542:   FUNC GLOBAL DEFAULT 14 _ZN7android21AudioOutputD
543:   FUNC WEAK DEFAULT 14 _ZNK7android12SortedVecto
544:   OBJECT WEAK DEFAULT 16 _ZZN7android15HandleGener
545:   FUNC GLOBAL DEFAULT 14 _ZN7android26EffectDescri
546:   FUNC GLOBAL DEFAULT 14 _ZN7android12audio_policy
547:   FUNC GLOBAL DEFAULT 14 _ZNK7android26EffectDescr
548:   FUNC WEAK DEFAULT 14 _ZNSt3__115basic_stringbu
549:   FUNC GLOBAL DEFAULT 14 _ZNK7android15ProductStra
550:   FUNC WEAK DEFAULT 14 _ZNK7android12SortedVecto
551:   FUNC GLOBAL DEFAULT 14 _ZNK7android18AudioProfil
552:   OBJECT WEAK DEFAULT 19 _ZTVN7android6VectorI14au
553:   FUNC GLOBAL DEFAULT 14 _ZNK7android18ProductStra
554:   FUNC GLOBAL DEFAULT 14 _ZN7android15ProductStrat
555:   FUNC GLOBAL DEFAULT 14 _ZNK7android12DeviceVecto
556:   FUNC GLOBAL DEFAULT 14 _ZNK7android12DeviceVecto
557:   FUNC WEAK DEFAULT 14 _ZNK7android12SortedVecto
558:   FUNC WEAK DEFAULT 14 _ZNSt3__115basic_stringbu
559:   FUNC GLOBAL DEFAULT 14 _ZNK7android16DeviceDescr
560:   FUNC WEAK DEFAULT 14 _ZN7android13TypeConverte
561:   FUNC GLOBAL DEFAULT 14 _ZNK7android12DeviceVecto
562:   FUNC GLOBAL DEFAULT 14 _ZNK7android12audio_polic
563:   FUNC GLOBAL DEFAULT 14 _ZThn168_N7android21Audio
564:   FUNC GLOBAL DEFAULT 14 _ZN7android12DeviceVector
565:   FUNC GLOBAL DEFAULT 14 _ZNK7android16EffectDescr
566:   FUNC GLOBAL DEFAULT 14 _ZNK7android15ProductStra
567:   FUNC GLOBAL DEFAULT 14 _ZNK7android21AudioOutput
568:   FUNC GLOBAL DEFAULT 14 _ZNK7android21AudioOutput
569:   FUNC GLOBAL DEFAULT 14 _ZNK7android23SwAudioOutp
570:   FUNC GLOBAL DEFAULT 14 _ZN7android15AudioPortCon
571:   FUNC WEAK DEFAULT 14 _ZN7android13TypeConverte
572:   FUNC GLOBAL DEFAULT 14 _ZNK7android23SwAudioOutp
573:   FUNC GLOBAL DEFAULT 14 _ZNK7android12audio_polic
574:   FUNC GLOBAL DEFAULT 14 _ZN7android20AudioInputDe
575:   FUNC GLOBAL DEFAULT 14 _ZNK7android16DeviceDescr
576:   FUNC GLOBAL DEFAULT 14 _ZNK7android23HwAudioOutp
577:   FUNC GLOBAL DEFAULT 14 _ZNK7android18AudioProfil
578:   FUNC GLOBAL DEFAULT 14 _ZNK7android12audio_polic
579:   FUNC GLOBAL DEFAULT 14 _ZNK7android15AudioPortCo
580:   FUNC GLOBAL DEFAULT 14 _ZThn176_NK7android23HwAu
581:   FUNC WEAK DEFAULT 14 _ZN7android13TypeConverte
