 0x000000000000000e (SONAME)             Library soname: [libnativeloader.so]
  
Symbol   contains 10 entries:
Num:   Type Bind Vis Ndx Name
0:   NOTYPE LOCAL DEFAULT UND
1:   FUNC GLOBAL DEFAULT 7 NativeLoaderFreeErrorMess@@LIBNATIVELOADER_1
2:   FUNC GLOBAL DEFAULT 7 ResetNativeLoader@@LIBNATIVELOADER_1
3:   FUNC GLOBAL DEFAULT 7 CloseNativeLibrary@@LIBNATIVELOADER_1
4:   FUNC GLOBAL DEFAULT 7 CreateClassLoaderNamespac@@LIBNATIVELOADER_1
5:   FUNC GLOBAL DEFAULT 7 FindNamespaceByClassLoade@@LIBNATIVELOADER_1
6:   FUNC GLOBAL DEFAULT 7 FindNativeLoaderNamespace@@LIBNATIVELOADER_1
7:   FUNC GLOBAL DEFAULT 7 InitializeNativeLoader@@LIBNATIVELOADER_1
8:   FUNC GLOBAL DEFAULT 7 OpenNativeLibrary@@LIBNATIVELOADER_1
9:   FUNC GLOBAL DEFAULT 7 OpenNativeLibraryInNamesp@@LIBNATIVELOADER_1
