 0x000000000000000e (SONAME)             Library soname: [libvibrator.so]
  
Symbol   contains 184 entries:
Num:   Type Bind Vis Ndx Name
0:   NOTYPE LOCAL DEFAULT UND
1:   FUNC GLOBAL DEFAULT UND __cxa_finalize@LIBC (2)
2:   FUNC GLOBAL DEFAULT UND __cxa_atexit@LIBC (2)
3:   FUNC GLOBAL DEFAULT UND _ZN7android10IInterfaceC2
4:   FUNC GLOBAL DEFAULT UND _ZN7android10IInterfaceD0
5:   FUNC GLOBAL DEFAULT UND _ZN7android10IInterfaceD1
6:   FUNC GLOBAL DEFAULT UND _ZN7android10IInterfaceD2
7:   FUNC GLOBAL DEFAULT UND _ZN7android14sp_report_ra
8:   FUNC GLOBAL DEFAULT UND _ZN7android6Parcel19write
9:   FUNC GLOBAL DEFAULT UND _ZN7android6Parcel9writeB
10:   FUNC GLOBAL DEFAULT UND _ZN7android6ParcelC1Ev
11:   FUNC GLOBAL DEFAULT UND _ZN7android6ParcelD1Ev
12:   FUNC GLOBAL DEFAULT UND _ZN7android6binder6Status
13:   FUNC GLOBAL DEFAULT UND _ZN7android6binder6Status
14:   FUNC GLOBAL DEFAULT UND _ZN7android6binder6Status
15:   FUNC GLOBAL DEFAULT UND _ZN7android6binder6Status
16:   FUNC GLOBAL DEFAULT UND _ZN7android7BBinder10onTr
17:   FUNC GLOBAL DEFAULT UND _ZN7android7BBinder10ping
18:   FUNC GLOBAL DEFAULT UND _ZN7android7BBinder11link
19:   FUNC GLOBAL DEFAULT UND _ZN7android7BBinder11loca
20:   FUNC GLOBAL DEFAULT UND _ZN7android7BBinder12atta
21:   FUNC GLOBAL DEFAULT UND _ZN7android7BBinder12deta
22:   FUNC GLOBAL DEFAULT UND _ZN7android7BBinder13unli
23:   FUNC GLOBAL DEFAULT UND _ZN7android7BBinder4dumpE
24:   FUNC GLOBAL DEFAULT UND _ZN7android7BBinder8trans
25:   FUNC GLOBAL DEFAULT UND _ZN7android7BBinderD0Ev
26:   FUNC GLOBAL DEFAULT UND _ZN7android7BBinderD1Ev
27:   FUNC GLOBAL DEFAULT UND _ZN7android7IBinder11loca
28:   FUNC GLOBAL DEFAULT UND _ZN7android7IBinder12remo
29:   FUNC GLOBAL DEFAULT UND _ZN7android7IBinder19quer
30:   FUNC GLOBAL DEFAULT UND _ZN7android7IBinderD0Ev
31:   FUNC GLOBAL DEFAULT UND _ZN7android7IBinderD1Ev
32:   FUNC GLOBAL DEFAULT UND _ZN7android7RefBase10onFi
33:   FUNC GLOBAL DEFAULT UND _ZN7android7RefBase13onLa
34:   FUNC GLOBAL DEFAULT UND _ZN7android7RefBase15onLa
35:   FUNC GLOBAL DEFAULT UND _ZN7android7RefBase20onIn
36:   FUNC GLOBAL DEFAULT UND _ZN7android7RefBaseC2Ev
37:   FUNC GLOBAL DEFAULT UND _ZN7android7RefBaseD2Ev
38:   FUNC GLOBAL DEFAULT UND _ZN7android7String8C1ERKS
39:   FUNC GLOBAL DEFAULT UND _ZN7android7String8C1Ev
40:   FUNC GLOBAL DEFAULT UND _ZN7android7String8D1Ev
41:   FUNC GLOBAL DEFAULT UND _ZN7android8String16C1EPK
42:   FUNC GLOBAL DEFAULT UND _ZN7android8String16D1Ev
43:   FUNC GLOBAL DEFAULT UND _ZN7android9BpRefBase10on
44:   FUNC GLOBAL DEFAULT UND _ZN7android9BpRefBase15on
45:   FUNC GLOBAL DEFAULT UND _ZN7android9BpRefBase20on
46:   FUNC GLOBAL DEFAULT UND _ZN7android9BpRefBaseC2ER
47:   FUNC GLOBAL DEFAULT UND _ZN7android9BpRefBaseD0Ev
48:   FUNC GLOBAL DEFAULT UND _ZN7android9BpRefBaseD1Ev
49:   FUNC GLOBAL DEFAULT UND _ZN7android9BpRefBaseD2Ev
50:   FUNC GLOBAL DEFAULT UND _ZNK7android6Parcel14chec
51:   FUNC GLOBAL DEFAULT UND _ZNK7android6Parcel8readB
52:   FUNC GLOBAL DEFAULT UND _ZNK7android6binder6Statu
53:   FUNC GLOBAL DEFAULT UND _ZNK7android7BBinder10fin
54:   FUNC GLOBAL DEFAULT UND _ZNK7android7BBinder13isB
55:   FUNC GLOBAL DEFAULT UND _ZNK7android7BBinder22get
56:   FUNC GLOBAL DEFAULT UND _ZNK7android7IBinder13che
57:   FUNC GLOBAL DEFAULT UND _ZNK7android7RefBase9decS
58:   FUNC GLOBAL DEFAULT UND _ZNK7android7RefBase9incS
59:   FUNC GLOBAL DEFAULT UND _ZNK7android8String164siz
60:   FUNC GLOBAL DEFAULT UND _ZTv0_n24_N7android10IInt
61:   FUNC GLOBAL DEFAULT UND _ZTv0_n24_N7android10IInt
62:   FUNC GLOBAL DEFAULT UND _ZTv0_n24_N7android7BBind
63:   FUNC GLOBAL DEFAULT UND _ZTv0_n24_N7android7BBind
64:   FUNC GLOBAL DEFAULT UND _ZTv0_n24_N7android7IBind
65:   FUNC GLOBAL DEFAULT UND _ZTv0_n24_N7android7IBind
66:   FUNC GLOBAL DEFAULT UND _ZTv0_n24_N7android9BpRef
67:   FUNC GLOBAL DEFAULT UND _ZTv0_n24_N7android9BpRef
68:   FUNC GLOBAL DEFAULT UND _ZTv0_n32_N7android9BpRef
69:   FUNC GLOBAL DEFAULT UND _ZTv0_n40_N7android9BpRef
70:   FUNC GLOBAL DEFAULT UND _ZTv0_n48_N7android9BpRef
71:   FUNC GLOBAL DEFAULT UND _ZdlPv
72:   FUNC GLOBAL DEFAULT UND _Znwm
73:   FUNC GLOBAL DEFAULT UND __cxa_pure_virtual
74:   FUNC GLOBAL DEFAULT UND __stack_chk_fail@LIBC (2)
75:   FUNC GLOBAL DEFAULT UND strzcmp16
76:   FUNC GLOBAL DEFAULT UND _ZN7android6Parcel10write
77:   FUNC GLOBAL DEFAULT UND _ZN7android6Parcel15write
78:   FUNC GLOBAL DEFAULT UND _ZN7android7BBinderC1Ev
79:   FUNC GLOBAL DEFAULT UND _ZNK7android6Parcel14read
80:   FUNC GLOBAL DEFAULT UND _ZNK7android6Parcel9readI
81:   FUNC GLOBAL DEFAULT UND _ZN7android10IInterface8a
82:   FUNC GLOBAL DEFAULT UND _ZN7android6Parcel13write
83:   FUNC GLOBAL DEFAULT UND _ZN7android6Parcel17write
84:   FUNC GLOBAL DEFAULT UND _ZN7android7String8C1ERKN
85:   FUNC GLOBAL DEFAULT UND _ZNK7android6Parcel12read
86:   FUNC GLOBAL DEFAULT UND _ZNK7android6Parcel16read
87:   FUNC GLOBAL DEFAULT UND _ZNK7android6Parcel9readI
88:   FUNC GLOBAL DEFAULT UND _ZNSt3__112basic_stringIc
89:   FUNC GLOBAL DEFAULT UND _ZNSt3__112basic_stringIc
90:   FUNC GLOBAL DEFAULT UND memcpy@LIBC (2)
91:   OBJECT GLOBAL DEFAULT 18 _ZTCN7android2os35IExtern
92:   OBJECT GLOBAL DEFAULT 18 _ZTVN7android2os35IExtern
93:   FUNC GLOBAL DEFAULT 14 _ZN7android2os24IExternal
94:   OBJECT GLOBAL DEFAULT 18 _ZTCN7android2os25BnExter
95:   OBJECT GLOBAL DEFAULT 18 _ZTCN7android2os25BnExter
96:   OBJECT GLOBAL DEFAULT 18 _ZTCN7android2os25BpExter
97:   FUNC GLOBAL DEFAULT 14 _ZN7android2os28IExternal
98:   OBJECT GLOBAL DEFAULT 18 _ZTCN7android2os24IExtern
99:   OBJECT GLOBAL DEFAULT 18 _ZTVN7android2os25BnExter
100:   FUNC GLOBAL DEFAULT 14 _ZTv0_n24_N7android2os24I
101:   OBJECT GLOBAL DEFAULT 18 _ZTTN7android2os29BnExter
102:   FUNC GLOBAL DEFAULT 14 _ZNK7android2os17External
103:   OBJECT GLOBAL DEFAULT 18 _ZTCN7android2os29BnExter
104:   OBJECT GLOBAL DEFAULT 18 _ZTCN7android2os29BpExter
105:   FUNC GLOBAL DEFAULT 14 _ZN7android2os25BpExterna
106:   FUNC GLOBAL DEFAULT 14 _ZN7android2os31IExternal
107:   FUNC GLOBAL DEFAULT 14 _ZN7android2os17ExternalV
108:   FUNC GLOBAL DEFAULT 14 _ZTv0_n24_N7android2os28I
109:   FUNC GLOBAL DEFAULT 14 _ZN7android2os24IExternal
110:   OBJECT GLOBAL DEFAULT 23 _ZN7android2os24IExternal
111:   OBJECT GLOBAL DEFAULT 18 _ZTCN7android2os25BpExter
112:   OBJECT GLOBAL DEFAULT 18 _ZTCN7android2os31IExtern
113:   FUNC WEAK DEFAULT 14 _ZN7android11BnInterfaceI
114:   OBJECT GLOBAL DEFAULT 18 _ZTCN7android2os29BnExter
115:   OBJECT GLOBAL DEFAULT 18 _ZTTN7android2os28IExtern
116:   OBJECT GLOBAL DEFAULT 18 _ZTCN7android2os31IExtern
117:   FUNC GLOBAL DEFAULT 14 _Z20writeAudioAttributesR
118:   FUNC GLOBAL DEFAULT 14 _ZN7android2os24IExternal
119:   OBJECT GLOBAL DEFAULT 18 _ZTCN7android2os25BnExter
120:   OBJECT GLOBAL DEFAULT 18 _ZTCN7android2os25BnExter
121:   OBJECT GLOBAL DEFAULT 18 _ZTVN7android2os24IExtern
122:   FUNC GLOBAL DEFAULT 14 _Z19readAudioAttributesP1
123:   FUNC GLOBAL DEFAULT 14 _ZN7android2os17ExternalV
124:   FUNC GLOBAL DEFAULT 14 _ZN7android2os28IExternal
125:   FUNC GLOBAL DEFAULT 14 _ZN7android2os29BpExterna
126:   OBJECT GLOBAL DEFAULT 18 _ZTCN7android2os28IExtern
127:   FUNC GLOBAL DEFAULT 14 _ZN7android2os31IExternal
128:   OBJECT GLOBAL DEFAULT 18 _ZTVN7android2os25BpExter
129:   FUNC GLOBAL DEFAULT 14 _ZTv0_n24_N7android2os24I
130:   OBJECT GLOBAL DEFAULT 18 _ZTCN7android2os29BnExter
131:   OBJECT GLOBAL DEFAULT 18 _ZTCN7android2os29BpExter
132:   FUNC GLOBAL DEFAULT 14 _ZN7android2os24IExternal
133:   OBJECT GLOBAL DEFAULT 18 _ZTCN7android2os25BpExter
134:   FUNC GLOBAL DEFAULT 14 _ZThn8_N7android2os25BnEx
135:   FUNC GLOBAL DEFAULT 14 _ZN7android2os29BpExterna
136:   OBJECT GLOBAL DEFAULT 18 _ZTCN7android2os29BnExter
137:   OBJECT GLOBAL DEFAULT 18 _ZTTN7android2os35IExtern
138:   FUNC GLOBAL DEFAULT 14 _ZTv0_n24_N7android2os28I
139:   OBJECT GLOBAL DEFAULT 18 _ZTTN7android2os25BpExter
140:   OBJECT WEAK DEFAULT 18 _ZTVN7android10Parcelable
141:   FUNC GLOBAL DEFAULT 14 _ZN7android2os28IExternal
142:   FUNC GLOBAL DEFAULT 14 _ZN7android2os29BpExterna
143:   FUNC GLOBAL DEFAULT 14 _ZN7android2os25BpExterna
144:   OBJECT GLOBAL DEFAULT 18 _ZTCN7android2os25BnExter
145:   OBJECT GLOBAL DEFAULT 18 _ZTCN7android2os25BpExter
146:   FUNC GLOBAL DEFAULT 14 _ZN7android2os28IExternal
147:   FUNC GLOBAL DEFAULT 14 _ZNK7android2os28IExterna
148:   OBJECT GLOBAL DEFAULT 18 _ZTCN7android2os29BpExter
149:   FUNC GLOBAL DEFAULT 14 _ZN7android2os24IExternal
150:   OBJECT GLOBAL DEFAULT 18 _ZTCN7android2os29BpExter
151:   OBJECT GLOBAL DEFAULT 18 _ZTCN7android2os35IExtern
152:   OBJECT GLOBAL DEFAULT 18 _ZTTN7android2os29BpExter
153:   OBJECT GLOBAL DEFAULT 23 _ZN7android2os28IExternal
154:   FUNC GLOBAL DEFAULT 14 _ZN7android2os28IExternal
155:   FUNC GLOBAL DEFAULT 14 _ZN7android2os28IExternal
156:   FUNC GLOBAL DEFAULT 14 _ZN7android2os35IExternal
157:   OBJECT GLOBAL DEFAULT 23 _ZN7android2os24IExternal
158:   OBJECT GLOBAL DEFAULT 18 _ZTTN7android2os17Externa
159:   OBJECT GLOBAL DEFAULT 18 _ZTTN7android2os25BnExter
160:   OBJECT GLOBAL DEFAULT 23 _ZN7android2os28IExternal
161:   FUNC GLOBAL DEFAULT 14 _ZN7android2os35IExternal
162:   OBJECT GLOBAL DEFAULT 18 _ZTVN7android2os28IExtern
163:   FUNC GLOBAL DEFAULT 14 _ZN7android2os17ExternalV
164:   FUNC GLOBAL DEFAULT 14 _ZN7android2os29BpExterna
165:   FUNC GLOBAL DEFAULT 14 _ZN7android2os35IExternal
166:   OBJECT GLOBAL DEFAULT 18 _ZTCN7android2os29BnExter
167:   OBJECT GLOBAL DEFAULT 18 _ZTVN7android2os29BnExter
168:   FUNC GLOBAL DEFAULT 14 _ZN7android2os24IExternal
169:   FUNC GLOBAL DEFAULT 14 _ZN7android2os25BnExterna
170:   FUNC GLOBAL DEFAULT 14 _ZN7android2os25BpExterna
171:   FUNC GLOBAL DEFAULT 14 _ZN7android2os25BpExterna
172:   FUNC GLOBAL DEFAULT 14 _ZNK7android2os24IExterna
173:   OBJECT GLOBAL DEFAULT 18 _ZTVN7android2os29BpExter
174:   FUNC GLOBAL DEFAULT 14 _ZThn8_N7android2os29BnEx
175:   FUNC GLOBAL DEFAULT 14 _ZN7android2os24IExternal
176:   OBJECT GLOBAL DEFAULT 18 _ZTTN7android2os31IExtern
177:   OBJECT GLOBAL DEFAULT 18 _ZTVN7android2os31IExtern
178:   FUNC GLOBAL DEFAULT 14 _ZN7android2os31IExternal
179:   OBJECT GLOBAL DEFAULT 18 _ZTTN7android2os24IExtern
180:   OBJECT GLOBAL DEFAULT 18 _ZTVN7android2os17Externa
181:   FUNC GLOBAL DEFAULT 14 _ZN7android2os28IExternal
182:   FUNC GLOBAL DEFAULT 14 _ZN7android2os29BnExterna
183:   FUNC WEAK DEFAULT 14 _ZN7android11BnInterfaceI
